﻿name,wid,type,quantity,inputmeasure,tax,subtotal,rgDate,invoiceDate,dueDate,invoiceNumber,inf,lbid,lbdoce,typeSupply
100 GRAMOXONE,Bodega 01 GENERAL AGROQUIMICOS,Ingresos,1,cm,0,100,,,,,,,,Consumables
100 HEATWG,Bodega 01 GENERAL AGROQUIMICOS,Ingresos,1,gr,0,100,,,,,,,,Consumables
102 BOROZINCO*BTO*20,Bodega 01 GENERAL AGROQUIMICOS,Ingresos,1,qty,0,100,,,,,,,,Consumables
102 FERTIRRIEGO INICIO,Bodega 01 GENERAL AGROQUIMICOS,Ingresos,1,gr,0,100,,,,,,,,Consumables
102 MAGKIERITA*BTO*50,Bodega 01 GENERAL AGROQUIMICOS,Ingresos,1,qty,0,100,,,,,,,,Consumables
102 MICROESSENTIALES*BTO*50,Bodega 01 GENERAL AGROQUIMICOS,Ingresos,1,qty,0,100,,,,,,,,Consumables
102 NITROMAG*BTO*50,Bodega 01 GENERAL AGROQUIMICOS,Ingresos,1,qty,0,100,,,,,,,,Consumables
102 SULFATO DE POTACIO*BTO*50,Bodega 01 GENERAL AGROQUIMICOS,Ingresos,1,qty,0,100,,,,,,,,Consumables
102 ZINCOFERTIL*BTO*20,Bodega 01 GENERAL AGROQUIMICOS,Ingresos,1,qty,0,100,,,,,,,,Consumables
103 REBROTE,Bodega 01 GENERAL AGROQUIMICOS,Ingresos,1,gr,0,100,,,,,,,,Consumables
103 WEST COVER,Bodega 01 GENERAL AGROQUIMICOS,Ingresos,1,cm,0,100,,,,,,,,Consumables
104 BROTADOR,Bodega 01 GENERAL AGROQUIMICOS,Ingresos,1,cm,0,100,,,,,,,,Consumables
104 PIÑA ZINC,Bodega 01 GENERAL AGROQUIMICOS,Ingresos,1,gr,0,100,,,,,,,,Consumables
104 SUNNY 5 SC,Bodega 01 GENERAL AGROQUIMICOS,Ingresos,1,cm,0,100,,,,,,,,Consumables
104 TRIPLEHOJA,Bodega 01 GENERAL AGROQUIMICOS,Ingresos,1,cm,0,100,,,,,,,,Consumables
105 CRENTO EQUI CORONA*BTO*50,Bodega 01 GENERAL AGROQUIMICOS,Ingresos,1,qty,0,100,,,,,,,,Consumables
106 TROPIMEZCLA WP,Bodega 01 GENERAL AGROQUIMICOS,Ingresos,1,gr,0,100,,,,,,,,Consumables
107 BELICO,Bodega 01 GENERAL AGROQUIMICOS,Ingresos,1,cm,0,100,,,,,,,,Consumables
107 SEICAN,Bodega 01 GENERAL AGROQUIMICOS,Ingresos,1,cm,0,100,,,,,,,,Consumables
107 TIMOREX,Bodega 01 GENERAL AGROQUIMICOS,Ingresos,1,cm,0,100,,,,,,,,Consumables
107 ZELLUS,Bodega 01 GENERAL AGROQUIMICOS,Ingresos,1,gr,0,100,,,,,,,,Consumables
108 ASTUTO 200SC,Bodega 01 GENERAL AGROQUIMICOS,Ingresos,1,cm,0,100,,,,,,,,Consumables
108 BANACORE,Bodega 01 GENERAL AGROQUIMICOS,Ingresos,1,cm,0,100,,,,,,,,Consumables
108 BARAKA,Bodega 01 GENERAL AGROQUIMICOS,Ingresos,1,cm,0,100,,,,,,,,Consumables
108 CIPEREX,Bodega 01 GENERAL AGROQUIMICOS,Ingresos,1,cm,0,100,,,,,,,,Consumables
108 CLORPIRICOL,Bodega 01 GENERAL AGROQUIMICOS,Ingresos,1,cm,0,100,,,,,,,,Consumables
108 ESIOM,Bodega 01 GENERAL AGROQUIMICOS,Ingresos,1,cm,0,100,,,,,,,,Consumables
108 HELMSTAR,Bodega 01 GENERAL AGROQUIMICOS,Ingresos,1,cm,0,100,,,,,,,,Consumables
108 MITERRA,Bodega 01 GENERAL AGROQUIMICOS,Ingresos,1,cm,0,100,,,,,,,,Consumables
108 PIRECRIS,Bodega 01 GENERAL AGROQUIMICOS,Ingresos,1,cm,0,100,,,,,,,,Consumables
108 RAFAGA,Bodega 01 GENERAL AGROQUIMICOS,Ingresos,1,cm,0,100,,,,,,,,Consumables
108 RAMBLER,Bodega 01 GENERAL AGROQUIMICOS,Ingresos,1,cm,0,100,,,,,,,,Consumables
108 REQUIEM SC,Bodega 01 GENERAL AGROQUIMICOS,Ingresos,1,cm,0,100,,,,,,,,Consumables
109 CHOQUE,Bodega 01 GENERAL AGROQUIMICOS,Ingresos,1,cm,0,100,,,,,,,,Consumables
109 SANTIMEC,Bodega 01 GENERAL AGROQUIMICOS,Ingresos,1,cm,0,100,,,,,,,,Consumables
110 ACIDUREZ,Bodega 01 GENERAL AGROQUIMICOS,Ingresos,1,gr,0,100,,,,,,,,Consumables
110 EFIAGUAS,Bodega 01 GENERAL AGROQUIMICOS,Ingresos,1,cm,0,100,,,,,,,,Consumables
110 ORGREEN,Bodega 01 GENERAL AGROQUIMICOS,Ingresos,1,cm,0,100,,,,,,,,Consumables
110 PEGAL PH,Bodega 01 GENERAL AGROQUIMICOS,Ingresos,1,cm,0,100,,,,,,,,Consumables
110 REDUX,Bodega 01 GENERAL AGROQUIMICOS,Ingresos,1,cm,0,100,,,,,,,,Consumables
110 SPRAYFLX,Bodega 01 GENERAL AGROQUIMICOS,Ingresos,1,cm,0,100,,,,,,,,Consumables
114 COLINO LA ESMERALDA,Bodega 01 GENERAL AGROQUIMICOS,Ingresos,1,qty,0,100,,,,,,,,Consumables
114 COLINO LAURENTINA,Bodega 01 GENERAL AGROQUIMICOS,Ingresos,1,qty,0,100,,,,,,,,Consumables
100 GRAMOXONE,Bodega 02 GENERAL FERTILIZANTES,Ingresos,1,cm,0,100,,,,,,,,Consumables
100 HEATWG,Bodega 02 GENERAL FERTILIZANTES,Ingresos,1,gr,0,100,,,,,,,,Consumables
102 BOROZINCO*BTO*20,Bodega 02 GENERAL FERTILIZANTES,Ingresos,1,qty,0,100,,,,,,,,Consumables
102 FERTIRRIEGO INICIO,Bodega 02 GENERAL FERTILIZANTES,Ingresos,1,gr,0,100,,,,,,,,Consumables
102 MAGKIERITA*BTO*50,Bodega 02 GENERAL FERTILIZANTES,Ingresos,1,qty,0,100,,,,,,,,Consumables
102 MICROESSENTIALES*BTO*50,Bodega 02 GENERAL FERTILIZANTES,Ingresos,1,qty,0,100,,,,,,,,Consumables
102 NITROMAG*BTO*50,Bodega 02 GENERAL FERTILIZANTES,Ingresos,1,qty,0,100,,,,,,,,Consumables
102 SULFATO DE POTACIO*BTO*50,Bodega 02 GENERAL FERTILIZANTES,Ingresos,1,qty,0,100,,,,,,,,Consumables
102 ZINCOFERTIL*BTO*20,Bodega 02 GENERAL FERTILIZANTES,Ingresos,1,qty,0,100,,,,,,,,Consumables
103 REBROTE,Bodega 02 GENERAL FERTILIZANTES,Ingresos,1,gr,0,100,,,,,,,,Consumables
103 WEST COVER,Bodega 02 GENERAL FERTILIZANTES,Ingresos,1,cm,0,100,,,,,,,,Consumables
104 BROTADOR,Bodega 02 GENERAL FERTILIZANTES,Ingresos,1,cm,0,100,,,,,,,,Consumables
104 PIÑA ZINC,Bodega 02 GENERAL FERTILIZANTES,Ingresos,1,gr,0,100,,,,,,,,Consumables
104 SUNNY 5 SC,Bodega 02 GENERAL FERTILIZANTES,Ingresos,1,cm,0,100,,,,,,,,Consumables
104 TRIPLEHOJA,Bodega 02 GENERAL FERTILIZANTES,Ingresos,1,cm,0,100,,,,,,,,Consumables
105 CRENTO EQUI CORONA*BTO*50,Bodega 02 GENERAL FERTILIZANTES,Ingresos,1,qty,0,100,,,,,,,,Consumables
106 TROPIMEZCLA WP,Bodega 02 GENERAL FERTILIZANTES,Ingresos,1,gr,0,100,,,,,,,,Consumables
107 BELICO,Bodega 02 GENERAL FERTILIZANTES,Ingresos,1,cm,0,100,,,,,,,,Consumables
107 SEICAN,Bodega 02 GENERAL FERTILIZANTES,Ingresos,1,cm,0,100,,,,,,,,Consumables
107 TIMOREX,Bodega 02 GENERAL FERTILIZANTES,Ingresos,1,cm,0,100,,,,,,,,Consumables
107 ZELLUS,Bodega 02 GENERAL FERTILIZANTES,Ingresos,1,gr,0,100,,,,,,,,Consumables
108 ASTUTO 200SC,Bodega 02 GENERAL FERTILIZANTES,Ingresos,1,cm,0,100,,,,,,,,Consumables
108 BANACORE,Bodega 02 GENERAL FERTILIZANTES,Ingresos,1,cm,0,100,,,,,,,,Consumables
108 BARAKA,Bodega 02 GENERAL FERTILIZANTES,Ingresos,1,cm,0,100,,,,,,,,Consumables
108 CIPEREX,Bodega 02 GENERAL FERTILIZANTES,Ingresos,1,cm,0,100,,,,,,,,Consumables
108 CLORPIRICOL,Bodega 02 GENERAL FERTILIZANTES,Ingresos,1,cm,0,100,,,,,,,,Consumables
108 ESIOM,Bodega 02 GENERAL FERTILIZANTES,Ingresos,1,cm,0,100,,,,,,,,Consumables
108 HELMSTAR,Bodega 02 GENERAL FERTILIZANTES,Ingresos,1,cm,0,100,,,,,,,,Consumables
108 MITERRA,Bodega 02 GENERAL FERTILIZANTES,Ingresos,1,cm,0,100,,,,,,,,Consumables
108 PIRECRIS,Bodega 02 GENERAL FERTILIZANTES,Ingresos,1,cm,0,100,,,,,,,,Consumables
108 RAFAGA,Bodega 02 GENERAL FERTILIZANTES,Ingresos,1,cm,0,100,,,,,,,,Consumables
108 RAMBLER,Bodega 02 GENERAL FERTILIZANTES,Ingresos,1,cm,0,100,,,,,,,,Consumables
108 REQUIEM SC,Bodega 02 GENERAL FERTILIZANTES,Ingresos,1,cm,0,100,,,,,,,,Consumables
109 CHOQUE,Bodega 02 GENERAL FERTILIZANTES,Ingresos,1,cm,0,100,,,,,,,,Consumables
109 SANTIMEC,Bodega 02 GENERAL FERTILIZANTES,Ingresos,1,cm,0,100,,,,,,,,Consumables
110 ACIDUREZ,Bodega 02 GENERAL FERTILIZANTES,Ingresos,1,gr,0,100,,,,,,,,Consumables
110 EFIAGUAS,Bodega 02 GENERAL FERTILIZANTES,Ingresos,1,cm,0,100,,,,,,,,Consumables
110 ORGREEN,Bodega 02 GENERAL FERTILIZANTES,Ingresos,1,cm,0,100,,,,,,,,Consumables
110 PEGAL PH,Bodega 02 GENERAL FERTILIZANTES,Ingresos,1,cm,0,100,,,,,,,,Consumables
110 REDUX,Bodega 02 GENERAL FERTILIZANTES,Ingresos,1,cm,0,100,,,,,,,,Consumables
110 SPRAYFLX,Bodega 02 GENERAL FERTILIZANTES,Ingresos,1,cm,0,100,,,,,,,,Consumables
114 COLINO LA ESMERALDA,Bodega 02 GENERAL FERTILIZANTES,Ingresos,1,qty,0,100,,,,,,,,Consumables
114 COLINO LAURENTINA,Bodega 02 GENERAL FERTILIZANTES,Ingresos,1,qty,0,100,,,,,,,,Consumables
100 GRAMOXONE,Bodega 03 GENERAL HERRAMIENTAS E INFRAESTRUCTURA,Ingresos,1,cm,0,100,,,,,,,,Consumables
100 HEATWG,Bodega 03 GENERAL HERRAMIENTAS E INFRAESTRUCTURA,Ingresos,1,gr,0,100,,,,,,,,Consumables
102 BOROZINCO*BTO*20,Bodega 03 GENERAL HERRAMIENTAS E INFRAESTRUCTURA,Ingresos,1,qty,0,100,,,,,,,,Consumables
102 FERTIRRIEGO INICIO,Bodega 03 GENERAL HERRAMIENTAS E INFRAESTRUCTURA,Ingresos,1,gr,0,100,,,,,,,,Consumables
102 MAGKIERITA*BTO*50,Bodega 03 GENERAL HERRAMIENTAS E INFRAESTRUCTURA,Ingresos,1,qty,0,100,,,,,,,,Consumables
102 MICROESSENTIALES*BTO*50,Bodega 03 GENERAL HERRAMIENTAS E INFRAESTRUCTURA,Ingresos,1,qty,0,100,,,,,,,,Consumables
102 NITROMAG*BTO*50,Bodega 03 GENERAL HERRAMIENTAS E INFRAESTRUCTURA,Ingresos,1,qty,0,100,,,,,,,,Consumables
102 SULFATO DE POTACIO*BTO*50,Bodega 03 GENERAL HERRAMIENTAS E INFRAESTRUCTURA,Ingresos,1,qty,0,100,,,,,,,,Consumables
102 ZINCOFERTIL*BTO*20,Bodega 03 GENERAL HERRAMIENTAS E INFRAESTRUCTURA,Ingresos,1,qty,0,100,,,,,,,,Consumables
103 REBROTE,Bodega 03 GENERAL HERRAMIENTAS E INFRAESTRUCTURA,Ingresos,1,gr,0,100,,,,,,,,Consumables
103 WEST COVER,Bodega 03 GENERAL HERRAMIENTAS E INFRAESTRUCTURA,Ingresos,1,cm,0,100,,,,,,,,Consumables
104 BROTADOR,Bodega 03 GENERAL HERRAMIENTAS E INFRAESTRUCTURA,Ingresos,1,cm,0,100,,,,,,,,Consumables
104 PIÑA ZINC,Bodega 03 GENERAL HERRAMIENTAS E INFRAESTRUCTURA,Ingresos,1,gr,0,100,,,,,,,,Consumables
104 SUNNY 5 SC,Bodega 03 GENERAL HERRAMIENTAS E INFRAESTRUCTURA,Ingresos,1,cm,0,100,,,,,,,,Consumables
104 TRIPLEHOJA,Bodega 03 GENERAL HERRAMIENTAS E INFRAESTRUCTURA,Ingresos,1,cm,0,100,,,,,,,,Consumables
105 CRENTO EQUI CORONA*BTO*50,Bodega 03 GENERAL HERRAMIENTAS E INFRAESTRUCTURA,Ingresos,1,qty,0,100,,,,,,,,Consumables
106 TROPIMEZCLA WP,Bodega 03 GENERAL HERRAMIENTAS E INFRAESTRUCTURA,Ingresos,1,gr,0,100,,,,,,,,Consumables
107 BELICO,Bodega 03 GENERAL HERRAMIENTAS E INFRAESTRUCTURA,Ingresos,1,cm,0,100,,,,,,,,Consumables
107 SEICAN,Bodega 03 GENERAL HERRAMIENTAS E INFRAESTRUCTURA,Ingresos,1,cm,0,100,,,,,,,,Consumables
107 TIMOREX,Bodega 03 GENERAL HERRAMIENTAS E INFRAESTRUCTURA,Ingresos,1,cm,0,100,,,,,,,,Consumables
107 ZELLUS,Bodega 03 GENERAL HERRAMIENTAS E INFRAESTRUCTURA,Ingresos,1,gr,0,100,,,,,,,,Consumables
108 ASTUTO 200SC,Bodega 03 GENERAL HERRAMIENTAS E INFRAESTRUCTURA,Ingresos,1,cm,0,100,,,,,,,,Consumables
108 BANACORE,Bodega 03 GENERAL HERRAMIENTAS E INFRAESTRUCTURA,Ingresos,1,cm,0,100,,,,,,,,Consumables
108 BARAKA,Bodega 03 GENERAL HERRAMIENTAS E INFRAESTRUCTURA,Ingresos,1,cm,0,100,,,,,,,,Consumables
108 CIPEREX,Bodega 03 GENERAL HERRAMIENTAS E INFRAESTRUCTURA,Ingresos,1,cm,0,100,,,,,,,,Consumables
108 CLORPIRICOL,Bodega 03 GENERAL HERRAMIENTAS E INFRAESTRUCTURA,Ingresos,1,cm,0,100,,,,,,,,Consumables
108 ESIOM,Bodega 03 GENERAL HERRAMIENTAS E INFRAESTRUCTURA,Ingresos,1,cm,0,100,,,,,,,,Consumables
108 HELMSTAR,Bodega 03 GENERAL HERRAMIENTAS E INFRAESTRUCTURA,Ingresos,1,cm,0,100,,,,,,,,Consumables
108 MITERRA,Bodega 03 GENERAL HERRAMIENTAS E INFRAESTRUCTURA,Ingresos,1,cm,0,100,,,,,,,,Consumables
108 PIRECRIS,Bodega 03 GENERAL HERRAMIENTAS E INFRAESTRUCTURA,Ingresos,1,cm,0,100,,,,,,,,Consumables
108 RAFAGA,Bodega 03 GENERAL HERRAMIENTAS E INFRAESTRUCTURA,Ingresos,1,cm,0,100,,,,,,,,Consumables
108 RAMBLER,Bodega 03 GENERAL HERRAMIENTAS E INFRAESTRUCTURA,Ingresos,1,cm,0,100,,,,,,,,Consumables
108 REQUIEM SC,Bodega 03 GENERAL HERRAMIENTAS E INFRAESTRUCTURA,Ingresos,1,cm,0,100,,,,,,,,Consumables
109 CHOQUE,Bodega 03 GENERAL HERRAMIENTAS E INFRAESTRUCTURA,Ingresos,1,cm,0,100,,,,,,,,Consumables
109 SANTIMEC,Bodega 03 GENERAL HERRAMIENTAS E INFRAESTRUCTURA,Ingresos,1,cm,0,100,,,,,,,,Consumables
110 ACIDUREZ,Bodega 03 GENERAL HERRAMIENTAS E INFRAESTRUCTURA,Ingresos,1,gr,0,100,,,,,,,,Consumables
110 EFIAGUAS,Bodega 03 GENERAL HERRAMIENTAS E INFRAESTRUCTURA,Ingresos,1,cm,0,100,,,,,,,,Consumables
110 ORGREEN,Bodega 03 GENERAL HERRAMIENTAS E INFRAESTRUCTURA,Ingresos,1,cm,0,100,,,,,,,,Consumables
110 PEGAL PH,Bodega 03 GENERAL HERRAMIENTAS E INFRAESTRUCTURA,Ingresos,1,cm,0,100,,,,,,,,Consumables
110 REDUX,Bodega 03 GENERAL HERRAMIENTAS E INFRAESTRUCTURA,Ingresos,1,cm,0,100,,,,,,,,Consumables
110 SPRAYFLX,Bodega 03 GENERAL HERRAMIENTAS E INFRAESTRUCTURA,Ingresos,1,cm,0,100,,,,,,,,Consumables
114 COLINO LA ESMERALDA,Bodega 03 GENERAL HERRAMIENTAS E INFRAESTRUCTURA,Ingresos,1,qty,0,100,,,,,,,,Consumables
114 COLINO LAURENTINA,Bodega 03 GENERAL HERRAMIENTAS E INFRAESTRUCTURA,Ingresos,1,qty,0,100,,,,,,,,Consumables
100 GRAMOXONE,Bodega 04 GENERAL EPP Y ASEO,Ingresos,1,cm,0,100,,,,,,,,Consumables
100 HEATWG,Bodega 04 GENERAL EPP Y ASEO,Ingresos,1,gr,0,100,,,,,,,,Consumables
102 BOROZINCO*BTO*20,Bodega 04 GENERAL EPP Y ASEO,Ingresos,1,qty,0,100,,,,,,,,Consumables
102 FERTIRRIEGO INICIO,Bodega 04 GENERAL EPP Y ASEO,Ingresos,1,gr,0,100,,,,,,,,Consumables
102 MAGKIERITA*BTO*50,Bodega 04 GENERAL EPP Y ASEO,Ingresos,1,qty,0,100,,,,,,,,Consumables
102 MICROESSENTIALES*BTO*50,Bodega 04 GENERAL EPP Y ASEO,Ingresos,1,qty,0,100,,,,,,,,Consumables
102 NITROMAG*BTO*50,Bodega 04 GENERAL EPP Y ASEO,Ingresos,1,qty,0,100,,,,,,,,Consumables
102 SULFATO DE POTACIO*BTO*50,Bodega 04 GENERAL EPP Y ASEO,Ingresos,1,qty,0,100,,,,,,,,Consumables
102 ZINCOFERTIL*BTO*20,Bodega 04 GENERAL EPP Y ASEO,Ingresos,1,qty,0,100,,,,,,,,Consumables
103 REBROTE,Bodega 04 GENERAL EPP Y ASEO,Ingresos,1,gr,0,100,,,,,,,,Consumables
103 WEST COVER,Bodega 04 GENERAL EPP Y ASEO,Ingresos,1,cm,0,100,,,,,,,,Consumables
104 BROTADOR,Bodega 04 GENERAL EPP Y ASEO,Ingresos,1,cm,0,100,,,,,,,,Consumables
104 PIÑA ZINC,Bodega 04 GENERAL EPP Y ASEO,Ingresos,1,gr,0,100,,,,,,,,Consumables
104 SUNNY 5 SC,Bodega 04 GENERAL EPP Y ASEO,Ingresos,1,cm,0,100,,,,,,,,Consumables
104 TRIPLEHOJA,Bodega 04 GENERAL EPP Y ASEO,Ingresos,1,cm,0,100,,,,,,,,Consumables
105 CRENTO EQUI CORONA*BTO*50,Bodega 04 GENERAL EPP Y ASEO,Ingresos,1,qty,0,100,,,,,,,,Consumables
106 TROPIMEZCLA WP,Bodega 04 GENERAL EPP Y ASEO,Ingresos,1,gr,0,100,,,,,,,,Consumables
107 BELICO,Bodega 04 GENERAL EPP Y ASEO,Ingresos,1,cm,0,100,,,,,,,,Consumables
107 SEICAN,Bodega 04 GENERAL EPP Y ASEO,Ingresos,1,cm,0,100,,,,,,,,Consumables
107 TIMOREX,Bodega 04 GENERAL EPP Y ASEO,Ingresos,1,cm,0,100,,,,,,,,Consumables
107 ZELLUS,Bodega 04 GENERAL EPP Y ASEO,Ingresos,1,gr,0,100,,,,,,,,Consumables
108 ASTUTO 200SC,Bodega 04 GENERAL EPP Y ASEO,Ingresos,1,cm,0,100,,,,,,,,Consumables
108 BANACORE,Bodega 04 GENERAL EPP Y ASEO,Ingresos,1,cm,0,100,,,,,,,,Consumables
108 BARAKA,Bodega 04 GENERAL EPP Y ASEO,Ingresos,1,cm,0,100,,,,,,,,Consumables
108 CIPEREX,Bodega 04 GENERAL EPP Y ASEO,Ingresos,1,cm,0,100,,,,,,,,Consumables
108 CLORPIRICOL,Bodega 04 GENERAL EPP Y ASEO,Ingresos,1,cm,0,100,,,,,,,,Consumables
108 ESIOM,Bodega 04 GENERAL EPP Y ASEO,Ingresos,1,cm,0,100,,,,,,,,Consumables
108 HELMSTAR,Bodega 04 GENERAL EPP Y ASEO,Ingresos,1,cm,0,100,,,,,,,,Consumables
108 MITERRA,Bodega 04 GENERAL EPP Y ASEO,Ingresos,1,cm,0,100,,,,,,,,Consumables
108 PIRECRIS,Bodega 04 GENERAL EPP Y ASEO,Ingresos,1,cm,0,100,,,,,,,,Consumables
108 RAFAGA,Bodega 04 GENERAL EPP Y ASEO,Ingresos,1,cm,0,100,,,,,,,,Consumables
108 RAMBLER,Bodega 04 GENERAL EPP Y ASEO,Ingresos,1,cm,0,100,,,,,,,,Consumables
108 REQUIEM SC,Bodega 04 GENERAL EPP Y ASEO,Ingresos,1,cm,0,100,,,,,,,,Consumables
109 CHOQUE,Bodega 04 GENERAL EPP Y ASEO,Ingresos,1,cm,0,100,,,,,,,,Consumables
109 SANTIMEC,Bodega 04 GENERAL EPP Y ASEO,Ingresos,1,cm,0,100,,,,,,,,Consumables
110 ACIDUREZ,Bodega 04 GENERAL EPP Y ASEO,Ingresos,1,gr,0,100,,,,,,,,Consumables
110 EFIAGUAS,Bodega 04 GENERAL EPP Y ASEO,Ingresos,1,cm,0,100,,,,,,,,Consumables
110 ORGREEN,Bodega 04 GENERAL EPP Y ASEO,Ingresos,1,cm,0,100,,,,,,,,Consumables
110 PEGAL PH,Bodega 04 GENERAL EPP Y ASEO,Ingresos,1,cm,0,100,,,,,,,,Consumables
110 REDUX,Bodega 04 GENERAL EPP Y ASEO,Ingresos,1,cm,0,100,,,,,,,,Consumables
110 SPRAYFLX,Bodega 04 GENERAL EPP Y ASEO,Ingresos,1,cm,0,100,,,,,,,,Consumables
114 COLINO LA ESMERALDA,Bodega 04 GENERAL EPP Y ASEO,Ingresos,1,qty,0,100,,,,,,,,Consumables
114 COLINO LAURENTINA,Bodega 04 GENERAL EPP Y ASEO,Ingresos,1,qty,0,100,,,,,,,,Consumables
100 GRAMOXONE,Bodega 05 EL YARUMO,Ingresos,1,cm,0,100,,,,,,,,Consumables
100 HEATWG,Bodega 05 EL YARUMO,Ingresos,1,gr,0,100,,,,,,,,Consumables
102 BOROZINCO*BTO*20,Bodega 05 EL YARUMO,Ingresos,1,qty,0,100,,,,,,,,Consumables
102 FERTIRRIEGO INICIO,Bodega 05 EL YARUMO,Ingresos,1,gr,0,100,,,,,,,,Consumables
102 MAGKIERITA*BTO*50,Bodega 05 EL YARUMO,Ingresos,1,qty,0,100,,,,,,,,Consumables
102 MICROESSENTIALES*BTO*50,Bodega 05 EL YARUMO,Ingresos,1,qty,0,100,,,,,,,,Consumables
102 NITROMAG*BTO*50,Bodega 05 EL YARUMO,Ingresos,1,qty,0,100,,,,,,,,Consumables
102 SULFATO DE POTACIO*BTO*50,Bodega 05 EL YARUMO,Ingresos,1,qty,0,100,,,,,,,,Consumables
102 ZINCOFERTIL*BTO*20,Bodega 05 EL YARUMO,Ingresos,1,qty,0,100,,,,,,,,Consumables
103 REBROTE,Bodega 05 EL YARUMO,Ingresos,1,gr,0,100,,,,,,,,Consumables
103 WEST COVER,Bodega 05 EL YARUMO,Ingresos,1,cm,0,100,,,,,,,,Consumables
104 BROTADOR,Bodega 05 EL YARUMO,Ingresos,1,cm,0,100,,,,,,,,Consumables
104 PIÑA ZINC,Bodega 05 EL YARUMO,Ingresos,1,gr,0,100,,,,,,,,Consumables
104 SUNNY 5 SC,Bodega 05 EL YARUMO,Ingresos,1,cm,0,100,,,,,,,,Consumables
104 TRIPLEHOJA,Bodega 05 EL YARUMO,Ingresos,1,cm,0,100,,,,,,,,Consumables
105 CRENTO EQUI CORONA*BTO*50,Bodega 05 EL YARUMO,Ingresos,1,qty,0,100,,,,,,,,Consumables
106 TROPIMEZCLA WP,Bodega 05 EL YARUMO,Ingresos,1,gr,0,100,,,,,,,,Consumables
107 BELICO,Bodega 05 EL YARUMO,Ingresos,1,cm,0,100,,,,,,,,Consumables
107 SEICAN,Bodega 05 EL YARUMO,Ingresos,1,cm,0,100,,,,,,,,Consumables
107 TIMOREX,Bodega 05 EL YARUMO,Ingresos,1,cm,0,100,,,,,,,,Consumables
107 ZELLUS,Bodega 05 EL YARUMO,Ingresos,1,gr,0,100,,,,,,,,Consumables
108 ASTUTO 200SC,Bodega 05 EL YARUMO,Ingresos,1,cm,0,100,,,,,,,,Consumables
108 BANACORE,Bodega 05 EL YARUMO,Ingresos,1,cm,0,100,,,,,,,,Consumables
108 BARAKA,Bodega 05 EL YARUMO,Ingresos,1,cm,0,100,,,,,,,,Consumables
108 CIPEREX,Bodega 05 EL YARUMO,Ingresos,1,cm,0,100,,,,,,,,Consumables
108 CLORPIRICOL,Bodega 05 EL YARUMO,Ingresos,1,cm,0,100,,,,,,,,Consumables
108 ESIOM,Bodega 05 EL YARUMO,Ingresos,1,cm,0,100,,,,,,,,Consumables
108 HELMSTAR,Bodega 05 EL YARUMO,Ingresos,1,cm,0,100,,,,,,,,Consumables
108 MITERRA,Bodega 05 EL YARUMO,Ingresos,1,cm,0,100,,,,,,,,Consumables
108 PIRECRIS,Bodega 05 EL YARUMO,Ingresos,1,cm,0,100,,,,,,,,Consumables
108 RAFAGA,Bodega 05 EL YARUMO,Ingresos,1,cm,0,100,,,,,,,,Consumables
108 RAMBLER,Bodega 05 EL YARUMO,Ingresos,1,cm,0,100,,,,,,,,Consumables
108 REQUIEM SC,Bodega 05 EL YARUMO,Ingresos,1,cm,0,100,,,,,,,,Consumables
109 CHOQUE,Bodega 05 EL YARUMO,Ingresos,1,cm,0,100,,,,,,,,Consumables
109 SANTIMEC,Bodega 05 EL YARUMO,Ingresos,1,cm,0,100,,,,,,,,Consumables
110 ACIDUREZ,Bodega 05 EL YARUMO,Ingresos,1,gr,0,100,,,,,,,,Consumables
110 EFIAGUAS,Bodega 05 EL YARUMO,Ingresos,1,cm,0,100,,,,,,,,Consumables
110 ORGREEN,Bodega 05 EL YARUMO,Ingresos,1,cm,0,100,,,,,,,,Consumables
110 PEGAL PH,Bodega 05 EL YARUMO,Ingresos,1,cm,0,100,,,,,,,,Consumables
110 REDUX,Bodega 05 EL YARUMO,Ingresos,1,cm,0,100,,,,,,,,Consumables
110 SPRAYFLX,Bodega 05 EL YARUMO,Ingresos,1,cm,0,100,,,,,,,,Consumables
114 COLINO LA ESMERALDA,Bodega 05 EL YARUMO,Ingresos,1,qty,0,100,,,,,,,,Consumables
114 COLINO LAURENTINA,Bodega 05 EL YARUMO,Ingresos,1,qty,0,100,,,,,,,,Consumables
100 GRAMOXONE,Bodega 06 LA SIERRA,Ingresos,1,cm,0,100,,,,,,,,Consumables
100 HEATWG,Bodega 06 LA SIERRA,Ingresos,1,gr,0,100,,,,,,,,Consumables
102 BOROZINCO*BTO*20,Bodega 06 LA SIERRA,Ingresos,1,qty,0,100,,,,,,,,Consumables
102 FERTIRRIEGO INICIO,Bodega 06 LA SIERRA,Ingresos,1,gr,0,100,,,,,,,,Consumables
102 MAGKIERITA*BTO*50,Bodega 06 LA SIERRA,Ingresos,1,qty,0,100,,,,,,,,Consumables
102 MICROESSENTIALES*BTO*50,Bodega 06 LA SIERRA,Ingresos,1,qty,0,100,,,,,,,,Consumables
102 NITROMAG*BTO*50,Bodega 06 LA SIERRA,Ingresos,1,qty,0,100,,,,,,,,Consumables
102 SULFATO DE POTACIO*BTO*50,Bodega 06 LA SIERRA,Ingresos,1,qty,0,100,,,,,,,,Consumables
102 ZINCOFERTIL*BTO*20,Bodega 06 LA SIERRA,Ingresos,1,qty,0,100,,,,,,,,Consumables
103 REBROTE,Bodega 06 LA SIERRA,Ingresos,1,gr,0,100,,,,,,,,Consumables
103 WEST COVER,Bodega 06 LA SIERRA,Ingresos,1,cm,0,100,,,,,,,,Consumables
104 BROTADOR,Bodega 06 LA SIERRA,Ingresos,1,cm,0,100,,,,,,,,Consumables
104 PIÑA ZINC,Bodega 06 LA SIERRA,Ingresos,1,gr,0,100,,,,,,,,Consumables
104 SUNNY 5 SC,Bodega 06 LA SIERRA,Ingresos,1,cm,0,100,,,,,,,,Consumables
104 TRIPLEHOJA,Bodega 06 LA SIERRA,Ingresos,1,cm,0,100,,,,,,,,Consumables
105 CRENTO EQUI CORONA*BTO*50,Bodega 06 LA SIERRA,Ingresos,1,qty,0,100,,,,,,,,Consumables
106 TROPIMEZCLA WP,Bodega 06 LA SIERRA,Ingresos,1,gr,0,100,,,,,,,,Consumables
107 BELICO,Bodega 06 LA SIERRA,Ingresos,1,cm,0,100,,,,,,,,Consumables
107 SEICAN,Bodega 06 LA SIERRA,Ingresos,1,cm,0,100,,,,,,,,Consumables
107 TIMOREX,Bodega 06 LA SIERRA,Ingresos,1,cm,0,100,,,,,,,,Consumables
107 ZELLUS,Bodega 06 LA SIERRA,Ingresos,1,gr,0,100,,,,,,,,Consumables
108 ASTUTO 200SC,Bodega 06 LA SIERRA,Ingresos,1,cm,0,100,,,,,,,,Consumables
108 BANACORE,Bodega 06 LA SIERRA,Ingresos,1,cm,0,100,,,,,,,,Consumables
108 BARAKA,Bodega 06 LA SIERRA,Ingresos,1,cm,0,100,,,,,,,,Consumables
108 CIPEREX,Bodega 06 LA SIERRA,Ingresos,1,cm,0,100,,,,,,,,Consumables
108 CLORPIRICOL,Bodega 06 LA SIERRA,Ingresos,1,cm,0,100,,,,,,,,Consumables
108 ESIOM,Bodega 06 LA SIERRA,Ingresos,1,cm,0,100,,,,,,,,Consumables
108 HELMSTAR,Bodega 06 LA SIERRA,Ingresos,1,cm,0,100,,,,,,,,Consumables
108 MITERRA,Bodega 06 LA SIERRA,Ingresos,1,cm,0,100,,,,,,,,Consumables
108 PIRECRIS,Bodega 06 LA SIERRA,Ingresos,1,cm,0,100,,,,,,,,Consumables
108 RAFAGA,Bodega 06 LA SIERRA,Ingresos,1,cm,0,100,,,,,,,,Consumables
108 RAMBLER,Bodega 06 LA SIERRA,Ingresos,1,cm,0,100,,,,,,,,Consumables
108 REQUIEM SC,Bodega 06 LA SIERRA,Ingresos,1,cm,0,100,,,,,,,,Consumables
109 CHOQUE,Bodega 06 LA SIERRA,Ingresos,1,cm,0,100,,,,,,,,Consumables
109 SANTIMEC,Bodega 06 LA SIERRA,Ingresos,1,cm,0,100,,,,,,,,Consumables
110 ACIDUREZ,Bodega 06 LA SIERRA,Ingresos,1,gr,0,100,,,,,,,,Consumables
110 EFIAGUAS,Bodega 06 LA SIERRA,Ingresos,1,cm,0,100,,,,,,,,Consumables
110 ORGREEN,Bodega 06 LA SIERRA,Ingresos,1,cm,0,100,,,,,,,,Consumables
110 PEGAL PH,Bodega 06 LA SIERRA,Ingresos,1,cm,0,100,,,,,,,,Consumables
110 REDUX,Bodega 06 LA SIERRA,Ingresos,1,cm,0,100,,,,,,,,Consumables
110 SPRAYFLX,Bodega 06 LA SIERRA,Ingresos,1,cm,0,100,,,,,,,,Consumables
114 COLINO LA ESMERALDA,Bodega 06 LA SIERRA,Ingresos,1,qty,0,100,,,,,,,,Consumables
114 COLINO LAURENTINA,Bodega 06 LA SIERRA,Ingresos,1,qty,0,100,,,,,,,,Consumables
100 GRAMOXONE,Bodega 07 EL LIMON,Ingresos,1,cm,0,100,,,,,,,,Consumables
100 HEATWG,Bodega 07 EL LIMON,Ingresos,1,gr,0,100,,,,,,,,Consumables
102 BOROZINCO*BTO*20,Bodega 07 EL LIMON,Ingresos,1,qty,0,100,,,,,,,,Consumables
102 FERTIRRIEGO INICIO,Bodega 07 EL LIMON,Ingresos,1,gr,0,100,,,,,,,,Consumables
102 MAGKIERITA*BTO*50,Bodega 07 EL LIMON,Ingresos,1,qty,0,100,,,,,,,,Consumables
102 MICROESSENTIALES*BTO*50,Bodega 07 EL LIMON,Ingresos,1,qty,0,100,,,,,,,,Consumables
102 NITROMAG*BTO*50,Bodega 07 EL LIMON,Ingresos,1,qty,0,100,,,,,,,,Consumables
102 SULFATO DE POTACIO*BTO*50,Bodega 07 EL LIMON,Ingresos,1,qty,0,100,,,,,,,,Consumables
102 ZINCOFERTIL*BTO*20,Bodega 07 EL LIMON,Ingresos,1,qty,0,100,,,,,,,,Consumables
103 REBROTE,Bodega 07 EL LIMON,Ingresos,1,gr,0,100,,,,,,,,Consumables
103 WEST COVER,Bodega 07 EL LIMON,Ingresos,1,cm,0,100,,,,,,,,Consumables
104 BROTADOR,Bodega 07 EL LIMON,Ingresos,1,cm,0,100,,,,,,,,Consumables
104 PIÑA ZINC,Bodega 07 EL LIMON,Ingresos,1,gr,0,100,,,,,,,,Consumables
104 SUNNY 5 SC,Bodega 07 EL LIMON,Ingresos,1,cm,0,100,,,,,,,,Consumables
104 TRIPLEHOJA,Bodega 07 EL LIMON,Ingresos,1,cm,0,100,,,,,,,,Consumables
105 CRENTO EQUI CORONA*BTO*50,Bodega 07 EL LIMON,Ingresos,1,qty,0,100,,,,,,,,Consumables
106 TROPIMEZCLA WP,Bodega 07 EL LIMON,Ingresos,1,gr,0,100,,,,,,,,Consumables
107 BELICO,Bodega 07 EL LIMON,Ingresos,1,cm,0,100,,,,,,,,Consumables
107 SEICAN,Bodega 07 EL LIMON,Ingresos,1,cm,0,100,,,,,,,,Consumables
107 TIMOREX,Bodega 07 EL LIMON,Ingresos,1,cm,0,100,,,,,,,,Consumables
107 ZELLUS,Bodega 07 EL LIMON,Ingresos,1,gr,0,100,,,,,,,,Consumables
108 ASTUTO 200SC,Bodega 07 EL LIMON,Ingresos,1,cm,0,100,,,,,,,,Consumables
108 BANACORE,Bodega 07 EL LIMON,Ingresos,1,cm,0,100,,,,,,,,Consumables
108 BARAKA,Bodega 07 EL LIMON,Ingresos,1,cm,0,100,,,,,,,,Consumables
108 CIPEREX,Bodega 07 EL LIMON,Ingresos,1,cm,0,100,,,,,,,,Consumables
108 CLORPIRICOL,Bodega 07 EL LIMON,Ingresos,1,cm,0,100,,,,,,,,Consumables
108 ESIOM,Bodega 07 EL LIMON,Ingresos,1,cm,0,100,,,,,,,,Consumables
108 HELMSTAR,Bodega 07 EL LIMON,Ingresos,1,cm,0,100,,,,,,,,Consumables
108 MITERRA,Bodega 07 EL LIMON,Ingresos,1,cm,0,100,,,,,,,,Consumables
108 PIRECRIS,Bodega 07 EL LIMON,Ingresos,1,cm,0,100,,,,,,,,Consumables
108 RAFAGA,Bodega 07 EL LIMON,Ingresos,1,cm,0,100,,,,,,,,Consumables
108 RAMBLER,Bodega 07 EL LIMON,Ingresos,1,cm,0,100,,,,,,,,Consumables
108 REQUIEM SC,Bodega 07 EL LIMON,Ingresos,1,cm,0,100,,,,,,,,Consumables
109 CHOQUE,Bodega 07 EL LIMON,Ingresos,1,cm,0,100,,,,,,,,Consumables
109 SANTIMEC,Bodega 07 EL LIMON,Ingresos,1,cm,0,100,,,,,,,,Consumables
110 ACIDUREZ,Bodega 07 EL LIMON,Ingresos,1,gr,0,100,,,,,,,,Consumables
110 EFIAGUAS,Bodega 07 EL LIMON,Ingresos,1,cm,0,100,,,,,,,,Consumables
110 ORGREEN,Bodega 07 EL LIMON,Ingresos,1,cm,0,100,,,,,,,,Consumables
110 PEGAL PH,Bodega 07 EL LIMON,Ingresos,1,cm,0,100,,,,,,,,Consumables
110 REDUX,Bodega 07 EL LIMON,Ingresos,1,cm,0,100,,,,,,,,Consumables
110 SPRAYFLX,Bodega 07 EL LIMON,Ingresos,1,cm,0,100,,,,,,,,Consumables
114 COLINO LA ESMERALDA,Bodega 07 EL LIMON,Ingresos,1,qty,0,100,,,,,,,,Consumables
114 COLINO LAURENTINA,Bodega 07 EL LIMON,Ingresos,1,qty,0,100,,,,,,,,Consumables
100 GRAMOXONE,Bodega 08 ARANZAZU,Ingresos,1,cm,0,100,,,,,,,,Consumables
100 HEATWG,Bodega 08 ARANZAZU,Ingresos,1,gr,0,100,,,,,,,,Consumables
102 BOROZINCO*BTO*20,Bodega 08 ARANZAZU,Ingresos,1,qty,0,100,,,,,,,,Consumables
102 FERTIRRIEGO INICIO,Bodega 08 ARANZAZU,Ingresos,1,gr,0,100,,,,,,,,Consumables
102 MAGKIERITA*BTO*50,Bodega 08 ARANZAZU,Ingresos,1,qty,0,100,,,,,,,,Consumables
102 MICROESSENTIALES*BTO*50,Bodega 08 ARANZAZU,Ingresos,1,qty,0,100,,,,,,,,Consumables
102 NITROMAG*BTO*50,Bodega 08 ARANZAZU,Ingresos,1,qty,0,100,,,,,,,,Consumables
102 SULFATO DE POTACIO*BTO*50,Bodega 08 ARANZAZU,Ingresos,1,qty,0,100,,,,,,,,Consumables
102 ZINCOFERTIL*BTO*20,Bodega 08 ARANZAZU,Ingresos,1,qty,0,100,,,,,,,,Consumables
103 REBROTE,Bodega 08 ARANZAZU,Ingresos,1,gr,0,100,,,,,,,,Consumables
103 WEST COVER,Bodega 08 ARANZAZU,Ingresos,1,cm,0,100,,,,,,,,Consumables
104 BROTADOR,Bodega 08 ARANZAZU,Ingresos,1,cm,0,100,,,,,,,,Consumables
104 PIÑA ZINC,Bodega 08 ARANZAZU,Ingresos,1,gr,0,100,,,,,,,,Consumables
104 SUNNY 5 SC,Bodega 08 ARANZAZU,Ingresos,1,cm,0,100,,,,,,,,Consumables
104 TRIPLEHOJA,Bodega 08 ARANZAZU,Ingresos,1,cm,0,100,,,,,,,,Consumables
105 CRENTO EQUI CORONA*BTO*50,Bodega 08 ARANZAZU,Ingresos,1,qty,0,100,,,,,,,,Consumables
106 TROPIMEZCLA WP,Bodega 08 ARANZAZU,Ingresos,1,gr,0,100,,,,,,,,Consumables
107 BELICO,Bodega 08 ARANZAZU,Ingresos,1,cm,0,100,,,,,,,,Consumables
107 SEICAN,Bodega 08 ARANZAZU,Ingresos,1,cm,0,100,,,,,,,,Consumables
107 TIMOREX,Bodega 08 ARANZAZU,Ingresos,1,cm,0,100,,,,,,,,Consumables
107 ZELLUS,Bodega 08 ARANZAZU,Ingresos,1,gr,0,100,,,,,,,,Consumables
108 ASTUTO 200SC,Bodega 08 ARANZAZU,Ingresos,1,cm,0,100,,,,,,,,Consumables
108 BANACORE,Bodega 08 ARANZAZU,Ingresos,1,cm,0,100,,,,,,,,Consumables
108 BARAKA,Bodega 08 ARANZAZU,Ingresos,1,cm,0,100,,,,,,,,Consumables
108 CIPEREX,Bodega 08 ARANZAZU,Ingresos,1,cm,0,100,,,,,,,,Consumables
108 CLORPIRICOL,Bodega 08 ARANZAZU,Ingresos,1,cm,0,100,,,,,,,,Consumables
108 ESIOM,Bodega 08 ARANZAZU,Ingresos,1,cm,0,100,,,,,,,,Consumables
108 HELMSTAR,Bodega 08 ARANZAZU,Ingresos,1,cm,0,100,,,,,,,,Consumables
108 MITERRA,Bodega 08 ARANZAZU,Ingresos,1,cm,0,100,,,,,,,,Consumables
108 PIRECRIS,Bodega 08 ARANZAZU,Ingresos,1,cm,0,100,,,,,,,,Consumables
108 RAFAGA,Bodega 08 ARANZAZU,Ingresos,1,cm,0,100,,,,,,,,Consumables
108 RAMBLER,Bodega 08 ARANZAZU,Ingresos,1,cm,0,100,,,,,,,,Consumables
108 REQUIEM SC,Bodega 08 ARANZAZU,Ingresos,1,cm,0,100,,,,,,,,Consumables
109 CHOQUE,Bodega 08 ARANZAZU,Ingresos,1,cm,0,100,,,,,,,,Consumables
109 SANTIMEC,Bodega 08 ARANZAZU,Ingresos,1,cm,0,100,,,,,,,,Consumables
110 ACIDUREZ,Bodega 08 ARANZAZU,Ingresos,1,gr,0,100,,,,,,,,Consumables
110 EFIAGUAS,Bodega 08 ARANZAZU,Ingresos,1,cm,0,100,,,,,,,,Consumables
110 ORGREEN,Bodega 08 ARANZAZU,Ingresos,1,cm,0,100,,,,,,,,Consumables
110 PEGAL PH,Bodega 08 ARANZAZU,Ingresos,1,cm,0,100,,,,,,,,Consumables
110 REDUX,Bodega 08 ARANZAZU,Ingresos,1,cm,0,100,,,,,,,,Consumables
110 SPRAYFLX,Bodega 08 ARANZAZU,Ingresos,1,cm,0,100,,,,,,,,Consumables
114 COLINO LA ESMERALDA,Bodega 08 ARANZAZU,Ingresos,1,qty,0,100,,,,,,,,Consumables
114 COLINO LAURENTINA,Bodega 08 ARANZAZU,Ingresos,1,qty,0,100,,,,,,,,Consumables
100 GRAMOXONE,Bodega 10 LA FORTUNA,Ingresos,1,cm,0,100,,,,,,,,Consumables
100 HEATWG,Bodega 10 LA FORTUNA,Ingresos,1,gr,0,100,,,,,,,,Consumables
102 BOROZINCO*BTO*20,Bodega 10 LA FORTUNA,Ingresos,1,qty,0,100,,,,,,,,Consumables
102 FERTIRRIEGO INICIO,Bodega 10 LA FORTUNA,Ingresos,1,gr,0,100,,,,,,,,Consumables
102 MAGKIERITA*BTO*50,Bodega 10 LA FORTUNA,Ingresos,1,qty,0,100,,,,,,,,Consumables
102 MICROESSENTIALES*BTO*50,Bodega 10 LA FORTUNA,Ingresos,1,qty,0,100,,,,,,,,Consumables
102 NITROMAG*BTO*50,Bodega 10 LA FORTUNA,Ingresos,1,qty,0,100,,,,,,,,Consumables
102 SULFATO DE POTACIO*BTO*50,Bodega 10 LA FORTUNA,Ingresos,1,qty,0,100,,,,,,,,Consumables
102 ZINCOFERTIL*BTO*20,Bodega 10 LA FORTUNA,Ingresos,1,qty,0,100,,,,,,,,Consumables
103 REBROTE,Bodega 10 LA FORTUNA,Ingresos,1,gr,0,100,,,,,,,,Consumables
103 WEST COVER,Bodega 10 LA FORTUNA,Ingresos,1,cm,0,100,,,,,,,,Consumables
104 BROTADOR,Bodega 10 LA FORTUNA,Ingresos,1,cm,0,100,,,,,,,,Consumables
104 PIÑA ZINC,Bodega 10 LA FORTUNA,Ingresos,1,gr,0,100,,,,,,,,Consumables
104 SUNNY 5 SC,Bodega 10 LA FORTUNA,Ingresos,1,cm,0,100,,,,,,,,Consumables
104 TRIPLEHOJA,Bodega 10 LA FORTUNA,Ingresos,1,cm,0,100,,,,,,,,Consumables
105 CRENTO EQUI CORONA*BTO*50,Bodega 10 LA FORTUNA,Ingresos,1,qty,0,100,,,,,,,,Consumables
106 TROPIMEZCLA WP,Bodega 10 LA FORTUNA,Ingresos,1,gr,0,100,,,,,,,,Consumables
107 BELICO,Bodega 10 LA FORTUNA,Ingresos,1,cm,0,100,,,,,,,,Consumables
107 SEICAN,Bodega 10 LA FORTUNA,Ingresos,1,cm,0,100,,,,,,,,Consumables
107 TIMOREX,Bodega 10 LA FORTUNA,Ingresos,1,cm,0,100,,,,,,,,Consumables
107 ZELLUS,Bodega 10 LA FORTUNA,Ingresos,1,gr,0,100,,,,,,,,Consumables
108 ASTUTO 200SC,Bodega 10 LA FORTUNA,Ingresos,1,cm,0,100,,,,,,,,Consumables
108 BANACORE,Bodega 10 LA FORTUNA,Ingresos,1,cm,0,100,,,,,,,,Consumables
108 BARAKA,Bodega 10 LA FORTUNA,Ingresos,1,cm,0,100,,,,,,,,Consumables
108 CIPEREX,Bodega 10 LA FORTUNA,Ingresos,1,cm,0,100,,,,,,,,Consumables
108 CLORPIRICOL,Bodega 10 LA FORTUNA,Ingresos,1,cm,0,100,,,,,,,,Consumables
108 ESIOM,Bodega 10 LA FORTUNA,Ingresos,1,cm,0,100,,,,,,,,Consumables
108 HELMSTAR,Bodega 10 LA FORTUNA,Ingresos,1,cm,0,100,,,,,,,,Consumables
108 MITERRA,Bodega 10 LA FORTUNA,Ingresos,1,cm,0,100,,,,,,,,Consumables
108 PIRECRIS,Bodega 10 LA FORTUNA,Ingresos,1,cm,0,100,,,,,,,,Consumables
108 RAFAGA,Bodega 10 LA FORTUNA,Ingresos,1,cm,0,100,,,,,,,,Consumables
108 RAMBLER,Bodega 10 LA FORTUNA,Ingresos,1,cm,0,100,,,,,,,,Consumables
108 REQUIEM SC,Bodega 10 LA FORTUNA,Ingresos,1,cm,0,100,,,,,,,,Consumables
109 CHOQUE,Bodega 10 LA FORTUNA,Ingresos,1,cm,0,100,,,,,,,,Consumables
109 SANTIMEC,Bodega 10 LA FORTUNA,Ingresos,1,cm,0,100,,,,,,,,Consumables
110 ACIDUREZ,Bodega 10 LA FORTUNA,Ingresos,1,gr,0,100,,,,,,,,Consumables
110 EFIAGUAS,Bodega 10 LA FORTUNA,Ingresos,1,cm,0,100,,,,,,,,Consumables
110 ORGREEN,Bodega 10 LA FORTUNA,Ingresos,1,cm,0,100,,,,,,,,Consumables
110 PEGAL PH,Bodega 10 LA FORTUNA,Ingresos,1,cm,0,100,,,,,,,,Consumables
110 REDUX,Bodega 10 LA FORTUNA,Ingresos,1,cm,0,100,,,,,,,,Consumables
110 SPRAYFLX,Bodega 10 LA FORTUNA,Ingresos,1,cm,0,100,,,,,,,,Consumables
114 COLINO LA ESMERALDA,Bodega 10 LA FORTUNA,Ingresos,1,qty,0,100,,,,,,,,Consumables
114 COLINO LAURENTINA,Bodega 10 LA FORTUNA,Ingresos,1,qty,0,100,,,,,,,,Consumables
100 GRAMOXONE,Bodega 11 ALTO DEL OSO,Ingresos,1,cm,0,100,,,,,,,,Consumables
100 HEATWG,Bodega 11 ALTO DEL OSO,Ingresos,1,gr,0,100,,,,,,,,Consumables
102 BOROZINCO*BTO*20,Bodega 11 ALTO DEL OSO,Ingresos,1,qty,0,100,,,,,,,,Consumables
102 FERTIRRIEGO INICIO,Bodega 11 ALTO DEL OSO,Ingresos,1,gr,0,100,,,,,,,,Consumables
102 MAGKIERITA*BTO*50,Bodega 11 ALTO DEL OSO,Ingresos,1,qty,0,100,,,,,,,,Consumables
102 MICROESSENTIALES*BTO*50,Bodega 11 ALTO DEL OSO,Ingresos,1,qty,0,100,,,,,,,,Consumables
102 NITROMAG*BTO*50,Bodega 11 ALTO DEL OSO,Ingresos,1,qty,0,100,,,,,,,,Consumables
102 SULFATO DE POTACIO*BTO*50,Bodega 11 ALTO DEL OSO,Ingresos,1,qty,0,100,,,,,,,,Consumables
102 ZINCOFERTIL*BTO*20,Bodega 11 ALTO DEL OSO,Ingresos,1,qty,0,100,,,,,,,,Consumables
103 REBROTE,Bodega 11 ALTO DEL OSO,Ingresos,1,gr,0,100,,,,,,,,Consumables
103 WEST COVER,Bodega 11 ALTO DEL OSO,Ingresos,1,cm,0,100,,,,,,,,Consumables
104 BROTADOR,Bodega 11 ALTO DEL OSO,Ingresos,1,cm,0,100,,,,,,,,Consumables
104 PIÑA ZINC,Bodega 11 ALTO DEL OSO,Ingresos,1,gr,0,100,,,,,,,,Consumables
104 SUNNY 5 SC,Bodega 11 ALTO DEL OSO,Ingresos,1,cm,0,100,,,,,,,,Consumables
104 TRIPLEHOJA,Bodega 11 ALTO DEL OSO,Ingresos,1,cm,0,100,,,,,,,,Consumables
105 CRENTO EQUI CORONA*BTO*50,Bodega 11 ALTO DEL OSO,Ingresos,1,qty,0,100,,,,,,,,Consumables
106 TROPIMEZCLA WP,Bodega 11 ALTO DEL OSO,Ingresos,1,gr,0,100,,,,,,,,Consumables
107 BELICO,Bodega 11 ALTO DEL OSO,Ingresos,1,cm,0,100,,,,,,,,Consumables
107 SEICAN,Bodega 11 ALTO DEL OSO,Ingresos,1,cm,0,100,,,,,,,,Consumables
107 TIMOREX,Bodega 11 ALTO DEL OSO,Ingresos,1,cm,0,100,,,,,,,,Consumables
107 ZELLUS,Bodega 11 ALTO DEL OSO,Ingresos,1,gr,0,100,,,,,,,,Consumables
108 ASTUTO 200SC,Bodega 11 ALTO DEL OSO,Ingresos,1,cm,0,100,,,,,,,,Consumables
108 BANACORE,Bodega 11 ALTO DEL OSO,Ingresos,1,cm,0,100,,,,,,,,Consumables
108 BARAKA,Bodega 11 ALTO DEL OSO,Ingresos,1,cm,0,100,,,,,,,,Consumables
108 CIPEREX,Bodega 11 ALTO DEL OSO,Ingresos,1,cm,0,100,,,,,,,,Consumables
108 CLORPIRICOL,Bodega 11 ALTO DEL OSO,Ingresos,1,cm,0,100,,,,,,,,Consumables
108 ESIOM,Bodega 11 ALTO DEL OSO,Ingresos,1,cm,0,100,,,,,,,,Consumables
108 HELMSTAR,Bodega 11 ALTO DEL OSO,Ingresos,1,cm,0,100,,,,,,,,Consumables
108 MITERRA,Bodega 11 ALTO DEL OSO,Ingresos,1,cm,0,100,,,,,,,,Consumables
108 PIRECRIS,Bodega 11 ALTO DEL OSO,Ingresos,1,cm,0,100,,,,,,,,Consumables
108 RAFAGA,Bodega 11 ALTO DEL OSO,Ingresos,1,cm,0,100,,,,,,,,Consumables
108 RAMBLER,Bodega 11 ALTO DEL OSO,Ingresos,1,cm,0,100,,,,,,,,Consumables
108 REQUIEM SC,Bodega 11 ALTO DEL OSO,Ingresos,1,cm,0,100,,,,,,,,Consumables
109 CHOQUE,Bodega 11 ALTO DEL OSO,Ingresos,1,cm,0,100,,,,,,,,Consumables
109 SANTIMEC,Bodega 11 ALTO DEL OSO,Ingresos,1,cm,0,100,,,,,,,,Consumables
110 ACIDUREZ,Bodega 11 ALTO DEL OSO,Ingresos,1,gr,0,100,,,,,,,,Consumables
110 EFIAGUAS,Bodega 11 ALTO DEL OSO,Ingresos,1,cm,0,100,,,,,,,,Consumables
110 ORGREEN,Bodega 11 ALTO DEL OSO,Ingresos,1,cm,0,100,,,,,,,,Consumables
110 PEGAL PH,Bodega 11 ALTO DEL OSO,Ingresos,1,cm,0,100,,,,,,,,Consumables
110 REDUX,Bodega 11 ALTO DEL OSO,Ingresos,1,cm,0,100,,,,,,,,Consumables
110 SPRAYFLX,Bodega 11 ALTO DEL OSO,Ingresos,1,cm,0,100,,,,,,,,Consumables
114 COLINO LA ESMERALDA,Bodega 11 ALTO DEL OSO,Ingresos,1,qty,0,100,,,,,,,,Consumables
114 COLINO LAURENTINA,Bodega 11 ALTO DEL OSO,Ingresos,1,qty,0,100,,,,,,,,Consumables
100 GRAMOXONE,Bodega 13 BODEGA EXTERNA,Ingresos,1,cm,0,100,,,,,,,,Consumables
100 HEATWG,Bodega 13 BODEGA EXTERNA,Ingresos,1,gr,0,100,,,,,,,,Consumables
102 BOROZINCO*BTO*20,Bodega 13 BODEGA EXTERNA,Ingresos,1,qty,0,100,,,,,,,,Consumables
102 FERTIRRIEGO INICIO,Bodega 13 BODEGA EXTERNA,Ingresos,1,gr,0,100,,,,,,,,Consumables
102 MAGKIERITA*BTO*50,Bodega 13 BODEGA EXTERNA,Ingresos,1,qty,0,100,,,,,,,,Consumables
102 MICROESSENTIALES*BTO*50,Bodega 13 BODEGA EXTERNA,Ingresos,1,qty,0,100,,,,,,,,Consumables
102 NITROMAG*BTO*50,Bodega 13 BODEGA EXTERNA,Ingresos,1,qty,0,100,,,,,,,,Consumables
102 SULFATO DE POTACIO*BTO*50,Bodega 13 BODEGA EXTERNA,Ingresos,1,qty,0,100,,,,,,,,Consumables
102 ZINCOFERTIL*BTO*20,Bodega 13 BODEGA EXTERNA,Ingresos,1,qty,0,100,,,,,,,,Consumables
103 REBROTE,Bodega 13 BODEGA EXTERNA,Ingresos,1,gr,0,100,,,,,,,,Consumables
103 WEST COVER,Bodega 13 BODEGA EXTERNA,Ingresos,1,cm,0,100,,,,,,,,Consumables
104 BROTADOR,Bodega 13 BODEGA EXTERNA,Ingresos,1,cm,0,100,,,,,,,,Consumables
104 PIÑA ZINC,Bodega 13 BODEGA EXTERNA,Ingresos,1,gr,0,100,,,,,,,,Consumables
104 SUNNY 5 SC,Bodega 13 BODEGA EXTERNA,Ingresos,1,cm,0,100,,,,,,,,Consumables
104 TRIPLEHOJA,Bodega 13 BODEGA EXTERNA,Ingresos,1,cm,0,100,,,,,,,,Consumables
105 CRENTO EQUI CORONA*BTO*50,Bodega 13 BODEGA EXTERNA,Ingresos,1,qty,0,100,,,,,,,,Consumables
106 TROPIMEZCLA WP,Bodega 13 BODEGA EXTERNA,Ingresos,1,gr,0,100,,,,,,,,Consumables
107 BELICO,Bodega 13 BODEGA EXTERNA,Ingresos,1,cm,0,100,,,,,,,,Consumables
107 SEICAN,Bodega 13 BODEGA EXTERNA,Ingresos,1,cm,0,100,,,,,,,,Consumables
107 TIMOREX,Bodega 13 BODEGA EXTERNA,Ingresos,1,cm,0,100,,,,,,,,Consumables
107 ZELLUS,Bodega 13 BODEGA EXTERNA,Ingresos,1,gr,0,100,,,,,,,,Consumables
108 ASTUTO 200SC,Bodega 13 BODEGA EXTERNA,Ingresos,1,cm,0,100,,,,,,,,Consumables
108 BANACORE,Bodega 13 BODEGA EXTERNA,Ingresos,1,cm,0,100,,,,,,,,Consumables
108 BARAKA,Bodega 13 BODEGA EXTERNA,Ingresos,1,cm,0,100,,,,,,,,Consumables
108 CIPEREX,Bodega 13 BODEGA EXTERNA,Ingresos,1,cm,0,100,,,,,,,,Consumables
108 CLORPIRICOL,Bodega 13 BODEGA EXTERNA,Ingresos,1,cm,0,100,,,,,,,,Consumables
108 ESIOM,Bodega 13 BODEGA EXTERNA,Ingresos,1,cm,0,100,,,,,,,,Consumables
108 HELMSTAR,Bodega 13 BODEGA EXTERNA,Ingresos,1,cm,0,100,,,,,,,,Consumables
108 MITERRA,Bodega 13 BODEGA EXTERNA,Ingresos,1,cm,0,100,,,,,,,,Consumables
108 PIRECRIS,Bodega 13 BODEGA EXTERNA,Ingresos,1,cm,0,100,,,,,,,,Consumables
108 RAFAGA,Bodega 13 BODEGA EXTERNA,Ingresos,1,cm,0,100,,,,,,,,Consumables
108 RAMBLER,Bodega 13 BODEGA EXTERNA,Ingresos,1,cm,0,100,,,,,,,,Consumables
108 REQUIEM SC,Bodega 13 BODEGA EXTERNA,Ingresos,1,cm,0,100,,,,,,,,Consumables
109 CHOQUE,Bodega 13 BODEGA EXTERNA,Ingresos,1,cm,0,100,,,,,,,,Consumables
109 SANTIMEC,Bodega 13 BODEGA EXTERNA,Ingresos,1,cm,0,100,,,,,,,,Consumables
110 ACIDUREZ,Bodega 13 BODEGA EXTERNA,Ingresos,1,gr,0,100,,,,,,,,Consumables
110 EFIAGUAS,Bodega 13 BODEGA EXTERNA,Ingresos,1,cm,0,100,,,,,,,,Consumables
110 ORGREEN,Bodega 13 BODEGA EXTERNA,Ingresos,1,cm,0,100,,,,,,,,Consumables
110 PEGAL PH,Bodega 13 BODEGA EXTERNA,Ingresos,1,cm,0,100,,,,,,,,Consumables
110 REDUX,Bodega 13 BODEGA EXTERNA,Ingresos,1,cm,0,100,,,,,,,,Consumables
110 SPRAYFLX,Bodega 13 BODEGA EXTERNA,Ingresos,1,cm,0,100,,,,,,,,Consumables
114 COLINO LA ESMERALDA,Bodega 13 BODEGA EXTERNA,Ingresos,1,qty,0,100,,,,,,,,Consumables
114 COLINO LAURENTINA,Bodega 13 BODEGA EXTERNA,Ingresos,1,qty,0,100,,,,,,,,Consumables
100 GRAMOXONE,Bodega 14 ABEJORRAL,Ingresos,1,cm,0,100,,,,,,,,Consumables
100 HEATWG,Bodega 14 ABEJORRAL,Ingresos,1,gr,0,100,,,,,,,,Consumables
102 BOROZINCO*BTO*20,Bodega 14 ABEJORRAL,Ingresos,1,qty,0,100,,,,,,,,Consumables
102 FERTIRRIEGO INICIO,Bodega 14 ABEJORRAL,Ingresos,1,gr,0,100,,,,,,,,Consumables
102 MAGKIERITA*BTO*50,Bodega 14 ABEJORRAL,Ingresos,1,qty,0,100,,,,,,,,Consumables
102 MICROESSENTIALES*BTO*50,Bodega 14 ABEJORRAL,Ingresos,1,qty,0,100,,,,,,,,Consumables
102 NITROMAG*BTO*50,Bodega 14 ABEJORRAL,Ingresos,1,qty,0,100,,,,,,,,Consumables
102 SULFATO DE POTACIO*BTO*50,Bodega 14 ABEJORRAL,Ingresos,1,qty,0,100,,,,,,,,Consumables
102 ZINCOFERTIL*BTO*20,Bodega 14 ABEJORRAL,Ingresos,1,qty,0,100,,,,,,,,Consumables
103 REBROTE,Bodega 14 ABEJORRAL,Ingresos,1,gr,0,100,,,,,,,,Consumables
103 WEST COVER,Bodega 14 ABEJORRAL,Ingresos,1,cm,0,100,,,,,,,,Consumables
104 BROTADOR,Bodega 14 ABEJORRAL,Ingresos,1,cm,0,100,,,,,,,,Consumables
104 PIÑA ZINC,Bodega 14 ABEJORRAL,Ingresos,1,gr,0,100,,,,,,,,Consumables
104 SUNNY 5 SC,Bodega 14 ABEJORRAL,Ingresos,1,cm,0,100,,,,,,,,Consumables
104 TRIPLEHOJA,Bodega 14 ABEJORRAL,Ingresos,1,cm,0,100,,,,,,,,Consumables
105 CRENTO EQUI CORONA*BTO*50,Bodega 14 ABEJORRAL,Ingresos,1,qty,0,100,,,,,,,,Consumables
106 TROPIMEZCLA WP,Bodega 14 ABEJORRAL,Ingresos,1,gr,0,100,,,,,,,,Consumables
107 BELICO,Bodega 14 ABEJORRAL,Ingresos,1,cm,0,100,,,,,,,,Consumables
107 SEICAN,Bodega 14 ABEJORRAL,Ingresos,1,cm,0,100,,,,,,,,Consumables
107 TIMOREX,Bodega 14 ABEJORRAL,Ingresos,1,cm,0,100,,,,,,,,Consumables
107 ZELLUS,Bodega 14 ABEJORRAL,Ingresos,1,gr,0,100,,,,,,,,Consumables
108 ASTUTO 200SC,Bodega 14 ABEJORRAL,Ingresos,1,cm,0,100,,,,,,,,Consumables
108 BANACORE,Bodega 14 ABEJORRAL,Ingresos,1,cm,0,100,,,,,,,,Consumables
108 BARAKA,Bodega 14 ABEJORRAL,Ingresos,1,cm,0,100,,,,,,,,Consumables
108 CIPEREX,Bodega 14 ABEJORRAL,Ingresos,1,cm,0,100,,,,,,,,Consumables
108 CLORPIRICOL,Bodega 14 ABEJORRAL,Ingresos,1,cm,0,100,,,,,,,,Consumables
108 ESIOM,Bodega 14 ABEJORRAL,Ingresos,1,cm,0,100,,,,,,,,Consumables
108 HELMSTAR,Bodega 14 ABEJORRAL,Ingresos,1,cm,0,100,,,,,,,,Consumables
108 MITERRA,Bodega 14 ABEJORRAL,Ingresos,1,cm,0,100,,,,,,,,Consumables
108 PIRECRIS,Bodega 14 ABEJORRAL,Ingresos,1,cm,0,100,,,,,,,,Consumables
108 RAFAGA,Bodega 14 ABEJORRAL,Ingresos,1,cm,0,100,,,,,,,,Consumables
108 RAMBLER,Bodega 14 ABEJORRAL,Ingresos,1,cm,0,100,,,,,,,,Consumables
108 REQUIEM SC,Bodega 14 ABEJORRAL,Ingresos,1,cm,0,100,,,,,,,,Consumables
109 CHOQUE,Bodega 14 ABEJORRAL,Ingresos,1,cm,0,100,,,,,,,,Consumables
109 SANTIMEC,Bodega 14 ABEJORRAL,Ingresos,1,cm,0,100,,,,,,,,Consumables
110 ACIDUREZ,Bodega 14 ABEJORRAL,Ingresos,1,gr,0,100,,,,,,,,Consumables
110 EFIAGUAS,Bodega 14 ABEJORRAL,Ingresos,1,cm,0,100,,,,,,,,Consumables
110 ORGREEN,Bodega 14 ABEJORRAL,Ingresos,1,cm,0,100,,,,,,,,Consumables
110 PEGAL PH,Bodega 14 ABEJORRAL,Ingresos,1,cm,0,100,,,,,,,,Consumables
110 REDUX,Bodega 14 ABEJORRAL,Ingresos,1,cm,0,100,,,,,,,,Consumables
110 SPRAYFLX,Bodega 14 ABEJORRAL,Ingresos,1,cm,0,100,,,,,,,,Consumables
114 COLINO LA ESMERALDA,Bodega 14 ABEJORRAL,Ingresos,1,qty,0,100,,,,,,,,Consumables
114 COLINO LAURENTINA,Bodega 14 ABEJORRAL,Ingresos,1,qty,0,100,,,,,,,,Consumables
100 GRAMOXONE,Bodega 16 LA TITINA,Ingresos,1,cm,0,100,,,,,,,,Consumables
100 HEATWG,Bodega 16 LA TITINA,Ingresos,1,gr,0,100,,,,,,,,Consumables
102 BOROZINCO*BTO*20,Bodega 16 LA TITINA,Ingresos,1,qty,0,100,,,,,,,,Consumables
102 FERTIRRIEGO INICIO,Bodega 16 LA TITINA,Ingresos,1,gr,0,100,,,,,,,,Consumables
102 MAGKIERITA*BTO*50,Bodega 16 LA TITINA,Ingresos,1,qty,0,100,,,,,,,,Consumables
102 MICROESSENTIALES*BTO*50,Bodega 16 LA TITINA,Ingresos,1,qty,0,100,,,,,,,,Consumables
102 NITROMAG*BTO*50,Bodega 16 LA TITINA,Ingresos,1,qty,0,100,,,,,,,,Consumables
102 SULFATO DE POTACIO*BTO*50,Bodega 16 LA TITINA,Ingresos,1,qty,0,100,,,,,,,,Consumables
102 ZINCOFERTIL*BTO*20,Bodega 16 LA TITINA,Ingresos,1,qty,0,100,,,,,,,,Consumables
103 REBROTE,Bodega 16 LA TITINA,Ingresos,1,gr,0,100,,,,,,,,Consumables
103 WEST COVER,Bodega 16 LA TITINA,Ingresos,1,cm,0,100,,,,,,,,Consumables
104 BROTADOR,Bodega 16 LA TITINA,Ingresos,1,cm,0,100,,,,,,,,Consumables
104 PIÑA ZINC,Bodega 16 LA TITINA,Ingresos,1,gr,0,100,,,,,,,,Consumables
104 SUNNY 5 SC,Bodega 16 LA TITINA,Ingresos,1,cm,0,100,,,,,,,,Consumables
104 TRIPLEHOJA,Bodega 16 LA TITINA,Ingresos,1,cm,0,100,,,,,,,,Consumables
105 CRENTO EQUI CORONA*BTO*50,Bodega 16 LA TITINA,Ingresos,1,qty,0,100,,,,,,,,Consumables
106 TROPIMEZCLA WP,Bodega 16 LA TITINA,Ingresos,1,gr,0,100,,,,,,,,Consumables
107 BELICO,Bodega 16 LA TITINA,Ingresos,1,cm,0,100,,,,,,,,Consumables
107 SEICAN,Bodega 16 LA TITINA,Ingresos,1,cm,0,100,,,,,,,,Consumables
107 TIMOREX,Bodega 16 LA TITINA,Ingresos,1,cm,0,100,,,,,,,,Consumables
107 ZELLUS,Bodega 16 LA TITINA,Ingresos,1,gr,0,100,,,,,,,,Consumables
108 ASTUTO 200SC,Bodega 16 LA TITINA,Ingresos,1,cm,0,100,,,,,,,,Consumables
108 BANACORE,Bodega 16 LA TITINA,Ingresos,1,cm,0,100,,,,,,,,Consumables
108 BARAKA,Bodega 16 LA TITINA,Ingresos,1,cm,0,100,,,,,,,,Consumables
108 CIPEREX,Bodega 16 LA TITINA,Ingresos,1,cm,0,100,,,,,,,,Consumables
108 CLORPIRICOL,Bodega 16 LA TITINA,Ingresos,1,cm,0,100,,,,,,,,Consumables
108 ESIOM,Bodega 16 LA TITINA,Ingresos,1,cm,0,100,,,,,,,,Consumables
108 HELMSTAR,Bodega 16 LA TITINA,Ingresos,1,cm,0,100,,,,,,,,Consumables
108 MITERRA,Bodega 16 LA TITINA,Ingresos,1,cm,0,100,,,,,,,,Consumables
108 PIRECRIS,Bodega 16 LA TITINA,Ingresos,1,cm,0,100,,,,,,,,Consumables
108 RAFAGA,Bodega 16 LA TITINA,Ingresos,1,cm,0,100,,,,,,,,Consumables
108 RAMBLER,Bodega 16 LA TITINA,Ingresos,1,cm,0,100,,,,,,,,Consumables
108 REQUIEM SC,Bodega 16 LA TITINA,Ingresos,1,cm,0,100,,,,,,,,Consumables
109 CHOQUE,Bodega 16 LA TITINA,Ingresos,1,cm,0,100,,,,,,,,Consumables
109 SANTIMEC,Bodega 16 LA TITINA,Ingresos,1,cm,0,100,,,,,,,,Consumables
110 ACIDUREZ,Bodega 16 LA TITINA,Ingresos,1,gr,0,100,,,,,,,,Consumables
110 EFIAGUAS,Bodega 16 LA TITINA,Ingresos,1,cm,0,100,,,,,,,,Consumables
110 ORGREEN,Bodega 16 LA TITINA,Ingresos,1,cm,0,100,,,,,,,,Consumables
110 PEGAL PH,Bodega 16 LA TITINA,Ingresos,1,cm,0,100,,,,,,,,Consumables
110 REDUX,Bodega 16 LA TITINA,Ingresos,1,cm,0,100,,,,,,,,Consumables
110 SPRAYFLX,Bodega 16 LA TITINA,Ingresos,1,cm,0,100,,,,,,,,Consumables
114 COLINO LA ESMERALDA,Bodega 16 LA TITINA,Ingresos,1,qty,0,100,,,,,,,,Consumables
114 COLINO LAURENTINA,Bodega 16 LA TITINA,Ingresos,1,qty,0,100,,,,,,,,Consumables
100 GRAMOXONE,Bodega 17 EL CEDRAL AZ,Ingresos,1,cm,0,100,,,,,,,,Consumables
100 HEATWG,Bodega 17 EL CEDRAL AZ,Ingresos,1,gr,0,100,,,,,,,,Consumables
102 BOROZINCO*BTO*20,Bodega 17 EL CEDRAL AZ,Ingresos,1,qty,0,100,,,,,,,,Consumables
102 FERTIRRIEGO INICIO,Bodega 17 EL CEDRAL AZ,Ingresos,1,gr,0,100,,,,,,,,Consumables
102 MAGKIERITA*BTO*50,Bodega 17 EL CEDRAL AZ,Ingresos,1,qty,0,100,,,,,,,,Consumables
102 MICROESSENTIALES*BTO*50,Bodega 17 EL CEDRAL AZ,Ingresos,1,qty,0,100,,,,,,,,Consumables
102 NITROMAG*BTO*50,Bodega 17 EL CEDRAL AZ,Ingresos,1,qty,0,100,,,,,,,,Consumables
102 SULFATO DE POTACIO*BTO*50,Bodega 17 EL CEDRAL AZ,Ingresos,1,qty,0,100,,,,,,,,Consumables
102 ZINCOFERTIL*BTO*20,Bodega 17 EL CEDRAL AZ,Ingresos,1,qty,0,100,,,,,,,,Consumables
103 REBROTE,Bodega 17 EL CEDRAL AZ,Ingresos,1,gr,0,100,,,,,,,,Consumables
103 WEST COVER,Bodega 17 EL CEDRAL AZ,Ingresos,1,cm,0,100,,,,,,,,Consumables
104 BROTADOR,Bodega 17 EL CEDRAL AZ,Ingresos,1,cm,0,100,,,,,,,,Consumables
104 PIÑA ZINC,Bodega 17 EL CEDRAL AZ,Ingresos,1,gr,0,100,,,,,,,,Consumables
104 SUNNY 5 SC,Bodega 17 EL CEDRAL AZ,Ingresos,1,cm,0,100,,,,,,,,Consumables
104 TRIPLEHOJA,Bodega 17 EL CEDRAL AZ,Ingresos,1,cm,0,100,,,,,,,,Consumables
105 CRENTO EQUI CORONA*BTO*50,Bodega 17 EL CEDRAL AZ,Ingresos,1,qty,0,100,,,,,,,,Consumables
106 TROPIMEZCLA WP,Bodega 17 EL CEDRAL AZ,Ingresos,1,gr,0,100,,,,,,,,Consumables
107 BELICO,Bodega 17 EL CEDRAL AZ,Ingresos,1,cm,0,100,,,,,,,,Consumables
107 SEICAN,Bodega 17 EL CEDRAL AZ,Ingresos,1,cm,0,100,,,,,,,,Consumables
107 TIMOREX,Bodega 17 EL CEDRAL AZ,Ingresos,1,cm,0,100,,,,,,,,Consumables
107 ZELLUS,Bodega 17 EL CEDRAL AZ,Ingresos,1,gr,0,100,,,,,,,,Consumables
108 ASTUTO 200SC,Bodega 17 EL CEDRAL AZ,Ingresos,1,cm,0,100,,,,,,,,Consumables
108 BANACORE,Bodega 17 EL CEDRAL AZ,Ingresos,1,cm,0,100,,,,,,,,Consumables
108 BARAKA,Bodega 17 EL CEDRAL AZ,Ingresos,1,cm,0,100,,,,,,,,Consumables
108 CIPEREX,Bodega 17 EL CEDRAL AZ,Ingresos,1,cm,0,100,,,,,,,,Consumables
108 CLORPIRICOL,Bodega 17 EL CEDRAL AZ,Ingresos,1,cm,0,100,,,,,,,,Consumables
108 ESIOM,Bodega 17 EL CEDRAL AZ,Ingresos,1,cm,0,100,,,,,,,,Consumables
108 HELMSTAR,Bodega 17 EL CEDRAL AZ,Ingresos,1,cm,0,100,,,,,,,,Consumables
108 MITERRA,Bodega 17 EL CEDRAL AZ,Ingresos,1,cm,0,100,,,,,,,,Consumables
108 PIRECRIS,Bodega 17 EL CEDRAL AZ,Ingresos,1,cm,0,100,,,,,,,,Consumables
108 RAFAGA,Bodega 17 EL CEDRAL AZ,Ingresos,1,cm,0,100,,,,,,,,Consumables
108 RAMBLER,Bodega 17 EL CEDRAL AZ,Ingresos,1,cm,0,100,,,,,,,,Consumables
108 REQUIEM SC,Bodega 17 EL CEDRAL AZ,Ingresos,1,cm,0,100,,,,,,,,Consumables
109 CHOQUE,Bodega 17 EL CEDRAL AZ,Ingresos,1,cm,0,100,,,,,,,,Consumables
109 SANTIMEC,Bodega 17 EL CEDRAL AZ,Ingresos,1,cm,0,100,,,,,,,,Consumables
110 ACIDUREZ,Bodega 17 EL CEDRAL AZ,Ingresos,1,gr,0,100,,,,,,,,Consumables
110 EFIAGUAS,Bodega 17 EL CEDRAL AZ,Ingresos,1,cm,0,100,,,,,,,,Consumables
110 ORGREEN,Bodega 17 EL CEDRAL AZ,Ingresos,1,cm,0,100,,,,,,,,Consumables
110 PEGAL PH,Bodega 17 EL CEDRAL AZ,Ingresos,1,cm,0,100,,,,,,,,Consumables
110 REDUX,Bodega 17 EL CEDRAL AZ,Ingresos,1,cm,0,100,,,,,,,,Consumables
110 SPRAYFLX,Bodega 17 EL CEDRAL AZ,Ingresos,1,cm,0,100,,,,,,,,Consumables
114 COLINO LA ESMERALDA,Bodega 17 EL CEDRAL AZ,Ingresos,1,qty,0,100,,,,,,,,Consumables
114 COLINO LAURENTINA,Bodega 17 EL CEDRAL AZ,Ingresos,1,qty,0,100,,,,,,,,Consumables
100 GRAMOXONE,Bodega 18 LA ALEGRIA,Ingresos,1,cm,0,100,,,,,,,,Consumables
100 HEATWG,Bodega 18 LA ALEGRIA,Ingresos,1,gr,0,100,,,,,,,,Consumables
102 BOROZINCO*BTO*20,Bodega 18 LA ALEGRIA,Ingresos,1,qty,0,100,,,,,,,,Consumables
102 FERTIRRIEGO INICIO,Bodega 18 LA ALEGRIA,Ingresos,1,gr,0,100,,,,,,,,Consumables
102 MAGKIERITA*BTO*50,Bodega 18 LA ALEGRIA,Ingresos,1,qty,0,100,,,,,,,,Consumables
102 MICROESSENTIALES*BTO*50,Bodega 18 LA ALEGRIA,Ingresos,1,qty,0,100,,,,,,,,Consumables
102 NITROMAG*BTO*50,Bodega 18 LA ALEGRIA,Ingresos,1,qty,0,100,,,,,,,,Consumables
102 SULFATO DE POTACIO*BTO*50,Bodega 18 LA ALEGRIA,Ingresos,1,qty,0,100,,,,,,,,Consumables
102 ZINCOFERTIL*BTO*20,Bodega 18 LA ALEGRIA,Ingresos,1,qty,0,100,,,,,,,,Consumables
103 REBROTE,Bodega 18 LA ALEGRIA,Ingresos,1,gr,0,100,,,,,,,,Consumables
103 WEST COVER,Bodega 18 LA ALEGRIA,Ingresos,1,cm,0,100,,,,,,,,Consumables
104 BROTADOR,Bodega 18 LA ALEGRIA,Ingresos,1,cm,0,100,,,,,,,,Consumables
104 PIÑA ZINC,Bodega 18 LA ALEGRIA,Ingresos,1,gr,0,100,,,,,,,,Consumables
104 SUNNY 5 SC,Bodega 18 LA ALEGRIA,Ingresos,1,cm,0,100,,,,,,,,Consumables
104 TRIPLEHOJA,Bodega 18 LA ALEGRIA,Ingresos,1,cm,0,100,,,,,,,,Consumables
105 CRENTO EQUI CORONA*BTO*50,Bodega 18 LA ALEGRIA,Ingresos,1,qty,0,100,,,,,,,,Consumables
106 TROPIMEZCLA WP,Bodega 18 LA ALEGRIA,Ingresos,1,gr,0,100,,,,,,,,Consumables
107 BELICO,Bodega 18 LA ALEGRIA,Ingresos,1,cm,0,100,,,,,,,,Consumables
107 SEICAN,Bodega 18 LA ALEGRIA,Ingresos,1,cm,0,100,,,,,,,,Consumables
107 TIMOREX,Bodega 18 LA ALEGRIA,Ingresos,1,cm,0,100,,,,,,,,Consumables
107 ZELLUS,Bodega 18 LA ALEGRIA,Ingresos,1,gr,0,100,,,,,,,,Consumables
108 ASTUTO 200SC,Bodega 18 LA ALEGRIA,Ingresos,1,cm,0,100,,,,,,,,Consumables
108 BANACORE,Bodega 18 LA ALEGRIA,Ingresos,1,cm,0,100,,,,,,,,Consumables
108 BARAKA,Bodega 18 LA ALEGRIA,Ingresos,1,cm,0,100,,,,,,,,Consumables
108 CIPEREX,Bodega 18 LA ALEGRIA,Ingresos,1,cm,0,100,,,,,,,,Consumables
108 CLORPIRICOL,Bodega 18 LA ALEGRIA,Ingresos,1,cm,0,100,,,,,,,,Consumables
108 ESIOM,Bodega 18 LA ALEGRIA,Ingresos,1,cm,0,100,,,,,,,,Consumables
108 HELMSTAR,Bodega 18 LA ALEGRIA,Ingresos,1,cm,0,100,,,,,,,,Consumables
108 MITERRA,Bodega 18 LA ALEGRIA,Ingresos,1,cm,0,100,,,,,,,,Consumables
108 PIRECRIS,Bodega 18 LA ALEGRIA,Ingresos,1,cm,0,100,,,,,,,,Consumables
108 RAFAGA,Bodega 18 LA ALEGRIA,Ingresos,1,cm,0,100,,,,,,,,Consumables
108 RAMBLER,Bodega 18 LA ALEGRIA,Ingresos,1,cm,0,100,,,,,,,,Consumables
108 REQUIEM SC,Bodega 18 LA ALEGRIA,Ingresos,1,cm,0,100,,,,,,,,Consumables
109 CHOQUE,Bodega 18 LA ALEGRIA,Ingresos,1,cm,0,100,,,,,,,,Consumables
109 SANTIMEC,Bodega 18 LA ALEGRIA,Ingresos,1,cm,0,100,,,,,,,,Consumables
110 ACIDUREZ,Bodega 18 LA ALEGRIA,Ingresos,1,gr,0,100,,,,,,,,Consumables
110 EFIAGUAS,Bodega 18 LA ALEGRIA,Ingresos,1,cm,0,100,,,,,,,,Consumables
110 ORGREEN,Bodega 18 LA ALEGRIA,Ingresos,1,cm,0,100,,,,,,,,Consumables
110 PEGAL PH,Bodega 18 LA ALEGRIA,Ingresos,1,cm,0,100,,,,,,,,Consumables
110 REDUX,Bodega 18 LA ALEGRIA,Ingresos,1,cm,0,100,,,,,,,,Consumables
110 SPRAYFLX,Bodega 18 LA ALEGRIA,Ingresos,1,cm,0,100,,,,,,,,Consumables
114 COLINO LA ESMERALDA,Bodega 18 LA ALEGRIA,Ingresos,1,qty,0,100,,,,,,,,Consumables
114 COLINO LAURENTINA,Bodega 18 LA ALEGRIA,Ingresos,1,qty,0,100,,,,,,,,Consumables
100 GRAMOXONE,Bodega 19 LA PALENCIA,Ingresos,1,cm,0,100,,,,,,,,Consumables
100 HEATWG,Bodega 19 LA PALENCIA,Ingresos,1,gr,0,100,,,,,,,,Consumables
102 BOROZINCO*BTO*20,Bodega 19 LA PALENCIA,Ingresos,1,qty,0,100,,,,,,,,Consumables
102 FERTIRRIEGO INICIO,Bodega 19 LA PALENCIA,Ingresos,1,gr,0,100,,,,,,,,Consumables
102 MAGKIERITA*BTO*50,Bodega 19 LA PALENCIA,Ingresos,1,qty,0,100,,,,,,,,Consumables
102 MICROESSENTIALES*BTO*50,Bodega 19 LA PALENCIA,Ingresos,1,qty,0,100,,,,,,,,Consumables
102 NITROMAG*BTO*50,Bodega 19 LA PALENCIA,Ingresos,1,qty,0,100,,,,,,,,Consumables
102 SULFATO DE POTACIO*BTO*50,Bodega 19 LA PALENCIA,Ingresos,1,qty,0,100,,,,,,,,Consumables
102 ZINCOFERTIL*BTO*20,Bodega 19 LA PALENCIA,Ingresos,1,qty,0,100,,,,,,,,Consumables
103 REBROTE,Bodega 19 LA PALENCIA,Ingresos,1,gr,0,100,,,,,,,,Consumables
103 WEST COVER,Bodega 19 LA PALENCIA,Ingresos,1,cm,0,100,,,,,,,,Consumables
104 BROTADOR,Bodega 19 LA PALENCIA,Ingresos,1,cm,0,100,,,,,,,,Consumables
104 PIÑA ZINC,Bodega 19 LA PALENCIA,Ingresos,1,gr,0,100,,,,,,,,Consumables
104 SUNNY 5 SC,Bodega 19 LA PALENCIA,Ingresos,1,cm,0,100,,,,,,,,Consumables
104 TRIPLEHOJA,Bodega 19 LA PALENCIA,Ingresos,1,cm,0,100,,,,,,,,Consumables
105 CRENTO EQUI CORONA*BTO*50,Bodega 19 LA PALENCIA,Ingresos,1,qty,0,100,,,,,,,,Consumables
106 TROPIMEZCLA WP,Bodega 19 LA PALENCIA,Ingresos,1,gr,0,100,,,,,,,,Consumables
107 BELICO,Bodega 19 LA PALENCIA,Ingresos,1,cm,0,100,,,,,,,,Consumables
107 SEICAN,Bodega 19 LA PALENCIA,Ingresos,1,cm,0,100,,,,,,,,Consumables
107 TIMOREX,Bodega 19 LA PALENCIA,Ingresos,1,cm,0,100,,,,,,,,Consumables
107 ZELLUS,Bodega 19 LA PALENCIA,Ingresos,1,gr,0,100,,,,,,,,Consumables
108 ASTUTO 200SC,Bodega 19 LA PALENCIA,Ingresos,1,cm,0,100,,,,,,,,Consumables
108 BANACORE,Bodega 19 LA PALENCIA,Ingresos,1,cm,0,100,,,,,,,,Consumables
108 BARAKA,Bodega 19 LA PALENCIA,Ingresos,1,cm,0,100,,,,,,,,Consumables
108 CIPEREX,Bodega 19 LA PALENCIA,Ingresos,1,cm,0,100,,,,,,,,Consumables
108 CLORPIRICOL,Bodega 19 LA PALENCIA,Ingresos,1,cm,0,100,,,,,,,,Consumables
108 ESIOM,Bodega 19 LA PALENCIA,Ingresos,1,cm,0,100,,,,,,,,Consumables
108 HELMSTAR,Bodega 19 LA PALENCIA,Ingresos,1,cm,0,100,,,,,,,,Consumables
108 MITERRA,Bodega 19 LA PALENCIA,Ingresos,1,cm,0,100,,,,,,,,Consumables
108 PIRECRIS,Bodega 19 LA PALENCIA,Ingresos,1,cm,0,100,,,,,,,,Consumables
108 RAFAGA,Bodega 19 LA PALENCIA,Ingresos,1,cm,0,100,,,,,,,,Consumables
108 RAMBLER,Bodega 19 LA PALENCIA,Ingresos,1,cm,0,100,,,,,,,,Consumables
108 REQUIEM SC,Bodega 19 LA PALENCIA,Ingresos,1,cm,0,100,,,,,,,,Consumables
109 CHOQUE,Bodega 19 LA PALENCIA,Ingresos,1,cm,0,100,,,,,,,,Consumables
109 SANTIMEC,Bodega 19 LA PALENCIA,Ingresos,1,cm,0,100,,,,,,,,Consumables
110 ACIDUREZ,Bodega 19 LA PALENCIA,Ingresos,1,gr,0,100,,,,,,,,Consumables
110 EFIAGUAS,Bodega 19 LA PALENCIA,Ingresos,1,cm,0,100,,,,,,,,Consumables
110 ORGREEN,Bodega 19 LA PALENCIA,Ingresos,1,cm,0,100,,,,,,,,Consumables
110 PEGAL PH,Bodega 19 LA PALENCIA,Ingresos,1,cm,0,100,,,,,,,,Consumables
110 REDUX,Bodega 19 LA PALENCIA,Ingresos,1,cm,0,100,,,,,,,,Consumables
110 SPRAYFLX,Bodega 19 LA PALENCIA,Ingresos,1,cm,0,100,,,,,,,,Consumables
114 COLINO LA ESMERALDA,Bodega 19 LA PALENCIA,Ingresos,1,qty,0,100,,,,,,,,Consumables
114 COLINO LAURENTINA,Bodega 19 LA PALENCIA,Ingresos,1,qty,0,100,,,,,,,,Consumables
