﻿Lote,Mes,Anio,Peso Promedio
1-1,1,2020,20.65
1-2,1,2020,19.4
1-3,1,2020,19.4
1-4,1,2020,19.4
1-5,1,2020,19.46
1-6,1,2020,19.2
1-7,1,2020,19.2
1-8,1,2020,19.2
1-9A,1,2020,19.2
1-9B,1,2020,19.2
1-10A,1,2020,19.2
1-10B,1,2020,21.3
1-11A,1,2020,20.02
1-11B,1,2020,20.69
1-12A,1,2020,16.2
1-12B,1,2020,16.2
1-13,1,2020,20.67
1-14,1,2020,19.2
1-15,1,2020,19.2
1-16,1,2020,19.2
1-17A,1,2020,20.48
1-17B,1,2020,19.23
1-18A,1,2020,20.48
1-18B,1,2020,19.23
1-19A,1,2020,19.23
1-19B,1,2020,19.23
1-20A,1,2020,19.23
1-20B,1,2020,19.23
1-21A,1,2020,16.2
1-21B,1,2020,19.23
1-22,1,2020,19.23
1-23,1,2020,17.53
1-24,1,2020,16.2
1-25,1,2020,18.86
1-26,1,2020,18.74
1-27,1,2020,18.8
1-28,1,2020,18.38
1-29,1,2020,18.38
1-30,1,2020,18.56
1-31,1,2020,18.56
1-32,1,2020,18.56
1-33,1,2020,18.99
1-34,1,2020,19.04
1-35,1,2020,19.2
1-36,1,2020,18.74
1-37,1,2020,18.74
1-38,1,2020,18.74
1-39,1,2020,18.56
1-40,1,2020,18.74
1-41,1,2020,18.74
1-42,1,2020,18.74
1-43,1,2020,18.74
1-44,1,2020,18.74
1-101A,1,2020,19.6
1-101B,1,2020,19.6
1-101C,1,2020,19.6
1-101D,1,2020,19.6
1-1,2,2020,20.65
1-2,2,2020,19.4
1-3,2,2020,19.4
1-4,2,2020,19.4
1-5,2,2020,19.46
1-6,2,2020,19.2
1-7,2,2020,19.2
1-8,2,2020,19.2
1-9A,2,2020,19.2
1-9B,2,2020,19.2
1-10A,2,2020,19.2
1-10B,2,2020,21.3
1-11A,2,2020,20.02
1-11B,2,2020,20.69
1-12A,2,2020,16.2
1-12B,2,2020,16.2
1-13,2,2020,20.67
1-14,2,2020,19.2
1-15,2,2020,19.2
1-16,2,2020,19.2
1-17A,2,2020,20.48
1-17B,2,2020,19.23
1-18A,2,2020,20.48
1-18B,2,2020,19.23
1-19A,2,2020,19.23
1-19B,2,2020,19.23
1-20A,2,2020,19.23
1-20B,2,2020,19.23
1-21A,2,2020,16.2
1-21B,2,2020,19.23
1-22,2,2020,19.23
1-23,2,2020,17.53
1-24,2,2020,16.2
1-25,2,2020,18.86
1-26,2,2020,18.74
1-27,2,2020,18.8
1-28,2,2020,18.38
1-29,2,2020,18.38
1-30,2,2020,18.56
1-31,2,2020,18.56
1-32,2,2020,18.56
1-33,2,2020,18.99
1-34,2,2020,19.04
1-35,2,2020,19.2
1-36,2,2020,18.74
1-37,2,2020,18.74
1-38,2,2020,18.74
1-39,2,2020,18.56
1-40,2,2020,18.74
1-41,2,2020,18.74
1-42,2,2020,18.74
1-43,2,2020,18.74
1-44,2,2020,18.74
1-101A,2,2020,19.6
1-101B,2,2020,19.6
1-101C,2,2020,19.6
1-101D,2,2020,19.6
1-1,3,2020,20.65
1-2,3,2020,19.4
1-3,3,2020,19.4
1-4,3,2020,19.4
1-5,3,2020,19.46
1-6,3,2020,19.2
1-7,3,2020,19.2
1-8,3,2020,19.2
1-9A,3,2020,19.2
1-9B,3,2020,19.2
1-10A,3,2020,19.2
1-10B,3,2020,21.3
1-11A,3,2020,20.02
1-11B,3,2020,20.69
1-12A,3,2020,16.2
1-12B,3,2020,16.2
1-13,3,2020,20.67
1-14,3,2020,19.2
1-15,3,2020,19.2
1-16,3,2020,19.2
1-17A,3,2020,20.48
1-17B,3,2020,19.23
1-18A,3,2020,20.48
1-18B,3,2020,19.23
1-19A,3,2020,19.23
1-19B,3,2020,19.23
1-20A,3,2020,19.23
1-20B,3,2020,19.23
1-21A,3,2020,16.2
1-21B,3,2020,19.23
1-22,3,2020,19.23
1-23,3,2020,17.53
1-24,3,2020,16.2
1-25,3,2020,18.86
1-26,3,2020,18.74
1-27,3,2020,18.8
1-28,3,2020,18.38
1-29,3,2020,18.38
1-30,3,2020,18.56
1-31,3,2020,18.56
1-32,3,2020,18.56
1-33,3,2020,18.99
1-34,3,2020,19.04
1-35,3,2020,19.2
1-36,3,2020,18.74
1-37,3,2020,18.74
1-38,3,2020,18.74
1-39,3,2020,18.56
1-40,3,2020,18.74
1-41,3,2020,18.74
1-42,3,2020,18.74
1-43,3,2020,18.74
1-44,3,2020,18.74
1-101A,3,2020,19.6
1-101B,3,2020,19.6
1-101C,3,2020,19.6
1-101D,3,2020,19.6
1-1,4,2020,20.65
1-2,4,2020,19.4
1-3,4,2020,19.4
1-4,4,2020,19.4
1-5,4,2020,19.46
1-6,4,2020,19.2
1-7,4,2020,19.2
1-8,4,2020,19.2
1-9A,4,2020,19.2
1-9B,4,2020,19.2
1-10A,4,2020,19.2
1-10B,4,2020,21.3
1-11A,4,2020,20.02
1-11B,4,2020,20.69
1-12A,4,2020,16.2
1-12B,4,2020,16.2
1-13,4,2020,20.67
1-14,4,2020,19.2
1-15,4,2020,19.2
1-16,4,2020,19.2
1-17A,4,2020,20.48
1-17B,4,2020,19.23
1-18A,4,2020,20.48
1-18B,4,2020,19.23
1-19A,4,2020,19.23
1-19B,4,2020,19.23
1-20A,4,2020,19.23
1-20B,4,2020,19.23
1-21A,4,2020,16.2
1-21B,4,2020,19.23
1-22,4,2020,19.23
1-23,4,2020,17.53
1-24,4,2020,16.2
1-25,4,2020,18.86
1-26,4,2020,18.74
1-27,4,2020,18.8
1-28,4,2020,18.38
1-29,4,2020,18.38
1-30,4,2020,18.56
1-31,4,2020,18.56
1-32,4,2020,18.56
1-33,4,2020,18.99
1-34,4,2020,19.04
1-35,4,2020,19.2
1-36,4,2020,18.74
1-37,4,2020,18.74
1-38,4,2020,18.74
1-39,4,2020,18.56
1-40,4,2020,18.74
1-41,4,2020,18.74
1-42,4,2020,18.74
1-43,4,2020,18.74
1-44,4,2020,18.74
1-101A,4,2020,19.6
1-101B,4,2020,19.6
1-101C,4,2020,19.6
1-101D,4,2020,19.6
1-1,5,2020,20.65
1-2,5,2020,19.4
1-3,5,2020,19.4
1-4,5,2020,19.4
1-5,5,2020,19.46
1-6,5,2020,19.2
1-7,5,2020,19.2
1-8,5,2020,19.2
1-9A,5,2020,19.2
1-9B,5,2020,19.2
1-10A,5,2020,19.2
1-10B,5,2020,21.3
1-11A,5,2020,20.02
1-11B,5,2020,20.69
1-12A,5,2020,16.2
1-12B,5,2020,16.2
1-13,5,2020,20.67
1-14,5,2020,19.2
1-15,5,2020,19.2
1-16,5,2020,19.2
1-17A,5,2020,20.48
1-17B,5,2020,19.23
1-18A,5,2020,20.48
1-18B,5,2020,19.23
1-19A,5,2020,19.23
1-19B,5,2020,19.23
1-20A,5,2020,19.23
1-20B,5,2020,19.23
1-21A,5,2020,16.2
1-21B,5,2020,19.23
1-22,5,2020,19.23
1-23,5,2020,17.53
1-24,5,2020,16.2
1-25,5,2020,18.86
1-26,5,2020,18.74
1-27,5,2020,18.8
1-28,5,2020,18.38
1-29,5,2020,18.38
1-30,5,2020,18.56
1-31,5,2020,18.56
1-32,5,2020,18.56
1-33,5,2020,18.99
1-34,5,2020,19.04
1-35,5,2020,19.2
1-36,5,2020,18.74
1-37,5,2020,18.74
1-38,5,2020,18.74
1-39,5,2020,18.56
1-40,5,2020,18.74
1-41,5,2020,18.74
1-42,5,2020,18.74
1-43,5,2020,18.74
1-44,5,2020,18.74
1-101A,5,2020,19.6
1-101B,5,2020,19.6
1-101C,5,2020,19.6
1-101D,5,2020,19.6
1-1,6,2020,20.65
1-2,6,2020,19.4
1-3,6,2020,19.4
1-4,6,2020,19.4
1-5,6,2020,19.46
1-6,6,2020,19.2
1-7,6,2020,19.2
1-8,6,2020,19.2
1-9A,6,2020,19.2
1-9B,6,2020,19.2
1-10A,6,2020,19.2
1-10B,6,2020,21.3
1-11A,6,2020,20.02
1-11B,6,2020,20.69
1-12A,6,2020,16.2
1-12B,6,2020,16.2
1-13,6,2020,20.67
1-14,6,2020,19.2
1-15,6,2020,19.2
1-16,6,2020,19.2
1-17A,6,2020,20.48
1-17B,6,2020,19.23
1-18A,6,2020,20.48
1-18B,6,2020,19.23
1-19A,6,2020,19.23
1-19B,6,2020,19.23
1-20A,6,2020,19.23
1-20B,6,2020,19.23
1-21A,6,2020,16.2
1-21B,6,2020,19.23
1-22,6,2020,19.23
1-23,6,2020,17.53
1-24,6,2020,16.2
1-25,6,2020,18.86
1-26,6,2020,18.74
1-27,6,2020,18.8
1-28,6,2020,18.38
1-29,6,2020,18.38
1-30,6,2020,18.56
1-31,6,2020,18.56
1-32,6,2020,18.56
1-33,6,2020,18.99
1-34,6,2020,19.04
1-35,6,2020,19.2
1-36,6,2020,18.74
1-37,6,2020,18.74
1-38,6,2020,18.74
1-39,6,2020,18.56
1-40,6,2020,18.74
1-41,6,2020,18.74
1-42,6,2020,18.74
1-43,6,2020,18.74
1-44,6,2020,18.74
1-101A,6,2020,19.6
1-101B,6,2020,19.6
1-101C,6,2020,19.6
1-101D,6,2020,19.6
1-1,7,2020,20.65
1-2,7,2020,19.4
1-3,7,2020,19.4
1-4,7,2020,19.4
1-5,7,2020,19.46
1-6,7,2020,19.2
1-7,7,2020,19.2
1-8,7,2020,19.2
1-9A,7,2020,19.2
1-9B,7,2020,19.2
1-10A,7,2020,19.2
1-10B,7,2020,21.3
1-11A,7,2020,20.02
1-11B,7,2020,20.69
1-12A,7,2020,16.2
1-12B,7,2020,16.2
1-13,7,2020,20.67
1-14,7,2020,19.2
1-15,7,2020,19.2
1-16,7,2020,19.2
1-17A,7,2020,20.48
1-17B,7,2020,19.23
1-18A,7,2020,20.48
1-18B,7,2020,19.23
1-19A,7,2020,19.23
1-19B,7,2020,19.23
1-20A,7,2020,19.23
1-20B,7,2020,19.23
1-21A,7,2020,16.2
1-21B,7,2020,19.23
1-22,7,2020,19.23
1-23,7,2020,17.53
1-24,7,2020,16.2
1-25,7,2020,18.86
1-26,7,2020,18.74
1-27,7,2020,18.8
1-28,7,2020,18.38
1-29,7,2020,18.38
1-30,7,2020,18.56
1-31,7,2020,18.56
1-32,7,2020,18.56
1-33,7,2020,18.99
1-34,7,2020,19.04
1-35,7,2020,19.2
1-36,7,2020,18.74
1-37,7,2020,18.74
1-38,7,2020,18.74
1-39,7,2020,18.56
1-40,7,2020,18.74
1-41,7,2020,18.74
1-42,7,2020,18.74
1-43,7,2020,18.74
1-44,7,2020,18.74
1-101A,7,2020,19.6
1-101B,7,2020,19.6
1-101C,7,2020,19.6
1-101D,7,2020,19.6
1-1,8,2020,20.65
1-2,8,2020,19.4
1-3,8,2020,19.4
1-4,8,2020,19.4
1-5,8,2020,19.46
1-6,8,2020,19.2
1-7,8,2020,19.2
1-8,8,2020,19.2
1-9A,8,2020,19.2
1-9B,8,2020,19.2
1-10A,8,2020,19.2
1-10B,8,2020,21.3
1-11A,8,2020,20.02
1-11B,8,2020,20.69
1-12A,8,2020,16.2
1-12B,8,2020,16.2
1-13,8,2020,20.67
1-14,8,2020,19.2
1-15,8,2020,19.2
1-16,8,2020,19.2
1-17A,8,2020,20.48
1-17B,8,2020,19.23
1-18A,8,2020,20.48
1-18B,8,2020,19.23
1-19A,8,2020,19.23
1-19B,8,2020,19.23
1-20A,8,2020,19.23
1-20B,8,2020,19.23
1-21A,8,2020,16.2
1-21B,8,2020,19.23
1-22,8,2020,19.23
1-23,8,2020,17.53
1-24,8,2020,16.2
1-25,8,2020,18.86
1-26,8,2020,18.74
1-27,8,2020,18.8
1-28,8,2020,18.38
1-29,8,2020,18.38
1-30,8,2020,18.56
1-31,8,2020,18.56
1-32,8,2020,18.56
1-33,8,2020,18.99
1-34,8,2020,19.04
1-35,8,2020,19.2
1-36,8,2020,18.74
1-37,8,2020,18.74
1-38,8,2020,18.74
1-39,8,2020,18.56
1-40,8,2020,18.74
1-41,8,2020,18.74
1-42,8,2020,18.74
1-43,8,2020,18.74
1-44,8,2020,18.74
1-101A,8,2020,19.6
1-101B,8,2020,19.6
1-101C,8,2020,19.6
1-101D,8,2020,19.6
1-1,9,2020,20.65
1-2,9,2020,19.4
1-3,9,2020,19.4
1-4,9,2020,19.4
1-5,9,2020,19.46
1-6,9,2020,19.2
1-7,9,2020,19.2
1-8,9,2020,19.2
1-9A,9,2020,19.2
1-9B,9,2020,19.2
1-10A,9,2020,19.2
1-10B,9,2020,21.3
1-11A,9,2020,20.02
1-11B,9,2020,20.69
1-12A,9,2020,16.2
1-12B,9,2020,16.2
1-13,9,2020,20.67
1-14,9,2020,19.2
1-15,9,2020,19.2
1-16,9,2020,19.2
1-17A,9,2020,20.48
1-17B,9,2020,19.23
1-18A,9,2020,20.48
1-18B,9,2020,19.23
1-19A,9,2020,19.23
1-19B,9,2020,19.23
1-20A,9,2020,19.23
1-20B,9,2020,19.23
1-21A,9,2020,16.2
1-21B,9,2020,19.23
1-22,9,2020,19.23
1-23,9,2020,17.53
1-24,9,2020,16.2
1-25,9,2020,18.86
1-26,9,2020,18.74
1-27,9,2020,18.8
1-28,9,2020,18.38
1-29,9,2020,18.38
1-30,9,2020,18.56
1-31,9,2020,18.56
1-32,9,2020,18.56
1-33,9,2020,18.99
1-34,9,2020,19.04
1-35,9,2020,19.2
1-36,9,2020,18.74
1-37,9,2020,18.74
1-38,9,2020,18.74
1-39,9,2020,18.56
1-40,9,2020,18.74
1-41,9,2020,18.74
1-42,9,2020,18.74
1-43,9,2020,18.74
1-44,9,2020,18.74
1-101A,9,2020,19.6
1-101B,9,2020,19.6
1-101C,9,2020,19.6
1-101D,9,2020,19.6
1-1,10,2020,20.65
1-2,10,2020,19.4
1-3,10,2020,19.4
1-4,10,2020,19.4
1-5,10,2020,19.46
1-6,10,2020,19.2
1-7,10,2020,19.2
1-8,10,2020,19.2
1-9A,10,2020,19.2
1-9B,10,2020,19.2
1-10A,10,2020,19.2
1-10B,10,2020,21.3
1-11A,10,2020,20.02
1-11B,10,2020,20.69
1-12A,10,2020,16.2
1-12B,10,2020,16.2
1-13,10,2020,20.67
1-14,10,2020,19.2
1-15,10,2020,19.2
1-16,10,2020,19.2
1-17A,10,2020,20.48
1-17B,10,2020,19.23
1-18A,10,2020,20.48
1-18B,10,2020,19.23
1-19A,10,2020,19.23
1-19B,10,2020,19.23
1-20A,10,2020,19.23
1-20B,10,2020,19.23
1-21A,10,2020,16.2
1-21B,10,2020,19.23
1-22,10,2020,19.23
1-23,10,2020,17.53
1-24,10,2020,16.2
1-25,10,2020,18.86
1-26,10,2020,18.74
1-27,10,2020,18.8
1-28,10,2020,18.38
1-29,10,2020,18.38
1-30,10,2020,18.56
1-31,10,2020,18.56
1-32,10,2020,18.56
1-33,10,2020,18.99
1-34,10,2020,19.04
1-35,10,2020,19.2
1-36,10,2020,18.74
1-37,10,2020,18.74
1-38,10,2020,18.74
1-39,10,2020,18.56
1-40,10,2020,18.74
1-41,10,2020,18.74
1-42,10,2020,18.74
1-43,10,2020,18.74
1-44,10,2020,18.74
1-101A,10,2020,19.6
1-101B,10,2020,19.6
1-101C,10,2020,19.6
1-101D,10,2020,19.6
1-1,11,2020,20.65
1-2,11,2020,19.4
1-3,11,2020,19.4
1-4,11,2020,19.4
1-5,11,2020,19.46
1-6,11,2020,19.2
1-7,11,2020,19.2
1-8,11,2020,19.2
1-9A,11,2020,19.2
1-9B,11,2020,19.2
1-10A,11,2020,19.2
1-10B,11,2020,21.3
1-11A,11,2020,20.02
1-11B,11,2020,20.69
1-12A,11,2020,16.2
1-12B,11,2020,16.2
1-13,11,2020,20.67
1-14,11,2020,19.2
1-15,11,2020,19.2
1-16,11,2020,19.2
1-17A,11,2020,20.48
1-17B,11,2020,19.23
1-18A,11,2020,20.48
1-18B,11,2020,19.23
1-19A,11,2020,19.23
1-19B,11,2020,19.23
1-20A,11,2020,19.23
1-20B,11,2020,19.23
1-21A,11,2020,16.2
1-21B,11,2020,19.23
1-22,11,2020,19.23
1-23,11,2020,17.53
1-24,11,2020,16.2
1-25,11,2020,18.86
1-26,11,2020,18.74
1-27,11,2020,18.8
1-28,11,2020,18.38
1-29,11,2020,18.38
1-30,11,2020,18.56
1-31,11,2020,18.56
1-32,11,2020,18.56
1-33,11,2020,18.99
1-34,11,2020,19.04
1-35,11,2020,19.2
1-36,11,2020,18.74
1-37,11,2020,18.74
1-38,11,2020,18.74
1-39,11,2020,18.56
1-40,11,2020,18.74
1-41,11,2020,18.74
1-42,11,2020,18.74
1-43,11,2020,18.74
1-44,11,2020,18.74
1-101A,11,2020,19.6
1-101B,11,2020,19.6
1-101C,11,2020,19.6
1-101D,11,2020,19.6
1-1,12,2020,20.65
1-2,12,2020,19.4
1-3,12,2020,19.4
1-4,12,2020,19.4
1-5,12,2020,19.46
1-6,12,2020,19.2
1-7,12,2020,19.2
1-8,12,2020,19.2
1-9A,12,2020,19.2
1-9B,12,2020,19.2
1-10A,12,2020,19.2
1-10B,12,2020,21.3
1-11A,12,2020,20.02
1-11B,12,2020,20.69
1-12A,12,2020,16.2
1-12B,12,2020,16.2
1-13,12,2020,20.67
1-14,12,2020,19.2
1-15,12,2020,19.2
1-16,12,2020,19.2
1-17A,12,2020,20.48
1-17B,12,2020,19.23
1-18A,12,2020,20.48
1-18B,12,2020,19.23
1-19A,12,2020,19.23
1-19B,12,2020,19.23
1-20A,12,2020,19.23
1-20B,12,2020,19.23
1-21A,12,2020,16.2
1-21B,12,2020,19.23
1-22,12,2020,19.23
1-23,12,2020,17.53
1-24,12,2020,16.2
1-25,12,2020,18.86
1-26,12,2020,18.74
1-27,12,2020,18.8
1-28,12,2020,18.38
1-29,12,2020,18.38
1-30,12,2020,18.56
1-31,12,2020,18.56
1-32,12,2020,18.56
1-33,12,2020,18.99
1-34,12,2020,19.04
1-35,12,2020,19.2
1-36,12,2020,18.74
1-37,12,2020,18.74
1-38,12,2020,18.74
1-39,12,2020,18.56
1-40,12,2020,18.74
1-41,12,2020,18.74
1-42,12,2020,18.74
1-43,12,2020,18.74
1-44,12,2020,18.74
1-101A,12,2020,19.6
1-101B,12,2020,19.6
1-101C,12,2020,19.6
1-101D,12,2020,19.6
1-1,1,2019,20.65
1-2,1,2019,19.4
1-3,1,2019,19.4
1-4,1,2019,19.4
1-5,1,2019,19.46
1-6,1,2019,19.2
1-7,1,2019,19.2
1-8,1,2019,19.2
1-9A,1,2019,19.2
1-9B,1,2019,19.2
1-10A,1,2019,19.2
1-10B,1,2019,21.3
1-11A,1,2019,20.02
1-11B,1,2019,20.69
1-12A,1,2019,16.2
1-12B,1,2019,16.2
1-13,1,2019,20.67
1-14,1,2019,19.2
1-15,1,2019,19.2
1-16,1,2019,19.2
1-17A,1,2019,20.48
1-17B,1,2019,19.23
1-18A,1,2019,20.48
1-18B,1,2019,19.23
1-19A,1,2019,19.23
1-19B,1,2019,19.23
1-20A,1,2019,19.23
1-20B,1,2019,19.23
1-21A,1,2019,16.2
1-21B,1,2019,19.23
1-22,1,2019,19.23
1-23,1,2019,17.53
1-24,1,2019,16.2
1-25,1,2019,18.86
1-26,1,2019,18.74
1-27,1,2019,18.8
1-28,1,2019,18.38
1-29,1,2019,18.38
1-30,1,2019,18.56
1-31,1,2019,18.56
1-32,1,2019,18.56
1-33,1,2019,18.99
1-34,1,2019,19.04
1-35,1,2019,19.2
1-36,1,2019,18.74
1-37,1,2019,18.74
1-38,1,2019,18.74
1-39,1,2019,18.56
1-40,1,2019,18.74
1-41,1,2019,18.74
1-42,1,2019,18.74
1-43,1,2019,18.74
1-44,1,2019,18.74
1-101A,1,2019,19.6
1-101B,1,2019,19.6
1-101C,1,2019,19.6
1-101D,1,2019,19.6
1-1,2,2019,20.65
1-2,2,2019,19.4
1-3,2,2019,19.4
1-4,2,2019,19.4
1-5,2,2019,19.46
1-6,2,2019,19.2
1-7,2,2019,19.2
1-8,2,2019,19.2
1-9A,2,2019,19.2
1-9B,2,2019,19.2
1-10A,2,2019,19.2
1-10B,2,2019,21.3
1-11A,2,2019,20.02
1-11B,2,2019,20.69
1-12A,2,2019,16.2
1-12B,2,2019,16.2
1-13,2,2019,20.67
1-14,2,2019,19.2
1-15,2,2019,19.2
1-16,2,2019,19.2
1-17A,2,2019,20.48
1-17B,2,2019,19.23
1-18A,2,2019,20.48
1-18B,2,2019,19.23
1-19A,2,2019,19.23
1-19B,2,2019,19.23
1-20A,2,2019,19.23
1-20B,2,2019,19.23
1-21A,2,2019,16.2
1-21B,2,2019,19.23
1-22,2,2019,19.23
1-23,2,2019,17.53
1-24,2,2019,16.2
1-25,2,2019,18.86
1-26,2,2019,18.74
1-27,2,2019,18.8
1-28,2,2019,18.38
1-29,2,2019,18.38
1-30,2,2019,18.56
1-31,2,2019,18.56
1-32,2,2019,18.56
1-33,2,2019,18.99
1-34,2,2019,19.04
1-35,2,2019,19.2
1-36,2,2019,18.74
1-37,2,2019,18.74
1-38,2,2019,18.74
1-39,2,2019,18.56
1-40,2,2019,18.74
1-41,2,2019,18.74
1-42,2,2019,18.74
1-43,2,2019,18.74
1-44,2,2019,18.74
1-101A,2,2019,19.6
1-101B,2,2019,19.6
1-101C,2,2019,19.6
1-101D,2,2019,19.6
1-1,3,2019,20.65
1-2,3,2019,19.4
1-3,3,2019,19.4
1-4,3,2019,19.4
1-5,3,2019,19.46
1-6,3,2019,19.2
1-7,3,2019,19.2
1-8,3,2019,19.2
1-9A,3,2019,19.2
1-9B,3,2019,19.2
1-10A,3,2019,19.2
1-10B,3,2019,21.3
1-11A,3,2019,20.02
1-11B,3,2019,20.69
1-12A,3,2019,16.2
1-12B,3,2019,16.2
1-13,3,2019,20.67
1-14,3,2019,19.2
1-15,3,2019,19.2
1-16,3,2019,19.2
1-17A,3,2019,20.48
1-17B,3,2019,19.23
1-18A,3,2019,20.48
1-18B,3,2019,19.23
1-19A,3,2019,19.23
1-19B,3,2019,19.23
1-20A,3,2019,19.23
1-20B,3,2019,19.23
1-21A,3,2019,16.2
1-21B,3,2019,19.23
1-22,3,2019,19.23
1-23,3,2019,17.53
1-24,3,2019,16.2
1-25,3,2019,18.86
1-26,3,2019,18.74
1-27,3,2019,18.8
1-28,3,2019,18.38
1-29,3,2019,18.38
1-30,3,2019,18.56
1-31,3,2019,18.56
1-32,3,2019,18.56
1-33,3,2019,18.99
1-34,3,2019,19.04
1-35,3,2019,19.2
1-36,3,2019,18.74
1-37,3,2019,18.74
1-38,3,2019,18.74
1-39,3,2019,18.56
1-40,3,2019,18.74
1-41,3,2019,18.74
1-42,3,2019,18.74
1-43,3,2019,18.74
1-44,3,2019,18.74
1-101A,3,2019,19.6
1-101B,3,2019,19.6
1-101C,3,2019,19.6
1-101D,3,2019,19.6
1-1,4,2019,20.65
1-2,4,2019,19.4
1-3,4,2019,19.4
1-4,4,2019,19.4
1-5,4,2019,19.46
1-6,4,2019,19.2
1-7,4,2019,19.2
1-8,4,2019,19.2
1-9A,4,2019,19.2
1-9B,4,2019,19.2
1-10A,4,2019,19.2
1-10B,4,2019,21.3
1-11A,4,2019,20.02
1-11B,4,2019,20.69
1-12A,4,2019,16.2
1-12B,4,2019,16.2
1-13,4,2019,20.67
1-14,4,2019,19.2
1-15,4,2019,19.2
1-16,4,2019,19.2
1-17A,4,2019,20.48
1-17B,4,2019,19.23
1-18A,4,2019,20.48
1-18B,4,2019,19.23
1-19A,4,2019,19.23
1-19B,4,2019,19.23
1-20A,4,2019,19.23
1-20B,4,2019,19.23
1-21A,4,2019,16.2
1-21B,4,2019,19.23
1-22,4,2019,19.23
1-23,4,2019,17.53
1-24,4,2019,16.2
1-25,4,2019,18.86
1-26,4,2019,18.74
1-27,4,2019,18.8
1-28,4,2019,18.38
1-29,4,2019,18.38
1-30,4,2019,18.56
1-31,4,2019,18.56
1-32,4,2019,18.56
1-33,4,2019,18.99
1-34,4,2019,19.04
1-35,4,2019,19.2
1-36,4,2019,18.74
1-37,4,2019,18.74
1-38,4,2019,18.74
1-39,4,2019,18.56
1-40,4,2019,18.74
1-41,4,2019,18.74
1-42,4,2019,18.74
1-43,4,2019,18.74
1-44,4,2019,18.74
1-101A,4,2019,19.6
1-101B,4,2019,19.6
1-101C,4,2019,19.6
1-101D,4,2019,19.6
1-1,5,2019,20.65
1-2,5,2019,19.4
1-3,5,2019,19.4
1-4,5,2019,19.4
1-5,5,2019,19.46
1-6,5,2019,19.2
1-7,5,2019,19.2
1-8,5,2019,19.2
1-9A,5,2019,19.2
1-9B,5,2019,19.2
1-10A,5,2019,19.2
1-10B,5,2019,21.3
1-11A,5,2019,20.02
1-11B,5,2019,20.69
1-12A,5,2019,16.2
1-12B,5,2019,16.2
1-13,5,2019,20.67
1-14,5,2019,19.2
1-15,5,2019,19.2
1-16,5,2019,19.2
1-17A,5,2019,20.48
1-17B,5,2019,19.23
1-18A,5,2019,20.48
1-18B,5,2019,19.23
1-19A,5,2019,19.23
1-19B,5,2019,19.23
1-20A,5,2019,19.23
1-20B,5,2019,19.23
1-21A,5,2019,16.2
1-21B,5,2019,19.23
1-22,5,2019,19.23
1-23,5,2019,17.53
1-24,5,2019,16.2
1-25,5,2019,18.86
1-26,5,2019,18.74
1-27,5,2019,18.8
1-28,5,2019,18.38
1-29,5,2019,18.38
1-30,5,2019,18.56
1-31,5,2019,18.56
1-32,5,2019,18.56
1-33,5,2019,18.99
1-34,5,2019,19.04
1-35,5,2019,19.2
1-36,5,2019,18.74
1-37,5,2019,18.74
1-38,5,2019,18.74
1-39,5,2019,18.56
1-40,5,2019,18.74
1-41,5,2019,18.74
1-42,5,2019,18.74
1-43,5,2019,18.74
1-44,5,2019,18.74
1-101A,5,2019,19.6
1-101B,5,2019,19.6
1-101C,5,2019,19.6
1-101D,5,2019,19.6
1-1,6,2019,20.65
1-2,6,2019,19.4
1-3,6,2019,19.4
1-4,6,2019,19.4
1-5,6,2019,19.46
1-6,6,2019,19.2
1-7,6,2019,19.2
1-8,6,2019,19.2
1-9A,6,2019,19.2
1-9B,6,2019,19.2
1-10A,6,2019,19.2
1-10B,6,2019,21.3
1-11A,6,2019,20.02
1-11B,6,2019,20.69
1-12A,6,2019,16.2
1-12B,6,2019,16.2
1-13,6,2019,20.67
1-14,6,2019,19.2
1-15,6,2019,19.2
1-16,6,2019,19.2
1-17A,6,2019,20.48
1-17B,6,2019,19.23
1-18A,6,2019,20.48
1-18B,6,2019,19.23
1-19A,6,2019,19.23
1-19B,6,2019,19.23
1-20A,6,2019,19.23
1-20B,6,2019,19.23
1-21A,6,2019,16.2
1-21B,6,2019,19.23
1-22,6,2019,19.23
1-23,6,2019,17.53
1-24,6,2019,16.2
1-25,6,2019,18.86
1-26,6,2019,18.74
1-27,6,2019,18.8
1-28,6,2019,18.38
1-29,6,2019,18.38
1-30,6,2019,18.56
1-31,6,2019,18.56
1-32,6,2019,18.56
1-33,6,2019,18.99
1-34,6,2019,19.04
1-35,6,2019,19.2
1-36,6,2019,18.74
1-37,6,2019,18.74
1-38,6,2019,18.74
1-39,6,2019,18.56
1-40,6,2019,18.74
1-41,6,2019,18.74
1-42,6,2019,18.74
1-43,6,2019,18.74
1-44,6,2019,18.74
1-101A,6,2019,19.6
1-101B,6,2019,19.6
1-101C,6,2019,19.6
1-101D,6,2019,19.6
1-1,7,2019,20.65
1-2,7,2019,19.4
1-3,7,2019,19.4
1-4,7,2019,19.4
1-5,7,2019,19.46
1-6,7,2019,19.2
1-7,7,2019,19.2
1-8,7,2019,19.2
1-9A,7,2019,19.2
1-9B,7,2019,19.2
1-10A,7,2019,19.2
1-10B,7,2019,21.3
1-11A,7,2019,20.02
1-11B,7,2019,20.69
1-12A,7,2019,16.2
1-12B,7,2019,16.2
1-13,7,2019,20.67
1-14,7,2019,19.2
1-15,7,2019,19.2
1-16,7,2019,19.2
1-17A,7,2019,20.48
1-17B,7,2019,19.23
1-18A,7,2019,20.48
1-18B,7,2019,19.23
1-19A,7,2019,19.23
1-19B,7,2019,19.23
1-20A,7,2019,19.23
1-20B,7,2019,19.23
1-21A,7,2019,16.2
1-21B,7,2019,19.23
1-22,7,2019,19.23
1-23,7,2019,17.53
1-24,7,2019,16.2
1-25,7,2019,18.86
1-26,7,2019,18.74
1-27,7,2019,18.8
1-28,7,2019,18.38
1-29,7,2019,18.38
1-30,7,2019,18.56
1-31,7,2019,18.56
1-32,7,2019,18.56
1-33,7,2019,18.99
1-34,7,2019,19.04
1-35,7,2019,19.2
1-36,7,2019,18.74
1-37,7,2019,18.74
1-38,7,2019,18.74
1-39,7,2019,18.56
1-40,7,2019,18.74
1-41,7,2019,18.74
1-42,7,2019,18.74
1-43,7,2019,18.74
1-44,7,2019,18.74
1-101A,7,2019,19.6
1-101B,7,2019,19.6
1-101C,7,2019,19.6
1-101D,7,2019,19.6
1-1,8,2019,20.65
1-2,8,2019,19.4
1-3,8,2019,19.4
1-4,8,2019,19.4
1-5,8,2019,19.46
1-6,8,2019,19.2
1-7,8,2019,19.2
1-8,8,2019,19.2
1-9A,8,2019,19.2
1-9B,8,2019,19.2
1-10A,8,2019,19.2
1-10B,8,2019,21.3
1-11A,8,2019,20.02
1-11B,8,2019,20.69
1-12A,8,2019,16.2
1-12B,8,2019,16.2
1-13,8,2019,20.67
1-14,8,2019,19.2
1-15,8,2019,19.2
1-16,8,2019,19.2
1-17A,8,2019,20.48
1-17B,8,2019,19.23
1-18A,8,2019,20.48
1-18B,8,2019,19.23
1-19A,8,2019,19.23
1-19B,8,2019,19.23
1-20A,8,2019,19.23
1-20B,8,2019,19.23
1-21A,8,2019,16.2
1-21B,8,2019,19.23
1-22,8,2019,19.23
1-23,8,2019,17.53
1-24,8,2019,16.2
1-25,8,2019,18.86
1-26,8,2019,18.74
1-27,8,2019,18.8
1-28,8,2019,18.38
1-29,8,2019,18.38
1-30,8,2019,18.56
1-31,8,2019,18.56
1-32,8,2019,18.56
1-33,8,2019,18.99
1-34,8,2019,19.04
1-35,8,2019,19.2
1-36,8,2019,18.74
1-37,8,2019,18.74
1-38,8,2019,18.74
1-39,8,2019,18.56
1-40,8,2019,18.74
1-41,8,2019,18.74
1-42,8,2019,18.74
1-43,8,2019,18.74
1-44,8,2019,18.74
1-101A,8,2019,19.6
1-101B,8,2019,19.6
1-101C,8,2019,19.6
1-101D,8,2019,19.6
1-1,9,2019,20.65
1-2,9,2019,19.4
1-3,9,2019,19.4
1-4,9,2019,19.4
1-5,9,2019,19.46
1-6,9,2019,19.2
1-7,9,2019,19.2
1-8,9,2019,19.2
1-9A,9,2019,19.2
1-9B,9,2019,19.2
1-10A,9,2019,19.2
1-10B,9,2019,21.3
1-11A,9,2019,20.02
1-11B,9,2019,20.69
1-12A,9,2019,16.2
1-12B,9,2019,16.2
1-13,9,2019,20.67
1-14,9,2019,19.2
1-15,9,2019,19.2
1-16,9,2019,19.2
1-17A,9,2019,20.48
1-17B,9,2019,19.23
1-18A,9,2019,20.48
1-18B,9,2019,19.23
1-19A,9,2019,19.23
1-19B,9,2019,19.23
1-20A,9,2019,19.23
1-20B,9,2019,19.23
1-21A,9,2019,16.2
1-21B,9,2019,19.23
1-22,9,2019,19.23
1-23,9,2019,17.53
1-24,9,2019,16.2
1-25,9,2019,18.86
1-26,9,2019,18.74
1-27,9,2019,18.8
1-28,9,2019,18.38
1-29,9,2019,18.38
1-30,9,2019,18.56
1-31,9,2019,18.56
1-32,9,2019,18.56
1-33,9,2019,18.99
1-34,9,2019,19.04
1-35,9,2019,19.2
1-36,9,2019,18.74
1-37,9,2019,18.74
1-38,9,2019,18.74
1-39,9,2019,18.56
1-40,9,2019,18.74
1-41,9,2019,18.74
1-42,9,2019,18.74
1-43,9,2019,18.74
1-44,9,2019,18.74
1-101A,9,2019,19.6
1-101B,9,2019,19.6
1-101C,9,2019,19.6
1-101D,9,2019,19.6
1-1,10,2019,20.65
1-2,10,2019,19.4
1-3,10,2019,19.4
1-4,10,2019,19.4
1-5,10,2019,19.46
1-6,10,2019,19.2
1-7,10,2019,19.2
1-8,10,2019,19.2
1-9A,10,2019,19.2
1-9B,10,2019,19.2
1-10A,10,2019,19.2
1-10B,10,2019,21.3
1-11A,10,2019,20.02
1-11B,10,2019,20.69
1-12A,10,2019,16.2
1-12B,10,2019,16.2
1-13,10,2019,20.67
1-14,10,2019,19.2
1-15,10,2019,19.2
1-16,10,2019,19.2
1-17A,10,2019,20.48
1-17B,10,2019,19.23
1-18A,10,2019,20.48
1-18B,10,2019,19.23
1-19A,10,2019,19.23
1-19B,10,2019,19.23
1-20A,10,2019,19.23
1-20B,10,2019,19.23
1-21A,10,2019,16.2
1-21B,10,2019,19.23
1-22,10,2019,19.23
1-23,10,2019,17.53
1-24,10,2019,16.2
1-25,10,2019,18.86
1-26,10,2019,18.74
1-27,10,2019,18.8
1-28,10,2019,18.38
1-29,10,2019,18.38
1-30,10,2019,18.56
1-31,10,2019,18.56
1-32,10,2019,18.56
1-33,10,2019,18.99
1-34,10,2019,19.04
1-35,10,2019,19.2
1-36,10,2019,18.74
1-37,10,2019,18.74
1-38,10,2019,18.74
1-39,10,2019,18.56
1-40,10,2019,18.74
1-41,10,2019,18.74
1-42,10,2019,18.74
1-43,10,2019,18.74
1-44,10,2019,18.74
1-101A,10,2019,19.6
1-101B,10,2019,19.6
1-101C,10,2019,19.6
1-101D,10,2019,19.6
1-1,11,2019,20.65
1-2,11,2019,19.4
1-3,11,2019,19.4
1-4,11,2019,19.4
1-5,11,2019,19.46
1-6,11,2019,19.2
1-7,11,2019,19.2
1-8,11,2019,19.2
1-9A,11,2019,19.2
1-9B,11,2019,19.2
1-10A,11,2019,19.2
1-10B,11,2019,21.3
1-11A,11,2019,20.02
1-11B,11,2019,20.69
1-12A,11,2019,16.2
1-12B,11,2019,16.2
1-13,11,2019,20.67
1-14,11,2019,19.2
1-15,11,2019,19.2
1-16,11,2019,19.2
1-17A,11,2019,20.48
1-17B,11,2019,19.23
1-18A,11,2019,20.48
1-18B,11,2019,19.23
1-19A,11,2019,19.23
1-19B,11,2019,19.23
1-20A,11,2019,19.23
1-20B,11,2019,19.23
1-21A,11,2019,16.2
1-21B,11,2019,19.23
1-22,11,2019,19.23
1-23,11,2019,17.53
1-24,11,2019,16.2
1-25,11,2019,18.86
1-26,11,2019,18.74
1-27,11,2019,18.8
1-28,11,2019,18.38
1-29,11,2019,18.38
1-30,11,2019,18.56
1-31,11,2019,18.56
1-32,11,2019,18.56
1-33,11,2019,18.99
1-34,11,2019,19.04
1-35,11,2019,19.2
1-36,11,2019,18.74
1-37,11,2019,18.74
1-38,11,2019,18.74
1-39,11,2019,18.56
1-40,11,2019,18.74
1-41,11,2019,18.74
1-42,11,2019,18.74
1-43,11,2019,18.74
1-44,11,2019,18.74
1-101A,11,2019,19.6
1-101B,11,2019,19.6
1-101C,11,2019,19.6
1-101D,11,2019,19.6
1-1,12,2019,20.65
1-2,12,2019,19.4
1-3,12,2019,19.4
1-4,12,2019,19.4
1-5,12,2019,19.46
1-6,12,2019,19.2
1-7,12,2019,19.2
1-8,12,2019,19.2
1-9A,12,2019,19.2
1-9B,12,2019,19.2
1-10A,12,2019,19.2
1-10B,12,2019,21.3
1-11A,12,2019,20.02
1-11B,12,2019,20.69
1-12A,12,2019,16.2
1-12B,12,2019,16.2
1-13,12,2019,20.67
1-14,12,2019,19.2
1-15,12,2019,19.2
1-16,12,2019,19.2
1-17A,12,2019,20.48
1-17B,12,2019,19.23
1-18A,12,2019,20.48
1-18B,12,2019,19.23
1-19A,12,2019,19.23
1-19B,12,2019,19.23
1-20A,12,2019,19.23
1-20B,12,2019,19.23
1-21A,12,2019,16.2
1-21B,12,2019,19.23
1-22,12,2019,19.23
1-23,12,2019,17.53
1-24,12,2019,16.2
1-25,12,2019,18.86
1-26,12,2019,18.74
1-27,12,2019,18.8
1-28,12,2019,18.38
1-29,12,2019,18.38
1-30,12,2019,18.56
1-31,12,2019,18.56
1-32,12,2019,18.56
1-33,12,2019,18.99
1-34,12,2019,19.04
1-35,12,2019,19.2
1-36,12,2019,18.74
1-37,12,2019,18.74
1-38,12,2019,18.74
1-39,12,2019,18.56
1-40,12,2019,18.74
1-41,12,2019,18.74
1-42,12,2019,18.74
1-43,12,2019,18.74
1-44,12,2019,18.74
1-101A,12,2019,19.6
1-101B,12,2019,19.6
1-101C,12,2019,19.6
1-101D,12,2019,19.6
1-1,1,2018,20.65
1-2,1,2018,19.4
1-3,1,2018,19.4
1-4,1,2018,19.4
1-5,1,2018,19.46
1-6,1,2018,19.2
1-7,1,2018,19.2
1-8,1,2018,19.2
1-9A,1,2018,19.2
1-9B,1,2018,19.2
1-10A,1,2018,19.2
1-10B,1,2018,21.3
1-11A,1,2018,20.02
1-11B,1,2018,20.69
1-12A,1,2018,16.2
1-12B,1,2018,16.2
1-13,1,2018,20.67
1-14,1,2018,19.2
1-15,1,2018,19.2
1-16,1,2018,19.2
1-17A,1,2018,20.48
1-17B,1,2018,19.23
1-18A,1,2018,20.48
1-18B,1,2018,19.23
1-19A,1,2018,19.23
1-19B,1,2018,19.23
1-20A,1,2018,19.23
1-20B,1,2018,19.23
1-21A,1,2018,16.2
1-21B,1,2018,19.23
1-22,1,2018,19.23
1-23,1,2018,17.53
1-24,1,2018,16.2
1-25,1,2018,18.86
1-26,1,2018,18.74
1-27,1,2018,18.8
1-28,1,2018,18.38
1-29,1,2018,18.38
1-30,1,2018,18.56
1-31,1,2018,18.56
1-32,1,2018,18.56
1-33,1,2018,18.99
1-34,1,2018,19.04
1-35,1,2018,19.2
1-36,1,2018,18.74
1-37,1,2018,18.74
1-38,1,2018,18.74
1-39,1,2018,18.56
1-40,1,2018,18.74
1-41,1,2018,18.74
1-42,1,2018,18.74
1-43,1,2018,18.74
1-44,1,2018,18.74
1-101A,1,2018,19.6
1-101B,1,2018,19.6
1-101C,1,2018,19.6
1-101D,1,2018,19.6
1-1,2,2018,20.65
1-2,2,2018,19.4
1-3,2,2018,19.4
1-4,2,2018,19.4
1-5,2,2018,19.46
1-6,2,2018,19.2
1-7,2,2018,19.2
1-8,2,2018,19.2
1-9A,2,2018,19.2
1-9B,2,2018,19.2
1-10A,2,2018,19.2
1-10B,2,2018,21.3
1-11A,2,2018,20.02
1-11B,2,2018,20.69
1-12A,2,2018,16.2
1-12B,2,2018,16.2
1-13,2,2018,20.67
1-14,2,2018,19.2
1-15,2,2018,19.2
1-16,2,2018,19.2
1-17A,2,2018,20.48
1-17B,2,2018,19.23
1-18A,2,2018,20.48
1-18B,2,2018,19.23
1-19A,2,2018,19.23
1-19B,2,2018,19.23
1-20A,2,2018,19.23
1-20B,2,2018,19.23
1-21A,2,2018,16.2
1-21B,2,2018,19.23
1-22,2,2018,19.23
1-23,2,2018,17.53
1-24,2,2018,16.2
1-25,2,2018,18.86
1-26,2,2018,18.74
1-27,2,2018,18.8
1-28,2,2018,18.38
1-29,2,2018,18.38
1-30,2,2018,18.56
1-31,2,2018,18.56
1-32,2,2018,18.56
1-33,2,2018,18.99
1-34,2,2018,19.04
1-35,2,2018,19.2
1-36,2,2018,18.74
1-37,2,2018,18.74
1-38,2,2018,18.74
1-39,2,2018,18.56
1-40,2,2018,18.74
1-41,2,2018,18.74
1-42,2,2018,18.74
1-43,2,2018,18.74
1-44,2,2018,18.74
1-101A,2,2018,19.6
1-101B,2,2018,19.6
1-101C,2,2018,19.6
1-101D,2,2018,19.6
1-1,3,2018,20.65
1-2,3,2018,19.4
1-3,3,2018,19.4
1-4,3,2018,19.4
1-5,3,2018,19.46
1-6,3,2018,19.2
1-7,3,2018,19.2
1-8,3,2018,19.2
1-9A,3,2018,19.2
1-9B,3,2018,19.2
1-10A,3,2018,19.2
1-10B,3,2018,21.3
1-11A,3,2018,20.02
1-11B,3,2018,20.69
1-12A,3,2018,16.2
1-12B,3,2018,16.2
1-13,3,2018,20.67
1-14,3,2018,19.2
1-15,3,2018,19.2
1-16,3,2018,19.2
1-17A,3,2018,20.48
1-17B,3,2018,19.23
1-18A,3,2018,20.48
1-18B,3,2018,19.23
1-19A,3,2018,19.23
1-19B,3,2018,19.23
1-20A,3,2018,19.23
1-20B,3,2018,19.23
1-21A,3,2018,16.2
1-21B,3,2018,19.23
1-22,3,2018,19.23
1-23,3,2018,17.53
1-24,3,2018,16.2
1-25,3,2018,18.86
1-26,3,2018,18.74
1-27,3,2018,18.8
1-28,3,2018,18.38
1-29,3,2018,18.38
1-30,3,2018,18.56
1-31,3,2018,18.56
1-32,3,2018,18.56
1-33,3,2018,18.99
1-34,3,2018,19.04
1-35,3,2018,19.2
1-36,3,2018,18.74
1-37,3,2018,18.74
1-38,3,2018,18.74
1-39,3,2018,18.56
1-40,3,2018,18.74
1-41,3,2018,18.74
1-42,3,2018,18.74
1-43,3,2018,18.74
1-44,3,2018,18.74
1-101A,3,2018,19.6
1-101B,3,2018,19.6
1-101C,3,2018,19.6
1-101D,3,2018,19.6
1-1,4,2018,20.65
1-2,4,2018,19.4
1-3,4,2018,19.4
1-4,4,2018,19.4
1-5,4,2018,19.46
1-6,4,2018,19.2
1-7,4,2018,19.2
1-8,4,2018,19.2
1-9A,4,2018,19.2
1-9B,4,2018,19.2
1-10A,4,2018,19.2
1-10B,4,2018,21.3
1-11A,4,2018,20.02
1-11B,4,2018,20.69
1-12A,4,2018,16.2
1-12B,4,2018,16.2
1-13,4,2018,20.67
1-14,4,2018,19.2
1-15,4,2018,19.2
1-16,4,2018,19.2
1-17A,4,2018,20.48
1-17B,4,2018,19.23
1-18A,4,2018,20.48
1-18B,4,2018,19.23
1-19A,4,2018,19.23
1-19B,4,2018,19.23
1-20A,4,2018,19.23
1-20B,4,2018,19.23
1-21A,4,2018,16.2
1-21B,4,2018,19.23
1-22,4,2018,19.23
1-23,4,2018,17.53
1-24,4,2018,16.2
1-25,4,2018,18.86
1-26,4,2018,18.74
1-27,4,2018,18.8
1-28,4,2018,18.38
1-29,4,2018,18.38
1-30,4,2018,18.56
1-31,4,2018,18.56
1-32,4,2018,18.56
1-33,4,2018,18.99
1-34,4,2018,19.04
1-35,4,2018,19.2
1-36,4,2018,18.74
1-37,4,2018,18.74
1-38,4,2018,18.74
1-39,4,2018,18.56
1-40,4,2018,18.74
1-41,4,2018,18.74
1-42,4,2018,18.74
1-43,4,2018,18.74
1-44,4,2018,18.74
1-101A,4,2018,19.6
1-101B,4,2018,19.6
1-101C,4,2018,19.6
1-101D,4,2018,19.6
1-1,5,2018,20.65
1-2,5,2018,19.4
1-3,5,2018,19.4
1-4,5,2018,19.4
1-5,5,2018,19.46
1-6,5,2018,19.2
1-7,5,2018,19.2
1-8,5,2018,19.2
1-9A,5,2018,19.2
1-9B,5,2018,19.2
1-10A,5,2018,19.2
1-10B,5,2018,21.3
1-11A,5,2018,20.02
1-11B,5,2018,20.69
1-12A,5,2018,16.2
1-12B,5,2018,16.2
1-13,5,2018,20.67
1-14,5,2018,19.2
1-15,5,2018,19.2
1-16,5,2018,19.2
1-17A,5,2018,20.48
1-17B,5,2018,19.23
1-18A,5,2018,20.48
1-18B,5,2018,19.23
1-19A,5,2018,19.23
1-19B,5,2018,19.23
1-20A,5,2018,19.23
1-20B,5,2018,19.23
1-21A,5,2018,16.2
1-21B,5,2018,19.23
1-22,5,2018,19.23
1-23,5,2018,17.53
1-24,5,2018,16.2
1-25,5,2018,18.86
1-26,5,2018,18.74
1-27,5,2018,18.8
1-28,5,2018,18.38
1-29,5,2018,18.38
1-30,5,2018,18.56
1-31,5,2018,18.56
1-32,5,2018,18.56
1-33,5,2018,18.99
1-34,5,2018,19.04
1-35,5,2018,19.2
1-36,5,2018,18.74
1-37,5,2018,18.74
1-38,5,2018,18.74
1-39,5,2018,18.56
1-40,5,2018,18.74
1-41,5,2018,18.74
1-42,5,2018,18.74
1-43,5,2018,18.74
1-44,5,2018,18.74
1-101A,5,2018,19.6
1-101B,5,2018,19.6
1-101C,5,2018,19.6
1-101D,5,2018,19.6
1-1,6,2018,20.65
1-2,6,2018,19.4
1-3,6,2018,19.4
1-4,6,2018,19.4
1-5,6,2018,19.46
1-6,6,2018,19.2
1-7,6,2018,19.2
1-8,6,2018,19.2
1-9A,6,2018,19.2
1-9B,6,2018,19.2
1-10A,6,2018,19.2
1-10B,6,2018,21.3
1-11A,6,2018,20.02
1-11B,6,2018,20.69
1-12A,6,2018,16.2
1-12B,6,2018,16.2
1-13,6,2018,20.67
1-14,6,2018,19.2
1-15,6,2018,19.2
1-16,6,2018,19.2
1-17A,6,2018,20.48
1-17B,6,2018,19.23
1-18A,6,2018,20.48
1-18B,6,2018,19.23
1-19A,6,2018,19.23
1-19B,6,2018,19.23
1-20A,6,2018,19.23
1-20B,6,2018,19.23
1-21A,6,2018,16.2
1-21B,6,2018,19.23
1-22,6,2018,19.23
1-23,6,2018,17.53
1-24,6,2018,16.2
1-25,6,2018,18.86
1-26,6,2018,18.74
1-27,6,2018,18.8
1-28,6,2018,18.38
1-29,6,2018,18.38
1-30,6,2018,18.56
1-31,6,2018,18.56
1-32,6,2018,18.56
1-33,6,2018,18.99
1-34,6,2018,19.04
1-35,6,2018,19.2
1-36,6,2018,18.74
1-37,6,2018,18.74
1-38,6,2018,18.74
1-39,6,2018,18.56
1-40,6,2018,18.74
1-41,6,2018,18.74
1-42,6,2018,18.74
1-43,6,2018,18.74
1-44,6,2018,18.74
1-101A,6,2018,19.6
1-101B,6,2018,19.6
1-101C,6,2018,19.6
1-101D,6,2018,19.6
1-1,7,2018,20.65
1-2,7,2018,19.4
1-3,7,2018,19.4
1-4,7,2018,19.4
1-5,7,2018,19.46
1-6,7,2018,19.2
1-7,7,2018,19.2
1-8,7,2018,19.2
1-9A,7,2018,19.2
1-9B,7,2018,19.2
1-10A,7,2018,19.2
1-10B,7,2018,21.3
1-11A,7,2018,20.02
1-11B,7,2018,20.69
1-12A,7,2018,16.2
1-12B,7,2018,16.2
1-13,7,2018,20.67
1-14,7,2018,19.2
1-15,7,2018,19.2
1-16,7,2018,19.2
1-17A,7,2018,20.48
1-17B,7,2018,19.23
1-18A,7,2018,20.48
1-18B,7,2018,19.23
1-19A,7,2018,19.23
1-19B,7,2018,19.23
1-20A,7,2018,19.23
1-20B,7,2018,19.23
1-21A,7,2018,16.2
1-21B,7,2018,19.23
1-22,7,2018,19.23
1-23,7,2018,17.53
1-24,7,2018,16.2
1-25,7,2018,18.86
1-26,7,2018,18.74
1-27,7,2018,18.8
1-28,7,2018,18.38
1-29,7,2018,18.38
1-30,7,2018,18.56
1-31,7,2018,18.56
1-32,7,2018,18.56
1-33,7,2018,18.99
1-34,7,2018,19.04
1-35,7,2018,19.2
1-36,7,2018,18.74
1-37,7,2018,18.74
1-38,7,2018,18.74
1-39,7,2018,18.56
1-40,7,2018,18.74
1-41,7,2018,18.74
1-42,7,2018,18.74
1-43,7,2018,18.74
1-44,7,2018,18.74
1-101A,7,2018,19.6
1-101B,7,2018,19.6
1-101C,7,2018,19.6
1-101D,7,2018,19.6
1-1,8,2018,20.65
1-2,8,2018,19.4
1-3,8,2018,19.4
1-4,8,2018,19.4
1-5,8,2018,19.46
1-6,8,2018,19.2
1-7,8,2018,19.2
1-8,8,2018,19.2
1-9A,8,2018,19.2
1-9B,8,2018,19.2
1-10A,8,2018,19.2
1-10B,8,2018,21.3
1-11A,8,2018,20.02
1-11B,8,2018,20.69
1-12A,8,2018,16.2
1-12B,8,2018,16.2
1-13,8,2018,20.67
1-14,8,2018,19.2
1-15,8,2018,19.2
1-16,8,2018,19.2
1-17A,8,2018,20.48
1-17B,8,2018,19.23
1-18A,8,2018,20.48
1-18B,8,2018,19.23
1-19A,8,2018,19.23
1-19B,8,2018,19.23
1-20A,8,2018,19.23
1-20B,8,2018,19.23
1-21A,8,2018,16.2
1-21B,8,2018,19.23
1-22,8,2018,19.23
1-23,8,2018,17.53
1-24,8,2018,16.2
1-25,8,2018,18.86
1-26,8,2018,18.74
1-27,8,2018,18.8
1-28,8,2018,18.38
1-29,8,2018,18.38
1-30,8,2018,18.56
1-31,8,2018,18.56
1-32,8,2018,18.56
1-33,8,2018,18.99
1-34,8,2018,19.04
1-35,8,2018,19.2
1-36,8,2018,18.74
1-37,8,2018,18.74
1-38,8,2018,18.74
1-39,8,2018,18.56
1-40,8,2018,18.74
1-41,8,2018,18.74
1-42,8,2018,18.74
1-43,8,2018,18.74
1-44,8,2018,18.74
1-101A,8,2018,19.6
1-101B,8,2018,19.6
1-101C,8,2018,19.6
1-101D,8,2018,19.6
1-1,9,2018,20.65
1-2,9,2018,19.4
1-3,9,2018,19.4
1-4,9,2018,19.4
1-5,9,2018,19.46
1-6,9,2018,19.2
1-7,9,2018,19.2
1-8,9,2018,19.2
1-9A,9,2018,19.2
1-9B,9,2018,19.2
1-10A,9,2018,19.2
1-10B,9,2018,21.3
1-11A,9,2018,20.02
1-11B,9,2018,20.69
1-12A,9,2018,16.2
1-12B,9,2018,16.2
1-13,9,2018,20.67
1-14,9,2018,19.2
1-15,9,2018,19.2
1-16,9,2018,19.2
1-17A,9,2018,20.48
1-17B,9,2018,19.23
1-18A,9,2018,20.48
1-18B,9,2018,19.23
1-19A,9,2018,19.23
1-19B,9,2018,19.23
1-20A,9,2018,19.23
1-20B,9,2018,19.23
1-21A,9,2018,16.2
1-21B,9,2018,19.23
1-22,9,2018,19.23
1-23,9,2018,17.53
1-24,9,2018,16.2
1-25,9,2018,18.86
1-26,9,2018,18.74
1-27,9,2018,18.8
1-28,9,2018,18.38
1-29,9,2018,18.38
1-30,9,2018,18.56
1-31,9,2018,18.56
1-32,9,2018,18.56
1-33,9,2018,18.99
1-34,9,2018,19.04
1-35,9,2018,19.2
1-36,9,2018,18.74
1-37,9,2018,18.74
1-38,9,2018,18.74
1-39,9,2018,18.56
1-40,9,2018,18.74
1-41,9,2018,18.74
1-42,9,2018,18.74
1-43,9,2018,18.74
1-44,9,2018,18.74
1-101A,9,2018,19.6
1-101B,9,2018,19.6
1-101C,9,2018,19.6
1-101D,9,2018,19.6
1-1,10,2018,20.65
1-2,10,2018,19.4
1-3,10,2018,19.4
1-4,10,2018,19.4
1-5,10,2018,19.46
1-6,10,2018,19.2
1-7,10,2018,19.2
1-8,10,2018,19.2
1-9A,10,2018,19.2
1-9B,10,2018,19.2
1-10A,10,2018,19.2
1-10B,10,2018,21.3
1-11A,10,2018,20.02
1-11B,10,2018,20.69
1-12A,10,2018,16.2
1-12B,10,2018,16.2
1-13,10,2018,20.67
1-14,10,2018,19.2
1-15,10,2018,19.2
1-16,10,2018,19.2
1-17A,10,2018,20.48
1-17B,10,2018,19.23
1-18A,10,2018,20.48
1-18B,10,2018,19.23
1-19A,10,2018,19.23
1-19B,10,2018,19.23
1-20A,10,2018,19.23
1-20B,10,2018,19.23
1-21A,10,2018,16.2
1-21B,10,2018,19.23
1-22,10,2018,19.23
1-23,10,2018,17.53
1-24,10,2018,16.2
1-25,10,2018,18.86
1-26,10,2018,18.74
1-27,10,2018,18.8
1-28,10,2018,18.38
1-29,10,2018,18.38
1-30,10,2018,18.56
1-31,10,2018,18.56
1-32,10,2018,18.56
1-33,10,2018,18.99
1-34,10,2018,19.04
1-35,10,2018,19.2
1-36,10,2018,18.74
1-37,10,2018,18.74
1-38,10,2018,18.74
1-39,10,2018,18.56
1-40,10,2018,18.74
1-41,10,2018,18.74
1-42,10,2018,18.74
1-43,10,2018,18.74
1-44,10,2018,18.74
1-101A,10,2018,19.6
1-101B,10,2018,19.6
1-101C,10,2018,19.6
1-101D,10,2018,19.6
1-1,11,2018,20.65
1-2,11,2018,19.4
1-3,11,2018,19.4
1-4,11,2018,19.4
1-5,11,2018,19.46
1-6,11,2018,19.2
1-7,11,2018,19.2
1-8,11,2018,19.2
1-9A,11,2018,19.2
1-9B,11,2018,19.2
1-10A,11,2018,19.2
1-10B,11,2018,21.3
1-11A,11,2018,20.02
1-11B,11,2018,20.69
1-12A,11,2018,16.2
1-12B,11,2018,16.2
1-13,11,2018,20.67
1-14,11,2018,19.2
1-15,11,2018,19.2
1-16,11,2018,19.2
1-17A,11,2018,20.48
1-17B,11,2018,19.23
1-18A,11,2018,20.48
1-18B,11,2018,19.23
1-19A,11,2018,19.23
1-19B,11,2018,19.23
1-20A,11,2018,19.23
1-20B,11,2018,19.23
1-21A,11,2018,16.2
1-21B,11,2018,19.23
1-22,11,2018,19.23
1-23,11,2018,17.53
1-24,11,2018,16.2
1-25,11,2018,18.86
1-26,11,2018,18.74
1-27,11,2018,18.8
1-28,11,2018,18.38
1-29,11,2018,18.38
1-30,11,2018,18.56
1-31,11,2018,18.56
1-32,11,2018,18.56
1-33,11,2018,18.99
1-34,11,2018,19.04
1-35,11,2018,19.2
1-36,11,2018,18.74
1-37,11,2018,18.74
1-38,11,2018,18.74
1-39,11,2018,18.56
1-40,11,2018,18.74
1-41,11,2018,18.74
1-42,11,2018,18.74
1-43,11,2018,18.74
1-44,11,2018,18.74
1-101A,11,2018,19.6
1-101B,11,2018,19.6
1-101C,11,2018,19.6
1-101D,11,2018,19.6
1-1,12,2018,20.65
1-2,12,2018,19.4
1-3,12,2018,19.4
1-4,12,2018,19.4
1-5,12,2018,19.46
1-6,12,2018,19.2
1-7,12,2018,19.2
1-8,12,2018,19.2
1-9A,12,2018,19.2
1-9B,12,2018,19.2
1-10A,12,2018,19.2
1-10B,12,2018,21.3
1-11A,12,2018,20.02
1-11B,12,2018,20.69
1-12A,12,2018,16.2
1-12B,12,2018,16.2
1-13,12,2018,20.67
1-14,12,2018,19.2
1-15,12,2018,19.2
1-16,12,2018,19.2
1-17A,12,2018,20.48
1-17B,12,2018,19.23
1-18A,12,2018,20.48
1-18B,12,2018,19.23
1-19A,12,2018,19.23
1-19B,12,2018,19.23
1-20A,12,2018,19.23
1-20B,12,2018,19.23
1-21A,12,2018,16.2
1-21B,12,2018,19.23
1-22,12,2018,19.23
1-23,12,2018,17.53
1-24,12,2018,16.2
1-25,12,2018,18.86
1-26,12,2018,18.74
1-27,12,2018,18.8
1-28,12,2018,18.38
1-29,12,2018,18.38
1-30,12,2018,18.56
1-31,12,2018,18.56
1-32,12,2018,18.56
1-33,12,2018,18.99
1-34,12,2018,19.04
1-35,12,2018,19.2
1-36,12,2018,18.74
1-37,12,2018,18.74
1-38,12,2018,18.74
1-39,12,2018,18.56
1-40,12,2018,18.74
1-41,12,2018,18.74
1-42,12,2018,18.74
1-43,12,2018,18.74
1-44,12,2018,18.74
1-101A,12,2018,19.6
1-101B,12,2018,19.6
1-101C,12,2018,19.6
1-101D,12,2018,19.6
1-1,1,2017,20.65
1-2,1,2017,19.4
1-3,1,2017,19.4
1-4,1,2017,19.4
1-5,1,2017,19.46
1-6,1,2017,19.2
1-7,1,2017,19.2
1-8,1,2017,19.2
1-9A,1,2017,19.2
1-9B,1,2017,19.2
1-10A,1,2017,19.2
1-10B,1,2017,21.3
1-11A,1,2017,20.02
1-11B,1,2017,20.69
1-12A,1,2017,16.2
1-12B,1,2017,16.2
1-13,1,2017,20.67
1-14,1,2017,19.2
1-15,1,2017,19.2
1-16,1,2017,19.2
1-17A,1,2017,20.48
1-17B,1,2017,19.23
1-18A,1,2017,20.48
1-18B,1,2017,19.23
1-19A,1,2017,19.23
1-19B,1,2017,19.23
1-20A,1,2017,19.23
1-20B,1,2017,19.23
1-21A,1,2017,16.2
1-21B,1,2017,19.23
1-22,1,2017,19.23
1-23,1,2017,17.53
1-24,1,2017,16.2
1-25,1,2017,18.86
1-26,1,2017,18.74
1-27,1,2017,18.8
1-28,1,2017,18.38
1-29,1,2017,18.38
1-30,1,2017,18.56
1-31,1,2017,18.56
1-32,1,2017,18.56
1-33,1,2017,18.99
1-34,1,2017,19.04
1-35,1,2017,19.2
1-36,1,2017,18.74
1-37,1,2017,18.74
1-38,1,2017,18.74
1-39,1,2017,18.56
1-40,1,2017,18.74
1-41,1,2017,18.74
1-42,1,2017,18.74
1-43,1,2017,18.74
1-44,1,2017,18.74
1-101A,1,2017,19.6
1-101B,1,2017,19.6
1-101C,1,2017,19.6
1-101D,1,2017,19.6
1-1,2,2017,20.65
1-2,2,2017,19.4
1-3,2,2017,19.4
1-4,2,2017,19.4
1-5,2,2017,19.46
1-6,2,2017,19.2
1-7,2,2017,19.2
1-8,2,2017,19.2
1-9A,2,2017,19.2
1-9B,2,2017,19.2
1-10A,2,2017,19.2
1-10B,2,2017,21.3
1-11A,2,2017,20.02
1-11B,2,2017,20.69
1-12A,2,2017,16.2
1-12B,2,2017,16.2
1-13,2,2017,20.67
1-14,2,2017,19.2
1-15,2,2017,19.2
1-16,2,2017,19.2
1-17A,2,2017,20.48
1-17B,2,2017,19.23
1-18A,2,2017,20.48
1-18B,2,2017,19.23
1-19A,2,2017,19.23
1-19B,2,2017,19.23
1-20A,2,2017,19.23
1-20B,2,2017,19.23
1-21A,2,2017,16.2
1-21B,2,2017,19.23
1-22,2,2017,19.23
1-23,2,2017,17.53
1-24,2,2017,16.2
1-25,2,2017,18.86
1-26,2,2017,18.74
1-27,2,2017,18.8
1-28,2,2017,18.38
1-29,2,2017,18.38
1-30,2,2017,18.56
1-31,2,2017,18.56
1-32,2,2017,18.56
1-33,2,2017,18.99
1-34,2,2017,19.04
1-35,2,2017,19.2
1-36,2,2017,18.74
1-37,2,2017,18.74
1-38,2,2017,18.74
1-39,2,2017,18.56
1-40,2,2017,18.74
1-41,2,2017,18.74
1-42,2,2017,18.74
1-43,2,2017,18.74
1-44,2,2017,18.74
1-101A,2,2017,19.6
1-101B,2,2017,19.6
1-101C,2,2017,19.6
1-101D,2,2017,19.6
1-1,3,2017,20.65
1-2,3,2017,19.4
1-3,3,2017,19.4
1-4,3,2017,19.4
1-5,3,2017,19.46
1-6,3,2017,19.2
1-7,3,2017,19.2
1-8,3,2017,19.2
1-9A,3,2017,19.2
1-9B,3,2017,19.2
1-10A,3,2017,19.2
1-10B,3,2017,21.3
1-11A,3,2017,20.02
1-11B,3,2017,20.69
1-12A,3,2017,16.2
1-12B,3,2017,16.2
1-13,3,2017,20.67
1-14,3,2017,19.2
1-15,3,2017,19.2
1-16,3,2017,19.2
1-17A,3,2017,20.48
1-17B,3,2017,19.23
1-18A,3,2017,20.48
1-18B,3,2017,19.23
1-19A,3,2017,19.23
1-19B,3,2017,19.23
1-20A,3,2017,19.23
1-20B,3,2017,19.23
1-21A,3,2017,16.2
1-21B,3,2017,19.23
1-22,3,2017,19.23
1-23,3,2017,17.53
1-24,3,2017,16.2
1-25,3,2017,18.86
1-26,3,2017,18.74
1-27,3,2017,18.8
1-28,3,2017,18.38
1-29,3,2017,18.38
1-30,3,2017,18.56
1-31,3,2017,18.56
1-32,3,2017,18.56
1-33,3,2017,18.99
1-34,3,2017,19.04
1-35,3,2017,19.2
1-36,3,2017,18.74
1-37,3,2017,18.74
1-38,3,2017,18.74
1-39,3,2017,18.56
1-40,3,2017,18.74
1-41,3,2017,18.74
1-42,3,2017,18.74
1-43,3,2017,18.74
1-44,3,2017,18.74
1-101A,3,2017,19.6
1-101B,3,2017,19.6
1-101C,3,2017,19.6
1-101D,3,2017,19.6
1-1,4,2017,20.65
1-2,4,2017,19.4
1-3,4,2017,19.4
1-4,4,2017,19.4
1-5,4,2017,19.46
1-6,4,2017,19.2
1-7,4,2017,19.2
1-8,4,2017,19.2
1-9A,4,2017,19.2
1-9B,4,2017,19.2
1-10A,4,2017,19.2
1-10B,4,2017,21.3
1-11A,4,2017,20.02
1-11B,4,2017,20.69
1-12A,4,2017,16.2
1-12B,4,2017,16.2
1-13,4,2017,20.67
1-14,4,2017,19.2
1-15,4,2017,19.2
1-16,4,2017,19.2
1-17A,4,2017,20.48
1-17B,4,2017,19.23
1-18A,4,2017,20.48
1-18B,4,2017,19.23
1-19A,4,2017,19.23
1-19B,4,2017,19.23
1-20A,4,2017,19.23
1-20B,4,2017,19.23
1-21A,4,2017,16.2
1-21B,4,2017,19.23
1-22,4,2017,19.23
1-23,4,2017,17.53
1-24,4,2017,16.2
1-25,4,2017,18.86
1-26,4,2017,18.74
1-27,4,2017,18.8
1-28,4,2017,18.38
1-29,4,2017,18.38
1-30,4,2017,18.56
1-31,4,2017,18.56
1-32,4,2017,18.56
1-33,4,2017,18.99
1-34,4,2017,19.04
1-35,4,2017,19.2
1-36,4,2017,18.74
1-37,4,2017,18.74
1-38,4,2017,18.74
1-39,4,2017,18.56
1-40,4,2017,18.74
1-41,4,2017,18.74
1-42,4,2017,18.74
1-43,4,2017,18.74
1-44,4,2017,18.74
1-101A,4,2017,19.6
1-101B,4,2017,19.6
1-101C,4,2017,19.6
1-101D,4,2017,19.6
1-1,5,2017,20.65
1-2,5,2017,19.4
1-3,5,2017,19.4
1-4,5,2017,19.4
1-5,5,2017,19.46
1-6,5,2017,19.2
1-7,5,2017,19.2
1-8,5,2017,19.2
1-9A,5,2017,19.2
1-9B,5,2017,19.2
1-10A,5,2017,19.2
1-10B,5,2017,21.3
1-11A,5,2017,20.02
1-11B,5,2017,20.69
1-12A,5,2017,16.2
1-12B,5,2017,16.2
1-13,5,2017,20.67
1-14,5,2017,19.2
1-15,5,2017,19.2
1-16,5,2017,19.2
1-17A,5,2017,20.48
1-17B,5,2017,19.23
1-18A,5,2017,20.48
1-18B,5,2017,19.23
1-19A,5,2017,19.23
1-19B,5,2017,19.23
1-20A,5,2017,19.23
1-20B,5,2017,19.23
1-21A,5,2017,16.2
1-21B,5,2017,19.23
1-22,5,2017,19.23
1-23,5,2017,17.53
1-24,5,2017,16.2
1-25,5,2017,18.86
1-26,5,2017,18.74
1-27,5,2017,18.8
1-28,5,2017,18.38
1-29,5,2017,18.38
1-30,5,2017,18.56
1-31,5,2017,18.56
1-32,5,2017,18.56
1-33,5,2017,18.99
1-34,5,2017,19.04
1-35,5,2017,19.2
1-36,5,2017,18.74
1-37,5,2017,18.74
1-38,5,2017,18.74
1-39,5,2017,18.56
1-40,5,2017,18.74
1-41,5,2017,18.74
1-42,5,2017,18.74
1-43,5,2017,18.74
1-44,5,2017,18.74
1-101A,5,2017,19.6
1-101B,5,2017,19.6
1-101C,5,2017,19.6
1-101D,5,2017,19.6
1-1,6,2017,20.65
1-2,6,2017,19.4
1-3,6,2017,19.4
1-4,6,2017,19.4
1-5,6,2017,19.46
1-6,6,2017,19.2
1-7,6,2017,19.2
1-8,6,2017,19.2
1-9A,6,2017,19.2
1-9B,6,2017,19.2
1-10A,6,2017,19.2
1-10B,6,2017,21.3
1-11A,6,2017,20.02
1-11B,6,2017,20.69
1-12A,6,2017,16.2
1-12B,6,2017,16.2
1-13,6,2017,20.67
1-14,6,2017,19.2
1-15,6,2017,19.2
1-16,6,2017,19.2
1-17A,6,2017,20.48
1-17B,6,2017,19.23
1-18A,6,2017,20.48
1-18B,6,2017,19.23
1-19A,6,2017,19.23
1-19B,6,2017,19.23
1-20A,6,2017,19.23
1-20B,6,2017,19.23
1-21A,6,2017,16.2
1-21B,6,2017,19.23
1-22,6,2017,19.23
1-23,6,2017,17.53
1-24,6,2017,16.2
1-25,6,2017,18.86
1-26,6,2017,18.74
1-27,6,2017,18.8
1-28,6,2017,18.38
1-29,6,2017,18.38
1-30,6,2017,18.56
1-31,6,2017,18.56
1-32,6,2017,18.56
1-33,6,2017,18.99
1-34,6,2017,19.04
1-35,6,2017,19.2
1-36,6,2017,18.74
1-37,6,2017,18.74
1-38,6,2017,18.74
1-39,6,2017,18.56
1-40,6,2017,18.74
1-41,6,2017,18.74
1-42,6,2017,18.74
1-43,6,2017,18.74
1-44,6,2017,18.74
1-101A,6,2017,19.6
1-101B,6,2017,19.6
1-101C,6,2017,19.6
1-101D,6,2017,19.6
1-1,7,2017,20.65
1-2,7,2017,19.4
1-3,7,2017,19.4
1-4,7,2017,19.4
1-5,7,2017,19.46
1-6,7,2017,19.2
1-7,7,2017,19.2
1-8,7,2017,19.2
1-9A,7,2017,19.2
1-9B,7,2017,19.2
1-10A,7,2017,19.2
1-10B,7,2017,21.3
1-11A,7,2017,20.02
1-11B,7,2017,20.69
1-12A,7,2017,16.2
1-12B,7,2017,16.2
1-13,7,2017,20.67
1-14,7,2017,19.2
1-15,7,2017,19.2
1-16,7,2017,19.2
1-17A,7,2017,20.48
1-17B,7,2017,19.23
1-18A,7,2017,20.48
1-18B,7,2017,19.23
1-19A,7,2017,19.23
1-19B,7,2017,19.23
1-20A,7,2017,19.23
1-20B,7,2017,19.23
1-21A,7,2017,16.2
1-21B,7,2017,19.23
1-22,7,2017,19.23
1-23,7,2017,17.53
1-24,7,2017,16.2
1-25,7,2017,18.86
1-26,7,2017,18.74
1-27,7,2017,18.8
1-28,7,2017,18.38
1-29,7,2017,18.38
1-30,7,2017,18.56
1-31,7,2017,18.56
1-32,7,2017,18.56
1-33,7,2017,18.99
1-34,7,2017,19.04
1-35,7,2017,19.2
1-36,7,2017,18.74
1-37,7,2017,18.74
1-38,7,2017,18.74
1-39,7,2017,18.56
1-40,7,2017,18.74
1-41,7,2017,18.74
1-42,7,2017,18.74
1-43,7,2017,18.74
1-44,7,2017,18.74
1-101A,7,2017,19.6
1-101B,7,2017,19.6
1-101C,7,2017,19.6
1-101D,7,2017,19.6
1-1,8,2017,20.65
1-2,8,2017,19.4
1-3,8,2017,19.4
1-4,8,2017,19.4
1-5,8,2017,19.46
1-6,8,2017,19.2
1-7,8,2017,19.2
1-8,8,2017,19.2
1-9A,8,2017,19.2
1-9B,8,2017,19.2
1-10A,8,2017,19.2
1-10B,8,2017,21.3
1-11A,8,2017,20.02
1-11B,8,2017,20.69
1-12A,8,2017,16.2
1-12B,8,2017,16.2
1-13,8,2017,20.67
1-14,8,2017,19.2
1-15,8,2017,19.2
1-16,8,2017,19.2
1-17A,8,2017,20.48
1-17B,8,2017,19.23
1-18A,8,2017,20.48
1-18B,8,2017,19.23
1-19A,8,2017,19.23
1-19B,8,2017,19.23
1-20A,8,2017,19.23
1-20B,8,2017,19.23
1-21A,8,2017,16.2
1-21B,8,2017,19.23
1-22,8,2017,19.23
1-23,8,2017,17.53
1-24,8,2017,16.2
1-25,8,2017,18.86
1-26,8,2017,18.74
1-27,8,2017,18.8
1-28,8,2017,18.38
1-29,8,2017,18.38
1-30,8,2017,18.56
1-31,8,2017,18.56
1-32,8,2017,18.56
1-33,8,2017,18.99
1-34,8,2017,19.04
1-35,8,2017,19.2
1-36,8,2017,18.74
1-37,8,2017,18.74
1-38,8,2017,18.74
1-39,8,2017,18.56
1-40,8,2017,18.74
1-41,8,2017,18.74
1-42,8,2017,18.74
1-43,8,2017,18.74
1-44,8,2017,18.74
1-101A,8,2017,19.6
1-101B,8,2017,19.6
1-101C,8,2017,19.6
1-101D,8,2017,19.6
1-1,9,2017,20.65
1-2,9,2017,19.4
1-3,9,2017,19.4
1-4,9,2017,19.4
1-5,9,2017,19.46
1-6,9,2017,19.2
1-7,9,2017,19.2
1-8,9,2017,19.2
1-9A,9,2017,19.2
1-9B,9,2017,19.2
1-10A,9,2017,19.2
1-10B,9,2017,21.3
1-11A,9,2017,20.02
1-11B,9,2017,20.69
1-12A,9,2017,16.2
1-12B,9,2017,16.2
1-13,9,2017,20.67
1-14,9,2017,19.2
1-15,9,2017,19.2
1-16,9,2017,19.2
1-17A,9,2017,20.48
1-17B,9,2017,19.23
1-18A,9,2017,20.48
1-18B,9,2017,19.23
1-19A,9,2017,19.23
1-19B,9,2017,19.23
1-20A,9,2017,19.23
1-20B,9,2017,19.23
1-21A,9,2017,16.2
1-21B,9,2017,19.23
1-22,9,2017,19.23
1-23,9,2017,17.53
1-24,9,2017,16.2
1-25,9,2017,18.86
1-26,9,2017,18.74
1-27,9,2017,18.8
1-28,9,2017,18.38
1-29,9,2017,18.38
1-30,9,2017,18.56
1-31,9,2017,18.56
1-32,9,2017,18.56
1-33,9,2017,18.99
1-34,9,2017,19.04
1-35,9,2017,19.2
1-36,9,2017,18.74
1-37,9,2017,18.74
1-38,9,2017,18.74
1-39,9,2017,18.56
1-40,9,2017,18.74
1-41,9,2017,18.74
1-42,9,2017,18.74
1-43,9,2017,18.74
1-44,9,2017,18.74
1-101A,9,2017,19.6
1-101B,9,2017,19.6
1-101C,9,2017,19.6
1-101D,9,2017,19.6
1-1,10,2017,20.65
1-2,10,2017,19.4
1-3,10,2017,19.4
1-4,10,2017,19.4
1-5,10,2017,19.46
1-6,10,2017,19.2
1-7,10,2017,19.2
1-8,10,2017,19.2
1-9A,10,2017,19.2
1-9B,10,2017,19.2
1-10A,10,2017,19.2
1-10B,10,2017,21.3
1-11A,10,2017,20.02
1-11B,10,2017,20.69
1-12A,10,2017,16.2
1-12B,10,2017,16.2
1-13,10,2017,20.67
1-14,10,2017,19.2
1-15,10,2017,19.2
1-16,10,2017,19.2
1-17A,10,2017,20.48
1-17B,10,2017,19.23
1-18A,10,2017,20.48
1-18B,10,2017,19.23
1-19A,10,2017,19.23
1-19B,10,2017,19.23
1-20A,10,2017,19.23
1-20B,10,2017,19.23
1-21A,10,2017,16.2
1-21B,10,2017,19.23
1-22,10,2017,19.23
1-23,10,2017,17.53
1-24,10,2017,16.2
1-25,10,2017,18.86
1-26,10,2017,18.74
1-27,10,2017,18.8
1-28,10,2017,18.38
1-29,10,2017,18.38
1-30,10,2017,18.56
1-31,10,2017,18.56
1-32,10,2017,18.56
1-33,10,2017,18.99
1-34,10,2017,19.04
1-35,10,2017,19.2
1-36,10,2017,18.74
1-37,10,2017,18.74
1-38,10,2017,18.74
1-39,10,2017,18.56
1-40,10,2017,18.74
1-41,10,2017,18.74
1-42,10,2017,18.74
1-43,10,2017,18.74
1-44,10,2017,18.74
1-101A,10,2017,19.6
1-101B,10,2017,19.6
1-101C,10,2017,19.6
1-101D,10,2017,19.6
1-1,11,2017,20.65
1-2,11,2017,19.4
1-3,11,2017,19.4
1-4,11,2017,19.4
1-5,11,2017,19.46
1-6,11,2017,19.2
1-7,11,2017,19.2
1-8,11,2017,19.2
1-9A,11,2017,19.2
1-9B,11,2017,19.2
1-10A,11,2017,19.2
1-10B,11,2017,21.3
1-11A,11,2017,20.02
1-11B,11,2017,20.69
1-12A,11,2017,16.2
1-12B,11,2017,16.2
1-13,11,2017,20.67
1-14,11,2017,19.2
1-15,11,2017,19.2
1-16,11,2017,19.2
1-17A,11,2017,20.48
1-17B,11,2017,19.23
1-18A,11,2017,20.48
1-18B,11,2017,19.23
1-19A,11,2017,19.23
1-19B,11,2017,19.23
1-20A,11,2017,19.23
1-20B,11,2017,19.23
1-21A,11,2017,16.2
1-21B,11,2017,19.23
1-22,11,2017,19.23
1-23,11,2017,17.53
1-24,11,2017,16.2
1-25,11,2017,18.86
1-26,11,2017,18.74
1-27,11,2017,18.8
1-28,11,2017,18.38
1-29,11,2017,18.38
1-30,11,2017,18.56
1-31,11,2017,18.56
1-32,11,2017,18.56
1-33,11,2017,18.99
1-34,11,2017,19.04
1-35,11,2017,19.2
1-36,11,2017,18.74
1-37,11,2017,18.74
1-38,11,2017,18.74
1-39,11,2017,18.56
1-40,11,2017,18.74
1-41,11,2017,18.74
1-42,11,2017,18.74
1-43,11,2017,18.74
1-44,11,2017,18.74
1-101A,11,2017,19.6
1-101B,11,2017,19.6
1-101C,11,2017,19.6
1-101D,11,2017,19.6
1-1,12,2017,20.65
1-2,12,2017,19.4
1-3,12,2017,19.4
1-4,12,2017,19.4
1-5,12,2017,19.46
1-6,12,2017,19.2
1-7,12,2017,19.2
1-8,12,2017,19.2
1-9A,12,2017,19.2
1-9B,12,2017,19.2
1-10A,12,2017,19.2
1-10B,12,2017,21.3
1-11A,12,2017,20.02
1-11B,12,2017,20.69
1-12A,12,2017,16.2
1-12B,12,2017,16.2
1-13,12,2017,20.67
1-14,12,2017,19.2
1-15,12,2017,19.2
1-16,12,2017,19.2
1-17A,12,2017,20.48
1-17B,12,2017,19.23
1-18A,12,2017,20.48
1-18B,12,2017,19.23
1-19A,12,2017,19.23
1-19B,12,2017,19.23
1-20A,12,2017,19.23
1-20B,12,2017,19.23
1-21A,12,2017,16.2
1-21B,12,2017,19.23
1-22,12,2017,19.23
1-23,12,2017,17.53
1-24,12,2017,16.2
1-25,12,2017,18.86
1-26,12,2017,18.74
1-27,12,2017,18.8
1-28,12,2017,18.38
1-29,12,2017,18.38
1-30,12,2017,18.56
1-31,12,2017,18.56
1-32,12,2017,18.56
1-33,12,2017,18.99
1-34,12,2017,19.04
1-35,12,2017,19.2
1-36,12,2017,18.74
1-37,12,2017,18.74
1-38,12,2017,18.74
1-39,12,2017,18.56
1-40,12,2017,18.74
1-41,12,2017,18.74
1-42,12,2017,18.74
1-43,12,2017,18.74
1-44,12,2017,18.74
1-101A,12,2017,19.6
1-101B,12,2017,19.6
1-101C,12,2017,19.6
1-101D,12,2017,19.6
1-1,1,2016,20.65
1-2,1,2016,19.4
1-3,1,2016,19.4
1-4,1,2016,19.4
1-5,1,2016,19.46
1-6,1,2016,19.2
1-7,1,2016,19.2
1-8,1,2016,19.2
1-9A,1,2016,19.2
1-9B,1,2016,19.2
1-10A,1,2016,19.2
1-10B,1,2016,21.3
1-11A,1,2016,20.02
1-11B,1,2016,20.69
1-12A,1,2016,16.2
1-12B,1,2016,16.2
1-13,1,2016,20.67
1-14,1,2016,19.2
1-15,1,2016,19.2
1-16,1,2016,19.2
1-17A,1,2016,20.48
1-17B,1,2016,19.23
1-18A,1,2016,20.48
1-18B,1,2016,19.23
1-19A,1,2016,19.23
1-19B,1,2016,19.23
1-20A,1,2016,19.23
1-20B,1,2016,19.23
1-21A,1,2016,16.2
1-21B,1,2016,19.23
1-22,1,2016,19.23
1-23,1,2016,17.53
1-24,1,2016,16.2
1-25,1,2016,18.86
1-26,1,2016,18.74
1-27,1,2016,18.8
1-28,1,2016,18.38
1-29,1,2016,18.38
1-30,1,2016,18.56
1-31,1,2016,18.56
1-32,1,2016,18.56
1-33,1,2016,18.99
1-34,1,2016,19.04
1-35,1,2016,19.2
1-36,1,2016,18.74
1-37,1,2016,18.74
1-38,1,2016,18.74
1-39,1,2016,18.56
1-40,1,2016,18.74
1-41,1,2016,18.74
1-42,1,2016,18.74
1-43,1,2016,18.74
1-44,1,2016,18.74
1-101A,1,2016,19.6
1-101B,1,2016,19.6
1-101C,1,2016,19.6
1-101D,1,2016,19.6
1-1,2,2016,20.65
1-2,2,2016,19.4
1-3,2,2016,19.4
1-4,2,2016,19.4
1-5,2,2016,19.46
1-6,2,2016,19.2
1-7,2,2016,19.2
1-8,2,2016,19.2
1-9A,2,2016,19.2
1-9B,2,2016,19.2
1-10A,2,2016,19.2
1-10B,2,2016,21.3
1-11A,2,2016,20.02
1-11B,2,2016,20.69
1-12A,2,2016,16.2
1-12B,2,2016,16.2
1-13,2,2016,20.67
1-14,2,2016,19.2
1-15,2,2016,19.2
1-16,2,2016,19.2
1-17A,2,2016,20.48
1-17B,2,2016,19.23
1-18A,2,2016,20.48
1-18B,2,2016,19.23
1-19A,2,2016,19.23
1-19B,2,2016,19.23
1-20A,2,2016,19.23
1-20B,2,2016,19.23
1-21A,2,2016,16.2
1-21B,2,2016,19.23
1-22,2,2016,19.23
1-23,2,2016,17.53
1-24,2,2016,16.2
1-25,2,2016,18.86
1-26,2,2016,18.74
1-27,2,2016,18.8
1-28,2,2016,18.38
1-29,2,2016,18.38
1-30,2,2016,18.56
1-31,2,2016,18.56
1-32,2,2016,18.56
1-33,2,2016,18.99
1-34,2,2016,19.04
1-35,2,2016,19.2
1-36,2,2016,18.74
1-37,2,2016,18.74
1-38,2,2016,18.74
1-39,2,2016,18.56
1-40,2,2016,18.74
1-41,2,2016,18.74
1-42,2,2016,18.74
1-43,2,2016,18.74
1-44,2,2016,18.74
1-101A,2,2016,19.6
1-101B,2,2016,19.6
1-101C,2,2016,19.6
1-101D,2,2016,19.6
1-1,3,2016,20.65
1-2,3,2016,19.4
1-3,3,2016,19.4
1-4,3,2016,19.4
1-5,3,2016,19.46
1-6,3,2016,19.2
1-7,3,2016,19.2
1-8,3,2016,19.2
1-9A,3,2016,19.2
1-9B,3,2016,19.2
1-10A,3,2016,19.2
1-10B,3,2016,21.3
1-11A,3,2016,20.02
1-11B,3,2016,20.69
1-12A,3,2016,16.2
1-12B,3,2016,16.2
1-13,3,2016,20.67
1-14,3,2016,19.2
1-15,3,2016,19.2
1-16,3,2016,19.2
1-17A,3,2016,20.48
1-17B,3,2016,19.23
1-18A,3,2016,20.48
1-18B,3,2016,19.23
1-19A,3,2016,19.23
1-19B,3,2016,19.23
1-20A,3,2016,19.23
1-20B,3,2016,19.23
1-21A,3,2016,16.2
1-21B,3,2016,19.23
1-22,3,2016,19.23
1-23,3,2016,17.53
1-24,3,2016,16.2
1-25,3,2016,18.86
1-26,3,2016,18.74
1-27,3,2016,18.8
1-28,3,2016,18.38
1-29,3,2016,18.38
1-30,3,2016,18.56
1-31,3,2016,18.56
1-32,3,2016,18.56
1-33,3,2016,18.99
1-34,3,2016,19.04
1-35,3,2016,19.2
1-36,3,2016,18.74
1-37,3,2016,18.74
1-38,3,2016,18.74
1-39,3,2016,18.56
1-40,3,2016,18.74
1-41,3,2016,18.74
1-42,3,2016,18.74
1-43,3,2016,18.74
1-44,3,2016,18.74
1-101A,3,2016,19.6
1-101B,3,2016,19.6
1-101C,3,2016,19.6
1-101D,3,2016,19.6
1-1,4,2016,20.65
1-2,4,2016,19.4
1-3,4,2016,19.4
1-4,4,2016,19.4
1-5,4,2016,19.46
1-6,4,2016,19.2
1-7,4,2016,19.2
1-8,4,2016,19.2
1-9A,4,2016,19.2
1-9B,4,2016,19.2
1-10A,4,2016,19.2
1-10B,4,2016,21.3
1-11A,4,2016,20.02
1-11B,4,2016,20.69
1-12A,4,2016,16.2
1-12B,4,2016,16.2
1-13,4,2016,20.67
1-14,4,2016,19.2
1-15,4,2016,19.2
1-16,4,2016,19.2
1-17A,4,2016,20.48
1-17B,4,2016,19.23
1-18A,4,2016,20.48
1-18B,4,2016,19.23
1-19A,4,2016,19.23
1-19B,4,2016,19.23
1-20A,4,2016,19.23
1-20B,4,2016,19.23
1-21A,4,2016,16.2
1-21B,4,2016,19.23
1-22,4,2016,19.23
1-23,4,2016,17.53
1-24,4,2016,16.2
1-25,4,2016,18.86
1-26,4,2016,18.74
1-27,4,2016,18.8
1-28,4,2016,18.38
1-29,4,2016,18.38
1-30,4,2016,18.56
1-31,4,2016,18.56
1-32,4,2016,18.56
1-33,4,2016,18.99
1-34,4,2016,19.04
1-35,4,2016,19.2
1-36,4,2016,18.74
1-37,4,2016,18.74
1-38,4,2016,18.74
1-39,4,2016,18.56
1-40,4,2016,18.74
1-41,4,2016,18.74
1-42,4,2016,18.74
1-43,4,2016,18.74
1-44,4,2016,18.74
1-101A,4,2016,19.6
1-101B,4,2016,19.6
1-101C,4,2016,19.6
1-101D,4,2016,19.6
1-1,5,2016,20.65
1-2,5,2016,19.4
1-3,5,2016,19.4
1-4,5,2016,19.4
1-5,5,2016,19.46
1-6,5,2016,19.2
1-7,5,2016,19.2
1-8,5,2016,19.2
1-9A,5,2016,19.2
1-9B,5,2016,19.2
1-10A,5,2016,19.2
1-10B,5,2016,21.3
1-11A,5,2016,20.02
1-11B,5,2016,20.69
1-12A,5,2016,16.2
1-12B,5,2016,16.2
1-13,5,2016,20.67
1-14,5,2016,19.2
1-15,5,2016,19.2
1-16,5,2016,19.2
1-17A,5,2016,20.48
1-17B,5,2016,19.23
1-18A,5,2016,20.48
1-18B,5,2016,19.23
1-19A,5,2016,19.23
1-19B,5,2016,19.23
1-20A,5,2016,19.23
1-20B,5,2016,19.23
1-21A,5,2016,16.2
1-21B,5,2016,19.23
1-22,5,2016,19.23
1-23,5,2016,17.53
1-24,5,2016,16.2
1-25,5,2016,18.86
1-26,5,2016,18.74
1-27,5,2016,18.8
1-28,5,2016,18.38
1-29,5,2016,18.38
1-30,5,2016,18.56
1-31,5,2016,18.56
1-32,5,2016,18.56
1-33,5,2016,18.99
1-34,5,2016,19.04
1-35,5,2016,19.2
1-36,5,2016,18.74
1-37,5,2016,18.74
1-38,5,2016,18.74
1-39,5,2016,18.56
1-40,5,2016,18.74
1-41,5,2016,18.74
1-42,5,2016,18.74
1-43,5,2016,18.74
1-44,5,2016,18.74
1-101A,5,2016,19.6
1-101B,5,2016,19.6
1-101C,5,2016,19.6
1-101D,5,2016,19.6
1-1,6,2016,20.65
1-2,6,2016,19.4
1-3,6,2016,19.4
1-4,6,2016,19.4
1-5,6,2016,19.46
1-6,6,2016,19.2
1-7,6,2016,19.2
1-8,6,2016,19.2
1-9A,6,2016,19.2
1-9B,6,2016,19.2
1-10A,6,2016,19.2
1-10B,6,2016,21.3
1-11A,6,2016,20.02
1-11B,6,2016,20.69
1-12A,6,2016,16.2
1-12B,6,2016,16.2
1-13,6,2016,20.67
1-14,6,2016,19.2
1-15,6,2016,19.2
1-16,6,2016,19.2
1-17A,6,2016,20.48
1-17B,6,2016,19.23
1-18A,6,2016,20.48
1-18B,6,2016,19.23
1-19A,6,2016,19.23
1-19B,6,2016,19.23
1-20A,6,2016,19.23
1-20B,6,2016,19.23
1-21A,6,2016,16.2
1-21B,6,2016,19.23
1-22,6,2016,19.23
1-23,6,2016,17.53
1-24,6,2016,16.2
1-25,6,2016,18.86
1-26,6,2016,18.74
1-27,6,2016,18.8
1-28,6,2016,18.38
1-29,6,2016,18.38
1-30,6,2016,18.56
1-31,6,2016,18.56
1-32,6,2016,18.56
1-33,6,2016,18.99
1-34,6,2016,19.04
1-35,6,2016,19.2
1-36,6,2016,18.74
1-37,6,2016,18.74
1-38,6,2016,18.74
1-39,6,2016,18.56
1-40,6,2016,18.74
1-41,6,2016,18.74
1-42,6,2016,18.74
1-43,6,2016,18.74
1-44,6,2016,18.74
1-101A,6,2016,19.6
1-101B,6,2016,19.6
1-101C,6,2016,19.6
1-101D,6,2016,19.6
1-1,7,2016,20.65
1-2,7,2016,19.4
1-3,7,2016,19.4
1-4,7,2016,19.4
1-5,7,2016,19.46
1-6,7,2016,19.2
1-7,7,2016,19.2
1-8,7,2016,19.2
1-9A,7,2016,19.2
1-9B,7,2016,19.2
1-10A,7,2016,19.2
1-10B,7,2016,21.3
1-11A,7,2016,20.02
1-11B,7,2016,20.69
1-12A,7,2016,16.2
1-12B,7,2016,16.2
1-13,7,2016,20.67
1-14,7,2016,19.2
1-15,7,2016,19.2
1-16,7,2016,19.2
1-17A,7,2016,20.48
1-17B,7,2016,19.23
1-18A,7,2016,20.48
1-18B,7,2016,19.23
1-19A,7,2016,19.23
1-19B,7,2016,19.23
1-20A,7,2016,19.23
1-20B,7,2016,19.23
1-21A,7,2016,16.2
1-21B,7,2016,19.23
1-22,7,2016,19.23
1-23,7,2016,17.53
1-24,7,2016,16.2
1-25,7,2016,18.86
1-26,7,2016,18.74
1-27,7,2016,18.8
1-28,7,2016,18.38
1-29,7,2016,18.38
1-30,7,2016,18.56
1-31,7,2016,18.56
1-32,7,2016,18.56
1-33,7,2016,18.99
1-34,7,2016,19.04
1-35,7,2016,19.2
1-36,7,2016,18.74
1-37,7,2016,18.74
1-38,7,2016,18.74
1-39,7,2016,18.56
1-40,7,2016,18.74
1-41,7,2016,18.74
1-42,7,2016,18.74
1-43,7,2016,18.74
1-44,7,2016,18.74
1-101A,7,2016,19.6
1-101B,7,2016,19.6
1-101C,7,2016,19.6
1-101D,7,2016,19.6
1-1,8,2016,20.65
1-2,8,2016,19.4
1-3,8,2016,19.4
1-4,8,2016,19.4
1-5,8,2016,19.46
1-6,8,2016,19.2
1-7,8,2016,19.2
1-8,8,2016,19.2
1-9A,8,2016,19.2
1-9B,8,2016,19.2
1-10A,8,2016,19.2
1-10B,8,2016,21.3
1-11A,8,2016,20.02
1-11B,8,2016,20.69
1-12A,8,2016,16.2
1-12B,8,2016,16.2
1-13,8,2016,20.67
1-14,8,2016,19.2
1-15,8,2016,19.2
1-16,8,2016,19.2
1-17A,8,2016,20.48
1-17B,8,2016,19.23
1-18A,8,2016,20.48
1-18B,8,2016,19.23
1-19A,8,2016,19.23
1-19B,8,2016,19.23
1-20A,8,2016,19.23
1-20B,8,2016,19.23
1-21A,8,2016,16.2
1-21B,8,2016,19.23
1-22,8,2016,19.23
1-23,8,2016,17.53
1-24,8,2016,16.2
1-25,8,2016,18.86
1-26,8,2016,18.74
1-27,8,2016,18.8
1-28,8,2016,18.38
1-29,8,2016,18.38
1-30,8,2016,18.56
1-31,8,2016,18.56
1-32,8,2016,18.56
1-33,8,2016,18.99
1-34,8,2016,19.04
1-35,8,2016,19.2
1-36,8,2016,18.74
1-37,8,2016,18.74
1-38,8,2016,18.74
1-39,8,2016,18.56
1-40,8,2016,18.74
1-41,8,2016,18.74
1-42,8,2016,18.74
1-43,8,2016,18.74
1-44,8,2016,18.74
1-101A,8,2016,19.6
1-101B,8,2016,19.6
1-101C,8,2016,19.6
1-101D,8,2016,19.6
1-1,9,2016,20.65
1-2,9,2016,19.4
1-3,9,2016,19.4
1-4,9,2016,19.4
1-5,9,2016,19.46
1-6,9,2016,19.2
1-7,9,2016,19.2
1-8,9,2016,19.2
1-9A,9,2016,19.2
1-9B,9,2016,19.2
1-10A,9,2016,19.2
1-10B,9,2016,21.3
1-11A,9,2016,20.02
1-11B,9,2016,20.69
1-12A,9,2016,16.2
1-12B,9,2016,16.2
1-13,9,2016,20.67
1-14,9,2016,19.2
1-15,9,2016,19.2
1-16,9,2016,19.2
1-17A,9,2016,20.48
1-17B,9,2016,19.23
1-18A,9,2016,20.48
1-18B,9,2016,19.23
1-19A,9,2016,19.23
1-19B,9,2016,19.23
1-20A,9,2016,19.23
1-20B,9,2016,19.23
1-21A,9,2016,16.2
1-21B,9,2016,19.23
1-22,9,2016,19.23
1-23,9,2016,17.53
1-24,9,2016,16.2
1-25,9,2016,18.86
1-26,9,2016,18.74
1-27,9,2016,18.8
1-28,9,2016,18.38
1-29,9,2016,18.38
1-30,9,2016,18.56
1-31,9,2016,18.56
1-32,9,2016,18.56
1-33,9,2016,18.99
1-34,9,2016,19.04
1-35,9,2016,19.2
1-36,9,2016,18.74
1-37,9,2016,18.74
1-38,9,2016,18.74
1-39,9,2016,18.56
1-40,9,2016,18.74
1-41,9,2016,18.74
1-42,9,2016,18.74
1-43,9,2016,18.74
1-44,9,2016,18.74
1-101A,9,2016,19.6
1-101B,9,2016,19.6
1-101C,9,2016,19.6
1-101D,9,2016,19.6
1-1,10,2016,20.65
1-2,10,2016,19.4
1-3,10,2016,19.4
1-4,10,2016,19.4
1-5,10,2016,19.46
1-6,10,2016,19.2
1-7,10,2016,19.2
1-8,10,2016,19.2
1-9A,10,2016,19.2
1-9B,10,2016,19.2
1-10A,10,2016,19.2
1-10B,10,2016,21.3
1-11A,10,2016,20.02
1-11B,10,2016,20.69
1-12A,10,2016,16.2
1-12B,10,2016,16.2
1-13,10,2016,20.67
1-14,10,2016,19.2
1-15,10,2016,19.2
1-16,10,2016,19.2
1-17A,10,2016,20.48
1-17B,10,2016,19.23
1-18A,10,2016,20.48
1-18B,10,2016,19.23
1-19A,10,2016,19.23
1-19B,10,2016,19.23
1-20A,10,2016,19.23
1-20B,10,2016,19.23
1-21A,10,2016,16.2
1-21B,10,2016,19.23
1-22,10,2016,19.23
1-23,10,2016,17.53
1-24,10,2016,16.2
1-25,10,2016,18.86
1-26,10,2016,18.74
1-27,10,2016,18.8
1-28,10,2016,18.38
1-29,10,2016,18.38
1-30,10,2016,18.56
1-31,10,2016,18.56
1-32,10,2016,18.56
1-33,10,2016,18.99
1-34,10,2016,19.04
1-35,10,2016,19.2
1-36,10,2016,18.74
1-37,10,2016,18.74
1-38,10,2016,18.74
1-39,10,2016,18.56
1-40,10,2016,18.74
1-41,10,2016,18.74
1-42,10,2016,18.74
1-43,10,2016,18.74
1-44,10,2016,18.74
1-101A,10,2016,19.6
1-101B,10,2016,19.6
1-101C,10,2016,19.6
1-101D,10,2016,19.6
1-1,11,2016,20.65
1-2,11,2016,19.4
1-3,11,2016,19.4
1-4,11,2016,19.4
1-5,11,2016,19.46
1-6,11,2016,19.2
1-7,11,2016,19.2
1-8,11,2016,19.2
1-9A,11,2016,19.2
1-9B,11,2016,19.2
1-10A,11,2016,19.2
1-10B,11,2016,21.3
1-11A,11,2016,20.02
1-11B,11,2016,20.69
1-12A,11,2016,16.2
1-12B,11,2016,16.2
1-13,11,2016,20.67
1-14,11,2016,19.2
1-15,11,2016,19.2
1-16,11,2016,19.2
1-17A,11,2016,20.48
1-17B,11,2016,19.23
1-18A,11,2016,20.48
1-18B,11,2016,19.23
1-19A,11,2016,19.23
1-19B,11,2016,19.23
1-20A,11,2016,19.23
1-20B,11,2016,19.23
1-21A,11,2016,16.2
1-21B,11,2016,19.23
1-22,11,2016,19.23
1-23,11,2016,17.53
1-24,11,2016,16.2
1-25,11,2016,18.86
1-26,11,2016,18.74
1-27,11,2016,18.8
1-28,11,2016,18.38
1-29,11,2016,18.38
1-30,11,2016,18.56
1-31,11,2016,18.56
1-32,11,2016,18.56
1-33,11,2016,18.99
1-34,11,2016,19.04
1-35,11,2016,19.2
1-36,11,2016,18.74
1-37,11,2016,18.74
1-38,11,2016,18.74
1-39,11,2016,18.56
1-40,11,2016,18.74
1-41,11,2016,18.74
1-42,11,2016,18.74
1-43,11,2016,18.74
1-44,11,2016,18.74
1-101A,11,2016,19.6
1-101B,11,2016,19.6
1-101C,11,2016,19.6
1-101D,11,2016,19.6
1-1,12,2016,20.65
1-2,12,2016,19.4
1-3,12,2016,19.4
1-4,12,2016,19.4
1-5,12,2016,19.46
1-6,12,2016,19.2
1-7,12,2016,19.2
1-8,12,2016,19.2
1-9A,12,2016,19.2
1-9B,12,2016,19.2
1-10A,12,2016,19.2
1-10B,12,2016,21.3
1-11A,12,2016,20.02
1-11B,12,2016,20.69
1-12A,12,2016,16.2
1-12B,12,2016,16.2
1-13,12,2016,20.67
1-14,12,2016,19.2
1-15,12,2016,19.2
1-16,12,2016,19.2
1-17A,12,2016,20.48
1-17B,12,2016,19.23
1-18A,12,2016,20.48
1-18B,12,2016,19.23
1-19A,12,2016,19.23
1-19B,12,2016,19.23
1-20A,12,2016,19.23
1-20B,12,2016,19.23
1-21A,12,2016,16.2
1-21B,12,2016,19.23
1-22,12,2016,19.23
1-23,12,2016,17.53
1-24,12,2016,16.2
1-25,12,2016,18.86
1-26,12,2016,18.74
1-27,12,2016,18.8
1-28,12,2016,18.38
1-29,12,2016,18.38
1-30,12,2016,18.56
1-31,12,2016,18.56
1-32,12,2016,18.56
1-33,12,2016,18.99
1-34,12,2016,19.04
1-35,12,2016,19.2
1-36,12,2016,18.74
1-37,12,2016,18.74
1-38,12,2016,18.74
1-39,12,2016,18.56
1-40,12,2016,18.74
1-41,12,2016,18.74
1-42,12,2016,18.74
1-43,12,2016,18.74
1-44,12,2016,18.74
1-101A,12,2016,19.6
1-101B,12,2016,19.6
1-101C,12,2016,19.6
1-101D,12,2016,19.6
1-1,1,2015,20.65
1-2,1,2015,19.4
1-3,1,2015,19.4
1-4,1,2015,19.4
1-5,1,2015,19.46
1-6,1,2015,19.2
1-7,1,2015,19.2
1-8,1,2015,19.2
1-9A,1,2015,19.2
1-9B,1,2015,19.2
1-10A,1,2015,19.2
1-10B,1,2015,21.3
1-11A,1,2015,20.02
1-11B,1,2015,20.69
1-12A,1,2015,16.2
1-12B,1,2015,16.2
1-13,1,2015,20.67
1-14,1,2015,19.2
1-15,1,2015,19.2
1-16,1,2015,19.2
1-17A,1,2015,20.48
1-17B,1,2015,19.23
1-18A,1,2015,20.48
1-18B,1,2015,19.23
1-19A,1,2015,19.23
1-19B,1,2015,19.23
1-20A,1,2015,19.23
1-20B,1,2015,19.23
1-21A,1,2015,16.2
1-21B,1,2015,19.23
1-22,1,2015,19.23
1-23,1,2015,17.53
1-24,1,2015,16.2
1-25,1,2015,18.86
1-26,1,2015,18.74
1-27,1,2015,18.8
1-28,1,2015,18.38
1-29,1,2015,18.38
1-30,1,2015,18.56
1-31,1,2015,18.56
1-32,1,2015,18.56
1-33,1,2015,18.99
1-34,1,2015,19.04
1-35,1,2015,19.2
1-36,1,2015,18.74
1-37,1,2015,18.74
1-38,1,2015,18.74
1-39,1,2015,18.56
1-40,1,2015,18.74
1-41,1,2015,18.74
1-42,1,2015,18.74
1-43,1,2015,18.74
1-44,1,2015,18.74
1-101A,1,2015,19.6
1-101B,1,2015,19.6
1-101C,1,2015,19.6
1-101D,1,2015,19.6
1-1,2,2015,20.65
1-2,2,2015,19.4
1-3,2,2015,19.4
1-4,2,2015,19.4
1-5,2,2015,19.46
1-6,2,2015,19.2
1-7,2,2015,19.2
1-8,2,2015,19.2
1-9A,2,2015,19.2
1-9B,2,2015,19.2
1-10A,2,2015,19.2
1-10B,2,2015,21.3
1-11A,2,2015,20.02
1-11B,2,2015,20.69
1-12A,2,2015,16.2
1-12B,2,2015,16.2
1-13,2,2015,20.67
1-14,2,2015,19.2
1-15,2,2015,19.2
1-16,2,2015,19.2
1-17A,2,2015,20.48
1-17B,2,2015,19.23
1-18A,2,2015,20.48
1-18B,2,2015,19.23
1-19A,2,2015,19.23
1-19B,2,2015,19.23
1-20A,2,2015,19.23
1-20B,2,2015,19.23
1-21A,2,2015,16.2
1-21B,2,2015,19.23
1-22,2,2015,19.23
1-23,2,2015,17.53
1-24,2,2015,16.2
1-25,2,2015,18.86
1-26,2,2015,18.74
1-27,2,2015,18.8
1-28,2,2015,18.38
1-29,2,2015,18.38
1-30,2,2015,18.56
1-31,2,2015,18.56
1-32,2,2015,18.56
1-33,2,2015,18.99
1-34,2,2015,19.04
1-35,2,2015,19.2
1-36,2,2015,18.74
1-37,2,2015,18.74
1-38,2,2015,18.74
1-39,2,2015,18.56
1-40,2,2015,18.74
1-41,2,2015,18.74
1-42,2,2015,18.74
1-43,2,2015,18.74
1-44,2,2015,18.74
1-101A,2,2015,19.6
1-101B,2,2015,19.6
1-101C,2,2015,19.6
1-101D,2,2015,19.6
1-1,3,2015,20.65
1-2,3,2015,19.4
1-3,3,2015,19.4
1-4,3,2015,19.4
1-5,3,2015,19.46
1-6,3,2015,19.2
1-7,3,2015,19.2
1-8,3,2015,19.2
1-9A,3,2015,19.2
1-9B,3,2015,19.2
1-10A,3,2015,19.2
1-10B,3,2015,21.3
1-11A,3,2015,20.02
1-11B,3,2015,20.69
1-12A,3,2015,16.2
1-12B,3,2015,16.2
1-13,3,2015,20.67
1-14,3,2015,19.2
1-15,3,2015,19.2
1-16,3,2015,19.2
1-17A,3,2015,20.48
1-17B,3,2015,19.23
1-18A,3,2015,20.48
1-18B,3,2015,19.23
1-19A,3,2015,19.23
1-19B,3,2015,19.23
1-20A,3,2015,19.23
1-20B,3,2015,19.23
1-21A,3,2015,16.2
1-21B,3,2015,19.23
1-22,3,2015,19.23
1-23,3,2015,17.53
1-24,3,2015,16.2
1-25,3,2015,18.86
1-26,3,2015,18.74
1-27,3,2015,18.8
1-28,3,2015,18.38
1-29,3,2015,18.38
1-30,3,2015,18.56
1-31,3,2015,18.56
1-32,3,2015,18.56
1-33,3,2015,18.99
1-34,3,2015,19.04
1-35,3,2015,19.2
1-36,3,2015,18.74
1-37,3,2015,18.74
1-38,3,2015,18.74
1-39,3,2015,18.56
1-40,3,2015,18.74
1-41,3,2015,18.74
1-42,3,2015,18.74
1-43,3,2015,18.74
1-44,3,2015,18.74
1-101A,3,2015,19.6
1-101B,3,2015,19.6
1-101C,3,2015,19.6
1-101D,3,2015,19.6
1-1,4,2015,20.65
1-2,4,2015,19.4
1-3,4,2015,19.4
1-4,4,2015,19.4
1-5,4,2015,19.46
1-6,4,2015,19.2
1-7,4,2015,19.2
1-8,4,2015,19.2
1-9A,4,2015,19.2
1-9B,4,2015,19.2
1-10A,4,2015,19.2
1-10B,4,2015,21.3
1-11A,4,2015,20.02
1-11B,4,2015,20.69
1-12A,4,2015,16.2
1-12B,4,2015,16.2
1-13,4,2015,20.67
1-14,4,2015,19.2
1-15,4,2015,19.2
1-16,4,2015,19.2
1-17A,4,2015,20.48
1-17B,4,2015,19.23
1-18A,4,2015,20.48
1-18B,4,2015,19.23
1-19A,4,2015,19.23
1-19B,4,2015,19.23
1-20A,4,2015,19.23
1-20B,4,2015,19.23
1-21A,4,2015,16.2
1-21B,4,2015,19.23
1-22,4,2015,19.23
1-23,4,2015,17.53
1-24,4,2015,16.2
1-25,4,2015,18.86
1-26,4,2015,18.74
1-27,4,2015,18.8
1-28,4,2015,18.38
1-29,4,2015,18.38
1-30,4,2015,18.56
1-31,4,2015,18.56
1-32,4,2015,18.56
1-33,4,2015,18.99
1-34,4,2015,19.04
1-35,4,2015,19.2
1-36,4,2015,18.74
1-37,4,2015,18.74
1-38,4,2015,18.74
1-39,4,2015,18.56
1-40,4,2015,18.74
1-41,4,2015,18.74
1-42,4,2015,18.74
1-43,4,2015,18.74
1-44,4,2015,18.74
1-101A,4,2015,19.6
1-101B,4,2015,19.6
1-101C,4,2015,19.6
1-101D,4,2015,19.6
1-1,5,2015,20.65
1-2,5,2015,19.4
1-3,5,2015,19.4
1-4,5,2015,19.4
1-5,5,2015,19.46
1-6,5,2015,19.2
1-7,5,2015,19.2
1-8,5,2015,19.2
1-9A,5,2015,19.2
1-9B,5,2015,19.2
1-10A,5,2015,19.2
1-10B,5,2015,21.3
1-11A,5,2015,20.02
1-11B,5,2015,20.69
1-12A,5,2015,16.2
1-12B,5,2015,16.2
1-13,5,2015,20.67
1-14,5,2015,19.2
1-15,5,2015,19.2
1-16,5,2015,19.2
1-17A,5,2015,20.48
1-17B,5,2015,19.23
1-18A,5,2015,20.48
1-18B,5,2015,19.23
1-19A,5,2015,19.23
1-19B,5,2015,19.23
1-20A,5,2015,19.23
1-20B,5,2015,19.23
1-21A,5,2015,16.2
1-21B,5,2015,19.23
1-22,5,2015,19.23
1-23,5,2015,17.53
1-24,5,2015,16.2
1-25,5,2015,18.86
1-26,5,2015,18.74
1-27,5,2015,18.8
1-28,5,2015,18.38
1-29,5,2015,18.38
1-30,5,2015,18.56
1-31,5,2015,18.56
1-32,5,2015,18.56
1-33,5,2015,18.99
1-34,5,2015,19.04
1-35,5,2015,19.2
1-36,5,2015,18.74
1-37,5,2015,18.74
1-38,5,2015,18.74
1-39,5,2015,18.56
1-40,5,2015,18.74
1-41,5,2015,18.74
1-42,5,2015,18.74
1-43,5,2015,18.74
1-44,5,2015,18.74
1-101A,5,2015,19.6
1-101B,5,2015,19.6
1-101C,5,2015,19.6
1-101D,5,2015,19.6
1-1,6,2015,20.65
1-2,6,2015,19.4
1-3,6,2015,19.4
1-4,6,2015,19.4
1-5,6,2015,19.46
1-6,6,2015,19.2
1-7,6,2015,19.2
1-8,6,2015,19.2
1-9A,6,2015,19.2
1-9B,6,2015,19.2
1-10A,6,2015,19.2
1-10B,6,2015,21.3
1-11A,6,2015,20.02
1-11B,6,2015,20.69
1-12A,6,2015,16.2
1-12B,6,2015,16.2
1-13,6,2015,20.67
1-14,6,2015,19.2
1-15,6,2015,19.2
1-16,6,2015,19.2
1-17A,6,2015,20.48
1-17B,6,2015,19.23
1-18A,6,2015,20.48
1-18B,6,2015,19.23
1-19A,6,2015,19.23
1-19B,6,2015,19.23
1-20A,6,2015,19.23
1-20B,6,2015,19.23
1-21A,6,2015,16.2
1-21B,6,2015,19.23
1-22,6,2015,19.23
1-23,6,2015,17.53
1-24,6,2015,16.2
1-25,6,2015,18.86
1-26,6,2015,18.74
1-27,6,2015,18.8
1-28,6,2015,18.38
1-29,6,2015,18.38
1-30,6,2015,18.56
1-31,6,2015,18.56
1-32,6,2015,18.56
1-33,6,2015,18.99
1-34,6,2015,19.04
1-35,6,2015,19.2
1-36,6,2015,18.74
1-37,6,2015,18.74
1-38,6,2015,18.74
1-39,6,2015,18.56
1-40,6,2015,18.74
1-41,6,2015,18.74
1-42,6,2015,18.74
1-43,6,2015,18.74
1-44,6,2015,18.74
1-101A,6,2015,19.6
1-101B,6,2015,19.6
1-101C,6,2015,19.6
1-101D,6,2015,19.6
1-1,7,2015,20.65
1-2,7,2015,19.4
1-3,7,2015,19.4
1-4,7,2015,19.4
1-5,7,2015,19.46
1-6,7,2015,19.2
1-7,7,2015,19.2
1-8,7,2015,19.2
1-9A,7,2015,19.2
1-9B,7,2015,19.2
1-10A,7,2015,19.2
1-10B,7,2015,21.3
1-11A,7,2015,20.02
1-11B,7,2015,20.69
1-12A,7,2015,16.2
1-12B,7,2015,16.2
1-13,7,2015,20.67
1-14,7,2015,19.2
1-15,7,2015,19.2
1-16,7,2015,19.2
1-17A,7,2015,20.48
1-17B,7,2015,19.23
1-18A,7,2015,20.48
1-18B,7,2015,19.23
1-19A,7,2015,19.23
1-19B,7,2015,19.23
1-20A,7,2015,19.23
1-20B,7,2015,19.23
1-21A,7,2015,16.2
1-21B,7,2015,19.23
1-22,7,2015,19.23
1-23,7,2015,17.53
1-24,7,2015,16.2
1-25,7,2015,18.86
1-26,7,2015,18.74
1-27,7,2015,18.8
1-28,7,2015,18.38
1-29,7,2015,18.38
1-30,7,2015,18.56
1-31,7,2015,18.56
1-32,7,2015,18.56
1-33,7,2015,18.99
1-34,7,2015,19.04
1-35,7,2015,19.2
1-36,7,2015,18.74
1-37,7,2015,18.74
1-38,7,2015,18.74
1-39,7,2015,18.56
1-40,7,2015,18.74
1-41,7,2015,18.74
1-42,7,2015,18.74
1-43,7,2015,18.74
1-44,7,2015,18.74
1-101A,7,2015,19.6
1-101B,7,2015,19.6
1-101C,7,2015,19.6
1-101D,7,2015,19.6
1-1,8,2015,20.65
1-2,8,2015,19.4
1-3,8,2015,19.4
1-4,8,2015,19.4
1-5,8,2015,19.46
1-6,8,2015,19.2
1-7,8,2015,19.2
1-8,8,2015,19.2
1-9A,8,2015,19.2
1-9B,8,2015,19.2
1-10A,8,2015,19.2
1-10B,8,2015,21.3
1-11A,8,2015,20.02
1-11B,8,2015,20.69
1-12A,8,2015,16.2
1-12B,8,2015,16.2
1-13,8,2015,20.67
1-14,8,2015,19.2
1-15,8,2015,19.2
1-16,8,2015,19.2
1-17A,8,2015,20.48
1-17B,8,2015,19.23
1-18A,8,2015,20.48
1-18B,8,2015,19.23
1-19A,8,2015,19.23
1-19B,8,2015,19.23
1-20A,8,2015,19.23
1-20B,8,2015,19.23
1-21A,8,2015,16.2
1-21B,8,2015,19.23
1-22,8,2015,19.23
1-23,8,2015,17.53
1-24,8,2015,16.2
1-25,8,2015,18.86
1-26,8,2015,18.74
1-27,8,2015,18.8
1-28,8,2015,18.38
1-29,8,2015,18.38
1-30,8,2015,18.56
1-31,8,2015,18.56
1-32,8,2015,18.56
1-33,8,2015,18.99
1-34,8,2015,19.04
1-35,8,2015,19.2
1-36,8,2015,18.74
1-37,8,2015,18.74
1-38,8,2015,18.74
1-39,8,2015,18.56
1-40,8,2015,18.74
1-41,8,2015,18.74
1-42,8,2015,18.74
1-43,8,2015,18.74
1-44,8,2015,18.74
1-101A,8,2015,19.6
1-101B,8,2015,19.6
1-101C,8,2015,19.6
1-101D,8,2015,19.6
1-1,9,2015,20.65
1-2,9,2015,19.4
1-3,9,2015,19.4
1-4,9,2015,19.4
1-5,9,2015,19.46
1-6,9,2015,19.2
1-7,9,2015,19.2
1-8,9,2015,19.2
1-9A,9,2015,19.2
1-9B,9,2015,19.2
1-10A,9,2015,19.2
1-10B,9,2015,21.3
1-11A,9,2015,20.02
1-11B,9,2015,20.69
1-12A,9,2015,16.2
1-12B,9,2015,16.2
1-13,9,2015,20.67
1-14,9,2015,19.2
1-15,9,2015,19.2
1-16,9,2015,19.2
1-17A,9,2015,20.48
1-17B,9,2015,19.23
1-18A,9,2015,20.48
1-18B,9,2015,19.23
1-19A,9,2015,19.23
1-19B,9,2015,19.23
1-20A,9,2015,19.23
1-20B,9,2015,19.23
1-21A,9,2015,16.2
1-21B,9,2015,19.23
1-22,9,2015,19.23
1-23,9,2015,17.53
1-24,9,2015,16.2
1-25,9,2015,18.86
1-26,9,2015,18.74
1-27,9,2015,18.8
1-28,9,2015,18.38
1-29,9,2015,18.38
1-30,9,2015,18.56
1-31,9,2015,18.56
1-32,9,2015,18.56
1-33,9,2015,18.99
1-34,9,2015,19.04
1-35,9,2015,19.2
1-36,9,2015,18.74
1-37,9,2015,18.74
1-38,9,2015,18.74
1-39,9,2015,18.56
1-40,9,2015,18.74
1-41,9,2015,18.74
1-42,9,2015,18.74
1-43,9,2015,18.74
1-44,9,2015,18.74
1-101A,9,2015,19.6
1-101B,9,2015,19.6
1-101C,9,2015,19.6
1-101D,9,2015,19.6
1-1,10,2015,20.65
1-2,10,2015,19.4
1-3,10,2015,19.4
1-4,10,2015,19.4
1-5,10,2015,19.46
1-6,10,2015,19.2
1-7,10,2015,19.2
1-8,10,2015,19.2
1-9A,10,2015,19.2
1-9B,10,2015,19.2
1-10A,10,2015,19.2
1-10B,10,2015,21.3
1-11A,10,2015,20.02
1-11B,10,2015,20.69
1-12A,10,2015,16.2
1-12B,10,2015,16.2
1-13,10,2015,20.67
1-14,10,2015,19.2
1-15,10,2015,19.2
1-16,10,2015,19.2
1-17A,10,2015,20.48
1-17B,10,2015,19.23
1-18A,10,2015,20.48
1-18B,10,2015,19.23
1-19A,10,2015,19.23
1-19B,10,2015,19.23
1-20A,10,2015,19.23
1-20B,10,2015,19.23
1-21A,10,2015,16.2
1-21B,10,2015,19.23
1-22,10,2015,19.23
1-23,10,2015,17.53
1-24,10,2015,16.2
1-25,10,2015,18.86
1-26,10,2015,18.74
1-27,10,2015,18.8
1-28,10,2015,18.38
1-29,10,2015,18.38
1-30,10,2015,18.56
1-31,10,2015,18.56
1-32,10,2015,18.56
1-33,10,2015,18.99
1-34,10,2015,19.04
1-35,10,2015,19.2
1-36,10,2015,18.74
1-37,10,2015,18.74
1-38,10,2015,18.74
1-39,10,2015,18.56
1-40,10,2015,18.74
1-41,10,2015,18.74
1-42,10,2015,18.74
1-43,10,2015,18.74
1-44,10,2015,18.74
1-101A,10,2015,19.6
1-101B,10,2015,19.6
1-101C,10,2015,19.6
1-101D,10,2015,19.6
1-1,11,2015,20.65
1-2,11,2015,19.4
1-3,11,2015,19.4
1-4,11,2015,19.4
1-5,11,2015,19.46
1-6,11,2015,19.2
1-7,11,2015,19.2
1-8,11,2015,19.2
1-9A,11,2015,19.2
1-9B,11,2015,19.2
1-10A,11,2015,19.2
1-10B,11,2015,21.3
1-11A,11,2015,20.02
1-11B,11,2015,20.69
1-12A,11,2015,16.2
1-12B,11,2015,16.2
1-13,11,2015,20.67
1-14,11,2015,19.2
1-15,11,2015,19.2
1-16,11,2015,19.2
1-17A,11,2015,20.48
1-17B,11,2015,19.23
1-18A,11,2015,20.48
1-18B,11,2015,19.23
1-19A,11,2015,19.23
1-19B,11,2015,19.23
1-20A,11,2015,19.23
1-20B,11,2015,19.23
1-21A,11,2015,16.2
1-21B,11,2015,19.23
1-22,11,2015,19.23
1-23,11,2015,17.53
1-24,11,2015,16.2
1-25,11,2015,18.86
1-26,11,2015,18.74
1-27,11,2015,18.8
1-28,11,2015,18.38
1-29,11,2015,18.38
1-30,11,2015,18.56
1-31,11,2015,18.56
1-32,11,2015,18.56
1-33,11,2015,18.99
1-34,11,2015,19.04
1-35,11,2015,19.2
1-36,11,2015,18.74
1-37,11,2015,18.74
1-38,11,2015,18.74
1-39,11,2015,18.56
1-40,11,2015,18.74
1-41,11,2015,18.74
1-42,11,2015,18.74
1-43,11,2015,18.74
1-44,11,2015,18.74
1-101A,11,2015,19.6
1-101B,11,2015,19.6
1-101C,11,2015,19.6
1-101D,11,2015,19.6
1-1,12,2015,20.65
1-2,12,2015,19.4
1-3,12,2015,19.4
1-4,12,2015,19.4
1-5,12,2015,19.46
1-6,12,2015,19.2
1-7,12,2015,19.2
1-8,12,2015,19.2
1-9A,12,2015,19.2
1-9B,12,2015,19.2
1-10A,12,2015,19.2
1-10B,12,2015,21.3
1-11A,12,2015,20.02
1-11B,12,2015,20.69
1-12A,12,2015,16.2
1-12B,12,2015,16.2
1-13,12,2015,20.67
1-14,12,2015,19.2
1-15,12,2015,19.2
1-16,12,2015,19.2
1-17A,12,2015,20.48
1-17B,12,2015,19.23
1-18A,12,2015,20.48
1-18B,12,2015,19.23
1-19A,12,2015,19.23
1-19B,12,2015,19.23
1-20A,12,2015,19.23
1-20B,12,2015,19.23
1-21A,12,2015,16.2
1-21B,12,2015,19.23
1-22,12,2015,19.23
1-23,12,2015,17.53
1-24,12,2015,16.2
1-25,12,2015,18.86
1-26,12,2015,18.74
1-27,12,2015,18.8
1-28,12,2015,18.38
1-29,12,2015,18.38
1-30,12,2015,18.56
1-31,12,2015,18.56
1-32,12,2015,18.56
1-33,12,2015,18.99
1-34,12,2015,19.04
1-35,12,2015,19.2
1-36,12,2015,18.74
1-37,12,2015,18.74
1-38,12,2015,18.74
1-39,12,2015,18.56
1-40,12,2015,18.74
1-41,12,2015,18.74
1-42,12,2015,18.74
1-43,12,2015,18.74
1-44,12,2015,18.74
1-101A,12,2015,19.6
1-101B,12,2015,19.6
1-101C,12,2015,19.6
1-101D,12,2015,19.6
