﻿Cartografia,FECHA,SINTOMA,TRATAMIENTO
1-4_86-4-6,2019-10-04,PC-HC,Tratamiento--Radicular
1-4_86-5-6,2019-10-04,PC-HC,Tratamiento--Radicular
1-4_86-8-9,2019-10-04,PC-HC,Tratamiento--Radicular
1-4_86-9-8,2019-10-04,PC-HC,Tratamiento--Radicular
1-2_86-21-34,2019-11-22,PC-HC,Tratamiento--Radicular
1-3_86-27-10,2019-11-22,PC-HC,Tratamiento--Radicular
1-2_86-35-19,2019-11-22,PC-HC,Tratamiento--Radicular
1-3_86-47-30,2019-11-22,PC-HC,Tratamiento--Radicular
1-3_86-48-32,2019-11-22,PC-HC,Tratamiento--Radicular
1-4_86-5-7,2019-11-25,PC-HC,Tratamiento--Radicular
1-4_86-5-8,2019-11-25,PC-HC,Tratamiento--Radicular
1-4_86-6-8,2019-11-25,PC-HC,Tratamiento--Radicular
1-4_86-7-10,2019-11-25,PC-HC,Tratamiento--Radicular
1-4_86-10-5,2019-11-25,PC-HC,Tratamiento--Radicular
1-4_86-15-18,2019-11-25,PC-HC,Tratamiento--Radicular
1-5_86-6-22,2019-11-27,PC-HC,Tratamiento--Radicular
1-5_86-73-5,2019-11-27,PC-HC,Tratamiento--Radicular
1-6_86-72-23,2019-11-27,PC-HC,Tratamiento--Radicular
1-4_86-13-3,2019-12-30,PC-HC,Tratamiento--Radicular
1-6_86-15-2,2020-02-07,PC-HC,Tratamiento--Radicular
1-4_86-23-8,2020-02-20,PC-HC,Tratamiento--Radicular
1-7_86-3-16,2020-03-03,PC-HC,Tratamiento--Fertilizacion
1-5_86-3-32,2020-03-10,PC-HC,Tratamiento--Fertilizacion
1-4_86-2-5,2020-03-11,PC-HC,Tratamiento--Fertilizacion
1-4_86-4-9,2020-03-11,PC-HC,Tratamiento--Fertilizacion
1-4_86-4-11,2020-03-11,PC-HC,Tratamiento--Fertilizacion
1-2_86-15-30,2020-03-11,PC-HC,Tratamiento--Fertilizacion
1-2_86-19-31,2020-03-11,PC-HC,Tratamiento--Fertilizacion
1-2_86-36-17,2020-03-11,PC-HC,Tratamiento--Fertilizacion
1-7_86-4-34,2020-03-17,PC-HC,Tratamiento--Fertilizacion
1-6_86-15-10,2020-04-18,PC-HC,Tratamiento--Fertilizacion
1-6_86-67-3,2020-04-18,PC-HC,Tratamiento--Fertilizacion
1-4_86-4-10,2020-04-20,PC-HC,Tratamiento--Fertilizacion
1-4_86-5-10,2020-04-20,PC-HC,Tratamiento--Fertilizacion
1-4_86-7-9,2020-04-20,PC-HC,Tratamiento--Fertilizacion
1-4_86-8-11,2020-04-20,PC-HC,Tratamiento--Fertilizacion
1-4_86-8-12,2020-04-20,PC-HC,Tratamiento--Fertilizacion
1-4_86-10-6,2020-04-22,PC-HC,Tratamiento--Fertilizacion
1-4_86-14-16,2020-04-22,PC-HC,Tratamiento--Fertilizacion
1-4_86-15-12,2020-04-22,PC-HC,Tratamiento--Fertilizacion
1-4_86-19-19,2020-04-22,PC-HC,Tratamiento--Fertilizacion
1-4_86-22-8,2020-04-22,PC-HC,Tratamiento--Fertilizacion
1-4_86-23-10,2020-04-22,PC-HC,Tratamiento--Fertilizacion
1-4_86-24-10,2020-04-22,PC-HC,Tratamiento--Fertilizacion
1-4_86-7-7,2020-05-14,PC-HC,Tratamiento--fertlizacion
1-4_86-21-6,2020-05-14,PC-HC,Tratamiento--fertlizacion
1-5_86-2-31,2020-05-15,PC-HC,Tratamiento--fertlizacion
1-5_86-73-6,2020-05-18,PC-HC,Tratamiento--CIRUGIA
1-5_86-71-5,2020-06-09,PC-HC,Tratamiento--Fertlizacion
1-5_86-74-4,2020-06-09,PC-HC,Tratamiento--Fertlizacion
1-6_86-60-18,2020-06-11,PC-HC,Tratamiento--Fertlizacion
1-6_86-68-1,2020-06-11,PC-HC,Tratamiento--Fertlizacion
1-2_86-21-29,2020-07-03,PC-HC,Tratamiento--Fertlizacion
1-2_86-55-30,2020-07-03,PC-HC,Tratamiento--Fertlizacion
1-5_86-72-4,2020-07-08,PC-HC,Tratamiento--Fertlizacion
1-5_86-73-8,2020-07-08,PC-HC,Tratamiento--Fertlizacion
1-6_86-71-24,2020-09-17,PC-HC,Tratamiento-CIRUGIA
1-6_86-71-26,2020-09-17,PC-HC,Tratamiento-CIRUGIA
1-6_86-73-24,2020-09-17,PC-HC,Tratamiento-CIRUGIA
1-6_86-73-25,2020-09-17,PC-HC,Tratamiento-CIRUGIA
1-6_86-73-26,2020-09-17,PC-HC,Tratamiento-CIRUGIA
1-6_86-69-23,2020-09-17,PC-HC,ALTA
1-6_86-71-25,2020-09-17,PC-HC,ALTA
1-6_86-11-3,2020-09-18,PC-HC,Tratamiento-CIRUGIA
1-6_86-21-8,2020-09-18,PC-CLASICA,Tratamiento-CIRUGIA
1-6_86-41-20,2020-09-18,PC-HC,Tratamiento-CIRUGIA
1-6_86-54-9,2020-09-18,PC-HC,Tratamiento-CIRUGIA
1-6_86-55-16,2020-09-18,PC-HC,Tratamiento-CIRUGIA
1-5_86-5-10,2020-09-19,PC-HC,Tratamiento-CIRUGIA
1-5_86-7-34,2020-09-19,PC-HC,Tratamiento-CIRUGIA
1-5_86-8-31,2020-09-19,PC-HC,Tratamiento-CIRUGIA
1-5_86-43-29,2020-09-19,PC-HC,Tratamiento-CIRUGIA
1-5_86-45-3,2020-09-19,PC-HC,Tratamiento-CIRUGIA
1-5_86-60-6,2020-09-19,PC-HC,Tratamiento-CIRUGIA
1-5_86-74-5,2020-09-19,PC-HC,Tratamiento-CIRUGIA
1-5_86-48-25,2020-09-19,PC-HC,ALTA
1-1_86-48-9,2020-10-13,PC-HC,Tratamiento-CIRUGIA
1-1_86-21-30,2020-10-13,PC-HC,Tratamiento-CIRUGIA
1-1_86-20-6,2020-10-13,PC-HC,Tratamiento-CIRUGIA
1-1_86-19-4,2020-10-13,PC-HC,Tratamiento-CIRUGIA
1-1_86-18-3,2020-10-13,PC-HC,Tratamiento-CIRUGIA
1-1_86-18-5,2020-10-13,PC-HC,Tratamiento-CIRUGIA
1-1_86-18-7,2020-10-13,PC-HC,Tratamiento-CIRUGIA
1-1_86-18-10,2020-10-13,PC-HC,Tratamiento-CIRUGIA
1-1_86-17-5,2020-10-13,PC-HC,Tratamiento-CIRUGIA
1-1_86-17-8,2020-10-13,PC-HC,Tratamiento-CIRUGIA
1-1_86-23-21,2020-10-13,PC-HC,Tratamiento-CIRUGIA
1-1_86-10-7,2020-10-14,PC-HC,Tratamiento-CIRUGIA
1-1_86-12-15,2020-10-14,PC-HC,Tratamiento-CIRUGIA
1-1_86-15-6,2020-10-14,PC-HC,Tratamiento-CIRUGIA
1-1_86-15-13,2020-10-14,PC-HC,Tratamiento-CIRUGIA
1-1_86-16-2,2020-10-14,PC-HC,Tratamiento-CIRUGIA
1-1_86-16-3,2020-10-14,PC-HC,Tratamiento-CIRUGIA
1-1_86-16-7,2020-10-14,PC-HC,Tratamiento-CIRUGIA
1-1_86-16-12,2020-10-14,PC-HC,Tratamiento-CIRUGIA
1-3_86-24-6,2020-10-14,PC-HC,Tratamiento-CIRUGIA
1-3_86-23-6,2020-10-14,PC-HC,Tratamiento-CIRUGIA
1-3_86-27-13,2020-10-14,PC-HC,Tratamiento-CIRUGIA
1-3_86-27-9,2020-10-14,PC-HC,Tratamiento-CIRUGIA
1-3_86-28-8,2020-10-14,PC-HC,Tratamiento-CIRUGIA
1-3_86-28-11,2020-10-14,PC-HC,Tratamiento-CIRUGIA
1-3_86-29-10,2020-10-14,PC-HC,Tratamiento-CIRUGIA
1-3_86-37-25,2020-10-14,PC-HC,Tratamiento-CIRUGIA
1-3_86-39-27,2020-10-14,PC-HC,Tratamiento-CIRUGIA
1-3_86-39-28,2020-10-14,PC-HC,Tratamiento-CIRUGIA
1-3_86-39-29,2020-10-14,PC-HC,Tratamiento-CIRUGIA
1-3_86-40-14,2020-10-14,PC-HC,Tratamiento-CIRUGIA
1-3_86-42-15,2020-10-14,PC-HC,Tratamiento-CIRUGIA
1-3_86-43-27,2020-10-14,PC-HC,Tratamiento-CIRUGIA
1-3_86-70-27,2020-10-15,PC-HC,Tratamiento-CIRUGIA
1-3_86-71-29,2020-10-15,PC-HC,Tratamiento-CIRUGIA
1-3_86-72-27,2020-10-15,PC-HC,Tratamiento-CIRUGIA
1-3_86-72-28,2020-10-15,PC-HC,Tratamiento-CIRUGIA
1-3_86-69-29,2020-10-15,PC-HC,Tratamiento-CIRUGIA
1-3_86-69-31,2020-10-15,PC-HC,Tratamiento-CIRUGIA
1-3_86-64-3,2020-10-15,PC-HC,Tratamiento-CIRUGIA
1-3_86-20-20,2020-10-15,PC-HC,Tratamiento-CIRUGIA
1-3_86-18-32,2020-10-15,PC-HC,Tratamiento-CIRUGIA
1-3_86-13-23,2020-10-15,PC-HC,Tratamiento-CIRUGIA
1-3_86-16-16,2020-10-15,PC-HC,Tratamiento-CIRUGIA
1-3_86-16-14,2020-10-15,PC-HC,Tratamiento-CIRUGIA
1-3_86-3-21,2020-10-16,PC-HC,Tratamiento-CIRUGIA
1-3_86-5-21,2020-10-16,PC-HC,Tratamiento-CIRUGIA
1-3_86-5-4,2020-10-16,PC-HC,Tratamiento-CIRUGIA
1-3_86-1-16,2020-10-16,PC-HC,Tratamiento-CIRUGIA
1-3_86-14-23,2020-10-16,PC-HC,Tratamiento-CIRUGIA
1-2_86-65-28,2020-10-16,PC-HC,Tratamiento-CIRUGIA
1-2_86-53-9,2020-10-16,PC-HC,Tratamiento-CIRUGIA
1-2_86-54-2,2020-10-16,PC-HC,Tratamiento-CIRUGIA
1-2_86-52-2,2020-10-16,PC-HC,Tratamiento-CIRUGIA
1-2_86-35-28,2020-10-16,PC-HC,Tratamiento-CIRUGIA
1-2_86-36-19,2020-10-16,PC-HC,Tratamiento-CIRUGIA
1-2_86-29-28,2020-10-16,PC-HC,Tratamiento-CIRUGIA
1-2_86-36-22,2020-10-16,PC-HC,Tratamiento-CIRUGIA
1-2_86-2-21,2020-10-17,PC-HC,Tratamiento-CIRUGIA
1-2_86-9-23,2020-10-17,PC-HC,Tratamiento-CIRUGIA
1-2_86-10-26,2020-10-17,PC-HC,Tratamiento-CIRUGIA
1-2_86-11-34,2020-10-17,PC-HC,Tratamiento-CIRUGIA
1-2_86-13-29,2020-10-17,PC-HC,Tratamiento-CIRUGIA
1-2_86-15-21,2020-10-17,PC-HC,Tratamiento-CIRUGIA
1-2_86-15-29,2020-10-17,PC-HC,Tratamiento-CIRUGIA
1-2_86-15-32,2020-10-17,PC-HC,Tratamiento-CIRUGIA
1-2_86-16-29,2020-10-17,PC-HC,Tratamiento-CIRUGIA
1-2_86-16-30,2020-10-17,PC-HC,Tratamiento-CIRUGIA
1-2_86-17-33,2020-10-17,PC-HC,Tratamiento-CIRUGIA
1-2_86-19-29,2020-10-17,PC-HC,Tratamiento-CIRUGIA
1-2_86-28-13,2020-10-17,PC-HC,Tratamiento-CIRUGIA
1-2_86-22-33,2020-10-17,PC-HC,Tratamiento-CIRUGIA
1-2_86-27-33,2020-10-17,PC-HC,Tratamiento-CIRUGIA
1-2_86-32-27,2020-10-17,PC-HC,Tratamiento-CIRUGIA
1-2_86-37-19,2020-10-17,PC-HC,Tratamiento-CIRUGIA
1-2_86-8-22,2020-10-17,PC-HC,NO-TRATADA-X-AVISPAS
1-2_86-8-24,2020-10-17,PC-HC,ALTA
1-7_86-2-33,2020-10-20,PC-HC,Tratamiento-CIRUGIA
1-7_86-3-17,2020-10-20,PC-HC,Tratamiento-CIRUGIA
1-7_86-3-31,2020-10-20,PC-HC,Tratamiento-CIRUGIA
1-7_86-3-75,2020-10-20,PC-HC,Tratamiento-CIRUGIA
1-7_86-4-13,2020-10-20,PC-HC,Tratamiento-CIRUGIA
1-7_86-4-22,2020-10-20,PC-HC,Tratamiento-CIRUGIA
1-7_86-4-23,2020-10-20,PC-HC,Tratamiento-CIRUGIA
1-7_86-4-24,2020-10-20,PC-HC,Tratamiento-CIRUGIA
1-7_86-2-11,2020-10-20,PC-HC,Tratamiento-CIRUGIA
1-4_86-1-1,2020-10-30,PC-HC,Tratamiento-CIRUGIA
1-4_86-1-6,2020-10-30,PC-HC,Tratamiento-CIRUGIA
1-4_86-1-8,2020-10-30,PC-HC,Tratamiento-CIRUGIA
1-4_86-1-9,2020-10-30,PC-HC,Tratamiento-CIRUGIA
1-4_86-2-6,2020-10-30,PC-HC,Tratamiento-CIRUGIA
1-4_86-2-10,2020-10-30,PC-HC,Tratamiento-CIRUGIA
1-4_86-2-11,2020-10-30,PC-HC,Tratamiento-CIRUGIA
1-4_86-3-5,2020-10-30,PC-HC,Tratamiento-CIRUGIA
1-4_86-3-10,2020-10-30,PC-HC,Tratamiento-CIRUGIA
1-4_86-3-11,2020-10-30,PC-HC,Tratamiento-CIRUGIA
1-4_86-3-12,2020-10-30,PC-HC,Tratamiento-CIRUGIA
1-4_86-4-8,2020-10-30,PC-HC,Tratamiento-CIRUGIA
1-4_86-4-14,2020-10-30,PC-HC,Tratamiento-CIRUGIA
1-4_86-4-16,2020-10-30,PC-HC,Tratamiento-CIRUGIA
1-4_86-5-4,2020-10-30,PC-HC,Tratamiento-CIRUGIA
1-4_86-5-11,2020-10-30,PC-HC,Tratamiento-CIRUGIA
1-4_86-5-14,2020-10-30,PC-HC,Tratamiento-CIRUGIA
1-4_86-6-10,2020-10-30,PC-HC,Tratamiento-CIRUGIA
1-4_86-6-11,2020-10-30,PC-HC,Tratamiento-CIRUGIA
1-4_86-6-19,2020-10-30,PC-HC,Tratamiento-CIRUGIA
1-4_86-7-3,2020-10-30,PC-HC,Tratamiento-CIRUGIA
1-4_86-7-18,2020-10-30,PC-HC,Tratamiento-CIRUGIA
1-4_86-8-4,2020-10-31,PC-HC,Tratamiento-CIRUGIA
1-4_86-8-6,2020-10-31,PC-HC,Tratamiento-CIRUGIA
1-4_86-8-7,2020-10-31,PC-HC,Tratamiento-CIRUGIA
1-4_86-8-8,2020-10-31,PC-HC,Tratamiento-CIRUGIA
1-4_86-8-5,2020-10-31,PC-HC,Tratamiento-CIRUGIA
1-4_86-8-14,2020-10-31,PC-HC,Tratamiento-CIRUGIA
1-4_86-9-3,2020-10-31,PC-HC,Tratamiento-CIRUGIA
1-4_86-9-6,2020-10-31,PC-HC,Tratamiento-CIRUGIA
1-4_86-9-14,2020-10-31,PC-HC,Tratamiento-CIRUGIA
1-4_86-9-15,2020-10-31,PC-HC,Tratamiento-CIRUGIA
1-4_86-9-16,2020-10-31,PC-HC,Tratamiento-CIRUGIA
1-4_86-10-10,2020-10-31,PC-HC,Tratamiento-CIRUGIA
1-4_86-10-11,2020-10-31,PC-HC,Tratamiento-CIRUGIA
1-4_86-10-12,2020-10-31,PC-HC,Tratamiento-CIRUGIA
1-4_86-10-13,2020-10-31,PC-HC,Tratamiento-CIRUGIA
1-4_86-10-14,2020-10-31,PC-HC,Tratamiento-CIRUGIA
1-4_86-10-17,2020-10-31,PC-HC,Tratamiento-CIRUGIA
1-4_86-11-6,2020-10-31,PC-HC,Tratamiento-CIRUGIA
1-4_86-11-9,2020-10-31,PC-HC,Tratamiento-CIRUGIA
1-4_86-11-12,2020-10-31,PC-HC,Tratamiento-CIRUGIA
1-4_86-9-4,2020-10-31,PC-HC,ALTA
1-4_86-11-24,2020-10-31,PC-HC,ALTA
1-3_86-20-28,2020-11-03,PC-HC,Tratamiento-CIRUGIA
1-3_86-34-19,2020-11-03,PC-HC,Tratamiento-CIRUGIA
1-4_86-13-7,2020-11-03,PC-HC,Tratamiento-CIRUGIA
1-4_86-13-19,2020-11-03,PC-HC,Tratamiento-CIRUGIA
1-4_86-13-20,2020-11-03,PC-HC,Tratamiento-CIRUGIA
1-4_86-14-17,2020-11-03,PC-HC,Tratamiento-CIRUGIA
1-4_86-15-9,2020-11-03,PC-HC,Tratamiento-CIRUGIA
1-4_86-15-15,2020-11-03,PC-HC,Tratamiento-CIRUGIA
1-4_86-16-11,2020-11-03,PC-HC,Tratamiento-CIRUGIA
1-4_86-16-12,2020-11-03,PC-HC,Tratamiento-CIRUGIA
1-4_86-16-13,2020-11-03,PC-HC,Tratamiento-CIRUGIA
1-4_86-16-17,2020-11-03,PC-HC,Tratamiento-CIRUGIA
1-4_86-16-19,2020-11-03,PC-HC,Tratamiento-CIRUGIA
1-4_86-17-14,2020-11-03,PC-HC,Tratamiento-CIRUGIA
1-4_86-18-12,2020-11-03,PC-HC,Tratamiento-CIRUGIA
1-4_86-19-8,2020-11-03,PC-HC,Tratamiento-CIRUGIA
1-4_86-21-3,2020-11-03,PC-HC,Tratamiento-CIRUGIA
1-4_86-21-8,2020-11-03,PC-HC,Tratamiento-CIRUGIA
1-4_86-22-5,2020-11-03,PC-HC,Tratamiento-CIRUGIA
1-4_86-24-9,2020-11-03,PC-HC,Tratamiento-CIRUGIA
1-4_86-36-6,2020-11-03,PC-HC,Tratamiento-CIRUGIA
1-4_86-37-8,2020-11-03,PC-HC,Tratamiento-CIRUGIA
1-4_86-13-4,2020-11-03,PC-HC,ALTA
1-3_86-65-27,2020-11-04,PC-HC,Tratamiento-CIRUGIA
1-3_86-49-33,2020-11-04,PC-HC,Tratamiento-CIRUGIA
1-4_86-16-23,2020-11-05,PC-HC,Tratamiento-CIRUGIA
1-4_86-18-16,2020-11-05,PC-HC,Tratamiento-CIRUGIA
1-4_86-19-21,2020-11-05,PC-HC,Tratamiento-CIRUGIA
1-4_86-24-21,2020-11-05,PC-HC,Tratamiento-CIRUGIA
1-4_86-30-24,2020-11-05,PC-HC,Tratamiento-CIRUGIA
1-2_86-8-21,2020-11-06,PC-HC,Tratamiento-CIRUGIA
1-2_86-8-23,2020-11-06,PC-HC,Tratamiento-CIRUGIA
1-2_86-16-20,2020-11-06,PC-HC,Tratamiento-CIRUGIA
1-2_86-24-10,2020-11-06,PC-HC,Tratamiento-CIRUGIA
1-2_86-28-11,2020-11-06,PC-HC,Tratamiento-CIRUGIA
1-2_86-29-29,2020-11-06,PC-HC,Tratamiento-CIRUGIA
1-2_86-56-18,2020-11-06,PC-HC,Tratamiento-CIRUGIA
1-2_86-58-14,2020-11-06,PC-HC,Tratamiento-CIRUGIA
1-2_86-65-25,2020-11-06,PC-HC,Tratamiento-CIRUGIA
1-1_86-14-3,2020-11-06,PC-HC,Tratamiento-CIRUGIA
1-1_86-15-8,2020-11-06,PC-HC,Tratamiento-CIRUGIA
1-1_86-48-11,2020-11-06,PC-HC,Tratamiento-CIRUGIA
1-1_86-21-5,2020-11-06,PC-HC,Tratamiento-CIRUGIA
1-1_86-24-5,2020-11-06,PC-HC,Tratamiento-CIRUGIA
1-5_86-56-23,2020-11-07,PC-HC,Tratamiento-CIRUGIA
1-5_86-8-18,2020-11-09,PC-HC,Tratamiento-CIRUGIA
1-5_86-20-28,2020-11-09,PC-HC,Tratamiento-CIRUGIA
1-5_86-25-33,2020-11-09,PC-HC,Tratamiento-CIRUGIA
1-1_86-6-4,2020-11-24,PC-HC,Tratamiento-CIRUGIA
1-1_86-14-5,2020-11-24,PC-HC,Tratamiento-CIRUGIA
1-1_86-48-2,2020-11-24,PC-HC,Tratamiento-CIRUGIA
1-7_86-1-1,2020-11-26,PC-HC,Tratamiento-CIRUGIA
1-7_86-1-2,2020-11-26,PC-HC,Tratamiento-CIRUGIA
1-7_86-2-4,2020-11-26,PC-HC,Tratamiento-CIRUGIA
1-7_86-2-24,2020-11-26,PC-HC,Tratamiento-CIRUGIA
1-7_86-3-25,2020-11-26,PC-HC,Tratamiento-CIRUGIA
1-7_86-4-15,2020-11-26,PC-HC,Tratamiento-CIRUGIA
1-5_86-31-28,2020-12-01,PC-HC,Tratamiento-CIRUGIA
1-3_86-69-26,2020-12-07,PC-HC,Tratamiento-CIRUGIA
1-3_86-69-28,2020-12-07,PC-HC,Tratamiento-CIRUGIA
1-3_86-67-28,2020-12-07,PC-HC,Tratamiento-CIRUGIA
1-3_86-72-29,2020-12-07,PC-HC,Tratamiento-CIRUGIA
1-4_86-4-5,2020-12-09,PC-HC,Tratamiento-CIRUGIA
1-4_86-6-6,2020-12-09,PC-HC,Tratamiento-CIRUGIA
1-4_86-14-2,2020-12-09,PC-HC,Tratamiento-CIRUGIA
1-4_86-42-2,2020-12-09,PC-HC,Tratamiento-CIRUGIA
1-4_86-64-11,2020-12-09,PC-HC,Tratamiento-CIRUGIA
1-6_86-15-7,2020-12-09,PC-HC,Tratamiento-CIRUGIA
1-6_86-16-1,2020-12-09,PC-HC,Tratamiento-CIRUGIA
1-6_86-31-12,2020-12-09,PC-HC,Tratamiento-CIRUGIA
1-6_86-74-24,2020-12-09,PC-HC,Tratamiento-CIRUGIA
1-3_86-1-10,2020-12-09,PC-HC,Tratamiento-CIRUGIA
1-3_86-19-20,2020-12-09,PC-HC,Tratamiento-CIRUGIA
1-4_86-9-10,2020-12-09,PC-HC,ALTA
1-2_86-7-13,2020-12-10,PC-HC,Tratamiento-CIRUGIA
1-2_86-7-30,2020-12-10,PC-HC,Tratamiento-CIRUGIA
1-2_86-18-11,2020-12-10,PC-HC,Tratamiento-CIRUGIA
1-2_86-36-15,2020-12-10,PC-HC,Tratamiento-CIRUGIA
1-3_86-39-30,2020-12-10,PC-HC,Tratamiento-CIRUGIA
1-7_86-3-67,2020-12-11,PC-HC,Tratamiento-CIRUGIA
1-7_86-3-71,2020-12-11,PC-HC,Tratamiento-CIRUGIA
1-7_86-2-20,2020-12-11,PC-HC,Tratamiento-CIRUGIA
1-1_86-9-14,2020-12-28,PC-HC,Tratamiento-CIRUGIA
1-1_86-26-1,2020-12-28,PC-HC,Tratamiento-CIRUGIA
1-2_86-10-9,2020-12-29,PC-HC,Tratamiento-CIRUGIA
1-2_86-13-30,2020-12-29,PC-HC,Tratamiento-CIRUGIA
1-2_86-4-1,2020-12-29,PC-HC,Tratamiento-CIRUGIA
1-3_86-39-32,2020-12-30,PC-HC,Tratamiento-CIRUGIA
1-3_86-28-9,2020-12-30,PC-HC,Tratamiento-CIRUGIA
1-3_86-27-11,2020-12-30,PC-HC,Tratamiento-CIRUGIA
1-3_86-25-10,2020-12-30,PC-HC,Tratamiento-CIRUGIA
1-3_86-16-8,2021-01-02,PC-HC,Tratamiento-CIRUGIA
1-3_86-22-16,2021-01-02,PC-HC,Tratamiento-CIRUGIA
1-3_86-41-12,2021-01-02,PC-HC,Tratamiento-CIRUGIA
1-3_86-54-4,2021-01-02,PC-HC,Tratamiento-CIRUGIA
1-4_86-5-5,2021-01-04,PC-HC,Tratamiento-CIRUGIA
1-4_86-7-8,2021-01-04,PC-HC,Tratamiento-CIRUGIA
1-4_86-12-11,2021-01-04,PC-CLASICA,Tratamiento-CIRUGIA
1-4_86-13-13,2021-01-04,PC-CLASICA,Tratamiento-CIRUGIA
1-7_86-2-19,2021-01-14,PC-HC,Tratamiento-CIRUGIA
1-7_86-3-41,2021-01-14,PC-CLASICA,Tratamiento-CIRUGIA
1-7_86-4-25,2021-01-14,PC-CLASICA,Tratamiento-CIRUGIA
1-7_86-4-39,2021-01-14,PC-CLASICA,CORTE-DE-FLECHA
1-7_86-4-53,2021-01-14,PC-CLASICA,Tratamiento-CIRUGIA
1-7_86-4-54,2021-01-14,PC-CLASICA,Tratamiento-CIRUGIA
1-7_86-5-43,2021-01-14,PC-CLASICA,Tratamiento-CIRUGIA
1-5_86-1-26,2021-01-22,PC-CLASICA,Tratamiento-CIRUGIA
1-5_86-2-33,2021-01-22,PC-CLASICA,Tratamiento-CIRUGIA
1-5_86-7-10,2021-01-22,PC-CLASICA,Tratamiento-CIRUGIA
1-5_86-10-22,2021-01-22,PC-CLASICA,Tratamiento-CIRUGIA
1-5_86-74-7,2021-01-22,PC-CLASICA,Tratamiento-CIRUGIA
1-1_86-14-4,2021-01-25,PC-CLASICA,Tratamiento-CIRUGIA
1-1_86-15-4,2021-01-25,PC-CLASICA,Tratamiento-CIRUGIA
1-1_86-18-6,2021-01-25,PC-CLASICA,Tratamiento-CIRUGIA
1-1_86-19-1,2021-01-25,PC-CLASICA,Tratamiento-CIRUGIA
1-1_86-20-1,2021-01-25,PC-CLASICA,Tratamiento-CIRUGIA
1-1_86-21-3,2021-01-25,PC-CLASICA,Tratamiento-CIRUGIA
1-1_86-29-18,2021-01-25,PC-CLASICA,Tratamiento-CIRUGIA
1-7_86-3-57,2021-01-25,PC-CLASICA,Tratamiento-CIRUGIA
1-7_86-5-38,2021-01-25,PC-CLASICA,Tratamiento-CIRUGIA
1-2_86-10-25,2021-01-27,PC-CLASICA,Tratamiento-CIRUGIA
1-2_86-21-31,2021-01-27,PC-CLASICA,Tratamiento-CIRUGIA
1-2_86-21-32,2021-01-27,PC-CLASICA,Tratamiento-CIRUGIA
1-2_86-23-29,2021-01-27,PC-CLASICA,Tratamiento-CIRUGIA
1-4_86-12-17,2021-01-29,PC-CLASICA,Tratamiento-CIRUGIA
1-4_86-13-15,2021-01-29,PC-CLASICA,Tratamiento-CIRUGIA
1-4_86-14-11,2021-01-29,PC-CLASICA,Tratamiento-CIRUGIA
1-3_86-3-9,2021-01-29,PC-CLASICA,Tratamiento-CIRUGIA
1-3_86-4-20,2021-01-29,PC-CLASICA,Tratamiento-CIRUGIA
1-3_86-10-18,2021-01-29,PC-CLASICA,Tratamiento-CIRUGIA
1-3_86-13-34,2021-01-29,PC-CLASICA,Tratamiento-CIRUGIA
1-3_86-17-7,2021-01-29,PC-CLASICA,Tratamiento-CIRUGIA
1-3_86-32-25,2021-01-29,PC-CLASICA,Tratamiento-CIRUGIA
1-3_86-74-6,2021-01-29,PC-CLASICA,Tratamiento-CIRUGIA
1-4_86-10-3,2021-01-29,PC-HC,ALTA
1-4_86-14-18,2021-01-29,PC-HC,ALTA
1-6_86-13-2,2021-02-02,PC-CLASICA,Tratamiento-CIRUGIA
1-7_86-2-54,2021-02-04,PC-CLASICA,Tratamiento-CIRUGIA
1-1_86-13-6,2021-02-08,PC-CLASICA,Tratamiento-CIRUGIA
1-1_86-12-14,2021-02-09,PC-CLASICA,Tratamiento-CIRUGIA
1-5_86-22-1,2021-02-16,PC-CLASICA,Tratamiento-CIRUGIA
1-5_86-67-7,2021-02-16,PC-CLASICA,Tratamiento-CIRUGIA
1-5_86-73-4,2021-02-16,PC-CLASICA,Tratamiento-CIRUGIA
1-6_86-55-18,2021-02-17,PC-CLASICA,Tratamiento-CIRUGIA
1-6_86-73-23,2021-02-17,PC-CLASICA,Tratamiento-CIRUGIA
1-2_86-24-26,2021-02-19,PC-CLASICA,Tratamiento-CIRUGIA
1-3_86-3-18,2021-02-19,PC-CLASICA,Tratamiento-CIRUGIA
1-3_86-47-33,2021-02-19,PC-CLASICA,Tratamiento-CIRUGIA
1-3_86-49-24,2021-02-19,PC-CLASICA,CORTE-DE-FLECHA
1-7_86-1-19,2021-02-20,PC-CLASICA,Tratamiento-CIRUGIA
1-7_86-2-26,2021-02-20,PC-CLASICA,Tratamiento-CIRUGIA
1-7_86-2-29,2021-02-20,PC-HC,ALTA
1-1_86-3-14,2021-02-24,PC-CLASICA,Tratamiento-CIRUGIA
1-2_86-71-1,2021-03-06,PC-CLASICA,Tratamiento-CIRUGIA
1-5_86-25-14,2021-03-06,PC-CLASICA,Tratamiento-CIRUGIA
1-5_86-69-6,2021-03-06,PC-CLASICA,Tratamiento-CIRUGIA
1-5_86-70-5,2021-03-06,PC-CLASICA,Tratamiento-CIRUGIA
1-5_86-70-7,2021-03-06,PC-CLASICA,Tratamiento-CIRUGIA
1-2_86-68-23,2021-03-06,PC-HC,ALTA
1-6_86-53-9,2021-03-08,PC-CLASICA,Tratamiento-CIRUGIA
1-6_86-71-23,2021-03-08,PC-CLASICA,Tratamiento-CIRUGIA
1-6_86-72-25,2021-03-08,PC-CLASICA,Tratamiento-CIRUGIA
1-3_86-26-9,2021-03-09,PC-CLASICA,Tratamiento-CIRUGIA
1-3_86-66-26,2021-03-09,PC-CLASICA,Tratamiento-CIRUGIA
1-4_86-6-5,2021-03-09,PC-CLASICA,Tratamiento-CIRUGIA
1-4_86-7-4,2021-03-09,PC-CLASICA,Tratamiento-CIRUGIA
1-4_86-9-24,2021-03-09,PC-CLASICA,Tratamiento-CIRUGIA
1-4_86-10-23,2021-03-09,PC-CLASICA,Tratamiento-CIRUGIA
1-4_86-13-18,2021-03-09,PC-CLASICA,Tratamiento-CIRUGIA
1-4_86-12-24,2021-03-09,PC-HC,ALTA
1-1_86-46-7,2021-03-10,PC-CLASICA,Tratamiento-CIRUGIA
1-4_86-18-7,2021-03-10,PC-CLASICA,Tratamiento-CIRUGIA
1-4_86-19-22,2021-03-10,PC-CLASICA,Tratamiento-CIRUGIA
1-4_86-29-28,2021-03-10,PC-CLASICA,Tratamiento-CIRUGIA
1-4_86-70-23,2021-03-10,PC-CLASICA,Tratamiento-CIRUGIA
1-4_86-73-13,2021-03-10,PC-CLASICA,Tratamiento-CIRUGIA
1-1_86-8-18,2021-03-11,PC-CLASICA,CORTE-DE-FLECHA
1-1_86-13-16,2021-03-11,PC-CLASICA,Tratamiento-CIRUGIA
1-1_86-27-1,2021-03-11,PC-CLASICA,Tratamiento-CIRUGIA
1-7_86-2-39,2021-03-12,PC-CLASICA,Tratamiento-CIRUGIA
1-7_86-4-71,2021-03-12,PC-CLASICA,CORTE-DE-FLECHA
1-7_86-5-40,2021-03-12,PC-CLASICA,Tratamiento-CIRUGIA
1-3_86-4-21,2021-03-19,PC-CLASICA,Tratamiento-CIRUGIA
1-3_86-17-15,2021-03-19,PC-CLASICA,Tratamiento-CIRUGIA
1-3_86-18-15,2021-03-19,PC-CLASICA,Tratamiento-CIRUGIA
1-3_86-47-1,2021-03-19,PC-CLASICA,Tratamiento-CIRUGIA
1-2_86-57-19,2021-03-20,PC-CLASICA,Tratamiento-CIRUGIA
1-4_86-8-20,2021-03-20,PC-CLASICA,Tratamiento-CIRUGIA
1-4_86-19-7,2021-03-20,PC-CLASICA,Tratamiento-CIRUGIA
1-4_86-19-9,2021-03-20,PC-CLASICA,CORTE-DE-FLECHA
1-5_86-30-27,2021-04-05,PC-CLASICA,Tratamiento-CIRUGIA
1-6_86-10-7,2021-04-06,PC-CLASICA,Tratamiento-CIRUGIA
1-6_86-15-1,2021-04-06,PC-CLASICA,CORTE-DE-FLECHA
1-7_86-2-21,2021-04-10,PC-CLASICA,Tratamiento-CIRUGIA
1-7_86-2-25,2021-04-10,PC-CLASICA,Tratamiento-CIRUGIA
1-7_86-2-30,2021-04-10,PC-CLASICA,Tratamiento-CIRUGIA
1-7_86-3-33,2021-04-10,PC-CLASICA,Tratamiento-CIRUGIA
1-7_86-4-35,2021-04-10,PC-CLASICA,Tratamiento-CIRUGIA
1-7_86-5-31,2021-04-10,PC-CLASICA,Tratamiento-CIRUGIA
1-7_86-5-35,2021-04-10,PC-CLASICA,Tratamiento-CIRUGIA
1-7_86-5-41,2021-04-10,PC-CLASICA,Tratamiento-CIRUGIA
1-7_86-5-55,2021-04-10,PC-CLASICA,CORTE-DE-FLECHA
1-1_86-9-5,2021-04-13,PC-CLASICA,CORTE-DE-FLECHA
1-1_86-10-4,2021-04-13,PC-CLASICA,CORTE-DE-FLECHA
1-1_86-12-10,2021-04-13,PC-CLASICA,Tratamiento-CIRUGIA
1-1_86-13-5,2021-04-13,PC-CLASICA,Tratamiento-CIRUGIA
1-1_86-28-4,2021-04-13,PC-CLASICA,Tratamiento-CIRUGIA
1-5_86-14-25,2021-04-23,PC-CLASICA,Tratamiento-CIRUGIA
1-5_86-19-5,2021-04-23,PC-CLASICA,Tratamiento-CIRUGIA
1-5_86-24-28,2021-04-23,PC-CLASICA,Tratamiento-CIRUGIA
1-5_86-43-4,2021-04-23,PC-CLASICA,Tratamiento-CIRUGIA
1-5_86-71-17,2021-04-23,PC-CLASICA,Tratamiento-CIRUGIA
1-5_86-72-8,2021-04-23,PC-CLASICA,Tratamiento-CIRUGIA
1-5_86-73-9,2021-04-23,PC-CLASICA,Tratamiento-CIRUGIA
1-5_86-74-8,2021-04-23,PC-CLASICA,Tratamiento-CIRUGIA
1-6_86-62-19,2021-04-24,PC-CLASICA,Tratamiento-CIRUGIA
1-6_86-68-22,2021-04-24,PC-CLASICA,Tratamiento-CIRUGIA
1-6_86-68-23,2021-04-24,PC-CLASICA,Tratamiento-CIRUGIA
1-6_86-70-22,2021-04-24,PC-CLASICA,Tratamiento-CIRUGIA
1-6_86-73-28,2021-04-24,PC-CLASICA,Tratamiento-CIRUGIA
1-1_86-2-2,2021-06-29,PC-CLASICA,Tratamiento-CIRUGIA
1-1_86-17-9,2021-06-29,PC-CLASICA,Tratamiento-CIRUGIA
1-1_86-19-6,2021-06-29,PC-CLASICA,Tratamiento-CIRUGIA
1-1_86-19-7,2021-06-29,PC-CLASICA,Tratamiento-CIRUGIA
1-1_86-18-28,2021-06-29,PC-CLASICA,Tratamiento-CIRUGIA
1-1_86-1-1,2021-07-01,PC-CLASICA,Tratamiento-CIRUGIA
1-2_86-3-4,2021-07-02,PC-CLASICA,Tratamiento-CIRUGIA
1-2_86-3-18,2021-07-02,PC-CLASICA,Tratamiento-CIRUGIA
1-2_86-3-23,2021-07-02,PC-CLASICA,Tratamiento-CIRUGIA
1-2_86-3-32,2021-07-02,PC-CLASICA,Tratamiento-CIRUGIA
1-2_86-4-22,2021-07-02,PC-CLASICA,Tratamiento-CIRUGIA
1-2_86-5-3,2021-07-02,PC-CLASICA,Tratamiento-CIRUGIA
1-2_86-5-4,2021-07-02,PC-CLASICA,Tratamiento-CIRUGIA
1-2_86-5-31,2021-07-02,PC-CLASICA,Tratamiento-CIRUGIA
1-2_86-6-12,2021-07-02,PC-CLASICA,Tratamiento-CIRUGIA
1-2_86-7-14,2021-07-02,PC-CLASICA,Tratamiento-CIRUGIA
1-2_86-7-23,2021-07-02,PC-CLASICA,Tratamiento-CIRUGIA
1-2_86-8-33,2021-07-03,PC-CLASICA,Tratamiento-CIRUGIA
1-2_86-8-13,2021-07-03,PC-CLASICA,Tratamiento-CIRUGIA
1-2_86-9-21,2021-07-03,PC-CLASICA,Tratamiento-CIRUGIA
1-2_86-9-24,2021-07-03,PC-CLASICA,Tratamiento-CIRUGIA
1-2_86-10-1,2021-07-03,PC-CLASICA,Tratamiento-CIRUGIA
1-2_86-10-21,2021-07-03,PC-CLASICA,Tratamiento-CIRUGIA
1-2_86-11-1,2021-07-03,PC-CLASICA,Tratamiento-CIRUGIA
1-2_86-13-3,2021-07-03,PC-CLASICA,Tratamiento-CIRUGIA
1-2_86-15-31,2021-07-06,PC-CLASICA,Tratamiento-CIRUGIA
1-2_86-15-34,2021-07-06,PC-CLASICA,CORTE-DE-FLECHA
1-2_86-16-26,2021-07-06,PC-CLASICA,Tratamiento-CIRUGIA
1-2_86-16-32,2021-07-06,PC-CLASICA,Tratamiento-cirugia
1-2_86-17-22,2021-07-06,PC-CLASICA,Tratamiento-CIRUGIA
1-2_86-18-24,2021-07-06,PC-CLASICA,Tratamiento-CIRUGIA
1-2_86-18-27,2021-07-06,PC-CLASICA,Tratamiento-CIRUGIA
1-2_86-18-28,2021-07-06,PC-CLASICA,Tratamiento-CIRUGIA
1-2_86-18-33,2021-07-06,PC-CLASICA,Tratamiento-CIRUGIA
1-2_86-19-30,2021-07-07,PC-CLASICA,Tratamiento-CIRUGIA
1-2_86-19-34,2021-07-07,PC-CLASICA,CORTE-DE-FLECHA
1-2_86-22-32,2021-07-07,PC-CLASICA,Tratamiento-CIRUGIA
1-2_86-23-24,2021-07-07,PC-CLASICA,Tratamiento-CIRUGIA
1-2_86-23-28,2021-07-07,PC-CLASICA,Tratamiento-CIRUGIA
1-2_86-23-33,2021-07-07,PC-CLASICA,CORTE-DE-FLECHA
1-2_86-24-27,2021-07-07,PC-CLASICA,Tratamiento-CIRUGIA
1-2_86-24-28,2021-07-07,PC-CLASICA,Tratamiento-CIRUGIA
1-2_86-24-32,2021-07-07,PC-CLASICA,Tratamiento-CIRUGIA
1-2_86-24-11,2021-07-08,PC-CLASICA,Tratamiento-CIRUGIA
1-2_86-28-29,2021-07-08,PC-CLASICA,ALTA
1-2_86-32-14,2021-07-08,PC-CLASICA,Tratamiento-CIRUGIA
1-2_86-33-17,2021-07-08,PC-CLASICA,Tratamiento-CIRUGIA
1-2_86-34-16,2021-07-08,PC-CLASICA,Tratamiento-CIRUGIA
1-2_86-34-17,2021-07-08,PC-CLASICA,Tratamiento-CIRUGIA
1-2_86-34-18,2021-07-08,PC-CLASICA,Tratamiento-CIRUGIA
1-2_86-34-20,2021-07-08,PC-CLASICA,Tratamiento-CIRUGIA
1-2_86-34-21,2021-07-08,PC-CLASICA,Tratamiento-CIRUGIA
1-2_86-37-18,2021-07-08,PC-CLASICA,CORTE-DE-FLECHA
1-1_86-6-8,2021-07-29,PC-CLASICA,CORTE-DE-FLECHA
1-1_86-6-11,2021-07-29,PC-CLASICA,ALTA
1-1_86-11-15,2021-07-29,PC-CLASICA,ALTA
1-1_86-11-16,2021-07-29,PC-CLASICA,CORTE-DE-FLECHA
1-1_86-12-16,2021-07-29,PC-CLASICA,Tratamiento-CIRUGIA
1-1_86-13-10,2021-07-29,PC-CLASICA,Tratamiento-CIRUGIA
1-1_86-14-7,2021-07-29,PC-CLASICA,ALTA
1-1_86-14-8,2021-07-29,PC-CLASICA,Tratamiento-CIRUGIA
1-1_86-14-10,2021-07-29,PC-CLASICA,Tratamiento-CIRUGIA
1-1_86-14-12,2021-07-29,PC-CLASICA,ALTA
1-1_86-14-15,2021-07-29,PC-CLASICA,CORTE-DE-FLECHA
1-1_86-15-3,2021-07-29,PC-CLASICA,Tratamiento-CIRUGIA
1-1_86-15-10,2021-07-29,PC-CLASICA,Tratamiento-CIRUGIA
1-1_86-15-12,2021-07-29,PC-CLASICA,CORTE-DE-FLECHA
1-1_86-15-16,2021-07-29,PC-CLASICA,ALTA
1-1_86-19-28,2021-07-29,PC-CLASICA,ALTA
1-1_86-28-7,2021-07-30,PC-CLASICA,CORTE-DE-FLECHA
1-1_86-39-9,2021-07-30,PC-CLASICA,ALTA
1-1_86-40-2,2021-07-30,PC-CLASICA,CORTE-DE-FLECHA
1-1_86-47-11,2021-07-30,PC-CLASICA,CORTE-DE-FLECHA
1-1_86-48-10,2021-07-30,PC-CLASICA,Tratamiento-CIRUGIA
1-1_86-50-9,2021-07-30,PC-CLASICA,ALTA
1-1_86-50-10,2021-07-30,PC-CLASICA,CORTE-DE-FLECHA
1-1_86-50-12,2021-07-30,PC-HC,CORTE-DE-FLECHA
1-5_86-16-2,2021-08-02,PC-HC,ALTA
1-5_86-43-1,2021-08-02,PC-HC,Tratamiento-CIRUGIA
1-5_86-60-5,2021-08-02,PC-HC,Tratamiento-CIRUGIA
1-5_86-69-3,2021-08-02,PC-HC,CORTE-DE-FLECHA
1-5_86-69-7,2021-08-02,PC-HC,Tratamiento-CIRUGIA
1-5_86-71-2,2021-08-02,PC-HC,CORTE-DE-FLECHA
1-5_86-72-11,2021-08-02,PC-HC,CORTE-DE-FLECHA
1-5_86-74-9,2021-08-02,PC-HC,CORTE-DE-FLECHA
1-6_86-6-1,2021-08-03,PC-HC,CORTE-DE-FLECHA
1-6_86-7-15,2021-08-03,PC-HC,CORTE-DE-FLECHA
1-6_86-14-1,2021-08-03,PC-HC,ALTA
1-6_86-14-6,2021-08-03,PC-HC,Tratamiento-CIRUGIA
1-6_86-20-4,2021-08-03,PC-HC,Tratamiento-CIRUGIA
1-6_86-22-7,2021-08-03,PC-HC,ALTA
1-6_86-22-12,2021-08-03,PC-HC,Tratamiento-CIRUGIA
1-6_86-23-8,2021-08-03,PC-HC,ALTA
1-6_86-26-2,2021-08-03,PC-HC,ALTA
1-6_86-30-6,2021-08-03,PC-HC,CORTE-DE-FLECHA
1-6_86-31-2,2021-08-03,PC-HC,CORTE-DE-FLECHA
1-6_86-37-31,2021-08-03,PC-HC,CORTE-DE-FLECHA
1-6_86-37-32,2021-08-03,PC-HC,CORTE-DE-FLECHA
1-6_86-37-34,2021-08-03,PC-HC,ALTA
1-6_86-39-30,2021-08-03,PC-HC,ALTA
1-6_86-46-2,2021-08-03,PC-HC,ALTA
1-6_86-46-4,2021-08-03,PC-HC,Tratamiento-CIRUGIA
1-6_86-48-1,2021-08-03,PC-HC,ALTA
1-6_86-50-13,2021-08-03,PC-HC,CORTE-DE-FLECHA
1-6_86-51-17,2021-08-03,PC-HC,ALTA
1-6_86-52-10,2021-08-03,PC-HC,ALTA
1-6_86-54-16,2021-08-03,PC-HC,Tratamiento-CIRUGIA
1-6_86-54-17,2021-08-03,PC-HC,ALTA
1-6_86-55-15,2021-08-03,PC-HC,Tratamiento-CIRUGIA
1-6_86-58-20,2021-08-03,PC-HC,CORTE-DE-FLECHA
1-6_86-61-5,2021-08-03,PC-HC,Tratamiento-CIRUGIA
1-6_86-62-23,2021-08-03,PC-HC,CORTE-DE-FLECHA
1-6_86-65-9,2021-08-03,PC-HC,ALTA
1-6_86-66-27,2021-08-03,PC-HC,Tratamiento-CIRUGIA
1-6_86-67-25,2021-08-03,PC-HC,CORTE-DE-FLECHA
1-6_86-69-20,2021-08-03,PC-HC,Tratamiento-CIRUGIA
1-6_86-69-27,2021-08-03,PC-HC,CORTE-DE-FLECHA
1-6_86-70-31,2021-08-03,PC-HC,Tratamiento-CIRUGIA
1-6_86-73-22,2021-08-03,PC-HC,Tratamiento-CIRUGIA
1-6_86-74-22,2021-08-03,PC-HC,CORTE-DE-FLECHA
1-6_86-74-19,2021-08-03,PC-HC,Tratamiento-CIRUGIA
1-2_86-53-2,2021-08-04,PC-HC,Tratamiento-CIRUGIA
1-2_86-53-3,2021-08-04,PC-HC,Tratamiento-CIRUGIA
1-2_86-57-2,2021-08-04,PC-HC,Tratamiento-CIRUGIA
1-2_86-68-5,2021-08-04,PC-HC,Tratamiento-CIRUGIA
1-2_86-71-12,2021-08-04,PC-HC,CORTE-DE-FLECHA
1-2_86-1-26,2021-08-05,PC-HC,CORTE-DE-FLECHA
1-2_86-3-3,2021-08-05,PC-HC,CORTE-DE-FLECHA
1-2_86-3-10,2021-08-05,PC-HC,CORTE-DE-FLECHA
1-2_86-4-12,2021-08-05,PC-HC,ALTA
1-2_86-5-24,2021-08-05,PC-HC,CORTE-DE-FLECHA
1-2_86-6-1,2021-08-05,PC-HC,CORTE-DE-FLECHA
1-2_86-12-12,2021-08-05,PC-HC,ALTA
1-2_86-15-13,2021-08-05,PC-HC,CORTE-DE-FLECHA
1-2_86-15-22,2021-08-05,PC-HC,CORTE-DE-FLECHA
1-2_86-17-10,2021-08-05,PC-HC,CORTE-DE-FLECHA
1-2_86-17-12,2021-08-05,PC-HC,CORTE-DE-FLECHA
1-2_86-17-24,2021-08-05,PC-HC,CORTE-DE-FLECHA
1-2_86-17-26,2021-08-05,PC-HC,CORTE-DE-FLECHA
1-2_86-18-8,2021-08-05,PC-HC,ALTA
1-2_86-18-9,2021-08-05,PC-HC,Tratamiento-CIRUGIA
1-2_86-19-11,2021-08-05,PC-HC,Tratamiento-CIRUGIA
1-2_86-19-15,2021-08-05,PC-HC,ALTA
1-2_86-23-27,2021-08-05,PC-HC,Tratamiento-CIRUGIA
1-2_86-27-21,2021-08-05,PC-HC,ALTA
1-2_86-28-5,2021-08-05,PC-HC,CORTE-DE-FLECHA
1-2_86-28-21,2021-08-05,PC-HC,ALTA
1-2_86-31-13,2021-08-05,PC-HC,CORTE-DE-FLECHA
1-2_86-33-14,2021-08-05,PC-HC,ALTA
1-2_86-34-13,2021-08-05,PC-HC,Tratamiento-CIRUGIA
1-2_86-35-21,2021-08-05,PC-HC,CORTE-DE-FLECHA
1-2_86-39-6,2021-08-05,PC-HC,CORTE-DE-FLECHA
1-2_86-42-10,2021-08-05,PC-HC,ALTA
1-2_86-42-15,2021-08-05,PC-HC,CORTE-DE-FLECHA
1-2_86-44-10,2021-08-05,PC-HC,CORTE-DE-FLECHA
1-2_86-47-2,2021-08-05,PC-HC,CORTE-DE-FLECHA
1-2_86-47-15,2021-08-05,PC-HC,ALTA
1-2_86-48-13,2021-08-05,PC-HC,ALTA
1-2_86-49-16,2021-08-05,PC-HC,ALTA
1-1_86-1-5,2021-10-28,PC-HC,Tratamiento-CIRUGIA
1-1_86-1-9,2021-10-28,PC-HC,Tratamiento-CIRUGIA
1-1_86-1-23,2021-10-28,PC-HC,Tratamiento-CIRUGIA
1-1_86-1-26,2021-10-28,PC-HC,Tratamiento-CIRUGIA
1-1_86-1-29,2021-10-28,PC-HC,Tratamiento-CIRUGIA
1-1_86-2-36,2021-10-28,PC-HC,Tratamiento-CIRUGIA
1-1_86-3-9,2021-10-28,PC-HC,Tratamiento-CIRUGIA
1-1_86-4-10,2021-10-28,PC-HC,Tratamiento-CIRUGIA
1-1_86-4-11,2021-10-28,PC-HC,Tratamiento-CIRUGIA
1-1_86-5-29,2021-10-28,PC-HC,Tratamiento-CIRUGIA
1-1_86-5-40,2021-10-28,PC-HC,Tratamiento-CIRUGIA
1-1_86-6-28,2021-10-28,PC-HC,Tratamiento-CIRUGIA
1-1_86-9-26,2021-10-28,PC-HC,Tratamiento-CIRUGIA
1-1_86-10-1,2021-10-28,PC-HC,Tratamiento-CIRUGIA
1-1_86-10-3,2021-10-28,PC-HC,Tratamiento-CIRUGIA
1-1_86-11-8,2021-10-28,PC-HC,Tratamiento-CIRUGIA
1-1_86-12-2,2021-10-28,PC-HC,Tratamiento-CIRUGIA
1-1_86-12-6,2021-10-28,PC-HC,Tratamiento-CIRUGIA
1-1_86-13-14,2021-10-28,PC-HC,ALTA
1-1_86-16-10,2021-10-28,PC-HC,Tratamiento-CIRUGIA
1-1_86-18-9,2021-10-28,PC-HC,Tratamiento-CIRUGIA
1-1_86-19-9,2021-10-28,PC-HC,Tratamiento-CIRUGIA
1-1_86-19-14,2021-10-28,PC-HC,Tratamiento-CIRUGIA
1-1_86-20-4,2021-10-28,PC-HC,Tratamiento-CIRUGIA
1-1_86-21-2,2021-10-28,PC-HC,Tratamiento-CIRUGIA
1-1_86-21-4,2021-10-28,PC-HC,Tratamiento-CIRUGIA
1-1_86-21-6,2021-10-28,PC-HC,Tratamiento-CIRUGIA
1-1_86-21-8,2021-10-28,PC-HC,Tratamiento-CIRUGIA
1-1_86-21-9,2021-10-28,PC-HC,Tratamiento-CIRUGIA
1-1_86-21-12,2021-10-28,PC-HC,Tratamiento-CIRUGIA
1-1_86-23-4,2021-10-29,PC-HC,Tratamiento-CIRUGIA
1-1_86-26-2,2021-10-29,PC-HC,Tratamiento-CIRUGIA
1-1_86-39-2,2021-10-29,PC-HC,Tratamiento-CIRUGIA
1-1_86-43-2,2021-10-29,PC-HC,Tratamiento-CIRUGIA
1-1_86-44-5,2021-10-29,PC-HC,Tratamiento-CIRUGIA
1-1_86-49-3,2021-10-29,PC-HC,Tratamiento-CIRUGIA
1-2_86-1-27,2021-10-29,PC-HC,Tratamiento-CIRUGIA
1-2_86-4-28,2021-10-29,PC-HC,Tratamiento-CIRUGIA
1-2_86-5-28,2021-10-29,PC-HC,Tratamiento-CIRUGIA
1-2_86-6-28,2021-10-29,PC-HC,Tratamiento-CIRUGIA
1-2_86-6-31,2021-10-29,PC-HC,Tratamiento-CIRUGIA
1-2_86-7-31,2021-10-29,PC-HC,Tratamiento-CIRUGIA
1-2_86-9-30,2021-10-29,PC-HC,Tratamiento-CIRUGIA
1-2_86-10-33,2021-10-29,PC-HC,Tratamiento-CIRUGIA
1-2_86-11-29,2021-10-29,PC-HC,Tratamiento-CIRUGIA
1-2_86-11-33,2021-10-29,PC-HC,Tratamiento-CIRUGIA
1-2_86-13-34,2021-10-29,PC-HC,Tratamiento-CIRUGIA
1-2_86-19-33,2021-10-29,PC-HC,Tratamiento-CIRUGIA
1-2_86-55-32,2021-10-29,PC-HC,Tratamiento-CIRUGIA
1-2_86-1-5,2021-10-30,PC-HC,Tratamiento-CIRUGIA
1-2_86-1-6,2021-10-30,PC-HC,Tratamiento-CIRUGIA
1-2_86-1-11,2021-10-30,PC-HC,Tratamiento-CIRUGIA
1-2_86-1-21,2021-10-30,PC-HC,Tratamiento-CIRUGIA
1-2_86-2-4,2021-10-30,PC-HC,Tratamiento-CIRUGIA
1-2_86-2-14,2021-10-30,PC-HC,Tratamiento-CIRUGIA
1-2_86-3-1,2021-10-30,PC-HC,Tratamiento-CIRUGIA
1-2_86-3-5,2021-10-30,PC-HC,Tratamiento-CIRUGIA
1-2_86-4-3,2021-10-30,PC-HC,Tratamiento-CIRUGIA
1-2_86-4-5,2021-10-30,PC-HC,Tratamiento-CIRUGIA
1-2_86-4-6,2021-10-30,PC-HC,Tratamiento-CIRUGIA
1-2_86-4-18,2021-10-30,PC-HC,Tratamiento-CIRUGIA
1-2_86-5-5,2021-10-30,PC-HC,Tratamiento-CIRUGIA
1-2_86-5-12,2021-10-30,PC-HC,Tratamiento-CIRUGIA
1-2_86-6-11,2021-10-30,PC-HC,Tratamiento-CIRUGIA
1-2_86-6-13,2021-10-30,PC-HC,Tratamiento-CIRUGIA
1-2_86-7-3,2021-10-30,PC-HC,Tratamiento-CIRUGIA
1-2_86-7-10,2021-10-30,PC-HC,Tratamiento-CIRUGIA
1-2_86-8-1,2021-10-30,PC-HC,Tratamiento-CIRUGIA
1-2_86-8-2,2021-10-30,PC-HC,Tratamiento-CIRUGIA
1-2_86-8-9,2021-10-30,PC-HC,Tratamiento-CIRUGIA
1-2_86-8-10,2021-10-30,PC-HC,Tratamiento-CIRUGIA
1-2_86-9-6,2021-10-30,PC-HC,Tratamiento-CIRUGIA
1-2_86-9-10,2021-10-30,PC-HC,Tratamiento-CIRUGIA
1-2_86-10-8,2021-10-30,PC-HC,Tratamiento-CIRUGIA
1-2_86-10-11,2021-10-30,PC-HC,Tratamiento-CIRUGIA
1-2_86-11-10,2021-10-30,PC-HC,Tratamiento-CIRUGIA
1-2_86-14-3,2021-10-30,PC-HC,Tratamiento-CIRUGIA
1-2_86-20-29,2021-11-02,PC-HC,Tratamiento-CIRUGIA
1-2_86-20-30,2021-11-02,PC-HC,Tratamiento-CIRUGIA
1-2_86-21-2,2021-11-02,PC-HC,Tratamiento-CIRUGIA
1-2_86-24-29,2021-11-02,PC-HC,Tratamiento-CIRUGIA
1-2_86-24-30,2021-11-02,PC-HC,Tratamiento-CIRUGIA
1-2_86-25-34,2021-11-02,PC-HC,Tratamiento-CIRUGIA
1-2_86-21-26,2021-11-02,PC-HC,Tratamiento-CIRUGIA
1-2_86-21-27,2021-11-02,PC-HC,Tratamiento-CIRUGIA
1-2_86-26-9,2021-11-03,PC-HC,CORTE-DE-FLECHA
1-2_86-26-11,2021-11-03,PC-HC,CORTE-DE-FLECHA
1-2_86-28-12,2021-11-03,PC-HC,Tratamiento-CIRUGIA
1-2_86-30-7,2021-11-03,PC-HC,Tratamiento-CIRUGIA
1-2_86-31-10,2021-11-03,PC-HC,Tratamiento-CIRUGIA
1-2_86-44-5,2021-11-03,PC-HC,Tratamiento-CIRUGIA
1-2_86-52-29,2021-11-03,PC-HC,Tratamiento-CIRUGIA
1-2_86-53-32,2021-11-03,PC-HC,Tratamiento-CIRUGIA
1-2_86-54-32,2021-11-03,PC-HC,Tratamiento-CIRUGIA
1-2_86-55-1,2021-11-03,PC-HC,Tratamiento-CIRUGIA
1-2_86-58-3,2021-11-03,PC-HC,Tratamiento-CIRUGIA
1-2_86-59-2,2021-11-03,PC-HC,Tratamiento-CIRUGIA
1-2_86-63-33,2021-11-03,PC-HC,Tratamiento-CIRUGIA
1-2_86-67-24,2021-11-03,PC-HC,Tratamiento-CIRUGIA
1-2_86-69-3,2021-11-03,PC-HC,Tratamiento-CIRUGIA
1-2_86-71-5,2021-11-03,PC-HC,Tratamiento-CIRUGIA
1-2_86-72-24,2021-11-03,PC-HC,Tratamiento-CIRUGIA
1-2_86-74-19,2021-11-03,PC-HC,Tratamiento-CIRUGIA
1-2_86-76-19,2021-11-03,PC-HC,Tratamiento-CIRUGIA
1-2_86-80-2,2021-11-03,PC-HC,Tratamiento-CIRUGIA
1-2_86-90-10,2021-11-03,PC-HC,Tratamiento-CIRUGIA
1-3_86-4-30,2021-11-04,PC-HC,Tratamiento-CIRUGIA
1-3_86-5-27,2021-11-04,PC-HC,Tratamiento-CIRUGIA
1-3_86-5-29,2021-11-04,PC-HC,Tratamiento-CIRUGIA
1-3_86-5-30,2021-11-04,PC-HC,Tratamiento-CIRUGIA
1-3_86-5-32,2021-11-04,PC-HC,Tratamiento-CIRUGIA
1-3_86-6-17,2021-11-04,PC-HC,Tratamiento-CIRUGIA
1-3_86-7-17,2021-11-04,PC-HC,Tratamiento-CIRUGIA
1-3_86-7-30,2021-11-04,PC-HC,Tratamiento-CIRUGIA
1-3_86-7-34,2021-11-04,PC-HC,Tratamiento-CIRUGIA
1-3_86-8-14,2021-11-04,PC-HC,Tratamiento-CIRUGIA
1-3_86-8-21,2021-11-04,PC-HC,Tratamiento-CIRUGIA
1-3_86-9-31,2021-11-04,PC-HC,Tratamiento-CIRUGIA
1-3_86-10-19,2021-11-04,PC-HC,Tratamiento-CIRUGIA
1-3_86-10-29,2021-11-04,PC-HC,Tratamiento-CIRUGIA
1-3_86-11-34,2021-11-04,PC-HC,Tratamiento-CIRUGIA
1-3_86-12-33,2021-11-04,PC-HC,Tratamiento-CIRUGIA
1-3_86-17-34,2021-11-04,PC-HC,Tratamiento-CIRUGIA
1-3_86-19-33,2021-11-04,PC-HC,Tratamiento-CIRUGIA
1-3_86-21-1,2021-11-04,PC-HC,Tratamiento-CIRUGIA
1-3_86-21-27,2021-11-04,PC-HC,Tratamiento-CIRUGIA
1-3_86-22-29,2021-11-04,PC-HC,Tratamiento-CIRUGIA
1-3_86-9-22,2021-11-05,PC-HC,Tratamiento-CIRUGIA
1-3_86-9-23,2021-11-05,PC-HC,Tratamiento-CIRUGIA
1-3_86-10-20,2021-11-05,PC-HC,Tratamiento-CIRUGIA
1-3_86-10-23,2021-11-05,PC-HC,Tratamiento-CIRUGIA
1-3_86-11-21,2021-11-05,PC-HC,Tratamiento-CIRUGIA
1-3_86-12-16,2021-11-05,PC-HC,Tratamiento-CIRUGIA
1-3_86-12-22,2021-11-05,PC-HC,Tratamiento-CIRUGIA
1-3_86-12-24,2021-11-05,PC-HC,Tratamiento-CIRUGIA
1-3_86-13-20,2021-11-05,PC-HC,Tratamiento-CIRUGIA
1-3_86-13-24,2021-11-05,PC-HC,Tratamiento-CIRUGIA
1-3_86-13-15,2021-11-05,PC-HC,Tratamiento-CIRUGIA
1-3_86-14-14,2021-11-05,PC-HC,Tratamiento-CIRUGIA
1-3_86-14-16,2021-11-05,PC-HC,Tratamiento-CIRUGIA
1-3_86-14-17,2021-11-05,PC-HC,Tratamiento-CIRUGIA
1-3_86-14-22,2021-11-05,PC-HC,Tratamiento-CIRUGIA
1-3_86-15-16,2021-11-05,PC-HC,Tratamiento-CIRUGIA
1-3_86-15-17,2021-11-05,PC-HC,Tratamiento-CIRUGIA
1-3_86-16-13,2021-11-05,PC-HC,Tratamiento-CIRUGIA
1-3_86-16-15,2021-11-05,PC-HC,Tratamiento-CIRUGIA
1-3_86-17-14,2021-11-05,PC-HC,Tratamiento-CIRUGIA
1-3_86-17-17,2021-11-05,PC-HC,Tratamiento-CIRUGIA
1-3_86-17-19,2021-11-05,PC-HC,Tratamiento-CIRUGIA
1-3_86-18-17,2021-11-05,PC-HC,Tratamiento-CIRUGIA
1-3_86-21-34,2021-11-06,PC-HC,Tratamiento-CIRUGIA
1-3_86-27-29,2021-11-06,PC-HC,Tratamiento-CIRUGIA
1-3_86-35-32,2021-11-06,PC-HC,Tratamiento-CIRUGIA
1-3_86-36-27,2021-11-06,PC-HC,Tratamiento-CIRUGIA
1-3_86-36-31,2021-11-06,PC-HC,Tratamiento-CIRUGIA
1-3_86-37-28,2021-11-06,PC-HC,Tratamiento-CIRUGIA
1-3_86-38-31,2021-11-06,PC-HC,Tratamiento-CIRUGIA
1-3_86-40-28,2021-11-06,PC-HC,Tratamiento-CIRUGIA
1-3_86-41-33,2021-11-06,PC-HC,Tratamiento-CIRUGIA
1-3_86-42-28,2021-11-06,PC-HC,Tratamiento-CIRUGIA
1-3_86-43-30,2021-11-06,PC-HC,Tratamiento-CIRUGIA
1-3_86-44-28,2021-11-06,PC-HC,Tratamiento-CIRUGIA
1-3_86-44-30,2021-11-06,PC-HC,Tratamiento-CIRUGIA
1-3_86-44-31,2021-11-06,PC-HC,Tratamiento-CIRUGIA
1-3_86-44-32,2021-11-06,PC-HC,Tratamiento-CIRUGIA
1-3_86-45-31,2021-11-06,PC-HC,Tratamiento-CIRUGIA
1-3_86-45-33,2021-11-06,PC-HC,Tratamiento-CIRUGIA
1-4_86-1-2,2021-11-06,PC-HC,Tratamiento-CIRUGIA
1-4_86-1-3,2021-11-06,PC-HC,Tratamiento-CIRUGIA
1-4_86-1-13,2021-11-06,PC-HC,Tratamiento-CIRUGIA
1-4_86-1-14,2021-11-06,PC-HC,Tratamiento-CIRUGIA
1-4_86-1-16,2021-11-06,PC-HC,Tratamiento-CIRUGIA
1-4_86-1-17,2021-11-06,PC-HC,Tratamiento-CIRUGIA
1-4_86-1-20,2021-11-06,PC-HC,Tratamiento-CIRUGIA
1-4_86-1-24,2021-11-06,PC-HC,Tratamiento-CIRUGIA
1-4_86-1-27,2021-11-06,PC-HC,Tratamiento-CIRUGIA
1-4_86-2-14,2021-11-06,PC-HC,Tratamiento-CIRUGIA
1-4_86-2-17,2021-11-06,PC-HC,Tratamiento-CIRUGIA
1-4_86-3-14,2021-11-06,PC-HC,Tratamiento-CIRUGIA
1-4_86-3-16,2021-11-06,PC-HC,Tratamiento-CIRUGIA
1-4_86-3-17,2021-11-06,PC-HC,Tratamiento-CIRUGIA
1-4_86-3-22,2021-11-06,PC-HC,Tratamiento-CIRUGIA
1-4_86-3-24,2021-11-06,PC-HC,Tratamiento-CIRUGIA
1-4_86-3-23,2021-11-06,PC-HC,Tratamiento-CIRUGIA
1-4_86-4-13,2021-11-06,PC-HC,Tratamiento-CIRUGIA
1-4_86-21-2,2021-11-08,PC-HC,Tratamiento-CIRUGIA
1-4_86-22-1,2021-11-08,PC-HC,Tratamiento-CIRUGIA
1-4_86-23-5,2021-11-08,PC-HC,Tratamiento-CIRUGIA
1-4_86-23-9,2021-11-08,PC-HC,Tratamiento-CIRUGIA
1-4_86-25-2,2021-11-08,PC-HC,Tratamiento-CIRUGIA
1-4_86-25-3,2021-11-08,PC-HC,Tratamiento-CIRUGIA
1-4_86-25-5,2021-11-08,PC-HC,Tratamiento-CIRUGIA
1-4_86-26-7,2021-11-08,PC-HC,Tratamiento-CIRUGIA
1-4_86-26-8,2021-11-08,PC-HC,Tratamiento-CIRUGIA
1-4_86-27-6,2021-11-08,PC-HC,Tratamiento-CIRUGIA
1-4_86-28-7,2021-11-08,PC-HC,Tratamiento-CIRUGIA
1-4_86-33-2,2021-11-08,PC-HC,Tratamiento-CIRUGIA
1-4_86-36-7,2021-11-08,PC-HC,Tratamiento-CIRUGIA
1-4_86-37-1,2021-11-08,PC-HC,Tratamiento-CIRUGIA
1-4_86-37-6,2021-11-08,PC-HC,Tratamiento-CIRUGIA
1-4_86-38-6,2021-11-08,PC-HC,Tratamiento-CIRUGIA
1-4_86-38-7,2021-11-08,PC-HC,Tratamiento-CIRUGIA
1-4_86-42-3,2021-11-08,PC-HC,Tratamiento-CIRUGIA
1-4_86-42-5,2021-11-08,PC-HC,Tratamiento-CIRUGIA
1-4_86-21-5,2021-11-08,PC-HC,Tratamiento-CIRUGIA
1-4_86-24-4,2021-11-08,PC-HC,Tratamiento-CIRUGIA
1-4_86-27-5,2021-11-08,PC-HC,Tratamiento-CIRUGIA
1-4_86-27-8,2021-11-08,PC-HC,Tratamiento-CIRUGIA
1-4_86-29-4,2021-11-08,PC-HC,Tratamiento-CIRUGIA
1-4_86-30-8,2021-11-08,PC-HC,Tratamiento-CIRUGIA
1-4_86-32-3,2021-11-08,PC-HC,Tratamiento-CIRUGIA
1-4_86-36-9,2021-11-08,PC-HC,Tratamiento-CIRUGIA
1-4_86-40-5,2021-11-08,PC-HC,Tratamiento-CIRUGIA
1-4_86-41-1,2021-11-08,PC-HC,Tratamiento-CIRUGIA
1-4_86-43-2,2021-11-08,PC-HC,Tratamiento-CIRUGIA
1-4_86-46-7,2021-11-08,PC-HC,Tratamiento-CIRUGIA
1-4_86-47-3,2021-11-08,PC-HC,Tratamiento-CIRUGIA
1-4_86-50-4,2021-11-08,PC-HC,Tratamiento-CIRUGIA
1-4_86-54-5,2021-11-08,PC-HC,Tratamiento-CIRUGIA
1-4_86-59-4,2021-11-08,PC-HC,Tratamiento-CIRUGIA
1-4_86-60-8,2021-11-08,PC-HC,Tratamiento-CIRUGIA
1-4_86-61-6,2021-11-08,PC-HC,Tratamiento-CIRUGIA
1-4_86-62-4,2021-11-08,PC-HC,Tratamiento-CIRUGIA
1-4_86-63-1,2021-11-08,PC-HC,Tratamiento-CIRUGIA
1-4_86-68-4,2021-11-08,PC-HC,Tratamiento-CIRUGIA
1-3_86-53-34,2021-11-09,PC-HC,Tratamiento-CIRUGIA
1-3_86-54-33,2021-11-09,PC-HC,Tratamiento-CIRUGIA
1-3_86-57-32,2021-11-09,PC-HC,Tratamiento-CIRUGIA
1-3_86-57-33,2021-11-09,PC-HC,Tratamiento-CIRUGIA
1-3_86-63-32,2021-11-09,PC-HC,Tratamiento-CIRUGIA
1-3_86-63-31,2021-11-09,PC-HC,Tratamiento-CIRUGIA
1-3_86-64-27,2021-11-09,PC-HC,Tratamiento-CIRUGIA
1-3_86-64-29,2021-11-09,PC-HC,Tratamiento-CIRUGIA
1-3_86-64-32,2021-11-09,PC-HC,Tratamiento-CIRUGIA
1-3_86-65-28,2021-11-09,PC-HC,Tratamiento-CIRUGIA
1-3_86-66-15,2021-11-09,PC-HC,Tratamiento-CIRUGIA
1-3_86-67-27,2021-11-09,PC-HC,Tratamiento-CIRUGIA
1-3_86-68-28,2021-11-09,PC-HC,Tratamiento-CIRUGIA
1-3_86-68-29,2021-11-09,PC-HC,Tratamiento-CIRUGIA
1-3_86-69-30,2021-11-09,PC-HC,Tratamiento-CIRUGIA
1-3_86-70-32,2021-11-09,PC-HC,Tratamiento-CIRUGIA
1-3_86-70-33,2021-11-09,PC-HC,Tratamiento-CIRUGIA
1-3_86-71-31,2021-11-09,PC-HC,Tratamiento-CIRUGIA
1-3_86-73-28,2021-11-09,PC-HC,Tratamiento-CIRUGIA
1-3_86-74-3,2021-11-09,PC-HC,Tratamiento-CIRUGIA
1-3_86-75-32,2021-11-09,PC-HC,Tratamiento-CIRUGIA
1-3_86-76-33,2021-11-09,PC-HC,Tratamiento-CIRUGIA
1-3_86-81-17,2021-11-09,PC-HC,Tratamiento-CIRUGIA
1-1_86-18-14,2021-12-04,PC-HC,Tratamiento-CIRUGIA
1-1_86-22-17,2021-12-04,PC-HC,Tratamiento-CIRUGIA
1-1_86-23-5,2021-12-04,PC-HC,Tratamiento-CIRUGIA
1-1_86-25-4,2021-12-04,PC-HC,Tratamiento-CIRUGIA
1-1_86-25-5,2021-12-04,PC-HC,Tratamiento-CIRUGIA
1-1_86-28-1,2021-12-04,PC-HC,Tratamiento-CIRUGIA
1-1_86-28-14,2021-12-04,PC-HC,Tratamiento-CIRUGIA
1-1_86-27-8,2021-12-04,PC-HC,Tratamiento-CIRUGIA
1-1_86-29-17,2021-12-04,PC-HC,Tratamiento-CIRUGIA
1-1_86-29-25,2021-12-04,PC-HC,Tratamiento-CIRUGIA
1-1_86-34-8,2021-12-04,PC-HC,Tratamiento-CIRUGIA
1-1_86-35-1,2021-12-04,PC-HC,Tratamiento-CIRUGIA
1-1_86-38-1,2021-12-04,PC-HC,Tratamiento-CIRUGIA
1-2_86-55-19,2021-12-06,PC-HC,CORTE-DE-FLECHA
1-2_86-58-19,2021-12-06,PC-HC,CORTE-DE-FLECHA
1-2_86-59-18,2021-12-06,PC-HC,CORTE-DE-FLECHA
1-2_86-59-22,2021-12-06,PC-HC,CORTE-DE-FLECHA
1-2_86-62-25,2021-12-06,PC-HC,CORTE-DE-FLECHA
1-2_86-63-23,2021-12-06,PC-HC,CORTE-DE-FLECHA
1-2_86-63-26,2021-12-06,PC-HC,CORTE-DE-FLECHA
1-2_86-65-12,2021-12-06,PC-HC,CORTE-DE-FLECHA
1-2_86-67-10,2021-12-06,PC-HC,CORTE-DE-FLECHA
1-2_86-67-23,2021-12-06,PC-HC,CORTE-DE-FLECHA
1-2_86-67-26,2021-12-06,PC-HC,CORTE-DE-FLECHA
1-2_86-68-11,2021-12-06,PC-HC,CORTE-DE-FLECHA
1-2_86-68-12,2021-12-06,PC-HC,CORTE-DE-FLECHA
1-2_86-68-17,2021-12-06,PC-HC,CORTE-DE-FLECHA
1-2_86-72-27,2021-12-06,PC-HC,CORTE-DE-FLECHA
1-2_86-73-22,2021-12-06,PC-HC,CORTE-DE-FLECHA
1-2_86-81-15,2021-12-06,PC-HC,CORTE-DE-FLECHA
1-2_86-3-6,2021-12-07,PC-HC,CORTE-DE-FLECHA
1-2_86-5-1,2021-12-07,PC-HC,CORTE-DE-FLECHA
1-2_86-5-2,2021-12-07,PC-HC,CORTE-DE-FLECHA
1-2_86-13-1,2021-12-07,PC-HC,CORTE-DE-FLECHA
1-2_86-13-2,2021-12-07,PC-HC,CORTE-DE-FLECHA
1-2_86-18-1,2021-12-07,PC-HC,CORTE-DE-FLECHA
1-2_86-19-4,2021-12-07,PC-HC,CORTE-DE-FLECHA
1-2_86-20-4,2021-12-07,PC-HC,CORTE-DE-FLECHA
1-2_86-21-3,2021-12-07,PC-HC,CORTE-DE-FLECHA
1-2_86-26-32,2021-12-07,PC-HC,CORTE-DE-FLECHA
1-2_86-29-27,2021-12-07,PC-HC,CORTE-DE-FLECHA
1-2_86-30-22,2021-12-07,PC-HC,CORTE-DE-FLECHA
1-2_86-31-22,2021-12-07,PC-HC,CORTE-DE-FLECHA
1-2_86-35-23,2021-12-07,PC-HC,CORTE-DE-FLECHA
1-2_86-40-17,2021-12-07,PC-HC,CORTE-DE-FLECHA
1-2_86-40-18,2021-12-07,PC-HC,CORTE-DE-FLECHA
1-4_86-4-6,2020-05-14,PC-HC,tratamiento--fertlizacion
1-4_86-5-6,2020-05-14,PC-HC,tratamiento--fertlizacion
1-4_86-8-9,2020-04-20,PC-HC,Tratamiento--Fertilizacion
1-4_86-9-8,2020-04-22,PC-HC,Tratamiento--Fertilizacion
1-2_86-21-34,2020-07-03,PC-HC,Tratamiento--Fertilizacion
1-2_86-35-19,2021-07-08,PC-HC,Tratamiento-cirugia
1-3_86-47-30,,,ERRADICADA
1-3_86-48-32,,,ERRADICADA
1-4_86-5-7,2020-05-14,PC-HC,tratamiento--fertlizacion
1-4_86-5-8,2020-05-14,PC-HC,tratamiento--fertlizacion
1-4_86-6-8,2020-04-20,PC-HC,Tratamiento--Fertilizacion
1-4_86-7-10,2020-04-20,PC-HC,Tratamiento--Fertilizacion
1-4_86-10-5,2020-04-22,PC-HC,Tratamiento--Fertilizacion
1-5_86-6-22,2020-11-09,PC-HC,Tratamiento-cirugia
1-5_86-73-5,2020-05-18,PC-HC,tratamiento--CIRUGIA
1-6_86-72-23,2020-09-17,PC-HC,Tratamiento-cirugia
1-4_86-13-3,2020-04-22,PC-HC,Tratamiento--Fertilizacion
1-6_86-15-2,2020-09-18,PC-HC,Tratamiento-cirugia
1-7_86-3-16,2021-02-04,PC-HC,Tratamiento-CIRUGIA
1-5_86-3-32,2020-05-15,PC-HC,Tratamiento--CIRUGIA
1-4_86-2-5,2020-04-20,PC-HC,Tratamiento--Fertilizacion
1-4_86-4-9,2020-04-20,PC-HC,Tratamiento--Fertilizacion
1-4_86-4-11,2020-04-20,PC-HC,Tratamiento--Fertilizacion
1-2_86-15-30,2020-07-03,PC-HC,Tratamiento--Fertilizacion
1-2_86-19-31,2021-07-07,PC-HC,Tratamiento-cirugia
1-2_86-36-17,2020-12-29,PC-HC,Tratamiento-cirugia
1-6_86-67-3,2021-02-02,PC-HC,Tratamiento-cirugia
1-4_86-4-10,2020-05-14,PC-HC,Tratamiento--fertlizacion
1-4_86-5-10,2020-05-14,PC-HC,Tratamiento--fertlizacion
1-4_86-7-9,2020-05-14,PC-HC,Tratamiento--fertlizacion
1-4_86-8-11,2020-05-14,PC-HC,Tratamiento--fertlizacion
1-4_86-8-12,2020-05-14,PC-HC,Tratamiento--fertlizacion
1-4_86-14-16,2020-05-14,PC-HC,Tratamiento--fertlizacion
1-4_86-15-12,2020-05-14,PC-HC,Tratamiento--fertlizacion
1-4_86-22-8,2021-01-29,PC-HC,Tratamiento-cirugia
1-4_86-23-10,2020-05-14,PC-HC,Tratamiento--fertlizacion
1-4_86-24-10,2020-05-14,PC-HC,Tratamiento--fertlizacion
1-4_86-21-6,2020-11-03,PC-HC,Tratamiento-cirugia
1-5_86-73-6,2020-06-09,PC-HC,Tratamiento--fertlizacion
1-5_86-71-5,2020-07-08,PC-HC,Tratamiento--Fertilizacion
1-5_86-74-4,2020-11-07,PC-HC,Tratamiento-cirugia
1-6_86-68-1,2020-09-17,PC-HC,Tratamiento-cirugia
1-2_86-21-29,2021-11-02,PC-HC,Tratamiento-cirugia
1-5_86-72-4,2021-01-30,PC-HC,Tratamiento-cirugia
1-5_86-73-8,2021-04-05,PC-HC,Tratamiento-cirugia
1-6_86-71-24,2021-03-08,PC-HC,Tratamiento-cirugia
1-6_86-71-26,2021-02-17,PC-HC,Tratamiento-cirugia
1-6_86-73-24,2021-03-08,PC-HC,Tratamiento-cirugia
1-6_86-73-25,2021-03-08,PC-HC,Tratamiento-cirugia
1-6_86-73-26,2021-02-17,PC-HC,Tratamiento-cirugia
1-6_86-21-8,2021-03-08,PC-CLASICA,Tratamiento-cirugia
1-6_86-55-16,2020-11-09,PC-HC,Tratamiento-cirugia
1-5_86-5-10,2020-11-09,PC-HC,Tratamiento-cirugia
1-5_86-7-34,2020-11-09,PC-HC,Tratamiento-cirugia
1-5_86-45-3,2020-11-07,PC-HC,Tratamiento-cirugia
1-5_86-60-6,2020-11-06,PC-HC,Tratamiento-cirugia
1-5_86-74-5,2020-12-05,PC-HC,Tratamiento-cirugia
1-1_86-48-9,2021-06-29,PC-HC,Tratamiento-cirugia
1-1_86-20-6,2020-12-05,PC-HC,Tratamiento-cirugia
1-1_86-19-4,2020-12-05,PC-HC,Tratamiento-cirugia
1-1_86-18-7,2020-11-06,PC-HC,Tratamiento-cirugia
1-1_86-18-10,2020-12-07,PC-HC,Tratamiento-cirugia
1-1_86-17-5,2020-12-07,PC-HC,Tratamiento-cirugia
1-1_86-17-8,2020-12-07,PC-HC,Tratamiento-cirugia
1-1_86-23-21,2020-11-06,PC-HC,Tratamiento-cirugia
1-1_86-12-15,2020-12-07,PC-HC,Tratamiento-cirugia
1-1_86-15-6,2020-11-24,PC-HC,Tratamiento-cirugia
1-1_86-16-2,2020-12-09,PC-HC,Tratamiento-cirugia
1-1_86-16-12,2020-12-09,PC-HC,Tratamiento-cirugia
1-3_86-23-6,2021-11-08,PC-HC,Tratamiento-cirugia
1-3_86-27-13,2021-01-29,PC-HC,Tratamiento-cirugia
1-3_86-27-9,2020-12-30,PC-HC,Tratamiento-cirugia
1-3_86-28-8,2020-12-30,PC-HC,Tratamiento-cirugia
1-3_86-28-11,2020-12-10,PC-HC,Tratamiento-cirugia
1-3_86-37-25,2020-11-03,PC-HC,Tratamiento-cirugia
1-3_86-39-28,2020-12-07,PC-HC,Tratamiento-cirugia
1-3_86-39-29,2020-12-07,PC-HC,Tratamiento-cirugia
1-3_86-40-14,2020-12-07,PC-HC,Tratamiento-cirugia
1-3_86-42-15,2020-12-07,PC-HC,Tratamiento-cirugia
1-3_86-43-27,2020-11-04,PC-HC,Tratamiento-cirugia
1-3_86-70-27,2020-11-04,PC-HC,Tratamiento-cirugia
1-3_86-71-29,2020-11-04,PC-HC,Tratamiento-cirugia
1-3_86-72-27,2020-11-04,PC-HC,Tratamiento-cirugia
1-3_86-69-29,2020-12-09,PC-HC,Tratamiento-cirugia
1-3_86-69-31,2021-01-29,PC-HC,Tratamiento-cirugia
1-3_86-64-3,2020-12-09,PC-HC,Tratamiento-cirugia
1-3_86-20-20,2020-12-09,PC-HC,Tratamiento-cirugia
1-3_86-18-32,2021-11-04,PC-HC,Tratamiento-cirugia
1-3_86-13-23,2020-12-09,PC-HC,Tratamiento-cirugia
1-3_86-16-16,2020-11-03,PC-HC,Tratamiento-cirugia
1-3_86-16-14,2020-11-03,PC-HC,Tratamiento-cirugia
1-3_86-1-16,2021-03-06,PC-HC,Tratamiento-cirugia
1-3_86-14-23,2020-12-10,PC-HC,Tratamiento-cirugia
1-2_86-52-2,2021-03-06,PC-HC,Tratamiento-cirugia
1-2_86-35-28,2020-11-06,PC-HC,Tratamiento-cirugia
1-2_86-29-28,2021-07-03,PC-HC,Tratamiento-cirugia
1-2_86-36-22,2020-12-29,PC-HC,Tratamiento-cirugia
1-2_86-10-26,2021-01-27,PC-HC,Tratamiento-cirugia
1-2_86-11-34,2020-11-06,PC-HC,Tratamiento-cirugia
1-2_86-13-29,2020-12-29,PC-HC,Tratamiento-cirugia
1-2_86-15-29,2020-11-06,PC-HC,Tratamiento-cirugia
1-2_86-15-32,2021-10-29,PC-HC,Tratamiento-cirugia
1-2_86-16-29,2021-07-07,PC-HC,Tratamiento-cirugia
1-2_86-17-33,,,ERRADICADA
1-2_86-19-29,2021-07-08,PC-HC,Tratamiento-cirugia
1-2_86-28-13,2020-11-26,PC-HC,Tratamiento-cirugia
1-2_86-22-33,2021-02-04,PC-HC,Tratamiento-cirugia
1-2_86-27-33,2021-03-12,PC-HC,Tratamiento-cirugia
1-2_86-37-19,2020-12-11,PC-HC,Tratamiento-cirugia
1-7_86-3-31,2020-12-09,PC-HC,Tratamiento-cirugia
1-7_86-4-23,2020-12-09,PC-HC,Tratamiento-cirugia
1-4_86-1-1,2021-11-06,PC-HC,Tratamiento-cirugia
1-4_86-3-5,2020-12-09,PC-HC,Tratamiento-cirugia
1-4_86-3-10,2020-12-09,PC-HC,Tratamiento-cirugia
1-4_86-3-12,2021-11-06,PC-HC,Tratamiento-cirugia
1-4_86-5-11,2021-11-06,PC-HC,Tratamiento-cirugia
1-4_86-6-10,2021-01-29,PC-HC,Tratamiento-cirugia
1-4_86-6-19,2021-01-04,PC-HC,Tratamiento-cirugia
1-4_86-8-8,2021-02-19,PC-HC,Tratamiento-cirugia
1-4_86-9-16,2021-01-04,PC-HC,Tratamiento-cirugia
1-4_86-10-12,2021-01-02,PC-HC,Tratamiento-cirugia
1-4_86-16-17,2021-01-02,PC-HC,Tratamiento-cirugia
1-4_86-16-19,2021-01-02,PC-HC,Tratamiento-cirugia
1-4_86-18-12,2021-03-09,PC-HC,Tratamiento-cirugia
1-4_86-36-6,2021-07-03,PC-HC,Tratamiento-cirugia
1-4_86-37-8,2020-12-10,PC-HC,Tratamiento-cirugia
1-3_86-65-27,2020-12-29,PC-HC,Tratamiento-cirugia
1-4_86-18-16,,,ERRADICADA
1-4_86-30-24,2020-12-07,PC-HC,Tratamiento-cirugia
1-2_86-8-21,2020-12-07,PC-HC,Tratamiento-cirugia
1-2_86-8-23,2020-12-05,PC-HC,Tratamiento-cirugia
1-2_86-16-20,2021-01-25,PC-HC,Tratamiento-cirugia
1-2_86-24-10,2020-12-05,PC-HC,Tratamiento-cirugia
1-2_86-56-18,2020-12-23,PC-HC,Tratamiento-cirugia
1-2_86-65-25,2020-12-28,PC-HC,Tratamiento-cirugia
1-1_86-14-3,2020-12-07,PC-HC,Tratamiento-cirugia
1-1_86-15-8,2020-12-05,PC-HC,Tratamiento-cirugia
1-5_86-56-23,2020-12-11,PC-HC,Tratamiento-cirugia
1-1_86-14-5,2021-01-30,PC-HC,Tratamiento-cirugia
1-1_86-48-2,2021-01-02,PC-HC,Tratamiento-cirugia
1-7_86-1-2,2021-03-09,PC-HC,Tratamiento-cirugia
1-7_86-2-24,2021-01-04,PC-HC,Tratamiento-cirugia
1-5_86-31-28,2021-02-02,PC-HC,Tratamiento-cirugia
1-3_86-69-26,2021-02-02,PC-HC,Tratamiento-cirugia
1-3_86-69-28,2020-12-28,PC-HC,Tratamiento-cirugia
1-3_86-67-28,2021-08-03,PC-HC,Tratamiento-cirugia
1-3_86-72-29,2021-01-29,PC-HC,Tratamiento-cirugia
1-4_86-6-6,2021-07-02,PC-HC,Tratamiento-cirugia
1-4_86-14-2,2021-07-02,PC-HC,Tratamiento-cirugia
1-4_86-42-2,2021-07-06,PC-HC,Tratamiento-cirugia
1-4_86-64-11,2021-07-08,PC-HC,Tratamiento-cirugia
1-3_86-19-20,2021-07-29,PC-HC,CORTE-DE-FLECHA
1-2_86-7-13,2021-07-06,PC-HC,Tratamiento-cirugia
1-2_86-7-30,2021-03-19,PC-HC,CORTE-DE-FLECHA
1-3_86-39-30,2021-11-06,PC-HC,Tratamiento-cirugia
1-7_86-3-67,2021-01-29,PC-HC,Tratamiento-cirugia
1-2_86-4-1,2021-03-20,PC-HC,Tratamiento-cirugia
1-3_86-39-32,2021-02-04,PC-HC,Tratamiento-cirugia
1-4_86-12-11,2021-01-30,PC-CLASICA,Tratamiento-cirugia
1-7_86-3-41,2021-02-24,PC-CLASICA,Tratamiento-cirugia
1-7_86-4-25,2021-02-08,PC-CLASICA,Tratamiento-cirugia
1-7_86-4-39,2021-04-13,PC-CLASICA,Tratamiento-cirugia
1-7_86-4-54,2021-02-08,PC-CLASICA,Tratamiento-cirugia
1-5_86-10-22,2021-03-20,PC-CLASICA,Tratamiento-cirugia
1-5_86-74-7,2021-02-24,PC-CLASICA,CORTE-DE-FLECHA
1-1_86-14-4,2021-07-07,PC-CLASICA,Tratamiento-cirugia
1-1_86-19-1,2021-10-29,PC-CLASICA,Tratamiento-cirugia
1-1_86-20-1,2021-10-28,PC-CLASICA,Tratamiento-cirugia
1-1_86-29-18,,,ERRADICADA
1-2_86-21-31,2021-11-02,PC-CLASICA,Tratamiento-cirugia
1-2_86-21-32,2021-11-02,PC-CLASICA,Tratamiento-cirugia
1-2_86-23-29,2021-11-02,PC-CLASICA,Tratamiento-cirugia
1-3_86-32-25,2021-07-07,PC-CLASICA,Tratamiento-cirugia
1-1_86-13-6,,,ERRADICADA
1-1_86-12-14,2021-06-29,PC-CLASICA,Tratamiento-cirugia
1-5_86-22-1,2021-08-04,PC-CLASICA,Tratamiento-cirugia
1-2_86-24-26,2021-11-02,PC-CLASICA,Tratamiento-cirugia
1-5_86-69-6,2021-03-20,PC-CLASICA,Tratamiento-cirugia
1-6_86-72-25,2021-07-29,PC-CLASICA,Tratamiento-cirugia
1-3_86-26-9,2021-04-10,PC-CLASICA,Tratamiento-cirugia
1-3_86-66-26,2021-11-09,PC-CLASICA,Tratamiento-cirugia
1-3_86-18-15,2021-11-05,PC-CLASICA,Tratamiento-cirugia
1-3_86-47-1,2021-07-29,PC-CLASICA,Tratamiento-cirugia
1-7_86-2-30,2021-08-02,PC-CLASICA,Tratamiento-cirugia
1-7_86-3-33,2021-08-02,PC-CLASICA,Tratamiento-cirugia
1-2_86-5-4,2021-10-30,PC-CLASICA,Tratamiento-cirugia
1-2_86-5-31,2021-10-29,PC-CLASICA,Tratamiento-cirugia
1-2_86-15-31,2021-10-29,PC-CLASICA,Tratamiento-cirugia
1-2_86-15-34,2021-10-29,PC-CLASICA,Tratamiento-cirugia
1-2_86-16-32,,,ERRADICADA
1-2_86-19-30,2021-11-02,PC-CLASICA,Tratamiento-cirugia
1-2_86-22-32,2021-11-02,PC-CLASICA,Tratamiento-cirugia
1-2_86-23-24,2021-11-02,PC-CLASICA,Tratamiento-cirugia
1-2_86-24-27,2021-11-02,PC-CLASICA,Tratamiento-cirugia
1-2_86-24-28,2021-11-02,PC-CLASICA,Tratamiento-cirugia
1-2_86-24-32,2021-11-02,PC-CLASICA,Tratamiento-cirugia
1-1_86-39-9,,,ERRADICADA
1-1_86-40-2,,,ERRADICADA
1-1_86-50-10,,,ERRADICADA
1-2_86-68-5,2021-11-03,PC-HC,Tratamiento-cirugia
1-2_86-18-9,2021-12-07,PC-HC,CORTE-DE-FLECHA
1-2_86-19-11,2021-11-02,PC-HC,Tratamiento-cirugia
1-2_86-28-5,2021-11-03,PC-HC,Tratamiento-cirugia
1-2_86-31-13,2021-11-03,PC-HC,Tratamiento-cirugia
1-2_86-47-2,2021-11-03,PC-HC,Tratamiento-cirugia
1-1_86-21-2,2021-12-04,PC-HC,Tratamiento-cirugia
1-1_86-21-4,2021-12-04,PC-HC,Tratamiento-cirugia
1-1_86-21-6,2021-12-04,PC-HC,Tratamiento-cirugia
1-1_86-23-4,2021-12-04,PC-HC,Tratamiento-cirugia
1-1_86-43-2,,,ERRADICADA
1-2_86-2-4,2021-12-07,PC-HC,CORTE-DE-FLECHA
1-2_86-6-13,,,ERRADICADA
1-2_86-7-3,2021-12-07,PC-HC,CORTE-DE-FLECHA
1-2_86-8-2,2021-12-07,PC-HC,CORTE-DE-FLECHA
1-2_86-72-24,,,ERRADICADA
1-2_86-74-19,,,ERRADICADA
1-2_86-80-2,2021-12-06,PC-HC,Tratamiento-cirugia
1-4_86-5-6,2021-02-19,PC-HC,Tratamiento-cirugia
1-2_86-21-34,2020-10-17,PC-HC,Tratamiento-cirugia
1-4_86-7-10,2020-05-14,PC-HC,Tratamiento--fertlizacion
1-5_86-73-5,2020-06-09,PC-HC,Tratamiento--fertlizacion
1-4_86-13-3,2020-05-14,PC-HC,Tratamiento--fertlizacion
1-6_86-15-2,2021-02-02,PC-HC,Tratamiento-cirugia
1-5_86-3-32,2020-07-08,PC-HC,Tratamiento--Fertilizacion
1-4_86-2-5,2020-05-14,PC-HC,Tratamiento--Fertlizacion
1-4_86-4-9,2020-05-14,PC-HC,Tratamiento--Fertlizacion
1-4_86-4-11,2020-05-14,PC-HC,Tratamiento--fertlizacion
1-2_86-15-30,2021-01-27,PC-HC,Tratamiento-cirugia
1-2_86-19-31,2021-11-02,PC-HC,Tratamiento-cirugia
1-2_86-36-17,2021-07-08,PC-HC,Tratamiento-cirugia
1-4_86-5-10,2020-10-30,PC-HC,Tratamiento-cirugia
1-4_86-8-11,2020-10-31,PC-HC,Tratamiento-cirugia
1-4_86-14-16,2020-11-03,PC-HC,Tratamiento-cirugia
1-4_86-15-12,,,ERRADICADA
1-5_86-73-6,2020-07-08,PC-HC,Tratamiento--Fertilizacion
1-5_86-71-5,2020-11-07,PC-HC,Tratamiento-cirugia
1-5_86-74-4,2020-12-23,PC-HC,Tratamiento-cirugia
1-6_86-68-1,2021-02-02,PC-HC,Tratamiento-cirugia
1-5_86-72-4,2021-08-02,PC-HC,Tratamiento-cirugia
1-6_86-55-16,2021-01-22,PC-HC,Tratamiento-cirugia
1-5_86-7-34,2021-01-30,PC-HC,Tratamiento-cirugia
1-5_86-45-3,2020-12-23,PC-HC,Tratamiento-cirugia
1-5_86-60-6,2020-12-05,PC-HC,Tratamiento-cirugia
1-1_86-20-6,2021-06-29,PC-HC,Tratamiento-cirugia
1-1_86-18-10,2020-12-28,PC-HC,Tratamiento-cirugia
1-1_86-17-5,2020-12-28,PC-HC,Tratamiento-cirugia
1-1_86-12-15,2021-07-29,PC-HC,CORTE-DE-FLECHA
1-1_86-15-6,2020-12-07,PC-HC,Tratamiento-cirugia
1-1_86-16-2,2021-02-19,PC-HC,Tratamiento-cirugia
1-3_86-27-13,2021-03-19,PC-HC,CORTE-DE-FLECHA
1-3_86-28-11,2020-12-30,PC-HC,Tratamiento-cirugia
1-3_86-39-28,2021-01-02,PC-HC,Tratamiento-cirugia
1-3_86-43-27,2021-01-29,PC-HC,Tratamiento-cirugia
1-3_86-70-27,2020-12-07,PC-HC,Tratamiento-cirugia
1-3_86-71-29,2020-12-07,PC-HC,Tratamiento-cirugia
1-3_86-64-3,2021-03-09,PC-HC,Tratamiento-cirugia
1-3_86-13-23,2021-11-05,PC-HC,Tratamiento-cirugia
1-3_86-16-16,2020-12-09,PC-HC,Tratamiento-cirugia
1-2_86-52-2,2021-07-02,PC-HC,Tratamiento-cirugia
1-2_86-35-28,2021-07-03,PC-HC,Tratamiento-cirugia
1-2_86-36-22,2021-07-06,PC-HC,Tratamiento-cirugia
1-2_86-10-26,2021-03-20,PC-HC,Tratamiento-cirugia
1-2_86-11-34,2020-12-29,PC-HC,Tratamiento-cirugia
1-2_86-13-29,2021-03-06,PC-HC,Tratamiento-cirugia
1-2_86-15-29,2020-12-29,PC-HC,Tratamiento-cirugia
1-2_86-22-33,2021-11-02,PC-HC,Tratamiento-cirugia
1-2_86-27-33,,,ERRADICADA
1-2_86-37-19,2021-02-04,PC-HC,Tratamiento-cirugia
1-7_86-4-23,2021-03-09,PC-HC,Tratamiento-cirugia
1-4_86-3-10,2021-01-29,PC-HC,Tratamiento-cirugia
1-4_86-6-10,2021-11-06,PC-HC,Tratamiento-cirugia
1-4_86-36-6,2021-11-07,PC-HC,Tratamiento-cirugia
1-1_86-14-3,2020-12-28,PC-HC,Tratamiento-cirugia
1-1_86-15-8,2020-12-28,PC-HC,Tratamiento-cirugia
1-1_86-14-5,2021-04-05,PC-HC,Tratamiento-cirugia
1-3_86-69-26,2021-11-09,PC-HC,Tratamiento-cirugia
1-3_86-67-28,2021-11-09,PC-HC,Tratamiento-cirugia
1-4_86-42-2,,,ERRADICADA
1-2_86-7-30,2021-12-07,PC-HC,CORTE-DE-FLECHA
1-2_86-4-1,2021-05-18,PC-HC,Tratamiento-cirugia
1-3_86-39-32,2021-11-06,PC-HC,Tratamiento-cirugia
1-7_86-4-39,2021-06-29,PC-CLASICA,Tratamiento-cirugia
1-7_86-4-54,2021-03-11,PC-CLASICA,Tratamiento-cirugia
1-5_86-10-22,2021-07-07,PC-CLASICA,Tratamiento-cirugia
1-5_86-74-7,2021-07-07,PC-CLASICA,Tratamiento-cirugia
1-1_86-20-1,2021-12-04,PC-CLASICA,Tratamiento-cirugia
1-3_86-47-1,2021-11-08,PC-CLASICA,Tratamiento-cirugia
1-2_86-21-34,,,ERRADICADA
1-5_86-73-5,2021-01-30,PC-HC,Tratamiento-cirugia
1-5_86-3-32,2021-01-22,PC-HC,Tratamiento-cirugia
1-4_86-4-9,2021-03-09,PC-HC,Tratamiento-cirugia
1-2_86-15-30,2021-07-06,PC-HC,Tratamiento-cirugia
1-4_86-5-10,2021-03-09,PC-HC,Tratamiento-cirugia
1-5_86-73-6,2020-12-23,PC-HC,Tratamiento-cirugia
1-5_86-71-5,2020-12-23,PC-HC,Tratamiento-cirugia
1-5_86-74-4,2021-02-16,PC-HC,Tratamiento-cirugia
1-5_86-45-3,2021-02-16,PC-HC,Tratamiento-cirugia
1-1_86-18-10,2021-10-28,PC-HC,Tratamiento-cirugia
1-1_86-17-5,2021-07-29,PC-HC,CORTE-DE-FLECHA
1-3_86-39-28,2021-03-09,PC-HC,Tratamiento-cirugia
1-2_86-10-26,2021-07-06,PC-HC,Tratamiento-cirugia
1-2_86-11-34,2021-03-06,PC-HC,Tratamiento-cirugia
1-2_86-15-29,2021-03-06,PC-HC,Tratamiento-cirugia
1-4_86-3-10,2021-03-09,PC-HC,Tratamiento-cirugia
1-1_86-15-8,2021-01-25,PC-HC,Tratamiento-cirugia
1-2_86-4-1,2021-12-07,PC-HC,CORTE-DE-FLECHA
