// Ejemplo DELETE (muchos)
db.masters.remove(
    {
        "properties.name": {
            $in: [
                "5-3-U5-1-","5-4-U42-1","5-4-U42-1-1","5-4-U42-1-2","5-4-U42-1-3","5-4-U42-1-4","5-4-U42-1-5","5-4-U42-1-6","5-4-U42-1-7","5-4-U42-1-8","5-5-U14-1","5-5-U14-1-1","6-4-U11-10","6-4-U11-10-1","8-10-U8"
                ]
        }
    }
)




//-----------------------------------------------------
// Ejemplo DELETE (muchos)
db.masters.remove(
    {
        "_id" : ObjectId("5e5ecb986712a43d860b9357")
    }
)




//-----------------------------------------------------
db.masters.remove({"_id" : ObjectId("5e5ecb986712a43d860b9357")});




//-----------------------------------------------------
db.masters.remove({"_id" : ObjectId("
5e5ecb986712a43d860b9357
")});


