

----codigos de regiones (segun cartografia)

A1 = Sonson
A2 = Urrao
A3 = Antioquia
A4 = Suroeste
A5 = Caldas
A6 = Eje Cafetero
A7 = Tolima
A8 = Valle del Cauca
A9 = Cauca
A10 = Huila
A11 =
A12 = Cundinamarca
A13 =
A14 = Fresno

??Putumayo
----------------------------------------------------------

--ejemplo:
La Maria A3:23IA

A3:23SA

A3= REGION (En este caso Antioquia)
: Dos puntos
23= Campo NUMERO DE VISITA
SA= Ultimas dos letras del campo NOMBRE DE FINCA
