//====================================================== option
{
	"name" : "xxxx",
	"master" : "",
	"color" : "#FFFFFF",
	"consecutives" : "",
	"incidenceFrequency" : NumberInt(0),
	"incidencePercentage" : NumberInt(0)
}



{"name" : "
xxxx
","master" : "","color" : "#FFFFFF","consecutives" : "","incidenceFrequency" : NumberInt(0),"incidencePercentage" : NumberInt(0)}


//======================================================--master
db.getCollection("masters").insert({
    "uid": ObjectId("5ede82b75f8e783d9c7b9bec"),
    "name": "2021 Productores XXXXXXXX",
    "options": [
        {
            "name": "pepe",
            "master": "",
            "color": "#FFFFFF",
            "consecutives": "",
            "incidenceFrequency": NumberInt(0),
            "incidencePercentage": NumberInt(0)
        }
    ],
    "images": false,
    "rgDate": ISODate("2021-09-13T15:51:01.502-05:00"),
    "uDate": ISODate("2021-09-13T15:51:01.502-05:00")
})
