﻿name,category,type,inputmeasure,regulatoryEntity,sku,frac,irac,certifications,description,puc,water,pc,pr,pr2,pc2,biologicalTarget,activeIngredients
100% ORGANICO,,Consumibles,Kilogramos,5239,,,,DIABONOS,FERTILIZANTE,,false,0,0,0,0,;,N 2.5% ;  P2O5 2 % ; K2O 1.5 % ; CaO 3.9% ; Carbon organico oxidable 15%;
10-20-20 YARA,,Consumibles,Kilogramos,5,,,,YARA COLOMBIA SA,FERTILIZANTE,,false,0,0,0,0,;,N 10% ;P2O5 20%; K2O 20%;
10-20-30,,Consumibles,Kilogramos,12654,,,,DIABONOS,FERTILIZANTE,,false,0,0,0,0,;,N 10% ; P2O5 20 % ; K2O 30 %;
10-30-10,,Consumibles,Kilogramos,74,,,,YARA COLOMBIA SA,FERTILIZANTE,,false,0,0,0,0,;,N 10% ;P2O5 30%; K2O 10%;
10-30-10-1,,Consumibles,Kilogramos,12687,,,,DIABONOS,FERTILIZANTE,,false,0,0,0,0,;,N 10 %  ;  P2O5 30 % ; K2O 10 % ; CaO 4 % ; MgO 1% ; SiO2 1 %;
10-30-10-3,,Consumibles,Kilogramos,7127,,,,DIABONOS,FERTILIZANTE,,false,0,0,0,0,;,N 10% ; P2O5 30% ; K2O 10 % ; MgO 3 % ; S 3.7 %;
11-5-27-7,,Consumibles,Kilogramos,7137,,,,DIABONOS,FERTILIZANTE,,false,0,0,0,0,;,N 11 % ; P2O5 5 % ; K2O 27 % ; MgO 7 % ; S 9 %;
11-5-29-1,,Consumibles,Kilogramos,12589,,,,DIABONOS,FERTILIZANTE,,false,0,0,0,0,;,N 11 % ;  P2O5 5 % ; K2O 29 % ; MgO 1 % ; SiO23%;
15-15-15-1,,Consumibles,Kilogramos,12700,,,,DIABONOS,FERTILIZANTE,,false,0,0,0,0,;,N 15 % ; P2O5 15 % ; K2O 15 % ; CaO 4 % ; MgO 1% ; SiO2 7 %;
15-4-23-1,,Consumibles,Kilogramos,12698,,,,DIABONOS,FERTILIZANTE,,false,0,0,0,0,;,N 15 % ;   P2O5 4 % ; K2O 23.0 % ; CaO 4 % ; MgO 1% ; SiO2 7%;
17-6-18-1,,Consumibles,Kilogramos,12564,,,,DIABONOS,FERTILIZANTE,,false,0,0,0,0,;,N 17% ;  P2O5 6 % ; K2O 18 % ; CaO 8 % ; MgO 1% ; SiO2 2.55%;
17-6-18-6,,Consumibles,Kilogramos,7140,,,,DIABONOS,FERTILIZANTE,,false,0,0,0,0,;,N 17 % ; P2O5 6% ; K2O 18 % ; MgO 6 % ; S 7 %;
18-18-18-1,,Consumibles,Kilogramos,7139,,,,DIABONOS,FERTILIZANTE,,false,0,0,0,0,;,N 18% ; P2O5 18% ; K2O 18% ; MgO 1% ; S 1.2 %;
21-3-17-6,,Consumibles,Kilogramos,7136,,,,DIABONOS,FERTILIZANTE,,false,0,0,0,0,;,N 21 %  ; P2O5 3 % ; K2O 17 % ; MgO 6 % ; S 7%;
23-0-30,,Consumibles,Kilogramos,7329,,,,DIABONOS,FERTILIZANTE,,false,0,0,0,0,;,N 23 % ; K2O 30 %;
25-4-24,,Consumibles,Kilogramos,7113,,,,DIABONOS,FERTILIZANTE,,false,0,0,0,0,;,N 25 % ; P2O5 4 % ; K2O 24 %;
31-8-8-2,,Consumibles,Kilogramos,7141,,,,DIABONOS,FERTILIZANTE,,false,0,0,0,0,;,N 31% ; P2O5 8% ; K2O 8% ; MgO 2% ; S 2.4%;
ABAMECAL,II,Consumibles,Milligramos,17,,,,ARYSTA LIFESCIENCE COLOMBIA SAS,Acaricida,,false,14,4,0,0,Acaro rojo;,Abamectina;
ABAMECTINA 1_8 EC -DVA,II,Consumibles,Milligramos,1019,,,,Dva De Colombia Ltda,Acaricida,,false,21,4,0,0,Acaro;,Abamectina;
ABASAC 1_8 EC,II,Consumibles,Milligramos,26,,,,Anasac Colombia Ltda,Acaricida,,false,14,4,0,0,Acaro;,Abamectina;
ABSOLUTE 60 EC,III,Consumibles,Milligramos,1238,,,,Dow Agrosciences,Insecticida,,false,1,4,0,0,Trips;,Spinetoram;
ACADIAN,,Consumibles,Litros,11837,,,,ACADIAN PLANT HEALTH,ALGAS,,false,0,0,0,0,;,Ascophyllum nodosum fresco: N 0.1%; P2O5 0.2%; K2O 5%; Mg 0.02; Ca 0.05%; Na 0.7%; B 20 ppm; Mn 3 ppm; Cu 3 ppm; Zn 4 ppm ; Fe 30 ppm;
ACIDO BORICO,,Consumibles,Kilogramos,7355,,,,PRECISAGRO SAS,FERTILIZANTE,,false,0,0,0,0,;,B 17.5%;
ACIDO SALICILICO,,Consumibles,Kilogramos,,,,,,,,false,0,0,0,0,;,Acido salicilico;
AGRIFOS 400 SL,III,Consumibles,Milligramos,4116,,,,Barpen (Isagro Colombia),FUNGICIDA,,false,0,0,0,0,Pudricion radicular;,Fosfito Monopotasico;
AGRIMINS * GRANULADO,,Consumibles,Kilogramos,2359,,,,COLINAGRO SA,FERTILIZANTE,,false,0,0,0,0,;,N 8% ;P2O5 5%; CaO 18%;  MgO 6%; S 1.6%; Cu 0.14%; Zn 2.5%; Mo 0.005%;
AGRIMINS COMPLETO,,Consumibles,Litros,10518,,,,COLINAGRO SA,FERTILIZANTE,,false,0,0,0,0,;,N 200g/l; P2O5 100 g/I; K2O 50;MgO 10g/l; S 14g/l; B 1.50g/I ; Cu 2.50g/l; Fe 1g/l; Mn 1g/l;; Zn 5 g/l ;
AGRIMINS INICIO P,,Consumibles,Litros,10367,,,,COLINAGRO SA,FERTILIZANTE,,false,0,0,0,0,;,N 103g/l; P2O5 126.50 g/I;MgO 30 2.40g/l; S 4.40g/l; B 0.35 g/I ;  Cu 0.23g/l; Fe 1g/l; Mn 0.48g/l;; Zn 1.95 g/l ;
AGRIMINS K CALCIO BORO,,Consumibles,Kilogramos,10366,,,,COLINAGRO SA,FERTILIZANTE,,false,0,0,0,0,;,K2O 35.5 g/l; CaO 56 g/l; B 10 g/l;
AGRIMINS NITROSLOW,,Consumibles,Litros,11741,,,,COLINAGRO SA,FERTILIZANTE,,false,0,0,0,0,;,N 380 g/l ; Zn 2.83 g/l ; B 1.64;
AGRIMINS TOTTAL FLORACION Y FRUCTIFICACION,,Consumibles,Kilogramos,7951,,,,COLINAGRO SA,FERTILIZANTE,,false,0,0,0,0,;,N 8%;  P2O5 16%; K2O 16 % ; CaO 4 ; MgO 2% ; S 0.50% ; B 0.40% ; Co 0.001% ; Cu 0.15% ; Fe 0.20% ; Mn 0.02% ; Mo 0.005% ; Zn 0.50% ;  SiO2 5%;
AGRIMINS TOTTAL INICIO,,Consumibles,Kilogramos,7949,,,,COLINAGRO SA,FERTILIZANTE,,false,0,0,0,0,;,N 11% ; P2O5 22 %; K2O 5 % ; CaO 3 ; MgO 2% ; S 0.60% ; B 0.17% ; Co 0.001% ; Cu 0.13% ; Fe 0.20% ; Mn 0.02% ; Mo 0.005% ; Zn 0.40% ;  SiO2 13%;
AGRIMINS TOTTAL LLENADO,,Consumibles,Kilogramos,7952,,,,COLINAGRO SA,FERTILIZANTE,,false,0,0,0,0,;,N 12% ; P2O5 23%; K2O 19 % ; CaO 4 ; MgO 3% ; S 3% ; B 0.40% ; Co 0.001% ; Cu 0.25% ; Fe 0.20% ; Mn 0.02% ; Mo 0.005% ; Zn 0.40% ;  SiO2 13%;
AGRIMINS TOTTAL PALMICULTOR,,Consumibles,Kilogramos,9612,,,,COLINAGRO SA,FERTILIZANTE,,false,0,0,0,0,;,N 12%;  P2O5 6%; K2O 27 % ; CaO 5 ; MgO 5% ; S 2.50% ; B 0.30% ; Co 0.004% ; Cu 0.13% ; Fe 0.05% ; Mn 0.32% ; Mo 0.005% ; Zn 0.30% ;  SiO2 2%;
AGROFAST,,Consumibles,Litros,4756,,,,COLINAGRO SA,FERTILIZANTE,,false,0,0,0,0,;,N 70g/l; K2O 100 ; MgO 2.50g/l; S 7g/l; B 0.30g/I ; Cu 0.70g/l; Fe 1.30g/l; Mn 0.60g/l;Mo 0.05 g/l Zn 0.80g/l ;
AGRO-K,,Consumibles,Kilogramos,1015,,,,COSMOAGRO SA,FERTILIZANTE,,false,0,0,0,0,;,P2O5 39%; K2O 52%;
AGROMIX,,Consumibles,Kilogramos,5207,,,,MINERAGRO SA,FERTILIZANTE,,false,0,0,0,0,;,P2O5 10%; CaO 15%;  MgO 10%; S 7%; Fe 1%; Mn 0.1%; Cu 0.1%; Zn 1%; B 0.6%; Mo 0.005%;
ALBATROSS 200 SC,II,Consumibles,Milligramos,497,,,,Proficol (Adama),Insecticida,,false,14,12,0,0,Trips;,Fipronil;
ALLEATO 80 WG,III,Consumibles,Gramos,445,,,,Helm Andina Ltda,FUNGICIDA,,false,0,0,0,0,Phythopthora;,Fosetil-Alumunio;
ALLGANIC MAKRO 60,,Consumibles,Kilogramos,12498,,,,SQM,FERTILIZANTE,,false,0,0,0,0,;,K2O 60 % ;  Cl 45%;
ALLGANIC POTASSIUM,,Consumibles,Kilogramos,12668,,,,SQM,FERTILIZANTE,,false,0,0,0,0,;,K2O  52 % ; S 18 %;
ALTAIR WP,III,Consumibles,Gramos,1162,,,,Anasac Colombia Ltda,FUNGICIDA,,false,30,4,0,0,Tristeza del aguacate;,Metalaxil;Oxicloruro De Cobre;
A-MICSUR *,,Consumibles,Kilogramos,2631,,,,"AGROEXPORT DE COLOMBIA
LTDA",FERTILIZANTE,,false,0,0,0,0,;,N 14.8% ;P2O5 5.12%; K2O 8.96%;
AMILSOL  MICRO REXENE FEE13,,Consumibles,Kilogramos,12561,,,,SQM,FERTILIZANTE,,false,0,0,0,0,;,Fe 13.3% ;
AMILSOL CRECIMIENTO,,Consumibles,Kilogramos,10697,,,,SQM,FERTILIZANTE,,false,0,0,0,0,;,N 25%; P2O5 10%; K2O 10 % ; S 18% ; MgO 0.5 % ; Fe 0.04% ; Mn 0.02 ;  Zn 0.02% ; Cu 0.01%;
AMILSOL INICIAL,,Consumibles,Kilogramos,10692,,,,SQM,FERTILIZANTE,,false,0,0,0,0,;,N 15% ; P2O5 30 %; K2O 15  % ; S 1.2% ; MgO 0.6% ; Zn 0.1 ; B 0.1 % ;
AMILSOL INICIAL 15-30-15 + EM,,Consumibles,Kilogramos,10692,,,,SQM,FERTILIZANTE,,false,0,0,0,0,;,N 15%; P2O5 30%; K2O 15%; MgO 0.6%; S 1.2%; Zn 0.1%; B 0.1%;
AMILSOL KP,,Consumibles,Kilogramos,10820,,,,SQM,FERTILIZANTE,,false,0,0,0,0,;,N 13% ;  P2O5 3 % ; K2O 44% ;
AMILSOL KP ACID,,Consumibles,Kilogramos,12319,,,,SQM,FERTILIZANTE,,false,0,0,0,0,;,N 13.8 % ; P2O5 3 %; K2O 43.8 %;
AMILSOL MAGNUM P44,,Consumibles,Kilogramos,10003,,,,SQM,FERTILIZANTE,,false,0,0,0,0,;,N 18% ; K2O 44%;
AMILSOL MAP,,Consumibles,Kilogramos,11933,,,,SQM,FERTILIZANTE,,false,0,0,0,0,;,N 12%; P2O5 61%;
AMILSOL MICRO BORO,,Consumibles,Kilogramos,12155,,,,SQM,FERTILIZANTE,,false,0,0,0,0,;,B 17.5%;
AMILSOL MICRO REXENE CU 15,,Consumibles,Kilogramos,11932,,,,SQM,FERTILIZANTE,,false,0,0,0,0,;,Cu 15%;
AMILSOL MICRO REXENE FED12,,Consumibles,Kilogramos,11952,,,,SQM,FERTILIZANTE,,false,0,0,0,0,;,Fe 11.6%;
AMILSOL MICRO REXENE FEQ48,,Consumibles,Kilogramos,12100,,,,SQM,FERTILIZANTE,,false,0,0,0,0,;,Fe 6%;
AMILSOL MICRO REXENE FEXQ58,,Consumibles,Kilogramos,11976,,,,SQM,FERTILIZANTE,,false,0,0,0,0,;,Fe 6%;
AMILSOL MICRO REXENE ZN15,,Consumibles,Kilogramos,11954,,,,SQM,FERTILIZANTE,,false,0,0,0,0,;,Zn 15%;
AMILSOL MICROR REXENE  MN13,,Consumibles,Kilogramos,11953,,,,SQM,FERTILIZANTE,,false,0,0,0,0,;,Mn 13%;
AMILSOL MULTIPROPOSITO,,Consumibles,Kilogramos,10682,,,,SQM,FERTILIZANTE,,false,0,0,0,0,;,N 18%; P2O5 18%; K2O 18%; MgO 0.6%; S 1.5%; Fe 0.04; Mn 0.02%; Cu 0.01%; Zn 0.02%; Mo 0.01%;
AMILSOL MULTIPROPOSITO,,Consumibles,Kilogramos,10682,,,,SQM,FERTILIZANTE,,false,0,0,0,0,;,N 18% ; P2O5 19%; K2O  18 % ; S 1.5 % ; MgO 0.6% ; Fe 0.04 % ; Mn 0.02 % ; Zn 0.02 ; Cu 0.01%;
AMILSOL NKS,,Consumibles,Kilogramos,10758,,,,SQM,FERTILIZANTE,,false,0,0,0,0,;,N 12% ;  K2O 46% ; S 1.2% ;
AMILSOL PRODUCCION,,Consumibles,Kilogramos,10686,,,,SQM,FERTILIZANTE,,false,0,0,0,0,;,N 13% ; P2O5 6% ; K2O 40 %;
AMILSOL PRODUCCIÓN 13-06-40,,Consumibles,Kilogramos,10686,,,,SQM,FERTILIZANTE,,false,0,0,0,0,;,N 13%; P2O5 6%; K2O 40%;
AMILSOL SOP,,Consumibles,Kilogramos,10740,,,,SQM,FERTILIZANTE,,false,0,0,0,0,;,K2O 50.1 %; S 16.9%;
AMINOALEXIN-F,,Consumibles,Litros,9187,,,,DIABONOS,FERTILIZANTE,,false,0,0,0,0,;,  P2O5 396.O g/L ; K2O 276.5 g/L ; 19 74.0 g/L  ; Aminoacidos libres  74 g/L ; Carbono organico oxidable 60 g/L;
AMINOQUELANT-MINORS,,Consumibles,Litros,12556,,,,DIABONOS,FERTILIZANTE,,false,0,0,0,0,;,N 35.3 g/ L  ; MgO 8.78 g/L ; S 39.1 g/L ; Cu 0.133 g/L ; Fe 38.4 g/L ; Mn 11.2 g/L ; Zn 1.0.5 g/L ; B 0.367 g/L ;  Aminoacidos libres  66.8 g/L ;Carbono organico oxidable 58.6 g/L;
AMINOSET,,Consumibles,Litros,4596,,,,TECNOQUIMICAS SA,FERTILIZANTE,,false,0,0,0,0,;,N 36.6 g/l ; K2O 114.6 g/l;
AMISTAR TOP,II,Consumibles,Milligramos,297,,,,SYGENTA SA ,FUNGICIDA,,false,21,4,0,0,Antracnosis;,Azoxytrobin ; Difenoconazole;
ANA-BOR,,Consumibles,Litros,4755,,,,COLINAGRO SA,FERTILIZANTE,,false,0,0,0,0,;,N 58g/I ; B 120 g/I ;
ANTRASIN P_C,IV,Consumibles,Gramos,53,,,,Safer Agrobiológicos,FUNGICIDA,,false,0,4,0,0,Antracnosis;,Sulfato De Cobre  Sulfato De Calcio;
ARMUROX,,Consumibles,Litros,10656,,,,DIABONOS,FERTILIZANTE,,false,0,0,0,0,;,SiO2 105.0 g/L ;
ARPON,III,Consumibles,Milligramos,6880,,,,INTEROC SA SUCURSAL COLOMBIA,Coadyuvante,,false,0,0,0,0,;,Polyether- polymethylsiloxane copolymer;
ATP UP,,Consumibles,Litros,5328,,,,INNOVAK COLOMBIA LTDA,FERTILIZANTE,,false,0,0,0,0,;,N 54.16 g/l ; P2O5 233.7 g/l;
AUTHORITY 250 SC,III,Consumibles,Milligramos,995,,,,Cheminova Agro De Colombia SA,FUNGICIDA,,false,0,4,0,0,Antracnosis;, Flutriafol ; Azoxystrobin ;
AVINAZA,,Consumibles,Kilogramos,4612,,,,AVINAZA COMPOST,FERTILIZANTE,,false,0,0,0,0,;,N 1.6%; P2O5 3.4%; K2O 2.8%; CaO 16;
AZUTEC,,Consumibles,Kilogramos,9024,,,,YARA COLOMBIA SA,FERTILIZANTE,,false,0,0,0,0,;,N 13% ;P2O5 3%; K2O 23%; MgO 4%; S 9%; Zn 0.1%; B 0.1%;
BANGUARD 42 SC,II,Consumibles,Milligramos,855,,,,CLABEREP REPRESENTACIONES COLOMBIANAS LTDA CLABEREP LTDA,FUNGICIDA,,false,0,0,0,0,Antracnosis;,Thiram;
BARAKA 54 SC,II,Consumibles,Milligramos,1641,,,,Anasac Colombia Ltda,Insecticida,,false,0,0,0,0,Trips ; Chinches;,Fipronil;Thiamethoxan;
BAROQUE 110 SC,III,Consumibles,Milligramos,2080,,,,Valent Biosciences Corporation,Insecticida,,false,7,12,0,0,Acaro ;,Etoxazole;
BARRIER,,Consumibles,Litros,10432,,,,COSMOCEL COLOMBIA SAS,FERTILIZANTE,,false,0,0,0,0,;,CaO 270 g/l;
BASSAR WP,III,Consumibles,Gramos,7383,,,,0,Insecticida,,false,0,0,0,0,Trips;,Beauveria Bassiana Y Bacillus Thuringiensis;
BIORGANIK,,Consumibles,Kilogramos,11294,,,,MANUELITA SA,FERTILIZANTE,,false,0,0,0,0,;,N 1.9 % ; K2O 14.5% ; SiO2 1.7% ; Carbono organico oxidable 28.4 %;
BORATO 48,,Consumibles,Kilogramos,866,,,,NUTRIMON,FERTILIZANTE,,false,0,0,0,0,;,B 48%;
BORAX PENTAHIDRATADO,,Consumibles,Kilogramos,9339,,,,DISAN COLOMBIA SA,FERTILIZANTE,,false,0,0,0,0,;,B 15.3%;
BORO GRANULADO,,Consumibles,Kilogramos,1947,,,,MICROFERTISA SA,FERTILIZANTE,,false,0,0,0,0,;,P2O5 3%;B 10%;
BOROZINCO 240 G,,Consumibles,Kilogramos,1002,,,,MICROFERTISA SA,FERTILIZANTE,,false,0,0,0,0,;,N 3%; S 6%; Cu 0.5%; Zn 15%; B 2.5%;
BOROZINCO FOLIAR,,Consumibles,Litros,4820,,,,MICROFERTISA SA,FERTILIZANTE,,false,0,0,0,0,;,N 50 g/l;MgO 30 g/l; S 45 g/l; Fe 5 g/l; Mn 5 g/l; Cu 3g/l; Zn 80 g/l; B 50 g/l; Mo 2g/l;
BRANDT SMART CU,,Consumibles,Gramos,12625,,,,RIO CLARO TECNOLOGIA EN AGRICULTURA SAS RIO CLARO AGRO,FERTILIZANTE,,false,0,0,0,0,;,N 64 g/l ; S 38 g/l ; Cu 76 g/l  ;
BURNER 150 SL,II,Consumibles,Milligramos,550,,,,Adama Andina BV Sucursal Colombia,Herbicida,,false,0,12,0,0,Pasto kikuyo; diente de león; Batatilla;,Glufosinato De Amonio;
CaB,,Consumibles,Litros,4761,,,,STOLLER COLOMBIA SA,FERTILIZANTE,,false,0,0,0,0,;,CaO 145 g/l ; B 13 g/l;
CaBtrac,,Consumibles,Litros,6469,,,,YARA COLOMBIA SA,FERTILIZANTE,,false,0,0,0,0,;,N 69 g/l; CaO 350 g/l ; Zn 100 g/l; B 50 g/l;
CAL DOLOMITA 70-25 LA PALMA,,Consumibles,Kilogramos,3796,,,,MARMOLERA LA PALMA LTDA,FERTILIZANTE,,false,0,0,0,0,;,CaO 39%; MgO 11.8% ;
CAL HARD,,Consumibles,Litros,5333,,,,INNOVAK COLOMBIA LTDA,FERTILIZANTE,,false,0,0,0,0,;,MgO 140.5 g/l; B 3.5 g/l;
CAL MAGNESIANA PARA ENMIENDA 57-33 RIO CLARO,,Consumibles,Kilogramos,3136,,,,"RIO CLARO TECNOLOGIA EN AGRICULTURA SAS RIO CLARO
AGRO",ACONDICIONADOR,,false,0,0,0,0,;,CaO 33%; MgO 14%;
CALDER 460 ZC,II,Consumibles,Milligramos,1596,,,,Fmc Colombia SAS,Insecticida,,false,0,0,0,0,Mosca blanca;,Imidacloprid;Gamma Cyhalotrina;
CALMAG,,Consumibles,Kilogramos,9181,,,,PRECISAGRO SAS,FERTILIZANTE,,false,0,0,0,0,;,N 13.5% ;CaO 16.5%; MgO 6%;
CAMPOFOS G,,Consumibles,Kilogramos,7993,,,,CAMPOFERT SAS,FERTILIZANTE,,false,0,0,0,0,;,N 12% ;P2O5 61%;
CANDONGA 1_8 EC,II,Consumibles,Milligramos,946,,,,INVESA SA,Acaricida,,false,14,4,0,0,Arañita roja ;,Abamectina;
CAPSIALLIL,III,Consumibles,Milligramos,5558,,,,Ecoflora,Insecticida,,false,0,0,0,0,Trips;,Extracto Aji Ajo;
CARBOTECNIA Zn,,Consumibles,Kilogramos,10802,,,,SUAGRO INSUMOS AGRICOLAS SA,FERTILIZANTE,,false,0,0,0,0,;,Zn 5%;
CARBOXY POTASIO,,Consumibles,Litros,5331,,,,INNOVAK COLOMBIA LTDA,FERTILIZANTE,,false,0,0,0,0,;,K2O  140 g/l ; Carbono organico 63 g/l ;
CERAQUINT SP,III,Consumibles,Gramos,1230,,,,Ceradis Colombia Ltda,FUNGICIDA,,false,0,0,0,0,Phythopthora;,Fosfito De Potasio Y Sulfato De Cobre Pentahidratado;
CERILLO SL,II,Consumibles,Milligramos,279,,,,SYGENTA SA ,Herbicida,,false,0,0,0,0,Malezas;,Paraquat;
CERTUS 70 WS,III,Consumibles,Gramos,1367,,,,Sembro SA,Insecticida,,false,0,0,0,0,Trips;,Thiamethoxan ;
CHOQUE 240 SC,II,Consumibles,Milligramos,1885,,,,Anasac Colombia Ltda,Acaricida,,false,7,2,0,0,Acaro;,Spirodiclofen;
CIAMSA 10-20-30,,Consumibles,Kilogramos,6129,,,,CI DE AZUCARES Y MIELES SA,FERTILIZANTE,,false,0,0,0,0,;,N 10% ;P2O5 20%; K2O 30%;
CIKATREEZAN,,Consumibles,Kilogramos,N/A,,,,COLINAGRO SA,FUNGICIDA,,false,0,0,0,0,;,Aglomerado asfáltico 56.59% ; Resinas vegetales refinadas 43.41% ;
CITROEMULSION,IV,Consumibles,Milligramos,2740,,,,Jardines Sierra,Insecticida,,false,0,0,0,0,Acaro; Escama; Cochinilla;,Aceite Mineral;
CLORURO DE POTASIO GRANULADO,,Consumibles,Kilogramos,12453,,,,SQM,FERTILIZANTE,,false,0,0,0,0,;,K2O 60 % ;  Cl 45%;
CLORURO DE POTASIO SOLUBLE,,Consumibles,Kilogramos,10712,,,,SQM,FERTILIZANTE,,false,0,0,0,0,;,K2O 60 % ;  Cl 45%;
CLOSER 240 SC,III,Consumibles,Milligramos,1400,,,,Dow Agrosciences,Insecticida,,false,7,4,0,0,Chinche;,Sulfoxaflor;
COLISION  250 SC,III,Consumibles,Milligramos,2436,,,,INVESA SA,FUNGICIDA,,false,0,0,0,0,Antracnosis;,Flutriafol;
CONQUEST SC,0,Consumibles,Milligramos,977,,,,SYGENTA SA ,Insecticida,,false,1,0,0,0,Trips;,Lamda Cyhalotrin ; Thiamethoxam;
CONSORCIOS MICROBIANOS,,Consumibles,Milligramos,N/A,,,,REGENERATIVA,OTROS,,false,0,0,0,0,;,Trichoderma ; Bacillus sp.; Bacillus subtilis; Azospirillum ; Azotobacter;
COSMO - AGUAS,IV,Consumibles,Milligramos,2094,,,,COSMOAGRO SA,Coadyuvante,,false,0,0,0,0,;,Citratos (ácido cítrico y citrato de sodio) reguladores de ph;
COSMO OIL 101 OS,III,Consumibles,Milligramos,2537,,,,COSMOAGRO SA,Coadyuvante,,false,0,0,0,0,;,Aceites Parafinicos;
COSMO-OIL EMULSION EO,IV ,Consumibles,Milligramos,10175,,,,TRIADA EMA SA ,Coadyuvante,,false,0,0,0,0,;,Aceites parafinicos y cicloparafinicos;
COSMOPOL DUO SC,III,Consumibles,Milligramos,2405,,,,Hanseandina Ltda,FUNGICIDA,,false,0,0,0,0,Antracnosis;, Flutriafol ; Azoxystrobin ;
CRENTO EQUILIBRIO CALCIO,,Consumibles,Kilogramos,12340,,,,CORONA- DIABONOS,ACONDICIONADOR,,false,0,0,0,0,;,P2O5 3%; CaO 40%; MgO 9%; SiO2 10%;  ;
CRENTO FIRMEZA PRO CALCIO SC,,Consumibles,Litros,12341,,,,CORONA- DIABONOS,ENMIENDA,,false,0,0,0,0,;,CaO 711 g/l  ;
CTA-HUMUS,,Consumibles,Litros,5992,,,,DISAN COLOMBIA SA,FERTILIZANTE,,false,0,0,0,0,;,K2O 17.2 g/l;  Carbono organico oxidable 90 g/l ; Extracto húmico 88.5 g/l;
DANADIM PROGRESS 400EC,II,Consumibles,Milligramos,786,,,,Cheminova Agro De Colombia SA,Insecticida,,false,14,12,0,0,Mosca Blanca;,Dimetoato;
DANISARABA 20 SC,III,Consumibles,Milligramos,592,,,,Sumitomo Corporation Colombia SAS,Acaricida,,false,7,12,0,0,Acaro;,Cyflumetofen;
DAP (FOSFATO DIAMONICO) GRADO 18-46-0,,Consumibles,Kilogramos,2553,,,,YARA COLOMBIA SA,FERTILIZANTE,,false,0,0,0,0,;,N 18% ;P2O5 46%;
DIABONOS MENORES,,Consumibles,Kilogramos,10998,,,,DIABONOS,FERTILIZANTE,,false,0,0,0,0,;,N 8 % ;  P2O5 6 % ; CaO 17% ; MgO 2% ; S 2.5% ;B 1 % ; Cu 0.7% ; Zn 2.5%;
DKP-500,,Consumibles,Litros,7568,,,,CAMPOFERT SAS,FERTILIZANTE,,false,0,0,0,0,;,P2O5 370 g/l; K2O 500 g/l;
DRASTIKO 800 WG,III,Consumibles,Gramos,2265,,,,Agrocentro Colombia SAS,Insecticida,,false,0,0,0,0,;,Fipronil Tiametoxam Cyproconazole;
ECOAZ,IV,Consumibles,Milligramos,7879,,,,Ecoflora,Insecticida,,false,0,0,0,0,Acaro;,Extracto De Ajo;
ECOFERTIL 10 - 20 - 30,,Consumibles,Kilogramos,4648,,,,ECOFERTIL SA,FERTILIZANTE,,false,0,0,0,0,;,N 10% ;P2O5 20%; K2O 30%;
EFIAGUAS,IV,Consumibles,Milligramos,9223,,,,COLINAGRO SA,Coadyuvante,,false,0,0,0,0,;,Alquil poliglicol eter de 8 moles de etoxilacion;
EKOMAG 66,,Consumibles,Litros,3073,,,,COLINAGRO SA,FERTILIZANTE,,false,0,0,0,0,;,N 36g/l ; MgO 66g/l ; S 40 g/I ;
EKOZINC 70,,Consumibles,Litros,3074,,,,COLINAGRO SA,FERTILIZANTE,,false,0,0,0,0,;,N 36g/l ; S 36g/l ; 70 g/I;
EMAMECTIN BENZOATE 5 SG-DVA,III,Consumibles,Milligramos,1968,,,,Dva De Colombia Ltda,Insecticida,,false,0,0,0,0,;,Emamectin Benzoate;
EMPROX 328 SC,II,Consumibles,Milligramos,1799,,,,Rotam Agro Chemical Colombia SAS,Insecticida,,false,13,4,0,0,Acaro rojo;,Imidacloprid;Abacmectina;
ENGEO 247 SC,II,Consumibles,Milligramos,162,,,,SYGENTA SA ,Insecticida,,false,0,0,0,0,Trips;,Lamda Cyhalotrin ; Thiamethoxam;
ENGROSAR K-550 0-25-33,,Consumibles,Litros,7430,,,,FERTILIZANDO EU,FERTILIZANTE,,false,0,0,0,0,;,P2O5 400 g/l; K2O 550 g/l ; B 10 g/l;
ENMIENDA TRIPLE 30 RIO CLARO,,Consumibles,Kilogramos,3149,,,,"RIO CLARO TECNOLOGIA EN AGRICULTURA SAS RIO CLARO
AGRO",ACONDICIONADOR,,false,0,0,0,0,;,P2O5 8%;CaO 23%; MgO 11%; S 5%; Zn 0.4%; B 0.5%;
EQUILIBRIUM,,Consumibles,Litros,12555,,,,DIABONOS,FERTILIZANTE,,false,0,0,0,0,;,N 52.7 g/ L ;
EXALT 60 EC,III,Consumibles,Milligramos,528,,,,Dow Agrosciences,Insecticida,,false,1,4,0,0,Trips;,Spinetoram;
FAKYR 93 EC,II,Consumibles,Milligramos,1750,,,,Anasac Colombia Ltda,Insecticida,,false,0,0,0,0,Trips;,Bifentrina;
FERRILENE,,Consumibles,Kilogramos,5039,,,,VALAGRO,FERTILIZANTE,,false,0,0,0,0,;,Fe 6%;
FERTIACTYL GZ,,Consumibles,Litros,6305,,,,UNION COMERCIAL ROPTIE SA UNICOR SA,FERTILIZANTE,,false,0,0,0,0,;,N 160 g/l ; K2O 63 g/l;
FERTICICLO,,Consumibles,Kilogramos,7468,,,,TECNICOS EN COMBUSTION Y TRATAMIENTO DE AGUAS SAS,FERTILIZANTE,,false,0,0,0,0,;,N 1.5% ;P2O5 1.5%; K2O 1.7%; CaO 8%; S 1.5%;
FERTILEADER AXIS,,Consumibles,Kilogramos,6353,,,,UNICOR SA,FERTILIZANTE,,false,0,0,0,0,;,N 0.3% ;P2O5 17%; MgO 2.5%;
FERTILEADER ELITE,,Consumibles,Kilogramos,6354,,,,UNION COMERCIAL ROPTIE SA UNICOR SA,FERTILIZANTE,,false,0,0,0,0,;,N 9% ; K2O 6%; CaO 12%; B 0.2%;
FERTILEADER KALEO,,Consumibles,Kilogramos,6355,,,,UNICOR SA,FERTILIZANTE,,false,0,0,0,0,;,N 4% ;P2O5 6%; K2O 9%;Fe 0.02%;Mn 0.1%; Cu 0.02%; Zn 0.5%; B 0.05%;
FERTILIMOR,,Consumibles,Litros,959,,,,LIMOR AGROPROTECCION LTDA,FERTILIZANTE,,false,0,0,0,0,;,N 100 g/l; P2O5 300 g/l; K2O 100 g/l; CaO 0.5 g/l; MgO 0.5 g/l ; S 17 g/l ;B 0.3 g/l; Co 0.03 g/l; Cu 0.15 g/l; Fe 0.65 g/l ; Mn 0.32 g/l ; Mo 0.01 g/l; Zn 0.65 g/l ;
FERTIPLANT 0-5-0-16-7,,Consumibles,Litros,7521,,,,"RAMIREZ TRUJILLO GABRIEL
JAIME JOSE BERNARDO",FERTILIZANTE,,false,0,0,0,0,;,Azotobacter spp.. Azospirillum spp.. Pseudomonas spp.. Bacillus spp.. Trichoderma spp.. Gliocladium spp.. Levaduras. Actinomicetos. Hongos y Bacterias Promotoras de Crecimiento;
FERTIPLANT BORO ZINC,,Consumibles,Kilogramos,8040,,,,"RAMIREZ TRUJILLO GABRIEL
JAIME JOSE BERNARDO",FERTILIZANTE,,false,0,0,0,0,;,N 3% ; S 6%; Cu 0.5%; Zn 15%; B 2.5%;
FINALE,IV,Consumibles,Milligramos,2550,,,,BASF QUIMICA COLOMBIANA SA,Herbicida,,false,0,0,0,0,Malezas;,Glufosinato De Amonio;
FITOTRIPEN WP,III,Consumibles,Gramos,4658,,,,Natural Control,Agente de control Biológico,,false,0,0,0,0,Phytophtora;,Trichoderma;
FLORAMITE 50 WG,,Consumibles,Milligramos,2300,,,,ARYSTA LIFESCIENCE COLOMBIA SAS,Acaricida,,false,7,4,0,0,Acaro rojo;,Bifenazate;
FLUMITE SC,II,Consumibles,Milligramos,604,,,,Interoc Custer,Acaricida,,false,21,12,0,0,Acaro;,Flufenzine;
FLUSH,III,Consumibles,Milligramos,1416,,,,ARYSTA LIFESCIENCE COLOMBIA SAS,FUNGICIDA,,false,0,0,0,0,Moho gris ;,Prochloraz;
FLUTRIAFOL 250 SC DVA,II,Consumibles,Milligramos,1358,,,,Dva De Colombia Ltda,FUNGICIDA,,false,7,4,0,0,Antracnosis;,Flutriafol;
FOSCROP PK,,Consumibles,Litros,5537,,,,COLINAGRO SA,FERTILIZANTE,,false,0,0,0,0,;,P2O5 420g/l; K2O 280g/l;
FOSETAL 80 WP,III,Consumibles,Gramos,2356,,,,QUIMICOS OMA SA,FUNGICIDA,,false,0,0,0,0,Phytophtora;,Fosetyl de aluminio;
FOSFATO DE AMONIO DOBLE- DAP,,Consumibles,Kilogramos,6959,,,,PRECISAGRO SAS,FERTILIZANTE,,false,0,0,0,0,;,N 18%; P2O5 46%;
FOSFOEST,,Consumibles,Litros,3943,,,,BIOLOGICOS ESTRADA LTDA BIOEST,FERTILIZANTE,,false,0,0,0,0,;,N 100g/l; P2O5 300g/l; K2O 100g/l; MgO 1.25g/l; S 3g/l; B 0.14 g/l; Cu 0.27 g/l ;Fe 0.03g/l ; Mn 0.23g/l; Zn 0.78g/l; Aminoacidos 26 g/l;
FOSKAPRIM (FOSFATO),,Consumibles,Kilogramos,3292,,,,FOLCOL LTDA,FERTILIZANTE,,false,0,0,0,0,;,P2O5 40%; K2O 54%;
FOTALCROP MANGANESO,,Consumibles,Litros,8059,,,,COLINAGRO SA,FERTILIZANTE,,false,0,0,0,0,;,P2O5 60 %; Mn 21%;
FURTIVO 250 SC,II,Consumibles,Milligramos,1573,,,,INVESA SA,FUNGICIDA,,false,90,4,0,0,Antracnosis;, Flutriafol ; Azoxystrobin ;
GALLINAGRO,,Consumibles,Kilogramos,4669,,,,INVERSIONES Y DISTRIBUCIONES BODEGA EL GALLINERAL EU ,FERTILIZANTE,,false,0,0,0,0,;,N 2.5% ;P2O5 1.5%; K2O 4.5%;
GLIFOGEN 480 SL,III,Consumibles,Milligramos,144,,,,Nufarm Colombia SA,Herbicida,,false,0,0,0,0,Malezas;,Glifosato;
GLIFOSATO AGROGEN 747 SG,III,Consumibles,Gramos,1616,,,,Nufarm Colombia SA,Herbicida,,false,0,0,0,0,Malezas;,Glifosato;
GLOBAFOL NF,,Consumibles,Litros,7928,,,,VALAGRO,FERTILIZANTE,,false,0,0,0,0,;,N 40.8 g/l; K2O 124 g/l; C 77.8 g/l;
GLORY 75 WG,III,Consumibles,Gramos,1831,,,,Upl Colombia SAS,FUNGICIDA,,false,7,12,0,0,Antracnosis;,Azoxystrobin; Mancozeb;
GRAMOXONE SL,II,Consumibles,Milligramos,1099,,,,SYGENTA SA ,Herbicida,,false,0,0,0,0,Malezas;,Paraquat;
GRUINDAG GLUCOB,,Consumibles,Gramos,11663,,,,GRUINDAG INTERNATIONAL,FERTILIZANTE,,false,0,0,0,0,;,Cu 9.49 g/l;
GULFSTREAM 300 SC,II,Consumibles,Milligramos,2510,,,,Rotam Agro Chemical Colombia SAS,Herbicida,,false,0,0,0,0,Malezas;,Glifosato Duflufenican;
H-85 WG,,Consumibles,Kilogramos,5978,,,,COSMOCEL COLOMBIA SAS,FERTILIZANTE,,false,0,0,0,0,;,"Ácidos Húmicos  65% Ácidos
Fúlvicos 20%;"
HAIFA MKP,,Consumibles,Kilogramos,6668,,,,HAIFA,FERTILIZANTE,,false,0,0,0,0,;,P2O5 52%; K2O 34%;
HELMECTINA 1_8 EC,II,Consumibles,Milligramos,350,,,,Helm Andina Ltda,Insecticida,,false,0,0,0,0,Acaro;,Abamectina;
HELMETOXAN 25 WG,III,Consumibles,Gramos,1408,,,,Helm Andina Ltda,Insecticida,,false,0,0,0,0,Mosca Blanca;,Thiamethoxan ;
HELMSTAR PRISMA  325 SC,III,Consumibles,Milligramos,2092,,,,Helm Andina Ltda,FUNGICIDA,,false,7,12,0,0,Antracnosis;,Azoxystrobin;Difenoconazole;
HELPRONIL 80 WG,II,Consumibles,Gramos,1291,,,,Helm Andina Ltda,Insecticida,,false,14,12,0,0,Trips;,Fipronil;
HIDROCOMPLEX,,Consumibles,Kilogramos,4064,,,,YARA COLOMBIA SA,FERTILIZANTE,,false,0,0,0,0,;,N 12.4%; P2O5 11.4%; K2O 17.7%; MgO 2.65%; S 8%; Mn 0.02%; Fe 0.2 %; Zn 0.02%; B 0.015%;
HIDROXICUB 101 WP,III,Consumibles,Gramos,2722,,,,Adama Andina BV Sucursal Colombia,FUNGICIDA,,false,1,4,0,0,Antracnosis;,Hidroxido de cobre;
HIERRO-G MF,,Consumibles,Kilogramos,7369,,,,MICROFERTISA SA,FERTILIZANTE,,false,0,0,0,0,;,K2O 3% ; S 12%; Fe 20%;
HORMIX 0_28 GB,III,Consumibles,Gramos,2234,,,,Minagro Industria Quimica Ltda,Insecticida,,false,0,6,0,0,Hormigas Arrieras;,Fipronil;
HORMONAGRO 1,IV,Consumibles,Gramos,370,,,,COLINAGRO SA,Regulador Fisiológico,,false,0,0,0,0,;,Ácido alfa Naftalenacético 0.4%;
HORMONAGRO A_N_A,IV,Consumibles,Milligramos,1966,,,,COLINAGRO SA,Regulador Fisiológico,,false,0,0,0,0,;,Ácido 1-Naftalenacético A.N.A 17g/l;
IDMIT 28 SC,III,Consumibles,Milligramos,2221,,,,Tapazol Chemical Works SAS,FUNGICIDA,,false,0,0,0,0,Antracnosis;,Sulfato De Cobre  Sulfato De Calcio;
IMPACT 125 SC,II,Consumibles,Milligramos,284,,,,Cheminova Agro De Colombia SA,FUNGICIDA,,false,15,12,0,0,Antracnosis;,Flutriafol;
INTREPID SC,III,Consumibles,Milligramos,1305,,,,CORTEVA,Insecticida,,false,7,12,0,0,Stenoma;,Methoxyfenozide;
INVEPRID 360 S_C,II,Consumibles,Milligramos,258,,,,INVESA SA,Insecticida,,false,180,4,0,0,Trips;,Imidacloprid;
IRRICOL INICIO 13-36-12,,Consumibles,Kilogramos,5541,,,,COLINAGRO SA,FERTILIZANTE,,false,0,0,0,0,;,N 13% ;P2O5 36%; K2O 12%;Fe 0.03%;Mn 0.02%; Zn 0.03%; B 0.03%; Mo 0.032%;
JABON X20,,Consumibles,Milligramos,,,,,,,,false,0,0,0,0,;,;
K+LASYS COBRE,,Consumibles,Kilogramos,6951,,,,SCIENCE YIELD SOLUTIONS SYS LTDA,FERTILIZANTE,,false,0,0,0,0,;,K2O 3%; S 5%; Cu 12%;
K+LASYS MAGNESIO,,Consumibles,Kilogramos,9023,,,,SCIENCE YIELD SOLUTIONS SYS LTDA,FERTILIZANTE,,false,0,0,0,0,;,K2O 3%; S 7%; Mg 12%;
K+LASYS MANGANESO,,Consumibles,Kilogramos,6965,,,,SCIENCE YIELD SOLUTIONS SYS LTDA,FERTILIZANTE,,false,0,0,0,0,;,K2O 3%; S 7%; MN 12%;
K+LASYS ZINC,,Consumibles,Kilogramos,7057,,,,SCIENCE YIELD SOLUTIONS SYS LTDA,FERTILIZANTE,,false,0,0,0,0,;,K2O 3%; S 7%; Zn 12%;
KAIMAN HIERRO 8_1 DTPA,,Consumibles,Litros,5084,,,,COLINAGRO SA,FERTILIZANTE,,false,0,0,0,0,;,Fe 81 g/l;
KANEMITE 15% SC,,Consumibles,Milligramos,253,,,,,Acaricida,,false,14,4,0,0,Acaro rojo;,Acequinocyl;
KCl (Cloruro de Potasio Granulado) GRADO: 0-0-60,,Consumibles,Kilogramos,2554,,,,YARA COLOMBIA SA,FERTILIZANTE,,false,0,0,0,0,;,P2O5 60%;
KCL ESTANDAR,,Consumibles,Kilogramos,7176,,,,DIABONOS,FERTILIZANTE,,false,0,0,0,0,;,K2O 60% ; Cl 45%;
KCL GRANULAR,,Consumibles,Kilogramos,6892,,,,DIABONOS,FERTILIZANTE,,false,0,0,0,0,;,K2O 60% ; Cl 45%;
KEYLATE MAGNESIO,,Consumibles,Litros,3754,,,,STOLLER COLOMBIA SA,FERTILIZANTE,,false,0,0,0,0,;,MgO 62g/l;
KLIP - K CALCIO BORO,,Consumibles,Kilogramos,771,,,,COLINAGRO SA,FERTILIZANTE,,false,0,0,0,0,;,K2O 35.5%; CaO 56%; B 10%;
K-MAG GRANULAR,,Consumibles,Kilogramos,6896,,,,DIABONOS,FERTILIZANTE,,false,0,0,0,0,;,K2O 22%; MgO 18%; S 22%;
KRAFT 3_6 EC,II,Consumibles,Milligramos,639,,,,Cheminova Agro De Colombia SA,Acaricida,,false,14,12,0,0,Acaro;,Abamectina;
KRUGA SC,III,Consumibles,Milligramos,1444,,,,Dow Agrosciences,FUNGICIDA,,false,28,12,0,0,Antracnosis;,Fenbuconazol;
"KSC PHYT - actyl I 14-40-5 +
Secundarios y Menores",,Consumibles,Litros,6210,,,,UNION COMERCIAL ROPTIE SA UNICOR SA,FERTILIZANTE,,false,0,0,0,0,;,N 160 g/l ;P2O5 63 g/l;
KSC PHYT - actyl MIX,,Consumibles,Kilogramos,6208,,,,UNION COMERCIAL ROPTIE SA UNICOR SA,FERTILIZANTE,,false,0,0,0,0,;,MgO 15%; Fe 2.5%;Mn 2%; Cu 0.5%; Zn 1.5%; B 0.5%;
KUMULUS WG,III,Consumibles,Gramos,2614,,,,BASF QUIMICA COLOMBIANA SA,Acaricida,,false,1,4,0,0,Arañita roja ;,Azufre 800 g/Kg;
KUNFU 100 EC,II,Consumibles,Milligramos,990,,,,INVESA SA,Insecticida,,false,4,180,0,0,Trips;,Bifentrina;
KURDO 250 EC,III,Consumibles,Milligramos,383,,,,INVESA SA,FUNGICIDA,,false,4,180,0,0,Antracnosis;,Difenoconazole;
LOCKED SL,III,Consumibles,Milligramos,1912,,,,Hanseandina Ltda,Insecticida,,false,14,12,0,0,Trips;,Pyriproxyfen;Acetamiprid;
MACSIL,,Consumibles,Kilogramos,5273,,,,COLINAGRO SA,FERTILIZANTE,,false,0,0,0,0,;, N 3% ;P2O5 5%;MgO 6% ; S 5% ; B 1% ; Cu 0.50% ; SiO2 23.50% ; Na 0.20% ; Zn 5%;
MAGISTER 200 SC,II,Consumibles,Milligramos,562,,,,Gowan,Acaricida,,false,0,0,0,0,Acaro;,Fenazaquin;
MAINSTAY CALCIO CGr,,Consumibles,Kilogramos,5150,,,,COSMOCEL COLOMBIA SAS,FERTILIZANTE,,false,0,0,0,0,;,CaO 51.5%;
MALATHION 57% EC,III,Consumibles,Milligramos,1248,,,,Proficol (Adama),Insecticida,,false,7,0,0,0,Trips;,Malathion;
MANZATE 200 WG,III,Consumibles,Gramos,2463,,,,Uniphos Colombia Plant Limited,FUNGICIDA,,false,7,0,0,0,Antracnosis;,Mancozeb;
MASAI,,Consumibles,Litros,5272,,,,COLINAGRO SA,FERTILIZANTE,,false,0,0,0,0,;,N 20 g/l;
MC SET,,Consumibles,Litros,12463,,,,VALAGRO,FERTILIZANTE,,false,0,0,0,0,;,N 17.2 g/l;  K2O 43 g/l; Zn 18.45 g/l; B 6.15 g/l; Na 10 g/l; C 123 g/l;
METROPOL SC,III,Consumibles,Milligramos,1173,,,,Hanseandina Ltda,FUNGICIDA,,false,0,0,0,0,Antracnosis;, Flutriafol ; Azoxystrobin ;
MF ACTIVA HIERRO,,Consumibles,Kilogramos,2230,,,,MICROFERTISA SA,FERTILIZANTE,,false,0,0,0,0,;,N 3%; Fe 12%;
MF ACTIVA MAGNESIO,,Consumibles,Kilogramos,2620,,,,MICROFERTISA SA,FERTILIZANTE,,false,0,0,0,0,;,N 3%; MgO 12%;
MF ACTIVA ZINC,,Consumibles,Kilogramos,2231,,,,MICROFERTISA SA,FERTILIZANTE,,false,0,0,0,0,;,N 3%; Zn 12%;
MICROESSENTIALS,,Consumibles,Kilogramos,5481,,,,NUTRIMON,FERTILIZANTE,,false,0,0,0,0,;,N 12%; P2O5 40%;S 5%;Zn 1%;
MICROFERTIL,,Consumibles,Kilogramos,6825,,,,CAMPOFERT SAS,FERTILIZANTE,,false,0,0,0,0,;,P2O5 5%;CaO 18%; MgO 3%; S 5.8%; Fe 1%;Cu 0.2%; B 1%;
"MICROFULL 5-0-3-5 (MgO) 18
(CaO)+MENORES",,Consumibles,Kilogramos,5839,,,,YARA COLOMBIA SA,FERTILIZANTE,,false,0,0,0,0,;,N 5% ; K2O 3% ; MgO 18% ; CaO 18%;
MICROKEL CALCIO BORO,,Consumibles,Litros,9572,,,,CAMPOFERT SAS,FERTILIZANTE,,false,0,0,0,0,;,K2O 50 g/l; CaO 90 g/l; Zn 25 g/l; B 12.5 g/l;
MICROSEM,,Consumibles,Kilogramos,7887,,,,SEMILLAS VALLE SA,FERTILIZANTE,,false,0,0,0,0,;,P2O5 5%;CaO 20%; MgO 6%; S 4%; Fe 0.5%; Zn 0.01%; B 1%;
MILBEKNOCK 1EC,III,Consumibles,Milligramos,2894,,,,Sumitomo Corporation Colombia SAS,Acaricida,,false,7,4,0,0,Acaro;,Milbectin;
MIRAGE 45 EC,III,Consumibles,Milligramos,1169,,,,Proficol (Adama),FUNGICIDA,,false,7,24,0,0,Antracnosis ;,Prochloraz;
MKP (FOSTATO MONOPOTASICO),,Consumibles,Kilogramos,7385,,,,PRECISAGRO SAS,FERTILIZANTE,,false,0,0,0,0,;,P2O5 52%; K2O 34%;
MULTYRAIZ,,Consumibles,Litros,11268,,,,COLINAGRO SA,FERTILIZANTE,,false,0,0,0,0,;,P2O5 38 g/l ; Zn 12.80 g/l ; B 0.46 g/l ; S 8 g/l ;
Natur’l Oil,III,Consumibles,Milligramos,6504,,,,STOLLER COLOMBIA SA,Coadyuvante,,false,0,0,0,0,;,Aceite vegetal de soya;
NAXTROM,,Consumibles,Kilogramos,11046,,,,CI DE AZUCARES Y MIELES SA,FERTILIZANTE,,false,0,0,0,0,;,N 46%;
NBX+MO,,Consumibles,Litros,11451,,,,STOLLER COLOMBIA SA,FERTILIZANTE,,false,0,0,0,0,;,B 84.7 g/l; Mo 0.23 g/l;
NILO 300 SC,II,Consumibles,Milligramos,809,,,,Proficol (Adama),Insecticida,,false,14,12,0,0,Trips ;Mosca Blanca;,Imidacloprid ; Bifentrina;
NITRABOR YARALIVA,,Consumibles,Kilogramos,2583,,,,YARA COLOMBIA SA,FERTILIZANTE,,false,0,0,0,0,;,N 15%; K2O 26%; Zn 0.2%; B 0.3%;
NITRATO DE CALCIO,,Consumibles,Kilogramos,6106,,,,MANUCHAR COLOMBIA CIA SAS,FERTILIZANTE,,false,0,0,0,0,;,N 15% ; CaO 26%;
NITRATO DE POTASIO D_S_ Grado: 13-0-46,,Consumibles,Kilogramos,5255,,,,DISAN COLOMBIA SA,FERTILIZANTE,,false,0,0,0,0,;,N 13% ; K2O 44%;
NITRAX S,,Consumibles,Kilogramos,4557,,,,YARA COLOMBIA SA,FERTILIZANTE,,false,0,0,0,0,;,N 28%; P2O5 4%; S 6%;
NITRODI,,Consumibles,Kilogramos,12426,,,,DIABONOS,FERTILIZANTE,,false,0,0,0,0,;,N 46% ;
NITROMAG 21-0-0-7 YARABELA,,Consumibles,Kilogramos,4383,,,,YARA COLOMBIA SA,FERTILIZANTE,,false,0,0,0,0,;,N 21%; CaO 11%; MgO 7.5%;
NITRONS K 13-13-43,,Consumibles,Kilogramos,10529,,,,MANUCHAR COLOMBIA CIA SAS,FERTILIZANTE,,false,0,0,0,0,;,N 13%; P2O5 13%; K2O 43%;
NITROSOIL UREA G,,Consumibles,Kilogramos,12731,,,,NITROFERT,FERTILIZANTE,,false,0,0,0,0,;,N 46%;
NORDOX,iII,Consumibles,Gramos,2035,,,,Anasac Colombia Ltda,FUNGICIDA,,false,3,4,0,0,Antracnosis;,Oxido cuproso;
NUTRI PHYTE P+K,,Consumibles,Milligramos,3155,,,,MAGRO SA,FERTILIZANTE,,false,0,0,0,0,;,Fosfito de potasio (H3PO3). hidróxido de potasio y citrato de potasio;
NUTRICRECER,,Consumibles,Kilogramos,10610,,,,COLINAGRO SA,FERTILIZANTE,,false,0,0,0,0,;, N 40%;  P2O5 3%; K2O 3 % ; CaO 0.60 ; MgO 0.30% ; S 0.50% ; B 0.10% ; Fe 0.05% ; Mn 0.10% ; Mo 0.01% ; Zn 0.15% ;
NUTRIESENCIALES N,,Consumibles,Kilogramos,11391,,,,COLINAGRO SA,FERTILIZANTE,,false,0,0,0,0,;, N 3% ; CaO 10 ; MgO 7% ; S 1.60% ; B 1% ; Cu 0.14% ; Mn 0.20% ; Mo 0.005% ; Zn 1.65% ;  SiO2 33.43%;
NUTRIFERT 10-20-30,,Consumibles,Kilogramos,7311,,,,PRECISAGRO SAS,FERTILIZANTE,,false,0,0,0,0,;,N 10%; P2O5 20%; K2O 30%;
NUTRIMENOR ZINC,,Consumibles,Kilogramos,5657,,,,SOLUCIONES NUTRITIVAS,FERTILIZANTE,,false,0,0,0,0,;,K2O 3%; S 14%; Zn 28%;
NUTRIMON 10-20-30-1,,Consumibles,Kilogramos,4944,,,,MONOMEROS COLOMBOVENEZOLANOS SA,FERTILIZANTE,,false,0,0,0,0,;,N 10%; P2O5 20%; K2O 30%;
NUTRIMON 12 - 24 -24,,Consumibles,Kilogramos,3464,,,,MONOMEROS COLOMBOVENEZOLANOS SA,FERTILIZANTE,,false,0,0,0,0,;,N 12%; P2O5 24%; K2O 24%;
NUTRIMON 13 - 26 - 6,,Consumibles,Kilogramos,494,,,,MONOMEROS COLOMBOVENEZOLANOS SA,FERTILIZANTE,,false,0,0,0,0,;,N 13%; P2O5 26%; K2O 6%;
NUTRIMON 15 - 15 - 15,,Consumibles,Kilogramos,53,,,,MONOMEROS COLOMBOVENEZOLANOS SA,FERTILIZANTE,,false,0,0,0,0,;,N 15%; P2O5 15%; K2O 15%;
NUTRIMON 17 - 6 - 18 - 2,,Consumibles,Kilogramos,628,,,,MONOMEROS COLOMBOVENEZOLANOS SA,FERTILIZANTE,,false,0,0,0,0,;,N 17%; P2O5 6%; K2O 18%; MgO 2%; S 2%;Zn 0.1%; B 0.2%;
NUTRIMON 25 - 4 - 24,,Consumibles,Kilogramos,2869,,,,MONOMEROS COLOMBOVENEZOLANOS SA,FERTILIZANTE,,false,0,0,0,0,;,N 25%; P2O5 4%; K2O 24%;
NUTRIMON FERTIRRIEGO SoluNK-P,,Consumibles,Kilogramos,4285,,,,MONOMEROS COLOMBOVENEZOLANOS SA,FERTILIZANTE,,false,0,0,0,0,;,N 13%; P2O5 3%; K2O 43%;
NUTRIMON FOSFATO DIAMONICO (DAP),,Consumibles,Kilogramos,583,,,,MONOMEROS COLOMBOVENEZOLANOS SA,FERTILIZANTE,,false,0,0,0,0,;,N 18%; P2O5 46%;
NUTRIMON KORN-KALI,,Consumibles,Kilogramos,5269,,,,MONOMEROS COLOMBOVENEZOLANOS SA,FERTILIZANTE,,false,0,0,0,0,;,K2O 40%; MgO 6%; S 4%; B 0.25%;
NUTRIMON Nitra_Sam,,Consumibles,Kilogramos,4222,,,,YARA COLOMBIA SA,FERTILIZANTE,,false,0,0,0,0,;,N 28% ;  P2O5 4%; S 6%;
NUTRISORB L,,Consumibles,Litros,5330,,,,INNOVAK COLOMBIA LTDA,FERTILIZANTE,,false,0,0,0,0,;,C 135.4 g/l;
OBERON 240 SC,III,Consumibles,Milligramos,265,,,,BAYER,Acaricida,,false,70,4,0,0,Arañita roja ;,Spiromesifen;
OMEX K-41,,Consumibles,Litros,4496,,,,ISAGRO COLOMBIA SAS,FERTILIZANTE,,false,0,0,0,0,;,K2O 410 g/l; MgO 25 g/l; S 160 g/l;
OMYA CALCIPRILL 110 LF,,Consumibles,Litros,9941,,,,OMYA ANDINA SA,FERTILIZANTE,,false,0,0,0,0,;,CaO 51 g/l; MgO 0.9 g/l;
ORONDIS ULTRA,III,Consumibles,Milligramos,2598,,,,SYGENTA SA ,FUNGICIDA,,false,0,0,0,0,Phytophtora;,Oxathiapiprolin ; Mandipropamid;
OXICLORURO DE COBRE 35%,II,Consumibles,Gramos,744,,,,DIABONOS,FUNGICIDA,,false,0,4,0,0,Antracnosis;,Oxicloruro De Cobre;
OXICLORURO DE COBRE 58_8% W_P,III,Consumibles,Gramos,849,,,,Grupo Agrociencias,FUNGICIDA,,false,0,48,0,0,Antracnosis; Pudrición de Peduculo;,Oxicloruro De Cobre;
PACLOT,II,Consumibles,Milligramos,2264,,,,La Corporacion Del Agro SAS,Regulador Fisiológico,,false,0,0,0,0,;,Paclobutrazol;
PANZER 747 WG,III,Consumibles,Gramos,874,,,,INVESA SA,Herbicida,,false,0,0,0,0,Arvenses;,Glifosato;
PARAQUAT VECOL 200 SL,I,Consumibles,Milligramos,185,,,,Vecol SA,Herbicida,,false,0,0,0,0,Malezas;,Paraquat;
PATENT KALI 0-0-30-10 (MgO),,Consumibles,Kilogramos,6470,,,,DISAN COLOMBIA SA,FERTILIZANTE,,false,0,0,0,0,;,P2O5 30%; MgO 10%; S 17%;
PEGAL Ph AE,III,Consumibles,Milligramos,7917,,,,ELECTROQUIMICA WEST SA,Coadyuvante,,false,0,0,0,0,;,Alcohol graso etoxilado;
PERSEO 300 SC,II,Consumibles,Milligramos,1324,,,,Helm Andina Ltda,Insecticida,,false,21,12,0,0,Mosca del ovario ;,Imidacloprid; Lambdacihalotrina;
POLY FEED GG 19-19-19,,Consumibles,Kilogramos,6658,,,,HAIFA,FERTILIZANTE,,false,0,0,0,0,;,N 19%; P2O5 19%; K2O 19%; Mn 0.05%; Fe 0.11 %; Mo 0.007%; Cu 0.01%;Zn 0.02%; B 0.02%;
POTAK 41,,Consumibles,Litros,7376,,,,BIOEST SAS ,FERTILIZANTE,,false,0,0,0,0,;,K2O 410 g/l; MgO 14 g/l; S 140 g/l;
POTENZOL 3000 SL,III,Consumibles,Milligramos,9311,,,,INVESA SA,Coadyuvante,,false,0,0,0,0,;,Alcohol laurilico etoxilado;
POTENZOL 900 SL,IV,Consumibles,Milligramos,1658,,,,INVESA SA,Coadyuvante,,false,0,0,0,0,;,Alquil aril polieter alcohol;
POTENZOL PH D,IV,Consumibles,Gramos,11536,,,,INVESA SA,Coadyuvante,,false,0,0,0,0,;,ETDA;
PREZA OD,III,Consumibles,Milligramos,1203,,,,DUPONT,Insecticida,,false,0,0,0,0,Trips;,Cyantraniliprole;
PROAXIS 60 SC,II,Consumibles,Milligramos,89,,,,Cheminova Agro De Colombia SA,Insecticida,,false,7,12,0,0,Trips;,Gamma Cyhalothrina;
PROCLAIM OPTI,III,Consumibles,Milligramos,1876,,,,SYGENTA SA ,Insecticida,,false,40,4,0,0,Pasador del fruto;,Emamectin Benzoate;
PROGIBB 40SG,IV,Consumibles,Gramos,1794,,,,Sumitomo Corporation Colombia SAS,Regulador Fisiológico,,false,0,4,0,0,;,Ácido giberélico 400 g/Kg;
QL AGRI 35 SL,III,Consumibles,Milligramos,6558,,,,BASF QUIMICA COLOMBIANA SA,Acaricida,,false,0,0,0,0,Acaro rojo;,Extracto De Quillay;
QROP BORONAT,,Consumibles,Kilogramos,12156,,,,SQM,FERTILIZANTE,,false,0,0,0,0,;,B 9.5 %;
QROP COMPLEX TOP K,,Consumibles,Kilogramos,12624,,,,SQM,FERTILIZANTE,,false,0,0,0,0,;,N 12% ; P2O5 6 %; K2O  24 % ; S 4 % ; MgO 2 % ; Ca 3%;
QROP KS,,Consumibles,Kilogramos,10818,,,,SQM,FERTILIZANTE,,false,0,0,0,0,;,N 12%; K2O 46%; S 0.6%;
QUELATO DE ZINC IDHA,,Consumibles,Kilogramos,9165,,,,PRECISAGRO SAS,FERTILIZANTE,,false,0,0,0,0,;,Zn 10%;
RAFAGA4 EC,II,Consumibles,Milligramos,1046,,,,INVESA SA,Insecticida,,false,0,0,0,0,;,Clorpirifos;
RAFOS * 12 - 24 - 12 - 2,,Consumibles,Kilogramos,3355,,,,YARA COLOMBIA SA,FERTILIZANTE,,false,0,0,0,0,;,N 12%; P2O5 24%; K2O 12%; MgO 2%; S 1%;Zn 0.02%; B 0.04%;
RAIZAL - 400 * GRADO: 9-45-11,,Consumibles,Kilogramos,2928,,,,ARYSTA LIFESCIENCE COLOMBIA SAS,FERTILIZANTE,,false,0,0,0,0,;,N 9%; P2O5 0.45%; K2O 11%; MgO 1%; S 0.8%;
RALLY 40 WP,III,Consumibles,Gramos,2697,,,,Dow Agrosciences,FUNGICIDA,,false,1,0,0,0,Antracnosis ;,Myclobutanil;
REBROTE 10-50-8,,Consumibles,Kilogramos,7510,,,,CAMPOFERT SAS,FERTILIZANTE,,false,0,0,0,0,;,N 10%; P2O5 50%; K2O 8%;
REGULAMIX,IV,Consumibles,Milligramos,1155,,,,Bioprotección,Insecticida,,false,0,0,0,0,Trips ;Mo;loniom ;Pasadores del fruto y semilla ;ácaros ;picudos ;Mosca blanca ;,"Beauveria Bassiana
- Metarhizium Anisopliae
- Isaria Fumosorosa
- Purpureocillium Lilacinum
- Lecanicillium Lecanii;"
REMITAL - m GRADO 17-6-18-2,,Consumibles,Kilogramos,629,,,,YARA COLOMBIA SA,FERTILIZANTE,,false,0,0,0,0,;,N 7.3%; P2O5 6%; K2O 18%; MgO 2%; S 1.6%;Zn 0.1%; B 1%;
RIDDER 328 SC,II,Consumibles,Milligramos,2250,,,,Sino Agri Leading Biosciences Colombia SAS,Insecticida,,false,12,21,0,0,Escama verde ;,Abamectina;Imidacloprid;
RIDOMIL GOLD MZ 68 WP,II,Consumibles,Gramos,1792,,,,SYGENTA SA ,FUNGICIDA,,false,30,4,0,0,Phythopthora cin;momi;,Metalaxylm ; Mancozeb;
SAFARI,II,Consumibles,Milligramos,1841,,,,ARYSTA LIFESCIENCE COLOMBIA SAS,Herbicida,,false,0,0,0,0,Malezas;,Glufosinato De Amonio;
SAFER MICORRIZAS M_A,,Consumibles,Kilogramos,7969,,,,Safer Agrobiológicos,FERTILIZANTE,,false,0,0,0,0,;,"Micorrizas de los géneros Glomus sp..
Scutellospora sp.. Acaulospora sp..
Entrophospora s;"
SAGUM 25 SC,III,Consumibles,Milligramos,1352,,,,Sembro SA,FUNGICIDA,,false,15,4,0,0,Antracnosis;,Flutriafol;
SAM ESTANDAR,,Consumibles,Kilogramos,7126,,,,DIABONOS,FERTILIZANTE,,false,0,0,0,0,;,N 21%; S 24%;
SAM GRANULAR,,Consumibles,Kilogramos,12660,,,,DIABONOS,FERTILIZANTE,,false,0,0,0,0,;,N 20% ; S 23%;
SANTIMEC EC,II,Consumibles,Milligramos,642,,,,Interoc Custer,Acaricida,,false,7,12,0,0,Acaro;,Abamectina ; Pyridaben;
SERENADE SC 1_34,III,Consumibles,Milligramos,5973,,,,BAYER,FUNGICIDA,,false,0,0,0,0,Antracnosis;,Bacillus amyloliquefaciens;
SIDERAL 70 SL,III,Consumibles,Milligramos,308,,,,Oma,FUNGICIDA,,false,0,4,0,0,Pudricion de raiz ;,Propamocarb Hcl;
SILIMAG 30-30,,Consumibles,Kilogramos,2525,,,,"RIO CLARO TECNOLOGIA EN AGRICULTURA SAS RIO CLARO
AGRO",ACONDICIONADOR,,false,0,0,0,0,;,MgO 30%; SiO2 31%;
SILIMAG- MEZCLA WF,,Consumibles,Kilogramos,,,,,"RIO CLARO TECNOLOGIA EN AGRICULTURA SAS RIO CLARO
AGRO",ACONDICIONADOR,,false,0,0,0,0,;,CaO 12%; MgO 15%; S 6.3%; SiO2 15.5%;
SILWET L 77 AG,IV,Consumibles,Milligramos,4881,,,,CS AGROBUSINESS SAS,Coadyuvante,,false,0,0,0,0,;,Copolimero de polieter y silicona: heptametiltrisil oxano modificado con oxido de polialquileno. eter metil aliloxipolietileno glicol;
SNAIPER 247 SC,III,Consumibles,Milligramos,1859,,,,Agrocentro Colombia SAS,Insecticida,,false,14,24,0,0,Trips palmi ;,Lamda Cyhalotrin ; Thiamethoxam;
SPIDER 250 SC,II,Consumibles,Milligramos,1502,,,,INVESA SA,Insecticida,,false,180,4,0,0,Mo;lonion;,Imidacloprid; Lambdacihalotrina;
SPINAB 150 SC,III,Consumibles,Milligramos,1545,,,,Sharda De Colombia SA,Insecticida,,false,15,12,0,0,Trips palmi ;,Spinosad  ; Abamectina;
SPYROMITE 240 SC,III,Consumibles,Milligramos,1557,,,,Helm Andina Ltda,Acaricida,,false,15,12,0,0,Acaro rojo ;,Spirodiclofen;
STIMPLEX,,Consumibles,Litros,6849,,,,INDEPRO EU,FERTILIZANTE,,false,0,0,0,0,;,N 6 g/l; P2O5 30.70 g/l; K2O 55.2 g/l; CaO 1.26 g/l; MgO 1.33 g/l;
STIMULATE 50,,Consumibles,Litros,3771,,,,STOLLER COLOMBIA SA,FERTILIZANTE,,false,0,0,0,0,;,Citoquinina 0.09 g/l ; Acido giberelico 0.05 g/l; Acido indol 3-butirico 0.05 g/l;
STRONG BILLOW-K,,Consumibles,Litros,7874,,,,GRUPO KAIKUN SAS ,FERTILIZANTE,,false,0,0,0,0,;,N 0.61 g/l; P2O5 0.51 g/l; K2O 3.92 g/l; CaO 3g/l; MgO 90 ppm; S 214ppm;Mn 20 ppm; Cu 1.7 ppm; Zn 2.1 ppm; B 2.4 ppm;
SUGAR MOVER,,Consumibles,Litros,5092,,,,SOLUCIONES FISIOLÓGICAS,FERTILIZANTE,,false,0,0,0,0,;,B 88.5 g/l; Mo 0.1 g/l;
SULFATO DE MAGNESIO GRADO AGRICOLA,,Consumibles,Kilogramos,3011,,,,PRODUCTOS QUIMICOS PANAMERICANOS SA,FERTILIZANTE,,false,0,0,0,0,;,MgO 12%; S 9.5%;
SULFATO DE MAGNESIO HEPTAHIDRATADO,,Consumibles,Kilogramos,5593,,,,MANUCHAR COLOMBIA CIA SAS,FERTILIZANTE,,false,0,0,0,0,;,MgO 16% ; S 13%;
SULFATO DE MAGNESIO MONOHIDRATADO,,Consumibles,Kilogramos,7354,,,,PRECISAGRO SAS,FERTILIZANTE,,false,0,0,0,0,;,MgO 16% ; S 13%;
SULFATO DE POTASIO SOLUBLE,,Consumibles,Kilogramos,7392,,,,PRECISAGRO SAS,FERTILIZANTE,,false,0,0,0,0,;,K2O 52%; S 18%;
SULFATO DE ZINC HEPTAHIDRATADO,,Consumibles,Kilogramos,7353,,,,PRECISAGRO SAS,FERTILIZANTE,,false,0,0,0,0,;,S 11%; Zn 21%;
SULFATO DE ZINC MF,,Consumibles,Kilogramos,1789,,,,MICROFERTISA SA,FERTILIZANTE,,false,0,0,0,0,;,S 14%; Zn 28%;
SULPOMAG G,,Consumibles,Kilogramos,6603,,,,AGRODIA,FERTILIZANTE,,false,0,0,0,0,;,K2O 22%; MgO 18%; S 21.5%;
SUNNY 5 SC,II,Consumibles,Milligramos,2170,,,,Valent Biosciences Corporation,Regulador Fisiológico,,false,0,0,0,0,;,Uniconazole-P;
SUPREME 400 EW,III,Consumibles,Milligramos,442,,,,Proficol (Adama),FUNGICIDA,,false,21,12,0,0,Antracnosis;,Prochloraz ; Tebuconazole;
SURFARE AC,II,Consumibles,Milligramos,9084,,,,COSMOCEL COLOMBIA SAS,Coadyuvante,,false,0,0,0,0,;,Alcohol polioxietilenico y poliester glycol;
SXTRATA GOLD 240 SC,II,Consumibles,Milligramos,954,,,,Rotam Agro Chemical Colombia SAS,FUNGICIDA,,false,7,12,0,0,Antracnosis;,Azoxystrobin;Tebuconazole;
TACHIGAREN 30 SL,III,Consumibles,Milligramos,2193,,,,Sumitomo Corporation Colombia SAS,FUNGICIDA,,false,7,4,0,0,Lassiodiplodia ;,Hymexazol;
TAIREL WP,II,Consumibles,Gramos,3692,,,,Dow Agrosciences,FUNGICIDA,,false,14,12,0,0,Phythopthora;,Benalaxil ; Mancozeb;
TAKADA 500 SC-DVA,III,Consumibles,Milligramos,1470,,,,Dva De Colombia Ltda,FUNGICIDA,,false,0,0,0,0,Antracnosis;, Flutriafol ; Azoxystrobin ;
TALETE,,Consumibles,Litros,11973,,,,VALAGRO,FERTILIZANTE,,false,0,0,0,0,;,N 67.7g/l;  K2O 70 g/l; Zn 2.5 g/l; Mn 2.5 g/l; Na 10 g/l; C 79 g/l;
TAMIZ 280 SE,II,Consumibles,Milligramos,1440,,,,Nufarm ,FUNGICIDA,,false,21,2,0,0,Mancha Angular ;,Tebuconazole ; Azoxystrobin;
TECNIAMARILLO N,,Consumibles,Litros,9596,,,,TI AGRONOMICAL SAS,FERTILIZANTE,,false,0,0,0,0,;,K2O 63 g/l;
TECNIFEED CALCIBOR,,Consumibles,Kilogramos,10004,,,,PRECISAGRO SAS,FERTILIZANTE,,false,0,0,0,0,;,N 15.6% ;CaO 27.2%; B 0.2%;
TERRA-HUMIC,,Consumibles,Litros,2827,,,,DIABONOS,FERTILIZANTE,,false,0,0,0,0,;,CEHT 96 g/L ; CAH 29 g/L ; CAF 67 g/L;
TERRAMIN - CALCIO,,Consumibles,Kilogramos,2754,,,,ANKOR SAS,FERTILIZANTE,,false,0,0,0,0,;,CaO 8%; B 0.2%;
TERRAMIN-BORO,,Consumibles,Litros,4581,,,,DIABONOS,FERTILIZANTE,,false,0,0,0,0,;,N 40.24 g/ L ; B 70 g/L ; Aminoacidos libres 79.4 g/L ;
TERRAMIN-Ca,,Consumibles,Litros,2754,,,,DIABONOS,FERTILIZANTE,,false,0,0,0,0,;,N 58.68g/ L ; CaO 96g/L; B 2.4 g/L ; Aminoacidos libres 75.3g/L;
TERRAMIN-POTASIO,,Consumibles,Litros,4742,,,,DIABONOS,FERTILIZANTE,,false,0,0,0,0,;, K2O 344.29 g/L ; Aminoacidos libres 56.7 g/L ;
TERRA-SORB 4 RADICULAR,,Consumibles,Litros,2134,,,,DIABONOS,FERTILIZANTE,,false,0,0,0,0,;,N 32.0 g/L  ; Aminoacidos libres  94.3 g/L ;
TERRA-SORB COMPLEX,,Consumibles,Litros,12554,,,,DIABONOS,FERTILIZANTE,,false,0,0,0,0,;,N 75.0g/ L ; S 26.7 g/L ; Fe 12.7 g/L ;  Mn 1.52 g/ L; Zn 1.27 g/L ; B 11.6 g/L; 16 253 g/L ; Aminoacidos libres  253g/L ;
TERRASORB FOLIAR,,Consumibles,Litros,2133,,,,ANKOR SAS,FERTILIZANTE,,false,0,0,0,0,;,N 2.1 g/l;Mn 0.05 g/l; Zn 0.07 g/l; B 0.02 g/l;
T-FOS RIO CLARO,,Consumibles,Kilogramos,9540,,,,"RIO CLARO TECNOLOGIA EN AGRICULTURA SAS RIO CLARO
AGRO",ACONDICIONADOR,,false,0,0,0,0,;,P2O5 20%; CaO 28%; MgO 8.5 %; Cu 0.039%; Zn 0.0045%; B 0.045%;
TIAGO GOLD,III,Consumibles,Milligramos,1650,,,,Anasac Colombia Ltda,FUNGICIDA,,false,7,4,0,0,Antracnosis ;,Azoxystrobin;Difenoconazole;
TOPCOP,III,Consumibles,Litros,2698,,,,COLINAGRO SA,FUNGICIDA,,false,0,0,0,0,Antracnosis;,S 696g/l  ; Sulfato de cobre tribasico ;
TOPSUL,III,Consumibles,Litros,2700,,,,COLINAGRO SA,FUNGICIDA,,false,0,0,0,0,Antracnosis;,S 720 g/l;
TRECATO LWP,II,Consumibles,Gramos,391,,,,Fmc Latinoamerica SA,FUNGICIDA,,false,0,0,0,0,Phythopthora;,Benalaxil ; Clorotalonil;
TRIADA QUEL ORGANIC CALCIO,,Consumibles,Litros,12128,,,,COSMOAGRO SA,FERTILIZANTE,,false,0,0,0,0,;,K2O 15 g/l ;CaO 90 g/l; COOT 50 g/l;
TRIMAK,,Consumibles,Kilogramos,11810,,,,COLINAGRO SA,FERTILIZANTE,,false,0,0,0,0,;, K2O 25 % ; MgO 5% ; S 5% ;
TRIPHOS 3520,,Consumibles,Kilogramos,11847,,,,MANUCHAR COLOMBIA CIA SAS,FERTILIZANTE,,false,0,0,0,0,;,P2O5 35%; CaO 30%; S 0.1%;
TRIPLE HOJA,,Consumibles,Litros,6843,,,,CAMPOFERT SAS,FERTILIZANTE,,false,0,0,0,0,;,N 300 g/l; MgO 38 g/l; CaO 54 g/l;Zn 11 g/l;
TROMPA SB,III,Consumibles,Gramos,1474,,,,Vectors And Pest Management Ltda,Insecticida,,false,0,0,0,0,Hormigas Arrieras;,Abamectina;
UREA GRANULAR,,Consumibles,Kilogramos,7028,,,,PRECISAGRO SAS,FERTILIZANTE,,false,0,0,0,0,;,N 46%;
VERCANI WP,IV,Consumibles,Gramos,6950,,,,Natural Control,Insecticida,,false,0,0,0,0,Mosca Blanca;,Lecanicillium Lecanii;
VERTIMEC EC,II,Consumibles,Milligramos,1512,,,,SYGENTA SA ,Acaricida,,false,14,4,0,0,Acaro tostador;,Abamectina;
VICOR 3Grado 3-10-3-6 + Secundarios y Menores,,Consumibles,Kilogramos,6219,,,,COLINAGRO SA,FERTILIZANTE,,false,0,0,0,0,;,N 3%; P2O5 10%; K2O 3%;
WEST TERRA SAFE,III,Consumibles,Milligramos,1555,,,,ELECTROQUIMICA WEST SA,FUNGICIDA,,false,0,4,0,0,Phytophtora;,Diformil propano;
X-CYTE,,Consumibles,Litros,4766,,,,STOLLER COLOMBIA SA,FERTILIZANTE,,false,0,0,0,0,;,CaO 58.5 g/l; B 5.85 g/l; Citoquininas 414ppm ;
"YARALIVA CALCINIT (NITRATO DE
CALCIO 15-0-0-26 (CaO)",,Consumibles,Kilogramos,2059,,,,YARA COLOMBIA SA,FERTILIZANTE,,false,0,0,0,0,;,N 15%; CaO 26%;
YARAMILA HYDROCOMPLEX,,Consumibles,Kilogramos,4064,,,,YARA COLOMBIA SA,FERTILIZANTE,,false,0,0,0,0,;,N 12.4%; P2O5 11.4%; K2O 17.7%; MgO 2.65%; S 8%; Fe 0.2; Mn 0.2%;Zn 0.02%; B 0.015%;
YARAMILA INTEGRADOR,,Consumibles,Kilogramos,6156,,,,YARA COLOMBIA SA,FERTILIZANTE,,false,0,0,0,0,;,N 15%; P2O5 9%; K2O 20%; MgO 1.8 %; Mn 0.02%; S 3.8%;Zn 0.02%; B 0.015%;
ZINTRAC,,Consumibles,Litros,4937,,,,YARA COLOMBIA SA,FERTILIZANTE,,false,0,0,0,0,;,Zn 700 g/l;
