﻿Lote Bloque Kmz;Campaña;Nucleo;Asociacion;Productor;CC NIT;Lote No;Hectareas Verificadas;Yuca;Observaciones
22_ArturoMDurangoN_1R_10,00Ha;2022 - 2023;Edwin Uparela;22 23 Independientes EU;Arturo Manuel Durango Negrete;6.590.283;1;10;Regular;
22_ArturoMDurangoN_2R_15,00Ha;2022 - 2023;Edwin Uparela;22 23 Independientes EU;Arturo Manuel Durango Negrete;6.590.283;2;15,00;Regular;
22_ArturoMDurangoN_3R_11,00Ha;2022 - 2023;Edwin Uparela;22 23 Independientes EU;Arturo Manuel Durango Negrete;6.590.283;3;11,00;Regular;
22_ArturoMDurangoN_4R_3,30Ha;2022 - 2023;Edwin Uparela;22 23 Independientes EU;Arturo Manuel Durango Negrete;6.590.283;4;3,30;Regular;
22_ArturoMDurangoN_5R_0,70Ha;2022 - 2023;Edwin Uparela;22 23 Independientes EU;Arturo Manuel Durango Negrete;6.590.283;5;0,70;Regular;
22_HeinerJArrietaA_1M_5,00Ha;2022 - 2023;Edwin Uparela;22 23 Asoagriam;Heiner de Jesus Arrieta Alvarez;1.103.979.152;1;5,00;Metro;
22_GustavoCArrietaV_1R_7,50Ha;2022 - 2023;Edwin Uparela;22 23 Asoagroconcepcion;Gustavo Carmelo Arrieta Vergara;3.836.164;1;7,50;Regular;
22_GustavoLArrietaD_1R_4,00Ha;2022 - 2023;Edwin Uparela;22 23 Asoagroconcepcion;Gustavo Luis Arrieta DIaz;1.103.105.119;1;4,00;Regular;
22_JorgeLAguasA_1R_2,00Ha;2022 - 2023;Edwin Uparela;22 23 Asoagroconcepcion;Jorge Luis Aguas Alvarez;92.026.665;1;2,00;Regular;
22_JorgeLAguasA_2R_3,00Ha;2022 - 2023;Edwin Uparela;22 23 Asoagroconcepcion;Jorge Luis Aguas Alvarez;92.026.665;2;3,00;Regular;
22_ManuelAVergaraR_1R_5,50Ha;2022 - 2023;Edwin Uparela;22 23 Asoproccor;Manuel Antonio Vergara Rivera;8.860.166;1;5,50;Regular;
22_ManuelJMedranoV_1R_5,40Ha;2022 - 2023;Edwin Uparela;22 23 Independientes EU;Manuel Jose Medrano Villalba;73.127.007;1;5,40;Regular;
;;;;;;;;;
;;;;;;;;;
;;;;;;;;;
;;;;;;;;;
