﻿name,wid,type,quantity,inputmeasure,tax,subtotal,rgDate,invoiceDate,dueDate,invoiceNumber,inf,lbid,lbdoce
ADAPTADOR HEMBRA 1",BODEGA GENERAL LA LINDA,Ingresos,9,qty,0,7200,2020-06-03,,,,,,
ADAPTADOR HEMBRA 1/2",BODEGA GENERAL LA LINDA,Ingresos,3,qty,0,1071,2020-06-02,,,,,,
ANGULO 3/16 X 1 1/2",BODEGA GENERAL LA LINDA,Ingresos,3,qty,0,164400,2020-06-03,,,,,,
COLLARIN DE 2" A 1/2",BODEGA GENERAL LA LINDA,Ingresos,12,qty,0,60000,2020-06-03,,,,,,
CUBIERTAS DE 18",BODEGA GENERAL LA LINDA,Ingresos,30,qty,0,360000,2020-05-15,,,,,,
CUBIERTAS DE 20",BODEGA GENERAL LA LINDA,Ingresos,1,qty,0,12000,2020-05-30,,,,,,
Llave de tubo 14",BODEGA GENERAL LA LINDA,Ingresos,1,qty,0,26180,2020-05-27,,,,,,
MACHETE DE 18",BODEGA GENERAL LA LINDA,Ingresos,28,qty,0,378000,2020-05-15,,,,,,
MACHETES DE 20",BODEGA GENERAL LA LINDA,Ingresos,5,qty,0,59125,2020-05-26,,,,,,
MANGUERAS 1",BODEGA GENERAL LA LINDA,Ingresos,43,mts,0,61576,2020-06-02,,,,,,
PUNTILLAS DE 4",BODEGA GENERAL LA LINDA,Ingresos,1,qty,0,5500,2020-06-03,,,,,,
TEE PVC 1/2",BODEGA GENERAL LA LINDA,Ingresos,12,qty,0,4800,2020-06-03,,,,,,
TERMINAL MACHO PVC 1",BODEGA GENERAL LA LINDA,Ingresos,5,qty,0,12770,2020-06-02,,,,,,
UNION INTERPLAST DE 1",BODEGA GENERAL LA LINDA,Ingresos,10,qty,0,100840,2020-06-03,,,,,,
VALVULA LISA 1/2",BODEGA GENERAL LA LINDA,Ingresos,8,qty,0,16800,2020-06-03,,,,,,
*AGRODYNE SL,BODEGA GENERAL LA LINDA,Ingresos,15.6,lts,0,520160,2020-06-01,,,,,,
*ARROW 120 EC,BODEGA GENERAL LA LINDA,Ingresos,41,lts,0,1968000,2020-06-01,,,,,,
*CARBENCAL,BODEGA GENERAL LA LINDA,Ingresos,4.5,lts,0,84600,2020-06-01,,,,,,
*CLORPIRICOL®4 EC,BODEGA GENERAL LA LINDA,Ingresos,0.4,lts,0,10920,2020-06-01,,,,,,
*DACONIL® 720 SC,BODEGA GENERAL LA LINDA,Ingresos,2,lts,0,77200,2020-06-01,,,,,,
*ESTREPTOMICINA,BODEGA GENERAL LA LINDA,Ingresos,500,gr,0,90000,2020-06-01,,,,,,
*FYLLOTON,BODEGA GENERAL LA LINDA,Ingresos,8.91,lts,0,229343,2020-06-01,,,,,,
*HELOSATE 480 SL,BODEGA GENERAL LA LINDA,Ingresos,200,lts,0,1780000,2020-06-01,,,,,,
*KUMULUS DF,BODEGA GENERAL LA LINDA,Ingresos,5,kg,0,70000,2020-06-01,,,,,,
*MERTECT 500 SC,BODEGA GENERAL LA LINDA,Ingresos,0.92,lts,0,22534,2020-06-01,,,,,,
*NUTAR® 250 WG,BODEGA GENERAL LA LINDA,Ingresos,1.59,kg,0,284928,2020-06-01,,,,,,
*NUTRISORB L,BODEGA GENERAL LA LINDA,Ingresos,19.3,lts,0,579000,2020-06-01,,,,,,
*PREVALOR®SL,BODEGA GENERAL LA LINDA,Ingresos,10,lts,0,957460,2020-06-01,,,,,,
*PYRINEX 4 EC,BODEGA GENERAL LA LINDA,Ingresos,20,lts,0,408000,2020-06-01,,,,,,
*RADIGROW,BODEGA GENERAL LA LINDA,Ingresos,16.8,lts,0,1002960,2020-06-01,,,,,,
*TACHIGAREN 30 SL,BODEGA GENERAL LA LINDA,Ingresos,1,lts,0,198304,2020-06-01,,,,,,
*TORDONXT™,BODEGA GENERAL LA LINDA,Ingresos,1.7,lts,0,39610,2020-06-01,,,,,,
*VITAVAX ®300,BODEGA GENERAL LA LINDA,Ingresos,1,kg,0,65868,2020-06-01,,,,,,
*ZAFIRO 425 ME,BODEGA GENERAL LA LINDA,Ingresos,4.5,lts,0,295313,2020-06-01,,,,,,
ABRAZADERA CAMARA DE PRESION,BODEGA GENERAL LA LINDA,Ingresos,2,qty,0,3354,2020-06-02,,,,,,
ABRAZADERA TUBO BOMBA,BODEGA GENERAL LA LINDA,Ingresos,2,qty,0,1274,2020-06-02,,,,,,
ACEITE DOS TIEMPOS,BODEGA GENERAL LA LINDA,Ingresos,18,lts,0,241.92,2020-06-02,,,,,,
ACPM,BODEGA GENERAL LA LINDA,Ingresos,239,lts,0,623322,2020-06-02,,,,,,
AGRIFOS,BODEGA GENERAL LA LINDA,Ingresos,5.74,lts,0,183852,2020-06-01,,,,,,
ALICATES,BODEGA GENERAL LA LINDA,Ingresos,2,qty,0,21800,2020-05-26,,,,,,
ANTAGON,BODEGA GENERAL LA LINDA,Ingresos,2.4,kg,0,156000,2020-06-01,,,,,,
ARNES OPERARIO,BODEGA GENERAL LA LINDA,Ingresos,2,qty,0,276000,2020-06-02,,,,,,
ATP UP,BODEGA GENERAL LA LINDA,Ingresos,10,lts,0,245000,2020-06-01,,,,,,
AZADONES,BODEGA GENERAL LA LINDA,Ingresos,10,qty,0,110000,2020-05-26,,,,,,
BALDES DE SIEMBRA,BODEGA GENERAL LA LINDA,Ingresos,4,qty,0,24000,2020-05-26,,,,,,
BALINERAS 6201,BODEGA GENERAL LA LINDA,Ingresos,3,qty,0,15126,2020-06-03,,,,,,
BALINERAS 629,BODEGA GENERAL LA LINDA,Ingresos,5,qty,0,25210,2020-06-03,,,,,,
BARAKA,BODEGA GENERAL LA LINDA,Ingresos,6,lts,0,1534888,2020-06-01,,,,,,
BASCULA DIGITAL,BODEGA GENERAL LA LINDA,Ingresos,1,qty,0,189000,2020-05-26,,,,,,
BIORGANIK,BODEGA GENERAL LA LINDA,Ingresos,193,kg,0,730505,2020-06-01,,,,,,
BISTURI,BODEGA GENERAL LA LINDA,Ingresos,1,qty,0,4000,2020-05-30,,,,,,
BOLSA DE BASURA,BODEGA GENERAL LA LINDA,Ingresos,7,qty,0,11760,2020-06-02,,,,,,
BOMBA COMPLETA,BODEGA GENERAL LA LINDA,Ingresos,1,qty,0,84873,2020-06-02,,,,,,
BOMBA GASOLINA,BODEGA GENERAL LA LINDA,Ingresos,1,qty,0,680000,2020-05-27,,,,,,
Bombillo LED,BODEGA GENERAL LA LINDA,Ingresos,1,qty,0,10084,2020-05-27,,,,,,
BOQUILLAS BALA,BODEGA GENERAL LA LINDA,Ingresos,6,qty,0,132000,2020-05-30,,,,,,
BOQUILLAS MARCADORAS ABANICO,BODEGA GENERAL LA LINDA,Ingresos,3,qty,0,110418,2020-05-28,,,,,,
BORIK 10-G,BODEGA GENERAL LA LINDA,Ingresos,380,kg,0,968620,2020-06-01,,,,,,
BOTAS CON PUNTERA,BODEGA GENERAL LA LINDA,Ingresos,29,qty,0,866955,2020-06-02,,,,,,
BOTAS DE CAUCHO,BODEGA GENERAL LA LINDA,Ingresos,27,qty,0,499230,2020-06-03,,,,,,
Broca A/R 15/64,BODEGA GENERAL LA LINDA,Ingresos,1,qty,0,5500,2020-05-27,,,,,,
Broca para madera 3/8,BODEGA GENERAL LA LINDA,Ingresos,1,qty,0,11400,2020-05-27,,,,,,
BUJIAS,BODEGA GENERAL LA LINDA,Ingresos,3,qty,0,13863,2020-06-03,,,,,,
CABLE BOBINA,BODEGA GENERAL LA LINDA,Ingresos,1,mts,0,6722,2020-06-03,,,,,,
Cable encauchetado,BODEGA GENERAL LA LINDA,Ingresos,2,qty,0,10890,2020-05-27,,,,,,
Calculadora,BODEGA GENERAL LA LINDA,Ingresos,1,qty,0,16806,2020-05-27,,,,,,
CALIBRADOR PIE DE REY,BODEGA GENERAL LA LINDA,Ingresos,1,qty,0,10500,2020-05-27,,,,,,
CAMILLAS,BODEGA GENERAL LA LINDA,Ingresos,1,qty,0,120000,2020-06-02,,,,,,
CAPSIALIT,BODEGA GENERAL LA LINDA,Ingresos,1,lts,0,165000,2020-06-01,,,,,,
CARBOXY BORO,BODEGA GENERAL LA LINDA,Ingresos,10,lts,0,97160,2020-06-01,,,,,,
Careta de soldar,BODEGA GENERAL LA LINDA,Ingresos,1,qty,0,95000,2020-05-27,,,,,,
CARETA MEDIA CARA DOBLE CARTUCHO,BODEGA GENERAL LA LINDA,Ingresos,1,qty,0,34500,2020-06-02,,,,,,
CARRETAS,BODEGA GENERAL LA LINDA,Ingresos,3,qty,0,540000,2020-05-26,,,,,,
CARTUCHOS REPUESTOS CARETA MEDIA CARA,BODEGA GENERAL LA LINDA,Ingresos,1,qty,0,31300,2020-06-02,,,,,,
CEMENTO SAN MARCOS,BODEGA GENERAL LA LINDA,Ingresos,40,package,0,1190000,2020-06-01,,,,,,
Chazo + tornillo 3/8,BODEGA GENERAL LA LINDA,Ingresos,16,qty,0,104000,2020-05-21,,,,,,
CINTAS MARACADORAS DE COLOR AMARILLO,BODEGA GENERAL LA LINDA,Ingresos,3,qty,0,37500,2020-06-02,,,,,,
CINTAS MARCADORAS DE COLOR AZUL,BODEGA GENERAL LA LINDA,Ingresos,3,qty,0,37500,2020-06-02,,,,,,
Compresor completo,BODEGA GENERAL LA LINDA,Ingresos,1,qty,0,250000,2020-05-27,,,,,,
CONECTOR DE EJE FLEXIBLE,BODEGA GENERAL LA LINDA,Ingresos,5,qty,0,147055,2020-06-03,,,,,,
COOPERS ESPECIFICO,BODEGA GENERAL LA LINDA,Ingresos,1,qty,0,8000,2020-06-01,,,,,,
Copa bujia guadaña,BODEGA GENERAL LA LINDA,Ingresos,6,qty,0,35292,2020-05-27,,,,,,
CORREA CON HOMBRE SEPARADA CURVA,BODEGA GENERAL LA LINDA,Ingresos,9,qty,0,139158,2020-06-02,,,,,,
COSMO-OIL,BODEGA GENERAL LA LINDA,Ingresos,97,lts,0,1091250,2020-06-01,,,,,,
COSMOQUEL HIERRO,BODEGA GENERAL LA LINDA,Ingresos,5,kg,0,156593,2020-06-01,,,,,,
COSMOQUEL MANGANESO,BODEGA GENERAL LA LINDA,Ingresos,10,kg,0,329000,2020-06-01,,,,,,
CTA HUMUS,BODEGA GENERAL LA LINDA,Ingresos,20,lts,0,286000,2020-06-01,,,,,,
CUCHILLAS GUADAÑA,BODEGA GENERAL LA LINDA,Ingresos,11,qty,0,53009,2020-06-02,,,,,,
CUCHILLOS,BODEGA GENERAL LA LINDA,Ingresos,5,qty,0,11000,2020-05-30,,,,,,
DANISARABA,BODEGA GENERAL LA LINDA,Ingresos,4.5,lts,0,2112650,2020-06-01,,,,,,
DELANTAL PARA GUADAÑAR CAÑAMO,BODEGA GENERAL LA LINDA,Ingresos,3,qty,0,60504,2020-06-03,,,,,,
DESAIRADORES,BODEGA GENERAL LA LINDA,Ingresos,4,qty,0,60000,2020-05-27,,,,,,
DESTIERRO SL,BODEGA GENERAL LA LINDA,Ingresos,140,lts,0,3850000,2020-06-01,,,,,,
DESTORNILLADORES DE PALA,BODEGA GENERAL LA LINDA,Ingresos,2,qty,0,7000,2020-05-26,,,,,,
DISCO DE PULIR 4/12,BODEGA GENERAL LA LINDA,Ingresos,1,qty,0,4200,2020-06-03,,,,,,
EJE FLEXIBLE 89 CM,BODEGA GENERAL LA LINDA,Ingresos,3,qty,0,45378,2020-06-02,,,,,,
EJE FLEXIBLE 91 CM,BODEGA GENERAL LA LINDA,Ingresos,4,qty,0,67224,2020-06-02,,,,,,
EMPAQUE DE LANZA,BODEGA GENERAL LA LINDA,Ingresos,1,qty,0,672,2020-06-03,,,,,,
EMPROX 328 SC,BODEGA GENERAL LA LINDA,Ingresos,4,lts,0,582000,2020-06-01,,,,,,
ENGRASADORA TIPO PISTOLA,BODEGA GENERAL LA LINDA,Ingresos,1,qty,0,35000,2020-05-27,,,,,,
ESCOBA,BODEGA GENERAL LA LINDA,Ingresos,1,qty,0,5042,2020-06-03,,,,,,
Escuadra,BODEGA GENERAL LA LINDA,Ingresos,1,qty,0,60000,2020-05-27,,,,,,
ESTACIONARIA ROYAL CONDOR COMPLETA,BODEGA GENERAL LA LINDA,Ingresos,1,qty,0,950000,2020-06-02,,,,,,
EXTINTORES,BODEGA GENERAL LA LINDA,Ingresos,7,qty,0,306250,2020-05-28,,,,,,
FABULOSO,BODEGA GENERAL LA LINDA,Ingresos,1,qty,0,6800,2020-06-02,,,,,,
FERTIACTYL GZ,BODEGA GENERAL LA LINDA,Ingresos,20,lts,0,1399650,2020-06-01,,,,,,
FILTROS PARA PISTOLA,BODEGA GENERAL LA LINDA,Ingresos,6,qty,0,30252,2020-06-02,,,,,,
FITOSAN,BODEGA GENERAL LA LINDA,Ingresos,35.7,lts,0,1016165,2020-06-01,,,,,,
Flexometro,BODEGA GENERAL LA LINDA,Ingresos,2,qty,0,27000,2020-05-27,,,,,,
FLOTADORES,BODEGA GENERAL LA LINDA,Ingresos,4,qty,0,60000,2020-05-27,,,,,,
FORMULA ESPECIAL BORO,BODEGA GENERAL LA LINDA,Ingresos,75,kg,0,339600,2020-06-01,,,,,,
FULLFERT,BODEGA GENERAL LA LINDA,Ingresos,40,lts,0,698600,2020-06-01,,,,,,
Fumigadora de espalda Royal condor Clásica,BODEGA GENERAL LA LINDA,Ingresos,33,qty,0,7854000,2020-05-28,,,,,,
FUNDA GUAYA FLEXIBLE 88CM,BODEGA GENERAL LA LINDA,Ingresos,1,qty,0,109244,2020-06-03,,,,,,
FUNDA GUAYA FLEXIBLE 91CM,BODEGA GENERAL LA LINDA,Ingresos,3,qty,0,327731,2020-06-03,,,,,,
GASOLINA,BODEGA GENERAL LA LINDA,Ingresos,68.7,lts,0,175116,2020-06-02,,,,,,
GRAMERA DIGITAL,BODEGA GENERAL LA LINDA,Ingresos,3,qty,0,162000,2020-05-26,,,,,,
GRASA GUADAÑAS,BODEGA GENERAL LA LINDA,Ingresos,22,qty,0,7800,2020-06-02,,,,,,
GRATAS PULIDORA,BODEGA GENERAL LA LINDA,Ingresos,2,qty,0,13000,2020-06-03,,,,,,
GUADAÑAS,BODEGA GENERAL LA LINDA,Ingresos,12,qty,0,16800000,2020-06-02,,,,,,
GUAIPE,BODEGA GENERAL LA LINDA,Ingresos,10,qty,0,59500,2020-06-02,,,,,,
GUANTES DE CARNAZA,BODEGA GENERAL LA LINDA,Ingresos,7,qty,0,41174,2020-06-02,,,,,,
GUANTES DE NITRILO,BODEGA GENERAL LA LINDA,Ingresos,78,qty,0,624000,2020-06-02,,,,,,
GUANTES DE VAQUETA CORTO,BODEGA GENERAL LA LINDA,Ingresos,62,qty,0,364.01,2020-06-02,,,,,,
Hidrolavadora,BODEGA GENERAL LA LINDA,Ingresos,1,qty,0,600000,2020-05-27,,,,,,
IMPERIUS,BODEGA GENERAL LA LINDA,Ingresos,2,lts,0,223900,2020-06-01,,,,,,
JABÓN NEUTRO,BODEGA GENERAL LA LINDA,Ingresos,7,qty,0,117642,2020-06-02,,,,,,
KELLUS MANGANESE,BODEGA GENERAL LA LINDA,Ingresos,6.63,kg,0,147849,2020-06-01,,,,,,
KEYLATE ZN,BODEGA GENERAL LA LINDA,Ingresos,8,lts,0,247200,2020-06-01,,,,,,
KIT DE EMPAQUES,BODEGA GENERAL LA LINDA,Ingresos,4,qty,0,11764,2020-06-02,,,,,,
KIT EMBOLO,BODEGA GENERAL LA LINDA,Ingresos,9,qty,0,19890,2020-06-02,,,,,,
KIT LLAVE DE PASO,BODEGA GENERAL LA LINDA,Ingresos,60,qty,0,30252,2020-06-03,,,,,,
KSC 10-40-5 AMARILLO,BODEGA GENERAL LA LINDA,Ingresos,19.35,kg,0,348300,2020-06-01,,,,,,
KSC ADUR,BODEGA GENERAL LA LINDA,Ingresos,13.8,lts,0,407100,2020-06-01,,,,,,
KSC PHYT - actyl MIX 0-0-0-14 Mg,BODEGA GENERAL LA LINDA,Ingresos,14.24,kg,0,492704,2020-06-01,,,,,,
K-UP TIMAC AGRO,BODEGA GENERAL LA LINDA,Ingresos,69.4,kg,0,235960,2020-06-01,,,,,,
LANZAS METALICAS,BODEGA GENERAL LA LINDA,Ingresos,6,qty,0,74112,2020-06-02,,,,,,
LIMAS,BODEGA GENERAL LA LINDA,Ingresos,14,qty,0,63000,2020-05-30,,,,,,
LLAVE (DIABLO),BODEGA GENERAL LA LINDA,Ingresos,1,qty,0,11500,2020-05-30,,,,,,
LLAVES ALLEN X 8 PIEZAS,BODEGA GENERAL LA LINDA,Ingresos,1,qty,0,11500,2020-05-27,,,,,,
Marco de segueta,BODEGA GENERAL LA LINDA,Ingresos,1,qty,0,6890,2020-05-27,,,,,,
MARTILLOS,BODEGA GENERAL LA LINDA,Ingresos,1,qty,0,25900,2020-05-27,,,,,,
MASTERCOP SC,BODEGA GENERAL LA LINDA,Ingresos,2,lts,0,129800,2020-06-01,,,,,,
MF Hierrozinco Gr,BODEGA GENERAL LA LINDA,Ingresos,79.95,kg,0,330593,2020-06-01,,,,,,
MICRO ESSENTIALS,BODEGA GENERAL LA LINDA,Ingresos,150,kg,0,310500,2020-06-01,,,,,,
Mini pulidora,BODEGA GENERAL LA LINDA,Ingresos,1,qty,0,109900,2020-05-27,,,,,,
MIRAGE,BODEGA GENERAL LA LINDA,Ingresos,4.16,lts,0,465472,2020-06-01,,,,,,
MOLIBOR,BODEGA GENERAL LA LINDA,Ingresos,7,kg,0,1036700,2020-06-01,,,,,,
MOTOSIERRA STIHL,BODEGA GENERAL LA LINDA,Ingresos,1,qty,0,773000,2020-06-02,,,,,,
Mototool,BODEGA GENERAL LA LINDA,Ingresos,1,qty,0,207000,2020-05-27,,,,,,
NATIVO,BODEGA GENERAL LA LINDA,Ingresos,8,lts,0,920000,2020-06-01,,,,,,
NITRAX GRADO 22-0-0- LIQUIDO,BODEGA GENERAL LA LINDA,Ingresos,80.3,lts,0,181478,2020-06-01,,,,,,
Nivel,BODEGA GENERAL LA LINDA,Ingresos,1,qty,0,29900,2020-05-27,,,,,,
ORRING DE FUNDA FLEXIBLE,BODEGA GENERAL LA LINDA,Ingresos,6,qty,0,50418,2020-06-03,,,,,,
PALA COCA,BODEGA GENERAL LA LINDA,Ingresos,2,qty,0,154000,2020-05-26,,,,,,
PALANCA FUMIGADORA,BODEGA GENERAL LA LINDA,Ingresos,5,qty,0,62605,2020-06-02,,,,,,
PALAS,BODEGA GENERAL LA LINDA,Ingresos,6,qty,0,300000,2020-05-30,,,,,,
PALINES,BODEGA GENERAL LA LINDA,Ingresos,10,qty,0,110000,2020-05-30,,,,,,
Pica,BODEGA GENERAL LA LINDA,Ingresos,2,qty,0,73800,2020-05-27,,,,,,
PILAS,BODEGA GENERAL LA LINDA,Ingresos,3,qty,0,8400,2020-05-26,,,,,,
PIN CAPUCHON BUJIA,BODEGA GENERAL LA LINDA,Ingresos,9,qty,0,34029,2020-06-03,,,,,,
PINCELES,BODEGA GENERAL LA LINDA,Ingresos,22,qty,0,28392,2020-05-21,,,,,,
PINTURA ARBOLES  BLANCA,BODEGA GENERAL LA LINDA,Ingresos,3,qty,0,486000,2020-06-02,,,,,,
PINTURA EN ACEITE AMARILLA,BODEGA GENERAL LA LINDA,Ingresos,4,US/galon,0,188000,2020-06-02,,,,,,
PINTURA EN ACEITE AZUL ESPAÑOL,BODEGA GENERAL LA LINDA,Ingresos,1,US/galon,0,47000,2020-06-02,,,,,,
PINTURA EN ACEITE BLANCA,BODEGA GENERAL LA LINDA,Ingresos,1,US/galon,0,47000,2020-06-02,,,,,,
PINTURA EN ACEITE NEGRA,BODEGA GENERAL LA LINDA,Ingresos,3,qty,0,141000,2020-06-03,,,,,,
PINTURA EN AGUA NARANJA,BODEGA GENERAL LA LINDA,Ingresos,1,qty,0,46700,2020-06-03,,,,,,
Porra de 2 libras,BODEGA GENERAL LA LINDA,Ingresos,21,qty,0,388500,2020-05-21,,,,,,
PORTA BOQUILLAS,BODEGA GENERAL LA LINDA,Ingresos,9,qty,0,17010,2020-06-02,,,,,,
PRENSA DE TRACTOR,BODEGA GENERAL LA LINDA,Ingresos,1,qty,0,149000,2020-05-27,,,,,,
Probeta de 250cc,BODEGA GENERAL LA LINDA,Ingresos,3,qty,0,52401,2020-05-27,,,,,,
Probeta de 500cc,BODEGA GENERAL LA LINDA,Ingresos,3,qty,0,63780,2020-05-27,,,,,,
PROBETAS,BODEGA GENERAL LA LINDA,Ingresos,3,qty,0,117000,2020-05-28,,,,,,
Probetas 1000cc,BODEGA GENERAL LA LINDA,Ingresos,3,qty,0,119493,2020-05-27,,,,,,
PROTECTORES A. DIADEMA,BODEGA GENERAL LA LINDA,Ingresos,8,qty,0,80000,2020-06-02,,,,,,
PROTECTORES AUDITIVOS,BODEGA GENERAL LA LINDA,Ingresos,5,qty,0,9000,2020-06-02,,,,,,
Pulidora,BODEGA GENERAL LA LINDA,Ingresos,1,qty,0,132900,2020-05-27,,,,,,
PUNTILLAS DE 5 PULGADAS,BODEGA GENERAL LA LINDA,Ingresos,1,qty,0,6000,2020-06-02,,,,,,
RAFAGA 4 EC,BODEGA GENERAL LA LINDA,Ingresos,1,lts,0,31300,2020-06-01,,,,,,
RECOGEDOR,BODEGA GENERAL LA LINDA,Ingresos,2,qty,0,10084,2020-06-03,,,,,,
REJILLA PLASTICA 3 X 2,BODEGA GENERAL LA LINDA,Ingresos,1,qty,0,3000,2020-06-03,,,,,,
REJILLA PLASTICA 4 X 3,BODEGA GENERAL LA LINDA,Ingresos,2,qty,0,13200,2020-06-03,,,,,,
ROOT FEED SP,BODEGA GENERAL LA LINDA,Ingresos,75,kg,0,570000,2020-06-01,,,,,,
ROOTEX,BODEGA GENERAL LA LINDA,Ingresos,10,kg,0,545000,2020-06-01,,,,,,
SAM (SULFATO DE AMONIO 21-0-0-24 (S)),BODEGA GENERAL LA LINDA,Ingresos,100,kg,0,110000,2020-06-01,,,,,,
SELECTO,BODEGA GENERAL LA LINDA,Ingresos,12,lts,0,1165920,2020-06-01,,,,,,
Serrucho,BODEGA GENERAL LA LINDA,Ingresos,2,qty,0,43000,2020-05-27,,,,,,
SILLAS RIMAX,BODEGA GENERAL LA LINDA,Ingresos,48,qty,0,1435200,2020-05-15,,,,,,
SILWET,BODEGA GENERAL LA LINDA,Ingresos,3,lts,0,206562,2020-06-01,,,,,,
Soldador,BODEGA GENERAL LA LINDA,Ingresos,1,qty,0,1900000,2020-05-27,,,,,,
SOLDADURA 60-11 1/8,BODEGA GENERAL LA LINDA,Ingresos,5,qty,0,56000,2020-06-03,,,,,,
SOLDADURA PVC,BODEGA GENERAL LA LINDA,Ingresos,2,qty,0,47058,2020-06-03,,,,,,
SOLUFOS,BODEGA GENERAL LA LINDA,Ingresos,54,kg,0,243000,2020-06-01,,,,,,
SPYROMITE,BODEGA GENERAL LA LINDA,Ingresos,3,lts,0,682860,2020-06-01,,,,,,
STIMPLEX,BODEGA GENERAL LA LINDA,Ingresos,25.8,lts,0,1527301,2020-06-01,,,,,,
SULFATO DE MG,BODEGA GENERAL LA LINDA,Ingresos,50,kg,0,55000,2020-06-01,,,,,,
SULFEX HIERRO,BODEGA GENERAL LA LINDA,Ingresos,60,kg,0,135000,2020-06-01,,,,,,
SULFEX ZINC,BODEGA GENERAL LA LINDA,Ingresos,40,kg,0,188960,2020-06-01,,,,,,
SULK ZINC 22 G,BODEGA GENERAL LA LINDA,Ingresos,740,kg,0,2164500,2020-06-01,,,,,,
SYSCOMET,BODEGA GENERAL LA LINDA,Ingresos,16,lts,0,476800,2020-06-01,,,,,,
Taladro,BODEGA GENERAL LA LINDA,Ingresos,1,qty,0,299800,2020-05-27,,,,,,
TALADRO MANUAL,BODEGA GENERAL LA LINDA,Ingresos,1,qty,0,90000,2020-05-27,,,,,,
TAPABOCAS,BODEGA GENERAL LA LINDA,Ingresos,65,qty,0,227500,2020-06-02,,,,,,
TAPAGOTERAS,BODEGA GENERAL LA LINDA,Ingresos,1,qty,0,26800,2020-06-03,,,,,,
TAPON ESFERAS,BODEGA GENERAL LA LINDA,Ingresos,3,qty,0,16500,2020-06-02,,,,,,
TIJERAS PODADORAS,BODEGA GENERAL LA LINDA,Ingresos,7,qty,0,83300,2020-05-30,,,,,,
TINER,BODEGA GENERAL LA LINDA,Ingresos,27,US/galon,0,432000,2020-06-02,,,,,,
TORNILLO EMPAQUE REFUERZO RECIPIENTE CHASIS,BODEGA GENERAL LA LINDA,Ingresos,11,qty,0,31350,2020-06-03,,,,,,
TORNILLO GRASERO,BODEGA GENERAL LA LINDA,Ingresos,3,qty,0,13863,2020-06-03,,,,,,
TRAJE ANTIFLUIDO,BODEGA GENERAL LA LINDA,Ingresos,1,qty,0,46218,2020-06-02,,,,,,
TRIPA POLLO,BODEGA GENERAL LA LINDA,Ingresos,161,qty,0,611800,2020-06-02,,,,,,
TUERCA TORNILLO ARANDELA,BODEGA GENERAL LA LINDA,Ingresos,18,qty,0,31572,2020-06-02,,,,,,
UREA 46-0-0,BODEGA GENERAL LA LINDA,Ingresos,92,kg,0,124292,2020-06-01,,,,,,
VARILLA 3/8,BODEGA GENERAL LA LINDA,Ingresos,100,qty,0,1035000,2020-06-03,,,,,,
VARILLA DE ACENSO,BODEGA GENERAL LA LINDA,Ingresos,6,qty,0,54450,2020-06-02,,,,,,
VARILLA EMBOLO,BODEGA GENERAL LA LINDA,Ingresos,2,qty,0,15966,2020-06-03,,,,,,
YARABELA NITROMAG 21-0-0-7,BODEGA GENERAL LA LINDA,Ingresos,35,kg,0,57750,2020-06-01,,,,,,
YARALIVA NITRABOR PRO Zn 15-0-0-26 (CaO),BODEGA GENERAL LA LINDA,Ingresos,10350,kg,0,20430900,2020-06-01,,,,,,
YARAVITA CROP BOOST,BODEGA GENERAL LA LINDA,Ingresos,4,lts,0,120000,2020-06-01,,,,,,
YODOSAFER SL,BODEGA GENERAL LA LINDA,Ingresos,20,lts,0,708000,2020-06-01,,,,,,
