﻿cid,fids,code,firstName,lastName,typeID,numberID,email,receiveEmail,onlineAccess,contractType,hireDate,contractTerminationDate,periodicity,salary,otherSalaryIncome,otherNonSalaryIncome,job,hours,vacationDays,transportationSubsidy,paymentMethods,bank,accountType,accountNumber,birthDate,homeAddress,cellphone,employeesProtections,roles
Golden Hass;,La Titina; ,1059706671,CRISTIAN DANIEL,ANDICA BETANCUR,Cedula,1059706671,cridanbet36@gmail.com,Si,NO,Contrato fijo,07/09/2021,,Quincenal,375000,0,0,APRENDIZ SENA,240,0.0,Aplica ,Transferencia,Bancolombia,Cuenta de ahorros ,0,08/12/1993,MANZANA G CASA 06 ,3107377186,;,Practicante SENA;  Administrativo;
Golden Hass;,Alto del Oso; Aranzazu; El Limon; El Yarumo; La Fortuna; La Sierra; La Titina;,1055832292,YULIANA ANDREA,ARBELAEZ GIRALDO,Cedula,1055832292,,,NO,Contrato fijo,01/10/2020,,Quincenal,500000,0,0,OPERARIO AGRICOLA,240,10.63,Aplica ,Transferencia,Bancolombia,Cuenta de ahorros ,0,28/07/1988,CRA 2 # 2-15,3147335988,Salud: 4%; Pension: 4%;,Siembra;
Golden Hass;,La Sierra;,1055835699,FERNELLY ,ARCILA ,Cedula,1055835699,arcifern@gmail.com,Si,NO,Contrato fijo,23/08/2021,,Quincenal,535500,0,0,OPERARIO AGRICOLA,240,8.21,Aplica ,Transferencia,Bancolombia,Cuenta de ahorros ,0,15/04/1994,FINCA LA TITINA,3165589656,Salud: 4%; Pension: 4%;,Operario Agricola;
Golden Hass;,La Titina; ,75048072,JOSE ALCIDES,ARCILA MURILLO,Cedula,75048072,,,NO,Contrato fijo,16/02/2021,,Quincenal,566000,0,0,OPERARIO AGRICOLA,240,11.0,Aplica ,Transferencia,Bancolombia,Cuenta de ahorros ,0,01/07/1969,TITINA,3128724383,Salud: 4%; Pension: 4%;,Operario Agricola;
Golden Hass;,La Fortuna;,1055837078,DUVAN ,ARIAS ARIAS,Cedula,1055837078,ariasduvan149@gmail.com,Si,NO,Contrato fijo,18/06/2020,,Quincenal,500000,0,0,OPERARIO AGRICOLA ,240,15.0,Aplica ,Transferencia,Bancolombia,Cuenta de ahorros ,0,30/11/1996,CALLE 12 # 9A-15 ,3207720546,Salud: 4%; Pension: 4%;,Operario Agricola;
Golden Hass;,Alto del Oso; Aranzazu; El Limon; El Yarumo; La Fortuna; La Sierra; La Titina;,75051340,AMADO DE JESUS,ARIAS CARDONA,Cedula,75051340,,,NO,Contrato indefinido ,01/05/2015,,Quincenal,500000,0,0,OPERARIO AGRICOLA ,240,27.88,Aplica ,Transferencia,Bancolombia,Cuenta de ahorros ,0,12/12/1976,ALTO DE LA VIRGEN,3113757462,Salud: 4%; Pension: 4%;,Operario Agricola;
Golden Hass;,La Sierra;,1193046059,ALEJANDRA ,ARIAS GALLEGO,Cedula,1193046059,ariasgallegoaalejandra@gmail.com,Si,NO,Contrato fijo,26/10/2021,,Quincenal,375000,0,0,APRENDIZ SENA,240,0.0,Aplica ,Transferencia,Bancolombia,Cuenta de ahorros ,0,18/09/2003,ALTO DE LA VIRGEN,3146623050,;,Practicante SENA;  Monitor;
Golden Hass;,La Sierra;,1002642718,XIMENA ,ARIAS GALLEGO,Cedula,1002642718,victoralfonsogonzalesvo103@gmail.com,Si,NO,Contrato fijo,26/09/2021,,Quincenal,375000,0,0,APRENDIZ SENA,240,0.0,Aplica ,Transferencia,Bancolombia,Cuenta de ahorros ,0,14/10/2002,ALTO DE LA VIRGEN,3227605466,;,Practicante SENA;  Monitor;
Golden Hass;,La Sierra;,1055834699,JESSICA ,ARIAS LOPEZ,Cedula,1055834699,,,NO,Contrato fijo,08/01/2020,,Quincenal,500000,0,0,OPERARIO AGRICOLA,240,21.59,Aplica ,Transferencia,Bancolombia,Cuenta de ahorros ,0,30/03/1992,LA SIERRA,3218840538,Salud: 4%; Pension: 4%;,Operario Agricola;
Golden Hass;,El Yarumo;,24370567,ZULMA JEANETH,ARROYAVE CEBALLOS,Cedula,24370567,,,NO,Contrato indefinido ,01/08/2019,,Quincenal,500000,0,0,OPERARIO AGRICOLA,240,13.13,Aplica ,Transferencia,Bancolombia,Cuenta de ahorros ,0,08/05/1980,VEREDA LA ARENOSA,3215448849,Salud: 4%; Pension: 4%;,Operario Agricola;
Golden Hass;,Aranzazu;,1002938582,ANGEL EDUARDO,BEDOYA BLANDON,Cedula,1002938582,angeleduardobedoya722@gmail.com,Si,NO,Contrato fijo,01/10/2020,,Quincenal,500000,0,0,OPERARIO AGRICOLA ,240,10.63,Aplica ,Transferencia,Bancolombia,Cuenta de ahorros ,0,18/02/2000,VEREDA ALEGRIAS,3235075055,Salud: 4%; Pension: 4%;,Operario Agricola;
Golden Hass;,La Sierra;,15940293,LUIS HERNANDO,BURITICA LOPEZ,Cedula,15940293,,,NO,Contrato fijo,01/10/2017,,Quincenal,753000,0,0,SUPERVISOR U.P.,240,34.63,Aplica ,Transferencia,Bancolombia,Cuenta de ahorros ,0,05/03/1965,LA SIERRA,3122963665,Salud: 4%; Pension: 4%;,Supervisor de U.P;
Golden Hass;,La Sierra;,76352627,ARLEY ,CALDONO REYES,Cedula,76352627,,,NO,Contrato fijo,01/02/2021,,Quincenal,500000,0,0,OPERARIO AGRICOLA ,240,5.63,Aplica ,Transferencia,Bancolombia,Cuenta de ahorros ,0,13/01/1981,VEREDA SIERRA ,3132170580,Salud: 4%; Pension: 4%;,Operario Agricola;
Golden Hass;,La Fortuna;,71947456,ERNESTO ,CALVO GAVIRIA,Cedula,71947456,ernestocalvo.gmail.com,Si,NO,Contrato fijo,06/09/2021,,Quincenal,500000,0,0,OPERARIO AGRICOLA,240,7.67,Aplica ,Transferencia,Bancolombia,Cuenta de ahorros ,0,02/06/1978,CRA 3 # 19-18,3045708607,Salud: 4%; Pension: 4%;,Operario Agricola;
Golden Hass;,La Titina; ,1055832448,OLMES DE JESUS,CANDAMIL CANDAMIL,Cedula,1055832448,,,NO,Contrato indefinido ,17/09/2018,,Quincenal,535500,0,0,OPERARIO AGRICOLA,240,11.21,Aplica ,Transferencia,Bancolombia,Cuenta de ahorros ,0,05/04/1988,FINCA LA TITINA,3114907134,Salud: 4%; Pension: 4%;,Operario Agricola;
Golden Hass;,La Sierra;,75048180,JOSE HUBER,CARDONA CARDONA,Cedula,75048180,,,NO,Contrato indefinido ,01/05/2019,,Quincenal,629500,0,0,GUADAÑADOR,240,17.88,Aplica ,Transferencia,Bancolombia,Cuenta de ahorros ,0,13/05/1971,CRA 5 13-O1,3113580244,Salud: 4%; Pension: 4%;,Guadañador;
Golden Hass;,La Titina; ,4337660,JOSUE ,CARDONA CARDONA,Cedula,4337660,,,NO,Contrato indefinido ,12/06/2018,,Quincenal,535500,0,0,OPERARIO AGRICOLA,240,16.17,Aplica ,Transferencia,Bancolombia,Cuenta de ahorros ,0,21/11/1961,CALLE 16 A CON 6A # 7-07,3216443916,Salud: 4%; Pension: 4%;,Operario Agricola;
Golden Hass;,La Titina; ,1055833625,MONICA MARIA,CARMONA CANDAMIL,Cedula,1055833625,,,NO,Contrato fijo,06/09/2021,,Quincenal,250000,0,0,OPERARIO AGRICOLA ,120,7.67,Aplica ,Transferencia,Bancolombia,Cuenta de ahorros ,0,20/07/1990,FINCA LA TITINA,3235151525,Salud: 4%; Pension: 4%;,Operario Agricola;
Golden Hass;,El Limon;,4598750,LUIS EDUARDO,CASTAÑO TREJOS,Cedula,4598750,,,NO,Contrato fijo,02/11/2021,,Quincenal,500000,0,0,OPERARIO AGRICOLA ,240,5.34,Aplica ,Transferencia,Bancolombia,Cuenta de ahorros ,0,01/09/1966,VEREDA EL RIOARRIBA,3115686077,Salud: 4%; Pension: 4%;,Operario Agricola;
Golden Hass;,Aranzazu;,98645255,JOSE ANIBAL,CASTRO LOPEZ,Cedula,98645255,joseanibal.castro22@gmail.com ,Si,NO,Contrato fijo,18/08/2020,,Quincenal,500000,0,0,OPERARIO AGRICOLA ,240,13.42,Aplica ,Transferencia,Bancolombia,Cuenta de ahorros ,0,12/12/1969,VEREDA ALEGRIAS ,3234993502,Salud: 4%; Pension: 4%;,Operario Agricola;
Golden Hass;,El Yarumo;,1055837614,ANDRES ,CHAVERRA ARIAS,Cedula,1055837614,,,NO,Contrato indefinido ,01/11/2019,,Quincenal,566000,0,0,OPERARIO AGRICOLA,240,24.38,Aplica ,Transferencia,Bancolombia,Cuenta de ahorros ,0,29/10/1996,CRA 6 # 13-25,3207320155,Salud: 4%; Pension: 4%;,Operario Agricola;
Golden Hass;,Alto del Oso; Aranzazu; El Limon; El Yarumo; La Fortuna; La Sierra; La Titina; ,1055832635,URIEL FERNANDO,DIAZ LOAIZA,Cedula,1055832635,,,NO,Contrato indefinido ,01/02/2019,,Quincenal,500000,0,0,OPERARIO AGRICOLA,240,28.63,Aplica ,Transferencia,Bancolombia,Cuenta de ahorros ,0,24/02/1989,CRA 10 # 12-9,3106774681,Salud: 4%; Pension: 4%;,Podas;
Golden Hass;,Aranzazu;,1056304769,MARIA CRISTINA,ECHEVERRI GARCIA,Cedula,1056304769,tina.echeverrigarcia@gmail.com,Si,NO,Contrato fijo,01/12/2021,,Quincenal,660000,0,0,MONITOR ,240,4.13,Aplica ,Transferencia,Bancolombia,Cuenta de ahorros ,0,29/11/1998,FINCA EL VERGEL,3164329933,Salud: 4%; Pension: 4%;,Monitor;
Golden Hass;,Alto del Oso; Aranzazu; El Limon; El Yarumo; La Fortuna; La Sierra; La Titina;,1039705068,LEIDY PAOLA,ESCALANTE PEREZ,Cedula,1039705068,,,NO,Contrato fijo,01/10/2020,,Quincenal,500000,0,0,OPERARIO AGRICOLA,240,6.63,Aplica ,Transferencia,Bancolombia,Cuenta de ahorros ,0,14/06/1998,CALLE 9 # 4-25,3108378323,Salud: 4%; Pension: 4%;,Siembra;
Golden Hass;,Alto del Oso; Aranzazu; El Limon; El Yarumo; La Fortuna; La Sierra; La Titina;,1055837004,DUVAN ALBERTO,FLOREZ GARCIA,Cedula,1055837004,,,NO,Contrato fijo,13/01/2020,,Quincenal,586500,0,0,OPERARIO AGRICOLA,240,21.38,Aplica ,Transferencia,Bancolombia,Cuenta de ahorros ,0,01/09/1996,ETAPA  6-03,3217471811,Salud: 4%; Pension: 4%;,La movil;
Golden Hass;,Alto del Oso; Aranzazu; El Limon; El Yarumo; La Fortuna; La Sierra; La Titina;,4339478,JESUS ANTONIO,FLOREZ GARCIA,Cedula,4339478,,,NO,Contrato indefinido ,01/02/2018,,Quincenal,629500,0,0,OPERARIO AGRICOLA,240,19.63,Aplica ,Transferencia,Bancolombia,Cuenta de ahorros ,0,17/07/1985,CARRERA 4 # 2-65,3204635274,Salud: 4%; Pension: 4%;,La movil;
Golden Hass;,La Sierra;,1055835179,MARIO ALBERTO,FRANCO FRANCO,Cedula,1055835179,,,NO,Contrato fijo,19/08/2020,,Quincenal,535500,0,0,OPERARIO AGRICOLA,240,5.38,Aplica ,Transferencia,Bancolombia,Cuenta de ahorros ,0,07/04/1992,CALLE 17 CASA 6-26,3234354113,Salud: 4%; Pension: 4%;,Operario Agricola;
Golden Hass;,Alto del Oso; Aranzazu; El Limon; El Yarumo; La Fortuna; La Sierra; La Titina;,75050336,JOSE EXCEDIEL,FRANCO RAMIREZ,Cedula,75050336,,,NO,Contrato fijo,04/05/2020,,Quincenal,586500,0,0,OPERARIO AGRICOLA,240,23.75,Aplica ,Transferencia,Bancolombia,Cuenta de ahorros ,0,25/02/1979,CALLE 17 #3-94,3234712429,Salud: 4%; Pension: 4%;,La movil;
Golden Hass;,Alto del Oso;,1058820262,CARLOS ANDRES,FRANCO URREA,Cedula,1058820262,,,NO,Contrato indefinido ,13/01/2020,,Quincenal,566000,0,0,OPERARIO AGRICOLA ,240,21.38,Aplica ,Transferencia,Bancolombia,Cuenta de ahorros ,0,27/01/1995,CALLE 22 # 5a-16,3146791007,Salud: 4%; Pension: 4%;,Operario Agricola;
Golden Hass;,La Titina; ,1055831510,ANGELA YANET,GALLEGO GALLEGO,Cedula,1055831510,angelagallego1410@gmail.com,Si,NO,Contrato indefinido ,01/01/2019,,Quincenal,500000,0,0,OPERARIO AGRICOLA ,240,13.88,Aplica ,Transferencia,Bancolombia,Cuenta de ahorros ,0,12/12/1986,ALTO DE LA VIRGEN,3146723050,Salud: 4%; Pension: 4%;,Operario Agricola;
Golden Hass;,El Limon;,1002642733,ANGIE PAOLA,GARCIA HERRERA,Cedula,1002642733,,,NO,Contrato fijo,16/02/2021,,Quincenal,500000,0,0,OPERARIO AGRICOLA,240,4.0,Aplica ,Transferencia,Bancolombia,Cuenta de ahorros ,0,31/10/2002,FINCA EL LIMON,3158488753,Salud: 4%; Pension: 4%;,Operario Agricola;
Golden Hass;,La Fortuna;,1002575974,NATALIA ,GARCIA QUINCHIA,Cedula,1002575974,natagarcia1120@gmail.com,Si,NO,Contrato fijo,08/11/2021,,Quincenal,660000,0,0,MONITOR,240,5.09,Aplica ,Transferencia,Bancolombia,Cuenta de ahorros ,0,11/09/2000,CRA 5 # 11-27,3226858062,Salud: 4%; Pension: 4%;,Monitor;
Golden Hass;,El Limon;,1001470918,DAIRON ,GARCIA QUIROZ,Cedula,1001470918,wquiroz1511@gmail.com,Si,NO,Contrato fijo,09/03/2020,,Quincenal,535500,0,0,OPERARIO AGRICOLA,240,19.05,Aplica ,Transferencia,Bancolombia,Cuenta de ahorros ,0,15/11/1999,VEREDA DEL LIMON,3157110606,Salud: 4%; Pension: 4%;,Operario Agricola;
Golden Hass;,La Titina; ,1055831112,JOSE ALBERTO,GARCIA TANGARIFE,Cedula,1055831112,,,NO,Contrato indefinido ,01/07/2015,,Quincenal,630500,0,0,OPERARIO AGRICOLA ,240,12.38,Aplica ,Transferencia,Bancolombia,Cuenta de ahorros ,0,19/04/1987,CARRERA 4 N° 6-71,3234751134,Salud: 4%; Pension: 4%;,Auxiliar de bodega
Golden Hass;,La Titina; ,1055830594,DUBERNEY ,GIRALDO ARIAS,Cedula,1055830594,,,NO,Contrato indefinido ,25/06/2019,,Quincenal,500000,0,0,OPERARIO AGRICOLA ,240,11.63,Aplica ,Transferencia,Bancolombia,Cuenta de ahorros ,0,31/08/1986,FINCA LA VIOLETA,3146224758,Salud: 4%; Pension: 4%;,Operario Agricola;
Golden Hass;,Aranzazu;,75047199,JOSE HOOVER,GIRALDO ARIAS,Cedula,75047199, hovergiraldoarias@gmail.com,Si,NO,Contrato indefinido ,09/09/2018,,Quincenal,945000,0,0,SUPERVISOR U.P.,240,13.52,Aplica ,Transferencia,Bancolombia,Cuenta de ahorros ,0,12/07/1968,CALLE 16B #  6A-55,3147020465,Salud: 4%; Pension: 4%;,Supervisor de U.P;
Golden Hass;,Alto del Oso; Aranzazu; El Limon; El Yarumo; La Fortuna; La Sierra; La Titina;,1013647051,JOHN ALEXIS,GIRALDO FRANCO,Cedula,1013647051, jhontatantho@gmail.com,Si,NO,Contrato fijo,16/09/2020,,Quincenal,706000,0,0,GUADAÑADOR,240,11.25,Aplica ,Transferencia,Bancolombia,Cuenta de ahorros ,0,10/11/1993,VEREDA SAN PABLO,3137763959,Salud: 4%; Pension: 4%;,Guadañador;
Golden Hass;,Aranzazu;,79214222,EDUARD UVALDO,GIRALDO SOTO,Cedula,79214222,,,NO,Contrato fijo,01/12/2020,,Quincenal,535500,0,0,OPERARIO AGRICOLA,240,4.92,Aplica ,Transferencia,Bancolombia,Cuenta de ahorros ,0,30/03/1978,KILOMETRO 3 VIA SALAMINA,3108201884,Salud: 4%; Pension: 4%;,Operario Agricola;
Golden Hass;,Alto del Oso; Aranzazu; El Limon; El Yarumo; La Fortuna; La Sierra; La Titina;,70471016,JORGE ALIRIO,GOMEZ MONTOYA,Cedula,70471016,,,NO,Contrato indefinido ,01/05/2012,,Quincenal,706000,0,0,GUADAÑADOR,240,14.75,Aplica ,Transferencia,Bancolombia,Cuenta de ahorros ,0,23/11/1970,FINCA LA ARENOSA,3146361818,Salud: 4%; Pension: 4%;,Guadañador;
Golden Hass;,La Sierra;,1002543892,JORGE LEONEL,GOMEZ OCAMPO,Cedula,1002543892,,,NO,Contrato fijo,13/01/2020,,Quincenal,500000,0,0,OPERARIO AGRICOLA ,240,28.38,Aplica ,Transferencia,Bancolombia,Cuenta de ahorros ,0,06/12/2001,LA ARENOSA,3212772392,Salud: 4%; Pension: 4%;,Monitor;
Golden Hass;,Alto del Oso; Aranzazu; El Limon; El Yarumo; La Fortuna; La Sierra; La Titina;,75046087,JOSE ARIEL,GOMEZ ROJAS,Cedula,75046087,,,NO,Contrato fijo,02/03/2020,,Quincenal,500000,0,0,OPERARIO AGRICOLA ,240,12.34,Aplica ,Transferencia,Bancolombia,Cuenta de ahorros ,0,04/05/1964,CALLE 8 # 3-26,3146764798,Salud: 4%; Pension: 4%;,Fumiducto;
Golden Hass;,La Fortuna;,1055836950,DANIEL ESTEBAN,GONZALEZ ACEVEDO,Cedula,1055836950,degalomejordel1996@gmail.com,Si,NO,Contrato fijo,21/09/2020,,Quincenal,500000,0,0,OPERARIO AGRICOLA,240,4.05,Aplica ,Transferencia,Bancolombia,Cuenta de ahorros ,0,10/08/1996,FINCA VILLA BLANCA,3234702319,Salud: 4%; Pension: 4%;,Operario Agricola;
Golden Hass;,Alto del Oso; Aranzazu; El Limon; El Yarumo; La Fortuna; La Sierra; La Titina;,1007323372,YULY PAOLA,GONZALEZ GONZALEZ,Cedula,1007323372,mundopao18@gmail.com,Si,NO,Contrato fijo,17/11/2020,,Quincenal,500000,0,0,OPERARIO AGRICOLA ,240,20.71,Aplica ,Transferencia,Bancolombia,Cuenta de ahorros ,0,20/06/1999,ETAPA 3 CASA 13,3116877718,Salud: 4%; Pension: 4%;,Podas;
Golden Hass;,El Limon;,1055837792,VICTOR ALFONSO,GONZALEZ VALENCIA,Cedula,1055837792, victorgonzales.9820@gmail.com,Si,NO,Contrato fijo,12/07/2021,,Quincenal,816500,0,0,SUPERVISOR U.P.,240,2.92,Aplica ,Transferencia,Bancolombia,Cuenta de ahorros ,0,01/03/1998,VEREDA ALTO DEL VOLCAN,3235192268,Salud: 4%; Pension: 4%;,Supervisor de U.P;
Golden Hass;,La Titina; ,1055831252,HECTOR FABIO,HENAO GARCIA,Cedula,1055831252,,,NO,Contrato indefinido ,01/12/2015,,Quincenal,535500,0,0,OPERARIO AGRICOLA,240,15.13,Aplica ,Transferencia,Bancolombia,Cuenta de ahorros ,0,17/02/1986,VEREDA PITO,3115439289,Salud: 4%; Pension: 4%;,Operario Agricola;
Golden Hass;,Alto del Oso; Aranzazu; El Limon; El Yarumo; La Fortuna; La Sierra; La Titina;,24370928,GLORIA CELENE,HENAO OCAMPO,Cedula,24370928,lianajuliana324@gmail.com ,Si,NO,Contrato fijo,01/10/2020,,Quincenal,500000,0,0,OPERARIO AGRICOLA ,240,9.88,Aplica ,Transferencia,Bancolombia,Cuenta de ahorros ,0,15/04/1981,CRA 8 # 3-05,3107268011,Salud: 4%; Pension: 4%;,Podas;
Golden Hass;,El Yarumo;,1055834544,LINA MARIA,HENAO RIOS,Cedula,1055834544,linishenaorios@hotmail.com,Si,NO,Contrato fijo,05/04/2021,,Quincenal,660000,0,0,MONITOR ,240,9.96,Aplica ,Transferencia,Bancolombia,Cuenta de ahorros ,0,20/03/1992,CALLE 4 # 2-70,3117784767,Salud: 4%; Pension: 4%;,Monitor;
Golden Hass;,Alto del Oso; Aranzazu; El Limon; El Yarumo; La Fortuna; La Sierra; La Titina;,1055833441,JORGE ARIEL,HERNANDEZ DAVILA,Cedula,1055833441,,,NO,Contrato indefinido ,21/05/2018,,Quincenal,577000,0,0,AUXILIAR DE CONSTRUCCIÓN ,240,32.05,Aplica ,Transferencia,Bancolombia,Cuenta de ahorros ,0,24/05/1990,CRA 2 # 4-20,3234309240,Salud: 4%; Pension: 4%;,Ayudante de Construccion;
Golden Hass;,El Limon;,1055838070,SANTIAGO ,HERRERA GARCIA,Cedula,1055838070,santiherrera070@gmail.com,Si,NO,Contrato fijo,19/04/2021,,Quincenal,660000,0,0,MONITOR,240,10.13,Aplica ,Transferencia,Bancolombia,Cuenta de ahorros ,0,12/09/1998,FINCA LA ESPERZANZA,3182955420,Salud: 4%; Pension: 4%;,Monitor;
Golden Hass;,El Limon;,24372604,LUZ MARY,HERRERA GIRALDO,Cedula,24372604,,,NO,Contrato fijo,16/02/2021,,Quincenal,500000,0,0,OPERARIO AGRICOLA ,240,4.0,Aplica ,Transferencia,Bancolombia,Cuenta de ahorros ,0,28/08/1982,VEREDA RIO ARRIBA,3225340613,Salud: 4%; Pension: 4%;,Operario Agricola;
Golden Hass;,El Limon;,4339409,RUBEN DARIO,HERRERA GIRALDO,Cedula,4339409,,,NO,Contrato indefinido ,02/01/2020,,Quincenal,500000,0,0,OPERARIO AGRICOLA ,240,7.84,Aplica ,Transferencia,Bancolombia,Cuenta de ahorros ,0,16/08/1985,VEREDA EL LIMON,3182475883,Salud: 4%; Pension: 4%;,Operario Agricola;
Golden Hass;,Aranzazu;,16137861,JHON JAIRO,HIDALGO OROZCO,Cedula,16137861,,,NO,Contrato fijo,01/12/2021,,Quincenal,500000,0,0,OPERARIO AGRICOLA ,240,6.11,Aplica ,Transferencia,Bancolombia,Cuenta de ahorros ,0,07/03/1971,VEREDA ALEGRIAS,,Salud: 4%; Pension: 4%;,Operario Agricola;
Golden Hass;,La Fortuna;,1061278194,DUBERNEY ,HINCAPIE FLOREZ,Cedula,1061278194,hincapieflorezduberney@gmail.com,Si,NO,Contrato fijo,23/11/2021,,Quincenal,500000,0,0,OPERARIO AGRICOLA ,240,4.46,Aplica ,Transferencia,Bancolombia,Cuenta de ahorros ,0,03/02/2002,EL RODEO,3234737386,Salud: 4%; Pension: 4%;,Operario Agricola;
Golden Hass;,Alto del Oso; Aranzazu; El Limon; El Yarumo; La Fortuna; La Sierra; La Titina;,9977218,ROBINSON ,JARAMILLO CARDONA,Cedula,9977218,,,NO,Contrato fijo,02/03/2020,,Quincenal,500000,0,0,OPERARIO AGRICOLA ,240,25.34,Aplica ,Transferencia,Bancolombia,Cuenta de ahorros ,0,22/03/1983,CARA 4 # 13-23,3232947097,Salud: 4%; Pension: 4%;,La movil;
Golden Hass;,La Titina; ,1002642913,DUVAN ESTIBEN,JARAMILLO CARMONA,Cedula,1002642913,,,NO,Contrato fijo,19/10/2021,,Quincenal,500000,0,0,OPERARIO AGRICOLA,240,5.88,Aplica ,Transferencia,Bancolombia,Cuenta de ahorros ,0,29/03/2003,CALLE 16 # 7-07,3204331011,Salud: 4%; Pension: 4%;,Operario Agricola;
Golden Hass;,La Fortuna;,75048727,SILVIO ,JARAMILLO MARIN,Cedula,75048727,,,NO,Contrato indefinido ,07/11/2019,,Quincenal,535500,0,0,OPERARIO AGRICOLA ,240,17.13,Aplica ,Transferencia,Bancolombia,Cuenta de ahorros ,0,15/11/1972,CRA 7 # 22-27,3104271620,Salud: 4%; Pension: 4%;,Operario Agricola;
Golden Hass;,La Titina;; El Yarumo;,75051069,JOSE DUVAN,JARAMILLO TANGARIFE,Cedula,75051069,,,NO,Contrato indefinido ,15/11/2017,,Quincenal,753000,0,0,SUPERVISOR U.P.,240,17.8,Aplica ,Transferencia,Bancolombia,Cuenta de ahorros ,0,23/02/1981,FINCA EL YARUMO,3117899770,Salud: 4%; Pension: 4%;,Supervisor de U.P;
Golden Hass;,El Limon;,1055838494,DANIEL CAMILO,JIMENEZ ACEVEDO,Cedula,1055838494,,,NO,Contrato indefinido ,18/11/2019,,Quincenal,500000,0,0,OPERARIO AGRICOLA,240,8.67,Aplica ,Transferencia,Bancolombia,Cuenta de ahorros ,0,26/07/1999,EL LIMON,3124785120,Salud: 4%; Pension: 4%;,Operario Agricola;
Golden Hass;,La Sierra;,75051071,JUAN PABLO,JIMENEZ MARTINEZ,Cedula,75051071,,,NO,Contrato indefinido ,13/07/2017,,Quincenal,535500,0,0,OPERARIO AGRICOLA,240,20.88,Aplica ,Transferencia,Bancolombia,Cuenta de ahorros ,0,09/07/1981,FINCA LA SIERRA,3108251368,Salud: 4%; Pension: 4%;,Operario Agricola;
Golden Hass;,Alto del Oso; Aranzazu; El Limon; El Yarumo; La Fortuna; La Sierra; La Titina;,16055145,LUIS ASDRUBAL,LOAIZA GIRALDO,Cedula,16055145,,,NO,Contrato indefinido ,01/03/2019,,Quincenal,586500,0,0,OPERARIO AGRICOLA,240,11.38,Aplica ,Transferencia,Bancolombia,Cuenta de ahorros ,0,17/10/1981,LOS LAURELES,3226448318,Salud: 4%; Pension: 4%;,La movil;
Golden Hass;,Alto del Oso; Aranzazu; El Limon; El Yarumo; La Fortuna; La Sierra; La Titina;,70731883,JUAN CARLOS,LOPEZ ALVAREZ,Cedula,70731883,juancarloslopez0906@gmail.com,Si,NO,Contrato indefinido ,11/03/2019,,Quincenal,567500,0,0,LIDER DE SIEMBRA,240,18.96,Aplica ,Transferencia,Bancolombia,Cuenta de ahorros ,0,09/06/1984,CRA 2 # 7-09,3147922498,Salud: 4%; Pension: 4%;,Lider de Siembra;
Golden Hass;,La Sierra;,1114088841,OSCAR DANIEL,LOPEZ CARDONA,Cedula,1114088841,,,NO,Contrato indefinido ,16/07/2018,,Quincenal,535500,0,0,OPERARIO AGRICOLA,240,28.75,Aplica ,Transferencia,Bancolombia,Cuenta de ahorros ,0,27/06/1994,CRA 3# 3-24,3136470681,Salud: 4%; Pension: 4%;,Operario Agricola;
Golden Hass;,Alto del Oso; Aranzazu; El Limon; El Yarumo; La Fortuna; La Sierra; La Titina;,1055834335,MONICA VIVIANA,HERNANDEZ LOPEZ,Cedula,1055834335,ivonnedailym1408@gmail.com,Si,NO,Contrato fijo,26/10/2021,,Quincenal,375000,0,0,APRENDIZ SENA,240,0.0,Aplica ,Transferencia,Bancolombia,Cuenta de ahorros ,0,31/12/1991,CARRERA 8 N 6-28 PISO 2,3235181009,;,Practicante SENA;
Golden Hass;,La Titina;,1214737341,YOAN SEBASTIAN,LOPEZ HOYOS,Cedula,1214737341,yslopez@unal.edu.co,Si,NO,Contrato fijo,02/11/2021,,Quincenal,500000,0,0,PRACTICANTE UNIVERSITARIO ,240,0.0,Aplica ,Transferencia,Bancolombia,Cuenta de ahorros ,0,23/12/1996,CARRERA 7 # 5-28,3508947789,;,Practicante Universitario;
Golden Hass;,El Limon;,70301982,JOSE ARTURO,LOPEZ JIMENEZ,Cedula,70301982,,,NO,Contrato fijo,26/07/2021,,Quincenal,500000,0,0,OPERARIO AGRICOLA,240,5.34,Aplica ,Transferencia,Bancolombia,Cuenta de ahorros ,0,15/11/1970,FINCA EL LIMON,3217104279,Salud: 4%; Pension: 4%;,Operario Agricola;
Golden Hass;,El Limon;,1055830469,VIVIANA ,MARTINEZ CORREA,Cedula,1055830469,,,NO,Contrato fijo,16/02/2021,,Quincenal,500000,0,0,OPERARIO AGRICOLA ,240,4.0,Aplica ,Transferencia,Bancolombia,Cuenta de ahorros ,0,05/06/1986,FINCA EL LIMON,3217013956,Salud: 4%; Pension: 4%;,Operario Agricola;
Golden Hass;,Alto del Oso; - La Fortuna;,75048558,FERNEY ,MEDINA TABARES,Cedula,75048558,ferney3130718@gmail.com,Si,NO,Contrato indefinido ,01/01/2019,,Quincenal,782000,0,0,SUPERVISOR U.P.,240,4.88,Aplica ,Transferencia,Bancolombia,Cuenta de ahorros ,0,29/07/1972,CARRERA 5 # 8-14,3224249138,Salud: 4%; Pension: 4%;,Supervisor de U.P;
Golden Hass;,Aranzazu;,15388154,ANDRES EDUARDO,MEJIA HERNANDEZ,Cedula,15388154,,,NO,Contrato indefinido ,18/08/2020,,Quincenal,1500000,0,0,ASESOR TECNICO ,240,4.92,Aplica ,Transferencia,Bancolombia,Cuenta de ahorros ,0,20/06/1983,,3228357427,Salud: 4%; Pension: 4%;,Operario Agricola;
Golden Hass;,La Titina;,1055838250,ERIKA JOHANA,MORALES GALLEGO,Cedula,1055838250,erikajohamo19@gmail.com,Si,NO,Contrato fijo,16/09/2020,,Quincenal,500000,0,0,OPERARIO AGRICOLA ,240,11.25,Aplica ,Transferencia,Bancolombia,Cuenta de ahorros ,0,21/01/1999,CARRERA 8 # 5-09,3202971831,Salud: 4%; Pension: 4%;,Operario Agricola;
Golden Hass;,El Yarumo;,1055837421,LEIDY JHOANA,MORALES HURTADO,Cedula,1055837421,,,NO,Contrato fijo,20/09/2021,,Quincenal,535500,0,0,OPERARIO AGRICOLA,240,7.09,Aplica ,Transferencia,Bancolombia,Cuenta de ahorros ,0,24/04/1997,CRA 6 # 15.14,3205193894,Salud: 4%; Pension: 4%;,Operario Agricola;
Golden Hass;,La Titina;,7518905,AURELIO ,MORALES MEJIA,Cedula,7518905,,,NO,Contrato indefinido ,01/10/2017,,Quincenal,535500,0,0,OPERARIO AGRICOLA,240,14.63,Aplica ,Transferencia,Bancolombia,Cuenta de ahorros ,0,27/09/1997,CALLE 8 # 9-38,3128850921,Salud: 4%; Pension: 4%;,Operario Agricola;
Golden Hass;,La Titina;,1055834263,MARIBEL ,MORALES RIVILLAS,Cedula,1055834263,mariimorales002@gmail.com,Si,NO,Contrato fijo,26/10/2021,,Quincenal,375000,0,0,APRENDIZ SENA,240,0.0,Aplica ,Transferencia,Bancolombia,Cuenta de ahorros ,0,31/10/1991,CRA 4 # 8-28,3206634109,;,Practicante SENA ;  Monitor;
Golden Hass;,La Titina;,1060268710,HEINER ARLEY,MORENO SALAZAR,Cedula,1060268710,,,NO,Contrato indefinido ,01/09/2017,,Quincenal,566000,0,0,OPERARIO AGRICOLA,240,19.88,Aplica ,Transferencia,Bancolombia,Cuenta de ahorros ,0,23/10/1992,CRA 5 # 24-79,3218375251,Salud: 4%; Pension: 4%;,Operario Agricola;
Golden Hass;,El Limon;,1027950176,EDWIN ,MOSQUERA MARTINEZ,Cedula,1027950176,,,NO,Contrato fijo,04/06/2021,,Quincenal,566000,0,0,OPERARIO AGRICOLA,240,7.5,Aplica ,Transferencia,Bancolombia,Cuenta de ahorros ,0,17/01/1987,CALLE 13 # 7-47,3218707679,Salud: 4%; Pension: 4%;,Operario Agricola;
Golden Hass;,La Fortuna;,75050167,JHON DANY,NARANJO ARIAS,Cedula,75050167,,,NO,Contrato fijo,03/11/2020,,Quincenal,535500,0,0,OPERARIO AGRICOLA ,240,15.3,Aplica ,Transferencia,Bancolombia,Cuenta de ahorros ,0,21/06/1978,CRA 6 # 9-23,3108995826,Salud: 4%; Pension: 4%;,Operario Agricola;
Golden Hass;,La Titina;,4337500,EFREN ,NARVAEZ MURILLO,Cedula,4337500,,,NO,Contrato indefinido ,01/04/2017,,Quincenal,566000,0,0,OPERARIO AGRICOLA,240,41.13,Aplica ,Transferencia,Bancolombia,Cuenta de ahorros ,0,09/09/1961,CASA 61 CALLE 19 ETAPA 2,3146755587,Salud: 4%; Pension: 4%;,Operario Agricola;
Golden Hass;,Alto del Oso; Aranzazu; El Limon; El Yarumo; La Fortuna; La Sierra; La Titina;,75046895,REINALDO ,NARVAEZ MURILLO,Cedula,75046895,,,NO,Contrato indefinido ,01/12/2015,,Quincenal,500000,0,0,OPERARIO AGRICOLA,240,28.13,Aplica ,Transferencia,Bancolombia,Cuenta de ahorros ,0,27/02/1965,CASA # 5B - 24 ETAPA 2,3225597152,Salud: 4%; Pension: 4%;,Podas;
Golden Hass;,Alto del Oso; Aranzazu; El Limon; El Yarumo; La Fortuna; La Sierra; La Titina;,1059813669,VICTOR MANUEL,NAVARRETE BALLESTEROS,Cedula,1059813669,ballesterosv507@gmail.com,Si,NO,Contrato indefinido ,01/09/2019,,Quincenal,789500,0,0,OFICIAL DE CONSTRUCCION,240,4.88,Aplica ,Transferencia,Bancolombia,Cuenta de ahorros ,0,24/04/1994,CRA 4 # 8-28,3206111210,Salud: 4%; Pension: 4%;,Oficial de Construccion;
Golden Hass;,Alto del Oso; Aranzazu; El Limon; El Yarumo; La Fortuna; La Sierra; La Titina;,75051006,JUAN CARLOS,OCAMPO OSORIO,Cedula,75051006,,,NO,Contrato fijo,02/06/2021,,Quincenal,500000,0,0,OPERARIO AGRICOLA,240,7.59,Aplica ,Transferencia,Bancolombia,Cuenta de ahorros ,0,10/05/1980,SEGUNDA ETAPA CASA # 33,3212018682,Salud: 4%; Pension: 4%;,Siembra;
Golden Hass;,Alto del Oso; Aranzazu; El Limon; El Yarumo; La Fortuna; La Sierra; La Titina;,1055833399,JOSE EDWARD,ORDOÑEZ SALAZAR,Cedula,1055833399,,,NO,Contrato indefinido ,01/04/2014,,Quincenal,711500,0,0,MAQUINISTA,240,23.38,Aplica ,Transferencia,Bancolombia,Cuenta de ahorros ,0,07/07/1990,CALLE 7 # 8-56,3113028195,Salud: 4%; Pension: 4%;,Tractorsita;
Golden Hass;,Alto del Oso; Aranzazu; El Limon; El Yarumo; La Fortuna; La Sierra; La Titina;,1055834149,MAURICIO ANDRES,ORREGO FLOREZ,Cedula,1055834149,,,NO,Contrato fijo,05/10/2020,,Quincenal,711500,0,0,CONDUCTOR,240,10.46,Aplica ,Transferencia,Bancolombia,Cuenta de ahorros ,0,05/09/1991,CRA 6 # 13-20,3233974050,Salud: 4%; Pension: 4%;,Condutor;
Golden Hass;,La Sierra;,1055835549,MARCO AURELIO,ORREGO FRANCO,Cedula,1055835549,,,NO,Contrato fijo,01/02/2021,,Quincenal,586500,0,0,OPERARIO AGRICOLA,240,12.63,Aplica ,Transferencia,Bancolombia,Cuenta de ahorros ,0,05/02/1994,CRA 3 CASA # 6,3108181445,Salud: 4%; Pension: 4%;,Operario Agricola;
Golden Hass;,El Yarumo;,1056304301,JAIME ANDRES,ORREGO LOPEZ,Cedula,1056304301,ivonnedailyn1408@gmail.com,Si,NO,Contrato indefinido ,13/01/2020,,Quincenal,566000,0,0,OPERARIO AGRICOLA,240,21.38,Aplica ,Transferencia,Bancolombia,Cuenta de ahorros ,0,30/05/1997,CRA 8 # 6-28 PISO 2,3135056454,Salud: 4%; Pension: 4%;,Operario Agricola;
Golden Hass;,El Yarumo;,1055833273,JOSE REINALDO,ORTIZ PATIÑO,Cedula,1055833273,joseortiz21@gmail.com,Si,NO,Contrato fijo,10/05/2021,,Quincenal,535500,0,0,OPERARIO AGRICOLA,240,8.46,Aplica ,Transferencia,Bancolombia,Cuenta de ahorros ,0,30/04/1990,CRA 3 # 23-275,3136183659,Salud: 4%; Pension: 4%;,Operario Agricola;
Golden Hass;,Aranzazu;,16139813,CARLOS ANDRES,OSORIO CASTAÑEDA,Cedula,16139813,m.carlosandres.osorio@gmail.com,Si,NO,Contrato fijo,18/01/2021,,Quincenal,500000,0,0,OPERARIO AGRICOLA ,240,5.17,Aplica ,Transferencia,Bancolombia,Cuenta de ahorros ,0,24/07/1980,VEREDA ALEGRIAS,3234727406,Salud: 4%; Pension: 4%;,Operario Agricola;
Golden Hass;,La Fortuna;,75045915,RUBEN DARIO,OSORIO HERNANDEZ,Cedula,75045915,,,NO,Contrato indefinido ,17/06/2019,,Quincenal,535500,0,0,OPERARIO AGRICOLA ,240,15.96,Aplica ,Transferencia,Bancolombia,Cuenta de ahorros ,0,18/11/1964,VEREDA VIVORAL,3113095151,Salud: 4%; Pension: 4%;,Operario Agricola;
Golden Hass;,La Sierra;,75049558,LUIS EVELIO,PINEDA CEBALLOS,Cedula,75049558,,,NO,Contrato fijo,16/02/2021,,Quincenal,566000,0,0,OPERARIO AGRICOLA,240,12.0,Aplica ,Transferencia,Bancolombia,Cuenta de ahorros ,0,10/01/1976,CALLE 2 # 4-02,3103733130,Salud: 4%; Pension: 4%;,Operario Agricola;
Golden Hass;,Alto del Oso; Aranzazu; El Limon; El Yarumo; La Fortuna; La Sierra; La Titina;,98466688,JORGE WILLIAM,PINEDA PINEDA,Cedula,98466688,,,NO,Contrato indefinido ,29/04/2016,,Quincenal,706000,0,0,GUADAÑADOR,240,17.96,Aplica ,Transferencia,Bancolombia,Cuenta de ahorros ,0,06/04/1980,CARRERA 6 # 13-120,3207175713,Salud: 4%; Pension: 4%;,Guadañador;
Golden Hass;,La Fortuna;,76705005,LUIS ALEJANDRO,PINEDA PINEDA,Cedula,76705005,,,NO,Contrato fijo,07/10/2021,,Quincenal,500000,0,0,OPERARIO AGRICOLA ,240,6.38,Aplica ,Transferencia,Bancolombia,Cuenta de ahorros ,0,17/05/1984,CRA 6 # 13-120,3148483477,Salud: 4%; Pension: 4%;,Operario Agricola;
Golden Hass;,La Fortuna;,1041610415,WILMAR DE JESUS,PINEDA PINEDA,Cedula,1041610415,,,NO,Contrato indefinido ,01/01/2019,,Quincenal,566000,0,0,OPERARIO AGRICOLA ,240,28.88,Aplica ,Transferencia,Bancolombia,Cuenta de ahorros ,0,01/04/1989,CRA 6 # 13-120,3234718626,Salud: 4%; Pension: 4%;,Operario Agricola;
Golden Hass;,Alto del Oso; Aranzazu; El Limon; El Yarumo; La Fortuna; La Sierra; La Titina;,18390568,MARCO AURELIO,RAIGOSA SERNA,Cedula,18390568,,,NO,Contrato fijo,18/01/2021,,Quincenal,586500,0,0,OPERARIO AGRICOLA,240,19.17,Aplica ,Transferencia,Bancolombia,Cuenta de ahorros ,0,12/12/1966,CARRERA 6 MANZANA E CASA 22-35,3215641406,Salud: 4%; Pension: 4%;,Podas;
Golden Hass;,Alto del Oso; Aranzazu; El Limon; El Yarumo; La Fortuna; La Sierra; La Titina;,1007404408,JOHANY ,RAMIREZ GUTIERREZ,Cedula,1007404408,johany042000r@gmail.com,Si,NO,Contrato fijo,22/07/2021,,Quincenal,660000,0,0,CONDUCTOR,240,5.34,Aplica ,Transferencia,Bancolombia,Cuenta de ahorros ,0,05/04/2000,CALLE  14 # 02-01,3218187101,Salud: 4%; Pension: 4%;,Condutor;
Golden Hass;,Alto del Oso; Aranzazu; El Limon; El Yarumo; La Fortuna; La Sierra; La Titina;,75048821,FERNEY DE JESUS,RAMIREZ MARTINEZ,Cedula,75048821,,,NO,Contrato indefinido ,01/01/2019,,Quincenal,535500,0,0,OPERARIO AGRICOLA ,240,18.88,Aplica ,Transferencia,Bancolombia,Cuenta de ahorros ,0,19/05/1973,CRA 6,3117377392,Salud: 4%; Pension: 4%;,Fumiducto;
Golden Hass;,La Fortuna;,1055832902,JULIAN ANDRES,RAMIREZ MARTINEZ,Cedula,1055832902,julianramirez2902@gmail.com,Si,NO,Contrato fijo,16/11/2021,,Quincenal,535500,0,0,OPERARIO AGRICOLA ,240,4.75,Aplica ,Transferencia,Bancolombia,Cuenta de ahorros ,0,21/09/1989,VEREDA YARUMO,3128473236,Salud: 4%; Pension: 4%;,Operario Agricola;
Golden Hass;,La Titina;,75046734,CARLOS ARTURO,REINOSA MACHADO,Cedula,75046734,,,NO,Contrato indefinido ,07/03/2016,,Quincenal,566000,0,0,OPERARIO AGRICOLA,240,39.13,Aplica ,Transferencia,Bancolombia,Cuenta de ahorros ,0,06/11/1966,CALLE 5 # 7-22,3146725455,Salud: 4%; Pension: 4%;,Operario Agricola;
Golden Hass;,Alto del Oso; Aranzazu; El Limon; El Yarumo; La Fortuna; La Sierra; La Titina;,1007192542,CINDY JULIANA,RESTREPO QUINCHIA,Cedula,1007192542,julirq1654@gmail.com,Si,NO,Contrato fijo,26/07/2021,,Quincenal,500000,0,0,OPERARIO AGRICOLA ,240,5.34,Aplica ,Transferencia,Bancolombia,Cuenta de ahorros ,0,16/04/1995,CRA 3 # 17-26,3214693366,Salud: 4%; Pension: 4%;,Siembra;
Golden Hass;,Aranzazu;,15962672,JOSE HUBER,RIOS CAMPIÑO,Cedula,15962672,josehuver.rios@gmail.com ,Si,NO,Contrato fijo,01/10/2020,,Quincenal,629500,0,0,GUADAÑADOR,240,10.63,Aplica ,Transferencia,Bancolombia,Cuenta de ahorros ,0,08/04/1983,VEREDA ALEGRIAS,3234292119,Salud: 4%; Pension: 4%;,Guadañador;
Golden Hass;,Alto del Oso;,16054139,JOSE REINALDO,RIOS LOAIZA,Cedula,16054139,,,NO,Contrato fijo,17/02/2020,,Quincenal,566000,0,0,OPERARIO AGRICOLA ,240,19.96,Aplica ,Transferencia,Bancolombia,Cuenta de ahorros ,0,15/12/1974,FINCA AIRE SOL,3126418413,Salud: 4%; Pension: 4%;,Operario Agricola;
Golden Hass;,Alto del Oso; Aranzazu; El Limon; El Yarumo; La Fortuna; La Sierra; La Titina;,1039461437,LINDA LUCIA,RODAS CARDONA,Cedula,1039461437,,,NO,Contrato fijo,01/10/2020,,Quincenal,500000,0,0,OPERARIO AGRICOLA,240,15.88,Aplica ,Transferencia,Bancolombia,Cuenta de ahorros ,0,17/12/1993,CAsA 6 MANZANA 1 CASA 13,3103589041,Salud: 4%; Pension: 4%;,Siembra;
Golden Hass;,Alto del Oso; Aranzazu; El Limon; El Yarumo; La Fortuna; La Sierra; La Titina;,1093734920,NELLY MILENA,RODRIGUEZ GOMEZ,Cedula,1093734920,,,NO,Contrato fijo,20/09/2021,,Quincenal,500000,0,0,OPERARIO AGRICOLA,240,7.09,Aplica ,Transferencia,Bancolombia,Cuenta de ahorros ,0,06/09/1985,CALLE 5 N 13-05,3145538213,Salud: 4%; Pension: 4%;,Siembra;
Golden Hass;,Alto del Oso; Aranzazu; El Limon; El Yarumo; La Fortuna; La Sierra; La Titina;,1055831772,LEIDY VIVIANA,RUDA OCAMPO,Cedula,1055831772,leidy3132358041@gmail.com,Si,NO,Contrato fijo,20/09/2021,,Quincenal,500000,0,0,OPERARIO AGRICOLA,240,7.09,Aplica ,Transferencia,Bancolombia,Cuenta de ahorros ,0,28/04/1988,CRA 5 # 12-07,3132358041,Salud: 4%; Pension: 4%;,Siembra;
Golden Hass;,La Titina;,1002642488,YULIETH ALEXANDRA,SANCHEZ VALENCIA,Cedula,1002642488,yuliethalexandrasanchezvalenci@gmail.com,Si,NO,Contrato indefinido ,01/10/2020,,Quincenal,660000,0,0,MONITOR ,240,10.63,Aplica ,Transferencia,Bancolombia,Cuenta de ahorros ,0,24/03/2002,FINCA LA FALDA,3235939133,Salud: 4%; Pension: 4%;,Monitor;
Golden Hass;,El Limon;,1056303284,JOSE ALEXIS,SERNA HERRERA,Cedula,1056303284,,,NO,Contrato indefinido ,18/11/2019,,Quincenal,535500,0,0,OPERARIO AGRICOLA ,240,15.67,Aplica ,Transferencia,Bancolombia,Cuenta de ahorros ,0,25/12/1993,FINCA EL LIMON,3113221534,Salud: 4%; Pension: 4%;,Operario Agricola;
Golden Hass;,Alto del Oso; Aranzazu; El Limon; El Yarumo; La Fortuna; La Sierra; La Titina;,1007709431,EDWIN ANDRES,TABARES MURILLO,Cedula,1007709431,,,NO,Contrato indefinido ,01/05/2019,,Quincenal,500000,0,0,OPERARIO AGRICOLA,240,24.88,Aplica ,Transferencia,Bancolombia,Cuenta de ahorros ,0,14/04/2001,CRA 5 # 13-01,3107363945,Salud: 4%; Pension: 4%;,Siembra;
Golden Hass;,Alto del Oso; Aranzazu; El Limon; El Yarumo; La Fortuna; La Sierra; La Titina;,1055832937,LUZ MARY,TAPIAS RAMIREZ,Cedula,1055832937,,,NO,Contrato fijo,01/12/2021,,Quincenal,500000,0,0,OPERARIO AGRICOLA ,240,4.13,Aplica ,Transferencia,Bancolombia,Cuenta de ahorros ,0,05/07/1988,ETAPA 3 MANZANA I CASA # 23-47,3208678515,Salud: 4%; Pension: 4%;,Siembra;
Golden Hass;,Alto del Oso; Aranzazu; El Limon; El Yarumo; La Fortuna; La Sierra; La Titina;,75047488,EDGAR ,TRUJILLO LOAIZA,Cedula,75047488,,,NO,Contrato indefinido ,18/02/2019,,Quincenal,629500,0,0,LIDER DE PODAS,240,27.92,Aplica ,Transferencia,Bancolombia,Cuenta de ahorros ,0,12/03/1966,ALTO DE LA VIRGEN,3134063841,Salud: 4%; Pension: 4%;,Lider de Podas;
Golden Hass;,Alto del Oso; Aranzazu; El Limon; El Yarumo; La Fortuna; La Sierra; La Titina;,75047853,OCTAVIO ,TRUJILLO LOAIZA,Cedula,75047853,octaviotrujilloloaiza@gmail.com,Si,NO,Contrato fijo,04/10/2021,,Quincenal,500000,0,0,OPERARIO AGRICOLA,240,6.5,Aplica ,Transferencia,Bancolombia,Cuenta de ahorros ,0,29/09/1969,FINCA DIVINO NIÑO,3104926927,Salud: 4%; Pension: 4%;,Podas;
Golden Hass;,Alto del Oso; Aranzazu; El Limon; El Yarumo; La Fortuna; La Sierra; La Titina;,1055834326,ARELIS ,VALENCIA HURTADO,Cedula,1055834326,,,NO,Contrato fijo,06/09/2021,,Quincenal,500000,0,0,OPERARIO AGRICOLA,240,7.67,Aplica ,Transferencia,Bancolombia,Cuenta de ahorros ,0,18/12/1991,CRA 6 # 23-50,3137214490,Salud: 4%; Pension: 4%;,Siembra;
Golden Hass;,Alto del Oso; Aranzazu; El Limon; El Yarumo; La Fortuna; La Sierra; La Titina;,1055835694,DANIELA ,VALENCIA GALVIS,Cedula,1055835694,,,NO,Contrato fijo,01/10/2020,,Quincenal,500000,0,0,OPERARIO AGRICOLA,240,10.63,Aplica ,Transferencia,Bancolombia,Cuenta de ahorros ,0,03/05/1994,CRA 3 # 16-07 PISO 2,3144128336,Salud: 4%; Pension: 4%;,Siembra;
Golden Hass;,La Fortuna;,1007404401,DEISY YOHANA,VALENCIA JIMENEZ,Cedula,1007404401,deisyyohanavalenciajimenez171@gmail.com,Si,NO,Contrato indefinido ,16/03/2020,,Quincenal,660000,0,0,MONITOR ,240,11.75,Aplica ,Transferencia,Bancolombia,Cuenta de ahorros ,0,13/07/2000,FINCA NUDILLALES,3215751010,Salud: 4%; Pension: 4%;,Monitor;
Golden Hass;,La Fortuna;,1216720864,DIEGO ALEJANDRO,VARGAS GRANADA,Cedula,1216720864,diegoalejandrovargasgranada@gmail.com,Si,NO,Contrato fijo,23/08/2021,,Quincenal,500000,0,0,OPERARIO AGRICOLA ,240,9.09,Aplica ,Transferencia,Bancolombia,Cuenta de ahorros ,0,07/05/1996,FINCA EL MORRO,3205181733,Salud: 4%; Pension: 4%;,Operario Agricola;
Golden Hass;,Alto del Oso; Aranzazu; El Limon; El Yarumo; La Fortuna; La Sierra; La Titina;,70075192,OCARIS DE JESUS,ZAPATA MARTINEZ,Cedula,70075192,,,NO,Contrato fijo,01/04/2020,,Quincenal,945500,0,0,OFICIAL DE MAQUINARIA,240,18.13,Aplica ,Transferencia,Bancolombia,Cuenta de ahorros ,0,09/09/1957,CALLE 2 # 54-107,3217558255,Salud: 4%; Pension: 4%;,Maquinista;
Golden Hass;,Alto del Oso; Aranzazu; El Limon; El Yarumo; La Fortuna; La Sierra; La Titina;,1055833075,JHONY ANDRES,LOAIZA CEBALLOS,Cedula,1055833075,jhonyloaiza2606@gmail.com,Si,NO,Contrato fijo,11/01/2022,,Quincenal,500000,0,0,OPERARIO AGRICOLA,240,4.47,Aplica ,Transferencia,Bancolombia,Cuenta de ahorros ,0,26/06/1989,CALLE 3 # 3-41,3202741001,Salud: 4%; Pension: 4%;,Conductor;
Golden Hass;,Alto del Oso;,75050799,SAMUEL ANTONIO,LONDOÑO FRANCO,Cedula,75050799,,,NO,Contrato fijo,11/01/2022,,Quincenal,500000,0,0,OPERARIO AGRICOLA,240,4.47,Aplica ,Transferencia,Bancolombia,Cuenta de ahorros ,0,14/07/1980,CALLE 17 # 6-18,3223796321,Salud: 4%; Pension: 4%;,Operario Agricola;
Golden Hass;,El Limon;,1022123671,SERSAIN ,QUINTERO ESCOBAR,Cedula,1022123671,sersainquintero4@gmail.com,Si,NO,Contrato fijo,04/02/2022,,Quincenal,629500,0,0,GUADAÑADOR,240,3.53,Aplica ,Transferencia,Bancolombia,Cuenta de ahorros ,0,27/01/1992,VEREDA EL LIMON,3117830384,Salud: 4%; Pension: 4%;,Guadañador;
Golden Hass;,El Yarumo;,75049342,ARLEY ,CORREA ARIAS,Cedula,75049342,,,NO,Contrato fijo,07/02/2022,,Quincenal,500000,0,0,OPERARIO AGRICOLA,240,3.4,Aplica ,Transferencia,Bancolombia,Cuenta de ahorros ,0,23/11/1974,VEREDA BOQUERON,3106376420,Salud: 4%; Pension: 4%;,Operario Agricola;
Golden Hass;,La Titina;,1037326153,ESTIVEN ,CANO RENDON,Cedula,1037326153,estivenrendon1@outlook.es,Si,NO,Contrato fijo,16/02/2022,,Quincenal,500000,0,0,APRENDIZ INGENIERA AGROPECUARIA,240,0.94,Aplica ,Transferencia,Bancolombia,Cuenta de ahorros ,0,24/03/1998,CARRERA 7 N 5-28,3125240069,Salud: 4%; Pension: 4%;,Auxiliar tecnico;
Golden Hass;,El Yarumo;,4339313,JORGE IVAN,ESCOBAR VALENCIA,Cedula,4339313,,,NO,Contrato fijo,16/02/2022,,Quincenal,500000,0,0,OPERARIO AGRICOLA,240,3.03,Aplica ,Transferencia,Bancolombia,Cuenta de ahorros ,0,04/03/1985,,3126386990,Salud: 4%; Pension: 4%;,Operario Agricola;
Golden Hass;,Aranzazu;,1002670827,DAYANA ,VILLADA LOPEZ,Cedula,1002670827,dayanavillda@gmail.com,Si,NO,Contrato fijo,17/02/2022,,Quincenal,535500,0,0,OPERARIO AGRICOLA ,240,2.99,Aplica ,Transferencia,Bancolombia,Cuenta de ahorros ,0,16/03/1997,VEREDA SABANALARGA,3218795139,Salud: 4%; Pension: 4%;,Operario Agricola;
Golden Hass;,Aranzazu;,1056304098,LUZ MARY,CASTRO SALAZAR,Cedula,1056304098,,,NO,Contrato fijo,17/02/2022,,Quincenal,500000,0,0,OPERARIO AGRICOLA ,240,2.99,Aplica ,Transferencia,Bancolombia,Cuenta de ahorros ,0,12/07/1996,VEREDA BAJO ALEGRIAS,3145513233,Salud: 4%; Pension: 4%;,Operario Agricola;
Golden Hass;,Aranzazu;,16054000,NESTOR MARIO,RIOS RAMIREZ,Cedula,16054000,,,NO,Contrato fijo,17/02/2022,,Quincenal,500000,0,0,OPERARIO AGRICOLA ,240,2.99,Aplica ,Transferencia,Bancolombia,Cuenta de ahorros ,0,30/04/1974,VEREDA EL ROBLAL,3137804533,Salud: 4%; Pension: 4%;,Operario Agricola;
Golden Hass;,Aranzazu;,15959789,JHON FREDY,LÓPEZ RUIZ,Cedula,15959789,,,NO,Contrato fijo,17/02/2022,,Quincenal,500000,0,0,OPERARIO AGRICOLA ,240,2.99,Aplica ,Transferencia,Bancolombia,Cuenta de ahorros ,0,21/11/1970,VEREDA BAJO ALEGRIAS,3217056952,Salud: 4%; Pension: 4%;,Operario Agricola;
Golden Hass;,Aranzazu;,16139054,GILBERTO ,GUARIN ARBELAEZ,Cedula,16139054,,,NO,Contrato fijo,21/02/2022,,Quincenal,629500,0,0,GUADAÑADOR,240,2.83,Aplica ,Transferencia,Bancolombia,Cuenta de ahorros ,0,06/12/1980,CALLE 3,3136621258,Salud: 4%; Pension: 4%;,Guadañador;
Golden Hass;,El Limon;,1006915276,JUNIOR ,URDANETA ,Cedula,1006915276,,,NO,Contrato fijo,01/03/2022,,Quincenal,500000,0,0,OPERARIO AGRICOLA,240,2.42,Aplica ,Transferencia,Bancolombia,Cuenta de ahorros ,0,06/06/1990,FINCA EL LIMON,3148525419,Salud: 4%; Pension: 4%;,Operario Agricola;
Golden Hass;,El Limon;,84088536,ANICETO  ,SEGUNDO URIANA ,Cedula,84088536,,,NO,Contrato fijo,07/03/2022,,Quincenal,500000,0,0,OPERARIO AGRICOLA,240,2.17,Aplica ,Transferencia,Bancolombia,Cuenta de ahorros ,0,20/07/1979,FINCA EL LIMON,3148539194,Salud: 4%; Pension: 4%;,Operario Agricola;
Golden Hass;,Alto del Oso; Aranzazu; El Limon; El Yarumo; La Fortuna; La Sierra; La Titina;,1111202068,JOSE ARTURO,GOMEZ CARDENAS,Cedula,1111202068,,,NO,Contrato fijo,07/03/2022,,Quincenal,500000,0,0,OPERARIO AGRICOLA,240,2.17,Aplica ,Transferencia,Bancolombia,Cuenta de ahorros ,0,23/05/1995,FINCA LA ESMERALDA,3136081202,Salud: 4%; Pension: 4%;,La movil;
Golden Hass;,Aranzazu;,9921554,JOSE NOE,BUSTOS CARDONA,Cedula,9921554,josenoe@gmail.com,Si,NO,Contrato fijo,08/03/2022,,Quincenal,500000,0,0,OPERARIO AGRICOLA,240,2.13,Aplica ,Transferencia,Bancolombia,Cuenta de ahorros ,0,17/04/1968,VEREDA CHAMBERY,350 529 4705,Salud: 4%; Pension: 4%;,Operario Agricola;
Golden Hass;,Aranzazu;,1061625632,LUISA FERNANDA,QUINTERO HOLGUIN,Cedula,1061625632,quinteroholguin201@.com,Si,NO,Contrato fijo,08/03/2022,,Quincenal,500000,0,0,OPERARIO AGRICOLA,240,2.13,Aplica ,Transferencia,Bancolombia,Cuenta de ahorros ,0,22/02/1992,VEREDA CHAMBERY,318 529 1486,Salud: 4%; Pension: 4%;,Operario Agricola;
Golden Hass;,La Sierra;,1053006712,JUAN CARLOS,MURILLO MEZA,Cedula,1053006712,,,NO,Contrato fijo,09/03/2022,,Quincenal,629500,0,0,GUADAÑADOR,240,2.09,Aplica ,Transferencia,Bancolombia,Cuenta de ahorros ,0,13/03/1999,CASA LA SIERRA ( CASA 17),3135528295,Salud: 4%; Pension: 4%;,Guadañador;
Golden Hass;,La Sierra;,1099963486,CESAR JULIO,MARTINEZ ATENCIA,Cedula,1099963486,,,NO,Contrato fijo,09/03/2022,,Quincenal,500000,0,0,OPERARIO AGRICOLA,240,2.09,Aplica ,Transferencia,Bancolombia,Cuenta de ahorros ,0,19/02/1993,FINCA LA SIERRA (CASA 17),3127549545,Salud: 4%; Pension: 4%;,Operario Agricola;
Golden Hass;,La Sierra;,1002463291,ANALDO ,VERGARA PUENTE,Cedula,1002463291,,,NO,Contrato fijo,09/03/2021,,Quincenal,500000,0,0,OPERARIO AGRICOLA ,240,2.09,Aplica ,Transferencia,Bancolombia,Cuenta de ahorros ,0,28/09/1995,FINCA LA SIERRA ,3135528295,Salud: 4%; Pension: 4%;,Operario Agricola;
Golden Hass;,Alto del Oso;,1055830056,ANA MARIA,FRANCO OSORIO,Cedula,1055830056,anamariafrancoosorio@gmail.com,Si,NO,Contrato fijo,16/03/2022,,Quincenal,660000,0,0,MONITOR,240,1.8,Aplica ,Transferencia,Bancolombia,Cuenta de ahorros ,0,25/01/2004,CARRERA 7 N 15-33,3147941140,Salud: 4%; Pension: 4%;,Monitor;
Golden Hass;,Aranzazu;,16137971,RAMON ELIAS,ARISTIZABAL SALAZAR,Cedula,16137971,,,NO,Contrato fijo,16/03/2022,,Quincenal,500000,0,0,OPERARIO AGRICOLA,240,1.8,Aplica ,Transferencia,Bancolombia,Cuenta de ahorros ,0,11/07/1974,VEREDA ALEGRIAS ,3133555109,Salud: 4%; Pension: 4%;,Operario Agricola;
Golden Hass;,Alto del Oso; Aranzazu; El Limon; El Yarumo; La Fortuna; La Sierra; La Titina;,1152687862,ERIKA LISETH,HERNANDEZ ARBELAEZ,Cedula,1152687862,ehsa6756@gmail.com,Si,NO,Contrato fijo,01/04/2022,,Quincenal,500000,0,0,OPERARIO AGRICOLA,240,1.19,Aplica ,Transferencia,Bancolombia,Cuenta de ahorros ,0,27/01/1992,CALLE 12A # 11-20,3216909213,Salud: 4%; Pension: 4%;,Siembra;
Golden Hass;,Alto del Oso; Aranzazu; El Limon; El Yarumo; La Fortuna; La Sierra; La Titina;,24372733,SANDRA LILIANA,HERRERA GIRALDO,Cedula,24372733,sandraliliana 1082@gmail.com,Si,NO,Contrato fijo,01/04/2022,,Quincenal,500000,0,0,OPERARIO AGRICOLA,240,1.19,Aplica ,Transferencia,Bancolombia,Cuenta de ahorros ,0,06/10/1982,CARRERA 6 N 9-37,3123761105,Salud: 4%; Pension: 4%;,Siembra;
Golden Hass;,Alto del Oso; Aranzazu; El Limon; El Yarumo; La Fortuna; La Sierra; La Titina;,24372980,DIANA MARCELA,MAZO LOPEZ,Cedula,24372980,dianamazo169@gmail.com,Si,NO,Contrato fijo,06/04/2022,,Quincenal,500000,0,0,OPEERARIO AGRICOLA,240,0.98,Aplica ,Transferencia,Bancolombia,Cuenta de ahorros ,0,26/11/1983,CALLE 12 N 10B -20,3135075207,Salud: 4%; Pension: 4%;,Siembra;
Golden Hass;,Alto del Oso; Aranzazu; El Limon; El Yarumo; La Fortuna; La Sierra; La Titina;,1000888863,MARCELA JULIANA,RAMIREZ GOMEZ,Cedula,1000888863,marcela.juliana.espinal.g@gmail.com,Si,NO,Contrato fijo,06/04/2022,,Quincenal,500000,0,0,OPERARIO AGRICOLA,240,0.98,Aplica ,Transferencia,Bancolombia,Cuenta de ahorros ,0,02/08/2003,CALLE 9 N 4-25,3203205770,Salud: 4%; Pension: 4%;,Siembra;
Golden Hass;,Alto del Oso; Aranzazu; El Limon; El Yarumo; La Fortuna; La Sierra; La Titina;,1007831537,CARMENZA ,MORALES LARGO,Cedula,1007831537,carmenmoralexx@gmail.com,Si,NO,Contrato fijo,06/04/2022,,Quincenal,500000,0,0,OPERARIO AGRICOLA,240,0.98,Aplica ,Transferencia,Bancolombia,Cuenta de ahorros ,0,27/02/2000,CARRERA 3 N 18-115,3043871134,Salud: 4%; Pension: 4%;,Siembra;
Golden Hass;,La Sierra;,1002501648,ARNEYSON ,MENDEZ GALARCIO,Cedula,1002501648,,,NO,Contrato fijo,06/04/2022,,Quincenal,500000,0,0,OPERARIO AGRICOLA,240,0.98,Aplica ,Transferencia,Bancolombia,Cuenta de ahorros ,0,17/12/1999,FINCA LA SIERRA,3215648474,Salud: 4%; Pension: 4%;,Operario Agricola;
Golden Hass;,La Sierra;,1002501647,DUBER CAMILO,MENDEZ GALARCIO,Cedula,1002501647,,,NO,Contrato fijo,06/04/2022,,Quincenal,500000,0,0,OPERARIO AGRICOLA,240,0.98,Aplica ,Transferencia,Bancolombia,Cuenta de ahorros ,0,16/04/2002,FINCA LA SIERRA,3215748464,Salud: 4%; Pension: 4%;,Operario Agricola;
Golden Hass;,La Sierra;,1002439161,JUAN SEBASTIAN,SANCHEZ URBANO,Cedula,1002439161,juansanchezurbano@gmail.com,Si,NO,Contrato fijo,06/04/2022,,Quincenal,500000,0,0,OPERARIO AGRICOLA,240,0.98,Aplica ,Transferencia,Bancolombia,Cuenta de ahorros ,0,16/06/1998,FINCA LA SIERRA,3212578176,Salud: 4%; Pension: 4%;,Operario Agricola;
Golden Hass;,La Sierra;,1052974230,IVAN ANDRES,ESCOBAR QUINTERO,Cedula,1052974230,andresescobarquintero01@gmail.com,Si,NO,Contrato fijo,06/04/2022,,Quincenal,500000,0,0,OPERARIO AGRICOLA,240,0.98,Aplica ,Transferencia,Bancolombia,Cuenta de ahorros ,0,17/05/1999,FINCA LA SIERRA,3215748464,Salud: 4%; Pension: 4%;,Operario Agricola;
Golden Hass;,El Limon;,1005387879,LUIS MANUEL,TOVAR GUZMAN,Cedula,1005387879,,,NO,Contrato fijo,06/04/2022,,Quincenal,500000,0,0,OPERARIO AGRICOLA,240,0.98,Aplica ,Transferencia,Bancolombia,Cuenta de ahorros ,0,10/06/2000,FINCA EL LIMON,3126306345,Salud: 4%; Pension: 4%;,Operario Agricola;
Golden Hass;,El Limon;,9301533,MANUEL FRANCISCO,TOVAR ORTEGA,Cedula,9301533,,,NO,Contrato fijo,04/04/2022,,Quincenal,500000,0,0,OPERARIO AGRICOLA,240,1.07,Aplica ,Transferencia,Bancolombia,Cuenta de ahorros ,0,21/11/1975,FINCA EL LIMON,3114344668,Salud: 4%; Pension: 4%;,Operario Agricola;
Golden Hass;,Abejorral;,1046668110,BREINER STIVEN,CALLE SUCERQUIA,Cedula,1046668110,maryospina45@gmail.com,Si,NO,Contrato fijo,12/04/2022,,Quincenal,629500,0,0,GUADAÑADOR,240,0.74,Aplica ,Transferencia,Bancolombia,Cuenta de ahorros ,0,05/02/1991,FINCA ABEJORRAL,3166381122,Salud: 4%; Pension: 4%;,Operario Agricola;
Golden Hass;,La Titina;,1027889498,LUIS MIGUEL,SOSSA GALEANO,Cedula,1027889498,miguelsossa@udea.edu.co,Si,NO,Contrato fijo,19/04/2022,,Quincenal,500000,0,0,PRACTICANTE UNIVERSITARIO ,240,0.0,Aplica ,Transferencia,Bancolombia,Cuenta de ahorros ,0,23/06/1996,BARRIO LA MANUELA,3148836227,;,Practicante Universitario;
