﻿wid,inf,inputmeasure,subtotal,dueDate,invoiceDate,quantity,name,tax,type,rgDate
bodega huila,carga masiva transacciones necocli,qty,260000,0,0,4,3MMM 7502 RESPIRADOR SILICONA MEDIA CARA,0,Ingresos,2020-06-11
bodega huila,carga masiva transacciones necocli,qty,11600,0,0,4,ABRAZADERA INDUSTRIAL,0,Ingresos,2020-06-11
bodega huila,carga masiva transacciones necocli,qty,24408,0,0,72,ADAPTADOR MACHO PVC 1/2",0,Ingresos,2020-06-11
bodega huila,carga masiva transacciones necocli,lts,93000,0,0,6,ALCAPLANT,0,Ingresos,2020-06-11
bodega huila,carga masiva transacciones necocli,kg,145400,0,0,1,AMINA,0,Ingresos,2020-06-11
bodega huila,carga masiva transacciones necocli,lts,365000,0,0,5,BACTHON,0,Ingresos,2020-06-11
bodega huila,carga masiva transacciones necocli,qty,19500,0,0,1,BOMBA JARDINERA DE GALON TRIUNFO,0,Ingresos,2020-06-11
bodega huila,carga masiva transacciones necocli,qty,5000,0,0,1,BOQUILLAS PARA BOMBA  DE ESPALDA R 1103,0,Ingresos,2020-06-11
bodega huila,carga masiva transacciones necocli,qty,0,0,0,4,BOTA DE CAUCHO,0,Ingresos,2020-06-11
bodega huila,carga masiva transacciones necocli,qty,7500,0,0,3,BUJE PVC 2" x 1",0,Ingresos,2020-06-11
bodega huila,carga masiva transacciones necocli,qty,26000,0,0,10,BUJE PVC 2" X 1/2",0,Ingresos,2020-06-11
bodega huila,carga masiva transacciones necocli,qty,14800,0,0,1,BUJE PVC 4" x 3",0,Ingresos,2020-06-11
bodega huila,carga masiva transacciones necocli,qty,17800,0,0,2,CABUYA,0,Ingresos,2020-06-11
bodega huila,carga masiva transacciones necocli,qty,155400,0,0,6,CAMISA DE DRIL,0,Ingresos,2020-06-11
bodega huila,carga masiva transacciones necocli,qty,180000,0,0,4,CARTUCHO RESPIRADOR MEDIA CARA,0,Ingresos,2020-06-11
bodega huila,carga masiva transacciones necocli,qty,4800,0,0,12,CODO PVC 1/2",0,Ingresos,2020-06-11
bodega huila,carga masiva transacciones necocli,qty,33000,0,0,6,CODO PVC 2",0,Ingresos,2020-06-11
bodega huila,carga masiva transacciones necocli,qty,44000,0,0,8,CODO PVC 2",0,Ingresos,2020-06-11
bodega huila,carga masiva transacciones necocli,qty,40000,0,0,2,CODO PVC 3",0,Ingresos,2020-06-11
bodega huila,carga masiva transacciones necocli,qty,126000,0,0,3,CODO PVC 4",0,Ingresos,2020-06-11
bodega huila,carga masiva transacciones necocli,lts,148000,0,0,4,CROP BOOST,0,Ingresos,2020-06-11
bodega huila,carga masiva transacciones necocli,cuc,1476000,0,0,18,FERTIACTYL GZ,0,Ingresos,2020-06-11
bodega huila,carga masiva transacciones necocli,qty,170588.1,0,0,30,GAFAS LENTE OSCURO,0,Ingresos,2020-06-11
bodega huila,carga masiva transacciones necocli,lts,754461.39,0,0,14,GALIGAN,0,Ingresos,2020-06-11
bodega huila,carga masiva transacciones necocli,lts,75916.68,0,0,4,GLIFOSATO,0,Ingresos,2020-06-11
bodega huila,carga masiva transacciones necocli,package,10000,0,0,2,GRAPAS,0,Ingresos,2020-06-11
bodega huila,carga masiva transacciones necocli,kg,250000,0,0,10,GUANDUL SEMILLAS,0,Ingresos,2020-06-11
bodega huila,carga masiva transacciones necocli,qty,58824,0,0,20,GUANTE HILAZA LATEX,0,Ingresos,2020-06-11
bodega huila,carga masiva transacciones necocli,qty,77109.01,0,0,11,GUANTE NITRILO CAUCHO RESISTENCIA GRADO 5,0,Ingresos,2020-06-11
bodega huila,carga masiva transacciones necocli,qty,152033.96,0,0,26,GUANTES CORTOS EN VAQUETA,0,Ingresos,2020-06-11
bodega huila,carga masiva transacciones necocli,qty,54000,0,0,6,GUANTES LARGOS CARNAZA REFUERZO VAQUETA,0,Ingresos,2020-06-11
bodega huila,carga masiva transacciones necocli,qty,100000,0,0,10,GUANTES NITRILO REF 9905 PFM,0,Ingresos,2020-06-11
bodega huila,carga masiva transacciones necocli,qty,0,0,0,11,GUANTES NITRILO REF 9905 PFM,0,Ingresos,2020-06-11
bodega huila,carga masiva transacciones necocli,package,4482500,0,0,2500,INICIO 12-24-12,0,Ingresos,2020-06-11
bodega huila,carga masiva transacciones necocli,qty,875007,0,0,5700,JIFFY,0,Ingresos,2020-06-11
bodega huila,carga masiva transacciones necocli,lts,30700,0,0,1,LAMBADA,0,Ingresos,2020-06-11
bodega huila,carga masiva transacciones necocli,qty,18000,0,0,1,LIMPIADOR PVC,0,Ingresos,2020-06-11
bodega huila,carga masiva transacciones necocli,lts,24600,0,0,1,MALATHION,0,Ingresos,2020-06-11
bodega huila,carga masiva transacciones necocli,kg,285600,0,0,150,MAP,0,Ingresos,2020-06-11
bodega huila,carga masiva transacciones necocli,lts,1946046.7,0,0,43,MASAI,0,Ingresos,2020-06-11
bodega huila,carga masiva transacciones necocli,package,417454.56,0,0,4,MEZCLA 10-20-20,0,Ingresos,2020-06-11
bodega huila,carga masiva transacciones necocli,qty,4312000,0,0,77,MICORRIZA,0,Ingresos,2020-06-11
bodega huila,carga masiva transacciones necocli,kg,0,0,0,50,NITRATO DE CALCIO,0,Ingresos,2020-06-11
bodega huila,carga masiva transacciones necocli,kg,885000,0,0,750,NUTRITEC FOSFORO,0,Ingresos,2020-06-11
bodega huila,carga masiva transacciones necocli,kg,94000,0,0,1,ORThENE,0,Ingresos,2020-06-11
bodega huila,carga masiva transacciones necocli,qty,152280,0,0,6,PANTALON DE DRIL,0,Ingresos,2020-06-11
bodega huila,carga masiva transacciones necocli,US/galon,172166.68,0,0,4,PARAQUAC,0,Ingresos,2020-06-11
bodega huila,carga masiva transacciones necocli,qty,473731.21,0,0,1.72,PEGAL PROTEC,0,Ingresos,2020-06-11
bodega huila,carga masiva transacciones necocli,qty,23600,0,0,4,PEGANTE,0,Ingresos,2020-06-11
bodega huila,carga masiva transacciones necocli,qty,14666750,0,0,29,POLISOMBRA,0,Ingresos,2020-06-11
bodega huila,carga masiva transacciones necocli,qty,26000,0,0,2,REGISTRO 2" LISO PVC,0,Ingresos,2020-06-11
bodega huila,carga masiva transacciones necocli,qty,19000,0,0,2,REGISTRO PCP 1" ROSCADO,0,Ingresos,2020-06-11
bodega huila,carga masiva transacciones necocli,qty,42000,0,0,2,REGISTRO PCP 2",0,Ingresos,2020-06-11
bodega huila,carga masiva transacciones necocli,qty,72000,0,0,6,REGISTRO PCP 2",0,Ingresos,2020-06-11
bodega huila,carga masiva transacciones necocli,lts,2947200,0,0,16,ROOTING,0,Ingresos,2020-06-11
bodega huila,carga masiva transacciones necocli,qty,2900,0,0,1,SEGUETA,0,Ingresos,2020-06-11
bodega huila,carga masiva transacciones necocli,qty,11600,0,0,2,SEMICODO PVC 2",0,Ingresos,2020-06-11
bodega huila,carga masiva transacciones necocli,kg,306600,0,0,25,SOLUFOS 17-44-0,0,Ingresos,2020-06-11
bodega huila,carga masiva transacciones necocli,lts,2852000,0,0,23,STIMULANTE,0,Ingresos,2020-06-11
bodega huila,carga masiva transacciones necocli,qty,22400,0,0,8,TAPON PVC LISO 2",0,Ingresos,2020-06-11
bodega huila,carga masiva transacciones necocli,qty,29100,0,0,60,TEE PVC 1/2",0,Ingresos,2020-06-11
bodega huila,carga masiva transacciones necocli,qty,13000,0,0,2,TEE PVC 2",0,Ingresos,2020-06-11
bodega huila,carga masiva transacciones necocli,qty,84500,0,0,13,TEE PVC 2",0,Ingresos,2020-06-11
bodega huila,carga masiva transacciones necocli,lts,110100,0,0,1,TIMOREX GOLD,0,Ingresos,2020-06-11
bodega huila,carga masiva transacciones necocli,qty,283499.97,0,0,13,TUBO PVC 1/2" RDE 13.5,0,Ingresos,2020-06-11
bodega huila,carga masiva transacciones necocli,qty,216600,0,0,19,TUBO PVC 1/2" RDE 9,0,Ingresos,2020-06-11
bodega huila,carga masiva transacciones necocli,qty,561600,0,0,8,TUBO PVC 2" RDE 21,0,Ingresos,2020-06-11
bodega huila,carga masiva transacciones necocli,qty,7600,0,0,4,UNION POLIETILENO 1 1/2",0,Ingresos,2020-06-11
bodega huila,carga masiva transacciones necocli,qty,2700,0,0,9,UNION POLIETILENO 16MM,0,Ingresos,2020-06-11
bodega huila,carga masiva transacciones necocli,qty,3000,0,0,10,UNION PVC,0,Ingresos,2020-06-11
bodega huila,carga masiva transacciones necocli,qty,7200,0,0,4,UNION PVC 2,0,Ingresos,2020-06-11
bodega huila,carga masiva transacciones necocli,qty,27000,0,0,15,UNION PVC 2,0,Ingresos,2020-06-11
bodega huila,carga masiva transacciones necocli,qty,39600,0,0,4,UNION PVC 3,0,Ingresos,2020-06-11
bodega huila,carga masiva transacciones necocli,qty,76000,0,0,4,UNION PVC 4,0,Ingresos,2020-06-11
bodega huila,carga masiva transacciones necocli,package,628320,0,0,66,YESO AGRICOLA,0,Ingresos,2020-06-11
bodega huila,carga masiva transacciones necocli,kg,401300,0,0,1,VERDADERO,0,Ingresos,2020-06-11
