Actividad Agrimanager;Plantacion;anio;mes;cantidad presupuesto
aplicación control enfermedades;Huila;2020;1;0.00
aplicación control enfermedades;Huila;2020;2;47.10
aplicación control enfermedades;Huila;2020;3;0.00
aplicación control enfermedades;Huila;2020;4;47.10
aplicación control enfermedades;Huila;2020;5;0.00
aplicación control enfermedades;Huila;2020;6;47.10
aplicación control enfermedades;Huila;2020;7;0.00
aplicación control enfermedades;Huila;2020;8;0.00
aplicación control enfermedades;Huila;2020;9;47.10
aplicación control enfermedades;Huila;2020;10;0.00
aplicación control enfermedades;Huila;2020;11;0.00
aplicación control enfermedades;Huila;2020;12;0.00
APLICACION FOLIAR CACAO MENOR A 1 ANO-Nexarte Servicios temporales S.A-G C H;Huila;2020;1;0.00
APLICACION FOLIAR CACAO MENOR A 1 ANO-Nexarte Servicios temporales S.A-G C H;Huila;2020;2;0.00
APLICACION FOLIAR CACAO MENOR A 1 ANO-Nexarte Servicios temporales S.A-G C H;Huila;2020;3;0.00
APLICACION FOLIAR CACAO MENOR A 1 ANO-Nexarte Servicios temporales S.A-G C H;Huila;2020;4;0.00
APLICACION FOLIAR CACAO MENOR A 1 ANO-Nexarte Servicios temporales S.A-G C H;Huila;2020;5;0.00
APLICACION FOLIAR CACAO MENOR A 1 ANO-Nexarte Servicios temporales S.A-G C H;Huila;2020;6;0.00
APLICACION FOLIAR CACAO MENOR A 1 ANO-Nexarte Servicios temporales S.A-G C H;Huila;2020;7;0.00
APLICACION FOLIAR CACAO MENOR A 1 ANO-Nexarte Servicios temporales S.A-G C H;Huila;2020;8;47100.00
APLICACION FOLIAR CACAO MENOR A 1 ANO-Nexarte Servicios temporales S.A-G C H;Huila;2020;9;0.00
APLICACION FOLIAR CACAO MENOR A 1 ANO-Nexarte Servicios temporales S.A-G C H;Huila;2020;10;0.00
APLICACION FOLIAR CACAO MENOR A 1 ANO-Nexarte Servicios temporales S.A-G C H;Huila;2020;11;0.00
APLICACION FOLIAR CACAO MENOR A 1 ANO-Nexarte Servicios temporales S.A-G C H;Huila;2020;12;0.00
CENSO DE PLAGAS Y ENFERMEDADES-Nexarte Servicios temporales S.A-G C H;Huila;2020;1;48.00
CENSO DE PLAGAS Y ENFERMEDADES-Nexarte Servicios temporales S.A-G C H;Huila;2020;2;48.00
CENSO DE PLAGAS Y ENFERMEDADES-Nexarte Servicios temporales S.A-G C H;Huila;2020;3;48.00
CENSO DE PLAGAS Y ENFERMEDADES-Nexarte Servicios temporales S.A-G C H;Huila;2020;4;48.00
CENSO DE PLAGAS Y ENFERMEDADES-Nexarte Servicios temporales S.A-G C H;Huila;2020;5;48.00
CENSO DE PLAGAS Y ENFERMEDADES-Nexarte Servicios temporales S.A-G C H;Huila;2020;6;48.00
CENSO DE PLAGAS Y ENFERMEDADES-Nexarte Servicios temporales S.A-G C H;Huila;2020;7;48.00
CENSO DE PLAGAS Y ENFERMEDADES-Nexarte Servicios temporales S.A-G C H;Huila;2020;8;48.00
CENSO DE PLAGAS Y ENFERMEDADES-Nexarte Servicios temporales S.A-G C H;Huila;2020;9;48.00
CENSO DE PLAGAS Y ENFERMEDADES-Nexarte Servicios temporales S.A-G C H;Huila;2020;10;48.00
CENSO DE PLAGAS Y ENFERMEDADES-Nexarte Servicios temporales S.A-G C H;Huila;2020;11;48.00
CENSO DE PLAGAS Y ENFERMEDADES-Nexarte Servicios temporales S.A-G C H;Huila;2020;12;48.00
CONTEO-Nexarte Servicios temporales S.A-G C H;Huila;2020;1;48.00
CONTEO-Nexarte Servicios temporales S.A-G C H;Huila;2020;2;0.00
CONTEO-Nexarte Servicios temporales S.A-G C H;Huila;2020;3;0.00
CONTEO-Nexarte Servicios temporales S.A-G C H;Huila;2020;4;0.00
CONTEO-Nexarte Servicios temporales S.A-G C H;Huila;2020;5;0.00
CONTEO-Nexarte Servicios temporales S.A-G C H;Huila;2020;6;0.00
CONTEO-Nexarte Servicios temporales S.A-G C H;Huila;2020;7;0.00
CONTEO-Nexarte Servicios temporales S.A-G C H;Huila;2020;8;0.00
CONTEO-Nexarte Servicios temporales S.A-G C H;Huila;2020;9;48.00
CONTEO-Nexarte Servicios temporales S.A-G C H;Huila;2020;10;0.00
CONTEO-Nexarte Servicios temporales S.A-G C H;Huila;2020;11;0.00
CONTEO-Nexarte Servicios temporales S.A-G C H;Huila;2020;12;0.00
CONTROL DE HORMIGAS MENOR PRECIO-Agricola El Poleo-N C A;Necocli;2020;1;139.00
CONTROL DE HORMIGAS MENOR PRECIO-Agricola El Poleo-N C A;Necocli;2020;2;50.00
CONTROL DE HORMIGAS MENOR PRECIO-Agricola El Poleo-N C A;Necocli;2020;3;50.00
CONTROL DE HORMIGAS MENOR PRECIO-Agricola El Poleo-N C A;Necocli;2020;4;50.00
CONTROL DE HORMIGAS MENOR PRECIO-Agricola El Poleo-N C A;Necocli;2020;5;50.00
CONTROL DE HORMIGAS MENOR PRECIO-Agricola El Poleo-N C A;Necocli;2020;6;50.00
CONTROL DE HORMIGAS MENOR PRECIO-Agricola El Poleo-N C A;Necocli;2020;7;50.00
CONTROL DE HORMIGAS MENOR PRECIO-Agricola El Poleo-N C A;Necocli;2020;8;50.00
CONTROL DE HORMIGAS MENOR PRECIO-Agricola El Poleo-N C A;Necocli;2020;9;50.00
CONTROL DE HORMIGAS MENOR PRECIO-Agricola El Poleo-N C A;Necocli;2020;10;50.00
CONTROL DE HORMIGAS MENOR PRECIO-Agricola El Poleo-N C A;Necocli;2020;11;50.00
CONTROL DE HORMIGAS MENOR PRECIO-Agricola El Poleo-N C A;Necocli;2020;12;50.00
CONTROL DE TERMITAS  HA-Agricola El Poleo-N C A;Necocli;2020;1;390.00
CONTROL DE TERMITAS  HA-Agricola El Poleo-N C A;Necocli;2020;2;334.00
CONTROL DE TERMITAS  HA-Agricola El Poleo-N C A;Necocli;2020;3;0.00
CONTROL DE TERMITAS  HA-Agricola El Poleo-N C A;Necocli;2020;4;167.00
CONTROL DE TERMITAS  HA-Agricola El Poleo-N C A;Necocli;2020;5;0.00
CONTROL DE TERMITAS  HA-Agricola El Poleo-N C A;Necocli;2020;6;0.00
CONTROL DE TERMITAS  HA-Agricola El Poleo-N C A;Necocli;2020;7;167.00
CONTROL DE TERMITAS  HA-Agricola El Poleo-N C A;Necocli;2020;8;0.00
CONTROL DE TERMITAS  HA-Agricola El Poleo-N C A;Necocli;2020;9;0.00
CONTROL DE TERMITAS  HA-Agricola El Poleo-N C A;Necocli;2020;10;334.00
CONTROL DE TERMITAS  HA-Agricola El Poleo-N C A;Necocli;2020;11;0.00
CONTROL DE TERMITAS  HA-Agricola El Poleo-N C A;Necocli;2020;12;0.00
CONTROL FITOSANITARIO-LUKER AGRICOLA-N C A;Necocli;2020;1;557.00
CONTROL FITOSANITARIO-LUKER AGRICOLA-N C A;Necocli;2020;2;557.00
CONTROL FITOSANITARIO-LUKER AGRICOLA-N C A;Necocli;2020;3;557.00
CONTROL FITOSANITARIO-LUKER AGRICOLA-N C A;Necocli;2020;4;557.00
CONTROL FITOSANITARIO-LUKER AGRICOLA-N C A;Necocli;2020;5;557.00
CONTROL FITOSANITARIO-LUKER AGRICOLA-N C A;Necocli;2020;6;557.00
CONTROL FITOSANITARIO-LUKER AGRICOLA-N C A;Necocli;2020;7;557.00
CONTROL FITOSANITARIO-LUKER AGRICOLA-N C A;Necocli;2020;8;557.00
CONTROL FITOSANITARIO-LUKER AGRICOLA-N C A;Necocli;2020;9;557.00
CONTROL FITOSANITARIO-LUKER AGRICOLA-N C A;Necocli;2020;10;557.00
CONTROL FITOSANITARIO-LUKER AGRICOLA-N C A;Necocli;2020;11;557.00
CONTROL FITOSANITARIO-LUKER AGRICOLA-N C A;Necocli;2020;12;557.00
CONTROL HORMIGA ARRIERA LOTES CACAO-Agricola El Poleo-V C C;Villanueva;2020;1;12270.00
CONTROL HORMIGA ARRIERA LOTES CACAO-Agricola El Poleo-V C C;Villanueva;2020;2;10800.00
CONTROL HORMIGA ARRIERA LOTES CACAO-Agricola El Poleo-V C C;Villanueva;2020;3;11550.00
CONTROL HORMIGA ARRIERA LOTES CACAO-Agricola El Poleo-V C C;Villanueva;2020;4;10800.00
CONTROL HORMIGA ARRIERA LOTES CACAO-Agricola El Poleo-V C C;Villanueva;2020;5;11550.00
CONTROL HORMIGA ARRIERA LOTES CACAO-Agricola El Poleo-V C C;Villanueva;2020;6;10800.00
CONTROL HORMIGA ARRIERA LOTES CACAO-Agricola El Poleo-V C C;Villanueva;2020;7;11550.00
CONTROL HORMIGA ARRIERA LOTES CACAO-Agricola El Poleo-V C C;Villanueva;2020;8;10800.00
CONTROL HORMIGA ARRIERA LOTES CACAO-Agricola El Poleo-V C C;Villanueva;2020;9;11550.00
CONTROL HORMIGA ARRIERA LOTES CACAO-Agricola El Poleo-V C C;Villanueva;2020;10;10800.00
CONTROL HORMIGA ARRIERA LOTES CACAO-Agricola El Poleo-V C C;Villanueva;2020;11;11550.00
CONTROL HORMIGA ARRIERA LOTES CACAO-Agricola El Poleo-V C C;Villanueva;2020;12;10800.00
CONTROL HORMIGAS-Nexarte Servicios temporales S.A-G C H;Huila;2020;1;0.00
CONTROL HORMIGAS-Nexarte Servicios temporales S.A-G C H;Huila;2020;2;0.00
CONTROL HORMIGAS-Nexarte Servicios temporales S.A-G C H;Huila;2020;3;10.00
CONTROL HORMIGAS-Nexarte Servicios temporales S.A-G C H;Huila;2020;4;0.00
CONTROL HORMIGAS-Nexarte Servicios temporales S.A-G C H;Huila;2020;5;0.00
CONTROL HORMIGAS-Nexarte Servicios temporales S.A-G C H;Huila;2020;6;0.00
CONTROL HORMIGAS-Nexarte Servicios temporales S.A-G C H;Huila;2020;7;10.00
CONTROL HORMIGAS-Nexarte Servicios temporales S.A-G C H;Huila;2020;8;0.00
CONTROL HORMIGAS-Nexarte Servicios temporales S.A-G C H;Huila;2020;9;5.00
CONTROL HORMIGAS-Nexarte Servicios temporales S.A-G C H;Huila;2020;10;0.00
CONTROL HORMIGAS-Nexarte Servicios temporales S.A-G C H;Huila;2020;11;0.00
CONTROL HORMIGAS-Nexarte Servicios temporales S.A-G C H;Huila;2020;12;5.00
CONTROL MALEZAS GUADANA-Agricola El Poleo-N C A;Necocli;2020;1;0.00
CONTROL MALEZAS GUADANA-Agricola El Poleo-N C A;Necocli;2020;2;0.00
CONTROL MALEZAS GUADANA-Agricola El Poleo-N C A;Necocli;2020;3;0.00
CONTROL MALEZAS GUADANA-Agricola El Poleo-N C A;Necocli;2020;4;28.00
CONTROL MALEZAS GUADANA-Agricola El Poleo-N C A;Necocli;2020;5;0.00
CONTROL MALEZAS GUADANA-Agricola El Poleo-N C A;Necocli;2020;6;0.00
CONTROL MALEZAS GUADANA-Agricola El Poleo-N C A;Necocli;2020;7;0.00
CONTROL MALEZAS GUADANA-Agricola El Poleo-N C A;Necocli;2020;8;0.00
CONTROL MALEZAS GUADANA-Agricola El Poleo-N C A;Necocli;2020;9;28.00
CONTROL MALEZAS GUADANA-Agricola El Poleo-N C A;Necocli;2020;10;0.00
CONTROL MALEZAS GUADANA-Agricola El Poleo-N C A;Necocli;2020;11;0.00
CONTROL MALEZAS GUADANA-Agricola El Poleo-N C A;Necocli;2020;12;0.00
CONTROL MALEZAS QUIMICO-Agricola El Poleo-N C A;Necocli;2020;1;475.00
CONTROL MALEZAS QUIMICO-Agricola El Poleo-N C A;Necocli;2020;2;126.00
CONTROL MALEZAS QUIMICO-Agricola El Poleo-N C A;Necocli;2020;3;186.00
CONTROL MALEZAS QUIMICO-Agricola El Poleo-N C A;Necocli;2020;4;186.00
CONTROL MALEZAS QUIMICO-Agricola El Poleo-N C A;Necocli;2020;5;0.00
CONTROL MALEZAS QUIMICO-Agricola El Poleo-N C A;Necocli;2020;6;237.00
CONTROL MALEZAS QUIMICO-Agricola El Poleo-N C A;Necocli;2020;7;237.00
CONTROL MALEZAS QUIMICO-Agricola El Poleo-N C A;Necocli;2020;8;0.00
CONTROL MALEZAS QUIMICO-Agricola El Poleo-N C A;Necocli;2020;9;475.00
CONTROL MALEZAS QUIMICO-Agricola El Poleo-N C A;Necocli;2020;10;0.00
CONTROL MALEZAS QUIMICO-Agricola El Poleo-N C A;Necocli;2020;11;449.00
CONTROL MALEZAS QUIMICO-Agricola El Poleo-N C A;Necocli;2020;12;0.00
CONTROL QUIMICO ARVENSES CACAO-Agricola El Poleo-V C C;Villanueva;2020;1;243.39
CONTROL QUIMICO ARVENSES CACAO-Agricola El Poleo-V C C;Villanueva;2020;2;360.00
CONTROL QUIMICO ARVENSES CACAO-Agricola El Poleo-V C C;Villanueva;2020;3;243.39
CONTROL QUIMICO ARVENSES CACAO-Agricola El Poleo-V C C;Villanueva;2020;4;360.00
CONTROL QUIMICO ARVENSES CACAO-Agricola El Poleo-V C C;Villanueva;2020;5;243.39
CONTROL QUIMICO ARVENSES CACAO-Agricola El Poleo-V C C;Villanueva;2020;6;360.00
CONTROL QUIMICO ARVENSES CACAO-Agricola El Poleo-V C C;Villanueva;2020;7;243.39
CONTROL QUIMICO ARVENSES CACAO-Agricola El Poleo-V C C;Villanueva;2020;8;360.00
CONTROL QUIMICO ARVENSES CACAO-Agricola El Poleo-V C C;Villanueva;2020;9;243.39
CONTROL QUIMICO ARVENSES CACAO-Agricola El Poleo-V C C;Villanueva;2020;10;360.00
CONTROL QUIMICO ARVENSES CACAO-Agricola El Poleo-V C C;Villanueva;2020;11;243.39
CONTROL QUIMICO ARVENSES CACAO-Agricola El Poleo-V C C;Villanueva;2020;12;265.00
CORTE Y RECOLECCION DE CACAO AREA - Nexarte Servicios temporales S.A - N C A;Necocli;2020;1;0.00
CORTE Y RECOLECCION DE CACAO AREA - Nexarte Servicios temporales S.A - N C A;Necocli;2020;2;0.00
CORTE Y RECOLECCION DE CACAO AREA - Nexarte Servicios temporales S.A - N C A;Necocli;2020;3;80.00
CORTE Y RECOLECCION DE CACAO AREA - Nexarte Servicios temporales S.A - N C A;Necocli;2020;4;150.00
CORTE Y RECOLECCION DE CACAO AREA - Nexarte Servicios temporales S.A - N C A;Necocli;2020;5;300.00
CORTE Y RECOLECCION DE CACAO AREA - Nexarte Servicios temporales S.A - N C A;Necocli;2020;6;550.00
CORTE Y RECOLECCION DE CACAO AREA - Nexarte Servicios temporales S.A - N C A;Necocli;2020;7;550.00
CORTE Y RECOLECCION DE CACAO AREA - Nexarte Servicios temporales S.A - N C A;Necocli;2020;8;550.00
CORTE Y RECOLECCION DE CACAO AREA - Nexarte Servicios temporales S.A - N C A;Necocli;2020;9;550.00
CORTE Y RECOLECCION DE CACAO AREA - Nexarte Servicios temporales S.A - N C A;Necocli;2020;10;0.00
CORTE Y RECOLECCION DE CACAO AREA - Nexarte Servicios temporales S.A - N C A;Necocli;2020;11;0.00
CORTE Y RECOLECCION DE CACAO AREA - Nexarte Servicios temporales S.A - N C A;Necocli;2020;12;0.00
CORTE Y RECOLECCION DE CACAO KILO - Nexarte Servicios temporales S.A - N C A;Necocli;2020;1;59026.00
CORTE Y RECOLECCION DE CACAO KILO - Nexarte Servicios temporales S.A - N C A;Necocli;2020;2;51648.00
CORTE Y RECOLECCION DE CACAO KILO - Nexarte Servicios temporales S.A - N C A;Necocli;2020;3;44270.00
CORTE Y RECOLECCION DE CACAO KILO - Nexarte Servicios temporales S.A - N C A;Necocli;2020;4;36891.00
CORTE Y RECOLECCION DE CACAO KILO - Nexarte Servicios temporales S.A - N C A;Necocli;2020;5;29513.00
CORTE Y RECOLECCION DE CACAO KILO - Nexarte Servicios temporales S.A - N C A;Necocli;2020;6;14757.00
CORTE Y RECOLECCION DE CACAO KILO - Nexarte Servicios temporales S.A - N C A;Necocli;2020;7;14757.00
CORTE Y RECOLECCION DE CACAO KILO - Nexarte Servicios temporales S.A - N C A;Necocli;2020;8;14757.00
CORTE Y RECOLECCION DE CACAO KILO - Nexarte Servicios temporales S.A - N C A;Necocli;2020;9;14757.00
CORTE Y RECOLECCION DE CACAO KILO - Nexarte Servicios temporales S.A - N C A;Necocli;2020;10;147565.00
CORTE Y RECOLECCION DE CACAO KILO - Nexarte Servicios temporales S.A - N C A;Necocli;2020;11;221348.00
CORTE Y RECOLECCION DE CACAO KILO - Nexarte Servicios temporales S.A - N C A;Necocli;2020;12;88539.00
DESCHUPONE DE CACAO POR HA-Agricola El Poleo-N C A;Necocli;2020;1;0.00
DESCHUPONE DE CACAO POR HA-Agricola El Poleo-N C A;Necocli;2020;2;0.00
DESCHUPONE DE CACAO POR HA-Agricola El Poleo-N C A;Necocli;2020;3;0.00
DESCHUPONE DE CACAO POR HA-Agricola El Poleo-N C A;Necocli;2020;4;278.00
DESCHUPONE DE CACAO POR HA-Agricola El Poleo-N C A;Necocli;2020;5;278.00
DESCHUPONE DE CACAO POR HA-Agricola El Poleo-N C A;Necocli;2020;6;0.00
DESCHUPONE DE CACAO POR HA-Agricola El Poleo-N C A;Necocli;2020;7;278.00
DESCHUPONE DE CACAO POR HA-Agricola El Poleo-N C A;Necocli;2020;8;278.00
DESCHUPONE DE CACAO POR HA-Agricola El Poleo-N C A;Necocli;2020;9;0.00
DESCHUPONE DE CACAO POR HA-Agricola El Poleo-N C A;Necocli;2020;10;557.00
DESCHUPONE DE CACAO POR HA-Agricola El Poleo-N C A;Necocli;2020;11;0.00
DESCHUPONE DE CACAO POR HA-Agricola El Poleo-N C A;Necocli;2020;12;0.00
DESCHUPONE-Agricola El Poleo-V C C;Villanueva;2020;1;0.00
DESCHUPONE-Agricola El Poleo-V C C;Villanueva;2020;2;0.00
DESCHUPONE-Agricola El Poleo-V C C;Villanueva;2020;3;168.56
DESCHUPONE-Agricola El Poleo-V C C;Villanueva;2020;4;283.47
DESCHUPONE-Agricola El Poleo-V C C;Villanueva;2020;5;110.22
DESCHUPONE-Agricola El Poleo-V C C;Villanueva;2020;6;0.00
DESCHUPONE-Agricola El Poleo-V C C;Villanueva;2020;7;168.56
DESCHUPONE-Agricola El Poleo-V C C;Villanueva;2020;8;212.73
DESCHUPONE-Agricola El Poleo-V C C;Villanueva;2020;9;88.18
DESCHUPONE-Agricola El Poleo-V C C;Villanueva;2020;10;225.16
DESCHUPONE-Agricola El Poleo-V C C;Villanueva;2020;11;212.73
DESCHUPONE-Agricola El Poleo-V C C;Villanueva;2020;12;0.00
EVALUACIONES FITOSANITARIAS -LUKER AGRICOLA-N C A;Necocli;2020;1;557.00
EVALUACIONES FITOSANITARIAS -LUKER AGRICOLA-N C A;Necocli;2020;2;557.00
EVALUACIONES FITOSANITARIAS -LUKER AGRICOLA-N C A;Necocli;2020;3;557.00
EVALUACIONES FITOSANITARIAS -LUKER AGRICOLA-N C A;Necocli;2020;4;557.00
EVALUACIONES FITOSANITARIAS -LUKER AGRICOLA-N C A;Necocli;2020;5;557.00
EVALUACIONES FITOSANITARIAS -LUKER AGRICOLA-N C A;Necocli;2020;6;557.00
EVALUACIONES FITOSANITARIAS -LUKER AGRICOLA-N C A;Necocli;2020;7;557.00
EVALUACIONES FITOSANITARIAS -LUKER AGRICOLA-N C A;Necocli;2020;8;557.00
EVALUACIONES FITOSANITARIAS -LUKER AGRICOLA-N C A;Necocli;2020;9;557.00
EVALUACIONES FITOSANITARIAS -LUKER AGRICOLA-N C A;Necocli;2020;10;557.00
EVALUACIONES FITOSANITARIAS -LUKER AGRICOLA-N C A;Necocli;2020;11;557.00
EVALUACIONES FITOSANITARIAS -LUKER AGRICOLA-N C A;Necocli;2020;12;557.00
FERTILIZACION DRENCH CACAO-Nexarte Servicios temporales S.A-G H C;Huila;2020;1;0.00
FERTILIZACION DRENCH CACAO-Nexarte Servicios temporales S.A-G H C;Huila;2020;2;0.00
FERTILIZACION DRENCH CACAO-Nexarte Servicios temporales S.A-G H C;Huila;2020;3;47100.00
FERTILIZACION DRENCH CACAO-Nexarte Servicios temporales S.A-G H C;Huila;2020;4;0.00
FERTILIZACION DRENCH CACAO-Nexarte Servicios temporales S.A-G H C;Huila;2020;5;0.00
FERTILIZACION DRENCH CACAO-Nexarte Servicios temporales S.A-G H C;Huila;2020;6;47100.00
FERTILIZACION DRENCH CACAO-Nexarte Servicios temporales S.A-G H C;Huila;2020;7;0.00
FERTILIZACION DRENCH CACAO-Nexarte Servicios temporales S.A-G H C;Huila;2020;8;0.00
FERTILIZACION DRENCH CACAO-Nexarte Servicios temporales S.A-G H C;Huila;2020;9;0.00
FERTILIZACION DRENCH CACAO-Nexarte Servicios temporales S.A-G H C;Huila;2020;10;0.00
FERTILIZACION DRENCH CACAO-Nexarte Servicios temporales S.A-G H C;Huila;2020;11;47100.00
FERTILIZACION DRENCH CACAO-Nexarte Servicios temporales S.A-G H C;Huila;2020;12;0.00
FERTILIZACION DRENCH O FOLIAR;Villanueva;2020;1;669208.00
FERTILIZACION DRENCH O FOLIAR;Villanueva;2020;2;711633.00
FERTILIZACION DRENCH O FOLIAR;Villanueva;2020;3;711633.00
FERTILIZACION DRENCH O FOLIAR;Villanueva;2020;4;0.00
FERTILIZACION DRENCH O FOLIAR;Villanueva;2020;5;0.00
FERTILIZACION DRENCH O FOLIAR;Villanueva;2020;6;108713.00
FERTILIZACION DRENCH O FOLIAR;Villanueva;2020;7;0.00
FERTILIZACION DRENCH O FOLIAR;Villanueva;2020;8;0.00
FERTILIZACION DRENCH O FOLIAR;Villanueva;2020;9;108713.00
FERTILIZACION DRENCH O FOLIAR;Villanueva;2020;10;0.00
FERTILIZACION DRENCH O FOLIAR;Villanueva;2020;11;108713.00
FERTILIZACION DRENCH O FOLIAR;Villanueva;2020;12;669208.00
FERTILIZACION EDAFICA CACAO-Agricola El Poleo-V C C;Villanueva;2020;1;0.00
FERTILIZACION EDAFICA CACAO-Agricola El Poleo-V C C;Villanueva;2020;2;0.00
FERTILIZACION EDAFICA CACAO-Agricola El Poleo-V C C;Villanueva;2020;3;0.00
FERTILIZACION EDAFICA CACAO-Agricola El Poleo-V C C;Villanueva;2020;4;348483.00
FERTILIZACION EDAFICA CACAO-Agricola El Poleo-V C C;Villanueva;2020;5;429438.00
FERTILIZACION EDAFICA CACAO-Agricola El Poleo-V C C;Villanueva;2020;6;282195.00
FERTILIZACION EDAFICA CACAO-Agricola El Poleo-V C C;Villanueva;2020;7;387013.00
FERTILIZACION EDAFICA CACAO-Agricola El Poleo-V C C;Villanueva;2020;8;390908.00
FERTILIZACION EDAFICA CACAO-Agricola El Poleo-V C C;Villanueva;2020;9;387013.00
FERTILIZACION EDAFICA CACAO-Agricola El Poleo-V C C;Villanueva;2020;10;108713.00
FERTILIZACION EDAFICA CACAO-Agricola El Poleo-V C C;Villanueva;2020;11;0.00
FERTILIZACION EDAFICA CACAO-Agricola El Poleo-V C C;Villanueva;2020;12;0.00
FERTILIZACION EDAFICA-Nexarte Servicios temporales S.A-G C H;Huila;2020;1;0.00
FERTILIZACION EDAFICA-Nexarte Servicios temporales S.A-G C H;Huila;2020;2;0.00
FERTILIZACION EDAFICA-Nexarte Servicios temporales S.A-G C H;Huila;2020;3;0.00
FERTILIZACION EDAFICA-Nexarte Servicios temporales S.A-G C H;Huila;2020;4;0.00
FERTILIZACION EDAFICA-Nexarte Servicios temporales S.A-G C H;Huila;2020;5;0.00
FERTILIZACION EDAFICA-Nexarte Servicios temporales S.A-G C H;Huila;2020;6;0.00
FERTILIZACION EDAFICA-Nexarte Servicios temporales S.A-G C H;Huila;2020;7;0.00
FERTILIZACION EDAFICA-Nexarte Servicios temporales S.A-G C H;Huila;2020;8;0.00
FERTILIZACION EDAFICA-Nexarte Servicios temporales S.A-G C H;Huila;2020;9;0.00
FERTILIZACION EDAFICA-Nexarte Servicios temporales S.A-G C H;Huila;2020;10;0.00
FERTILIZACION EDAFICA-Nexarte Servicios temporales S.A-G C H;Huila;2020;11;0.00
FERTILIZACION EDAFICA-Nexarte Servicios temporales S.A-G C H;Huila;2020;12;0.00
FERTILIZACION FOLIAR;Huila;2020;1;47100.00
FERTILIZACION FOLIAR;Huila;2020;2;47100.00
FERTILIZACION FOLIAR;Huila;2020;3;47100.00
FERTILIZACION FOLIAR;Huila;2020;4;47100.00
FERTILIZACION FOLIAR;Huila;2020;5;47100.00
FERTILIZACION FOLIAR;Huila;2020;6;47100.00
FERTILIZACION FOLIAR;Huila;2020;7;0.00
FERTILIZACION FOLIAR;Huila;2020;8;47100.00
FERTILIZACION FOLIAR;Huila;2020;9;0.00
FERTILIZACION FOLIAR;Huila;2020;10;47100.00
FERTILIZACION FOLIAR;Huila;2020;11;0.00
FERTILIZACION FOLIAR;Huila;2020;12;0.00
FERTILIZACION FOLIAR RESIEMBRAS -Agricola El Poleo-N C A;Necocli;2020;1;159507.00
FERTILIZACION FOLIAR RESIEMBRAS -Agricola El Poleo-N C A;Necocli;2020;2;0.00
FERTILIZACION FOLIAR RESIEMBRAS -Agricola El Poleo-N C A;Necocli;2020;3;159507.00
FERTILIZACION FOLIAR RESIEMBRAS -Agricola El Poleo-N C A;Necocli;2020;4;0.00
FERTILIZACION FOLIAR RESIEMBRAS -Agricola El Poleo-N C A;Necocli;2020;5;159507.00
FERTILIZACION FOLIAR RESIEMBRAS -Agricola El Poleo-N C A;Necocli;2020;6;0.00
FERTILIZACION FOLIAR RESIEMBRAS -Agricola El Poleo-N C A;Necocli;2020;7;159507.00
FERTILIZACION FOLIAR RESIEMBRAS -Agricola El Poleo-N C A;Necocli;2020;8;0.00
FERTILIZACION FOLIAR RESIEMBRAS -Agricola El Poleo-N C A;Necocli;2020;9;0.00
FERTILIZACION FOLIAR RESIEMBRAS -Agricola El Poleo-N C A;Necocli;2020;10;0.00
FERTILIZACION FOLIAR RESIEMBRAS -Agricola El Poleo-N C A;Necocli;2020;11;0.00
FERTILIZACION FOLIAR RESIEMBRAS -Agricola El Poleo-N C A;Necocli;2020;12;0.00
FERTILIZACIÓN HORMONAL CON MOTOR- Agricola El Poleo- N C A;Necocli;2020;1;0.00
FERTILIZACIÓN HORMONAL CON MOTOR- Agricola El Poleo- N C A;Necocli;2020;2;0.00
FERTILIZACIÓN HORMONAL CON MOTOR- Agricola El Poleo- N C A;Necocli;2020;3;0.00
FERTILIZACIÓN HORMONAL CON MOTOR- Agricola El Poleo- N C A;Necocli;2020;4;90000.00
FERTILIZACIÓN HORMONAL CON MOTOR- Agricola El Poleo- N C A;Necocli;2020;5;0.00
FERTILIZACIÓN HORMONAL CON MOTOR- Agricola El Poleo- N C A;Necocli;2020;6;0.00
FERTILIZACIÓN HORMONAL CON MOTOR- Agricola El Poleo- N C A;Necocli;2020;7;0.00
FERTILIZACIÓN HORMONAL CON MOTOR- Agricola El Poleo- N C A;Necocli;2020;8;90000.00
FERTILIZACIÓN HORMONAL CON MOTOR- Agricola El Poleo- N C A;Necocli;2020;9;0.00
FERTILIZACIÓN HORMONAL CON MOTOR- Agricola El Poleo- N C A;Necocli;2020;10;0.00
FERTILIZACIÓN HORMONAL CON MOTOR- Agricola El Poleo- N C A;Necocli;2020;11;0.00
FERTILIZACIÓN HORMONAL CON MOTOR- Agricola El Poleo- N C A;Necocli;2020;12;0.00
INJERTACION EN VIVERO-Nexarte Servicios temporales S.A-G C H;Huila;2020;1;0.00
INJERTACION EN VIVERO-Nexarte Servicios temporales S.A-G C H;Huila;2020;2;0.00
INJERTACION EN VIVERO-Nexarte Servicios temporales S.A-G C H;Huila;2020;3;0.00
INJERTACION EN VIVERO-Nexarte Servicios temporales S.A-G C H;Huila;2020;4;0.00
INJERTACION EN VIVERO-Nexarte Servicios temporales S.A-G C H;Huila;2020;5;0.00
INJERTACION EN VIVERO-Nexarte Servicios temporales S.A-G C H;Huila;2020;6;0.00
INJERTACION EN VIVERO-Nexarte Servicios temporales S.A-G C H;Huila;2020;7;0.00
INJERTACION EN VIVERO-Nexarte Servicios temporales S.A-G C H;Huila;2020;8;0.00
INJERTACION EN VIVERO-Nexarte Servicios temporales S.A-G C H;Huila;2020;9;0.00
INJERTACION EN VIVERO-Nexarte Servicios temporales S.A-G C H;Huila;2020;10;0.00
INJERTACION EN VIVERO-Nexarte Servicios temporales S.A-G C H;Huila;2020;11;0.00
INJERTACION EN VIVERO-Nexarte Servicios temporales S.A-G C H;Huila;2020;12;0.00
MONITOREO FITOSANITARIO CACAO-Agricola El Poleo-V C C;Villanueva;2020;1;706.23
MONITOREO FITOSANITARIO CACAO-Agricola El Poleo-V C C;Villanueva;2020;2;745.71
MONITOREO FITOSANITARIO CACAO-Agricola El Poleo-V C C;Villanueva;2020;3;706.23
MONITOREO FITOSANITARIO CACAO-Agricola El Poleo-V C C;Villanueva;2020;4;745.71
MONITOREO FITOSANITARIO CACAO-Agricola El Poleo-V C C;Villanueva;2020;5;706.23
MONITOREO FITOSANITARIO CACAO-Agricola El Poleo-V C C;Villanueva;2020;6;745.71
MONITOREO FITOSANITARIO CACAO-Agricola El Poleo-V C C;Villanueva;2020;7;706.23
MONITOREO FITOSANITARIO CACAO-Agricola El Poleo-V C C;Villanueva;2020;8;745.71
MONITOREO FITOSANITARIO CACAO-Agricola El Poleo-V C C;Villanueva;2020;9;706.23
MONITOREO FITOSANITARIO CACAO-Agricola El Poleo-V C C;Villanueva;2020;10;745.71
MONITOREO FITOSANITARIO CACAO-Agricola El Poleo-V C C;Villanueva;2020;11;706.23
MONITOREO FITOSANITARIO CACAO-Agricola El Poleo-V C C;Villanueva;2020;12;745.71
OPERACION DE RIEGO- LUKER AGRICOLA- N C A;Necocli;2020;1;10617.00
OPERACION DE RIEGO- LUKER AGRICOLA- N C A;Necocli;2020;2;10617.00
OPERACION DE RIEGO- LUKER AGRICOLA- N C A;Necocli;2020;3;10617.00
OPERACION DE RIEGO- LUKER AGRICOLA- N C A;Necocli;2020;4;8054.00
OPERACION DE RIEGO- LUKER AGRICOLA- N C A;Necocli;2020;5;6443.00
OPERACION DE RIEGO- LUKER AGRICOLA- N C A;Necocli;2020;6;6443.00
OPERACION DE RIEGO- LUKER AGRICOLA- N C A;Necocli;2020;7;10617.00
OPERACION DE RIEGO- LUKER AGRICOLA- N C A;Necocli;2020;8;6443.00
OPERACION DE RIEGO- LUKER AGRICOLA- N C A;Necocli;2020;9;6443.00
OPERACION DE RIEGO- LUKER AGRICOLA- N C A;Necocli;2020;10;6443.00
OPERACION DE RIEGO- LUKER AGRICOLA- N C A;Necocli;2020;11;6443.00
OPERACION DE RIEGO- LUKER AGRICOLA- N C A;Necocli;2020;12;10617.00
OPERARIO SISTEMA RIEGO-Nexarte Servicios temporales S.A-G C H;Huila;2020;1;960.00
OPERARIO SISTEMA RIEGO-Nexarte Servicios temporales S.A-G C H;Huila;2020;2;960.00
OPERARIO SISTEMA RIEGO-Nexarte Servicios temporales S.A-G C H;Huila;2020;3;960.00
OPERARIO SISTEMA RIEGO-Nexarte Servicios temporales S.A-G C H;Huila;2020;4;960.00
OPERARIO SISTEMA RIEGO-Nexarte Servicios temporales S.A-G C H;Huila;2020;5;960.00
OPERARIO SISTEMA RIEGO-Nexarte Servicios temporales S.A-G C H;Huila;2020;6;960.00
OPERARIO SISTEMA RIEGO-Nexarte Servicios temporales S.A-G C H;Huila;2020;7;960.00
OPERARIO SISTEMA RIEGO-Nexarte Servicios temporales S.A-G C H;Huila;2020;8;960.00
OPERARIO SISTEMA RIEGO-Nexarte Servicios temporales S.A-G C H;Huila;2020;9;960.00
OPERARIO SISTEMA RIEGO-Nexarte Servicios temporales S.A-G C H;Huila;2020;10;960.00
OPERARIO SISTEMA RIEGO-Nexarte Servicios temporales S.A-G C H;Huila;2020;11;960.00
OPERARIO SISTEMA RIEGO-Nexarte Servicios temporales S.A-G C H;Huila;2020;12;960.00
PLATEO CACAO MANUAL-Nexarte Servicios temporales S.A-G C H;Huila;2020;1;24200.00
PLATEO CACAO MANUAL-Nexarte Servicios temporales S.A-G C H;Huila;2020;2;22900.00
PLATEO CACAO MANUAL-Nexarte Servicios temporales S.A-G C H;Huila;2020;3;0.00
PLATEO CACAO MANUAL-Nexarte Servicios temporales S.A-G C H;Huila;2020;4;0.00
PLATEO CACAO MANUAL-Nexarte Servicios temporales S.A-G C H;Huila;2020;5;0.00
PLATEO CACAO MANUAL-Nexarte Servicios temporales S.A-G C H;Huila;2020;6;0.00
PLATEO CACAO MANUAL-Nexarte Servicios temporales S.A-G C H;Huila;2020;7;0.00
PLATEO CACAO MANUAL-Nexarte Servicios temporales S.A-G C H;Huila;2020;8;0.00
PLATEO CACAO MANUAL-Nexarte Servicios temporales S.A-G C H;Huila;2020;9;24200.00
PLATEO CACAO MANUAL-Nexarte Servicios temporales S.A-G C H;Huila;2020;10;22900.00
PLATEO CACAO MANUAL-Nexarte Servicios temporales S.A-G C H;Huila;2020;11;0.00
PLATEO CACAO MANUAL-Nexarte Servicios temporales S.A-G C H;Huila;2020;12;0.00
PLATEO QUIMICO CACAO-Agricola El Poleo-N C A;Necocli;2020;1;0.00
PLATEO QUIMICO CACAO-Agricola El Poleo-N C A;Necocli;2020;2;136263.00
PLATEO QUIMICO CACAO-Agricola El Poleo-N C A;Necocli;2020;3;0.00
PLATEO QUIMICO CACAO-Agricola El Poleo-N C A;Necocli;2020;4;0.00
PLATEO QUIMICO CACAO-Agricola El Poleo-N C A;Necocli;2020;5;0.00
PLATEO QUIMICO CACAO-Agricola El Poleo-N C A;Necocli;2020;6;0.00
PLATEO QUIMICO CACAO-Agricola El Poleo-N C A;Necocli;2020;7;0.00
PLATEO QUIMICO CACAO-Agricola El Poleo-N C A;Necocli;2020;8;0.00
PLATEO QUIMICO CACAO-Agricola El Poleo-N C A;Necocli;2020;9;0.00
PLATEO QUIMICO CACAO-Agricola El Poleo-N C A;Necocli;2020;10;0.00
PLATEO QUIMICO CACAO-Agricola El Poleo-N C A;Necocli;2020;11;0.00
PLATEO QUIMICO CACAO-Agricola El Poleo-N C A;Necocli;2020;12;0.00
PLATEO QUÍMICO-Nexarte Servicios temporales S.A-G C H;Huila;2020;1;0.00
PLATEO QUÍMICO-Nexarte Servicios temporales S.A-G C H;Huila;2020;2;0.00
PLATEO QUÍMICO-Nexarte Servicios temporales S.A-G C H;Huila;2020;3;0.00
PLATEO QUÍMICO-Nexarte Servicios temporales S.A-G C H;Huila;2020;4;0.00
PLATEO QUÍMICO-Nexarte Servicios temporales S.A-G C H;Huila;2020;5;0.00
PLATEO QUÍMICO-Nexarte Servicios temporales S.A-G C H;Huila;2020;6;0.00
PLATEO QUÍMICO-Nexarte Servicios temporales S.A-G C H;Huila;2020;7;0.00
PLATEO QUÍMICO-Nexarte Servicios temporales S.A-G C H;Huila;2020;8;0.00
PLATEO QUÍMICO-Nexarte Servicios temporales S.A-G C H;Huila;2020;9;0.00
PLATEO QUÍMICO-Nexarte Servicios temporales S.A-G C H;Huila;2020;10;0.00
PLATEO QUÍMICO-Nexarte Servicios temporales S.A-G C H;Huila;2020;11;0.00
PLATEO QUÍMICO-Nexarte Servicios temporales S.A-G C H;Huila;2020;12;0.00
PODA CACAO FORMACION-Agricola El Poleo-N C A;Necocli;2020;1;0.00
PODA CACAO FORMACION-Agricola El Poleo-N C A;Necocli;2020;2;109876.00
PODA CACAO FORMACION-Agricola El Poleo-N C A;Necocli;2020;3;152973.00
PODA CACAO FORMACION-Agricola El Poleo-N C A;Necocli;2020;4;0.00
PODA CACAO FORMACION-Agricola El Poleo-N C A;Necocli;2020;5;0.00
PODA CACAO FORMACION-Agricola El Poleo-N C A;Necocli;2020;6;0.00
PODA CACAO FORMACION-Agricola El Poleo-N C A;Necocli;2020;7;0.00
PODA CACAO FORMACION-Agricola El Poleo-N C A;Necocli;2020;8;0.00
PODA CACAO FORMACION-Agricola El Poleo-N C A;Necocli;2020;9;0.00
PODA CACAO FORMACION-Agricola El Poleo-N C A;Necocli;2020;10;0.00
PODA CACAO FORMACION-Agricola El Poleo-N C A;Necocli;2020;11;0.00
PODA CACAO FORMACION-Agricola El Poleo-N C A;Necocli;2020;12;0.00
PODA CACAO MANTENIMIENTO-Agricola El Poleo-N C A;Necocli;2020;1;0.00
PODA CACAO MANTENIMIENTO-Agricola El Poleo-N C A;Necocli;2020;2;24895.00
PODA CACAO MANTENIMIENTO-Agricola El Poleo-N C A;Necocli;2020;3;0.00
PODA CACAO MANTENIMIENTO-Agricola El Poleo-N C A;Necocli;2020;4;0.00
PODA CACAO MANTENIMIENTO-Agricola El Poleo-N C A;Necocli;2020;5;0.00
PODA CACAO MANTENIMIENTO-Agricola El Poleo-N C A;Necocli;2020;6;0.00
PODA CACAO MANTENIMIENTO-Agricola El Poleo-N C A;Necocli;2020;7;0.00
PODA CACAO MANTENIMIENTO-Agricola El Poleo-N C A;Necocli;2020;8;0.00
PODA CACAO MANTENIMIENTO-Agricola El Poleo-N C A;Necocli;2020;9;0.00
PODA CACAO MANTENIMIENTO-Agricola El Poleo-N C A;Necocli;2020;10;0.00
PODA CACAO MANTENIMIENTO-Agricola El Poleo-N C A;Necocli;2020;11;0.00
PODA CACAO MANTENIMIENTO-Agricola El Poleo-N C A;Necocli;2020;12;0.00
PODA DE FORMACION CACAO -1-Agricola El Poleo-V C C;Villanueva;2020;1;0.00
PODA DE FORMACION CACAO -1-Agricola El Poleo-V C C;Villanueva;2020;2;233019.00
PODA DE FORMACION CACAO -1-Agricola El Poleo-V C C;Villanueva;2020;3;375897.00
PODA DE FORMACION CACAO -1-Agricola El Poleo-V C C;Villanueva;2020;4;108713.00
PODA DE FORMACION CACAO -1-Agricola El Poleo-V C C;Villanueva;2020;5;0.00
PODA DE FORMACION CACAO -1-Agricola El Poleo-V C C;Villanueva;2020;6;0.00
PODA DE FORMACION CACAO -1-Agricola El Poleo-V C C;Villanueva;2020;7;0.00
PODA DE FORMACION CACAO -1-Agricola El Poleo-V C C;Villanueva;2020;8;0.00
PODA DE FORMACION CACAO -1-Agricola El Poleo-V C C;Villanueva;2020;9;0.00
PODA DE FORMACION CACAO -1-Agricola El Poleo-V C C;Villanueva;2020;10;0.00
PODA DE FORMACION CACAO -1-Agricola El Poleo-V C C;Villanueva;2020;11;0.00
PODA DE FORMACION CACAO -1-Agricola El Poleo-V C C;Villanueva;2020;12;0.00
PODA DE GUANDUL-Nexarte Servicios temporales S.A-G C H;Huila;2020;1;0.00
PODA DE GUANDUL-Nexarte Servicios temporales S.A-G C H;Huila;2020;2;0.00
PODA DE GUANDUL-Nexarte Servicios temporales S.A-G C H;Huila;2020;3;0.00
PODA DE GUANDUL-Nexarte Servicios temporales S.A-G C H;Huila;2020;4;0.00
PODA DE GUANDUL-Nexarte Servicios temporales S.A-G C H;Huila;2020;5;0.00
PODA DE GUANDUL-Nexarte Servicios temporales S.A-G C H;Huila;2020;6;47100.00
PODA DE GUANDUL-Nexarte Servicios temporales S.A-G C H;Huila;2020;7;0.00
PODA DE GUANDUL-Nexarte Servicios temporales S.A-G C H;Huila;2020;8;0.00
PODA DE GUANDUL-Nexarte Servicios temporales S.A-G C H;Huila;2020;9;0.00
PODA DE GUANDUL-Nexarte Servicios temporales S.A-G C H;Huila;2020;10;0.00
PODA DE GUANDUL-Nexarte Servicios temporales S.A-G C H;Huila;2020;11;47100.00
PODA DE GUANDUL-Nexarte Servicios temporales S.A-G C H;Huila;2020;12;0.00
RECOLECCION SANITARIA CACAO-Nexarte Servicios temporales S.A-V C C;Villanueva;2020;1;17167.63
RECOLECCION SANITARIA CACAO-Nexarte Servicios temporales S.A-V C C;Villanueva;2020;2;23440.39
RECOLECCION SANITARIA CACAO-Nexarte Servicios temporales S.A-V C C;Villanueva;2020;3;7657.39
RECOLECCION SANITARIA CACAO-Nexarte Servicios temporales S.A-V C C;Villanueva;2020;4;7657.39
RECOLECCION SANITARIA CACAO-Nexarte Servicios temporales S.A-V C C;Villanueva;2020;5;7657.39
RECOLECCION SANITARIA CACAO-Nexarte Servicios temporales S.A-V C C;Villanueva;2020;6;7657.39
RECOLECCION SANITARIA CACAO-Nexarte Servicios temporales S.A-V C C;Villanueva;2020;7;11486.09
RECOLECCION SANITARIA CACAO-Nexarte Servicios temporales S.A-V C C;Villanueva;2020;8;38286.96
RECOLECCION SANITARIA CACAO-Nexarte Servicios temporales S.A-V C C;Villanueva;2020;9;38286.96
RECOLECCION SANITARIA CACAO-Nexarte Servicios temporales S.A-V C C;Villanueva;2020;10;68916.53
RECOLECCION SANITARIA CACAO-Nexarte Servicios temporales S.A-V C C;Villanueva;2020;11;68916.53
RECOLECCION SANITARIA CACAO-Nexarte Servicios temporales S.A-V C C;Villanueva;2020;12;76573.92
RESIEMBRA CACAO AL DIA-Nexarte Servicios temporales S.A-G C H;Huila;2020;1;0.00
RESIEMBRA CACAO AL DIA-Nexarte Servicios temporales S.A-G C H;Huila;2020;2;0.00
RESIEMBRA CACAO AL DIA-Nexarte Servicios temporales S.A-G C H;Huila;2020;3;0.00
RESIEMBRA CACAO AL DIA-Nexarte Servicios temporales S.A-G C H;Huila;2020;4;0.00
RESIEMBRA CACAO AL DIA-Nexarte Servicios temporales S.A-G C H;Huila;2020;5;0.00
RESIEMBRA CACAO AL DIA-Nexarte Servicios temporales S.A-G C H;Huila;2020;6;0.00
RESIEMBRA CACAO AL DIA-Nexarte Servicios temporales S.A-G C H;Huila;2020;7;0.00
RESIEMBRA CACAO AL DIA-Nexarte Servicios temporales S.A-G C H;Huila;2020;8;0.00
RESIEMBRA CACAO AL DIA-Nexarte Servicios temporales S.A-G C H;Huila;2020;9;0.00
RESIEMBRA CACAO AL DIA-Nexarte Servicios temporales S.A-G C H;Huila;2020;10;9.40
RESIEMBRA CACAO AL DIA-Nexarte Servicios temporales S.A-G C H;Huila;2020;11;0.00
RESIEMBRA CACAO AL DIA-Nexarte Servicios temporales S.A-G C H;Huila;2020;12;0.00
RESIEMBRA CACAO-Nexarte Servicios temporales S.A-G C H;Huila;2020;1;0.00
RESIEMBRA CACAO-Nexarte Servicios temporales S.A-G C H;Huila;2020;2;0.00
RESIEMBRA CACAO-Nexarte Servicios temporales S.A-G C H;Huila;2020;3;0.00
RESIEMBRA CACAO-Nexarte Servicios temporales S.A-G C H;Huila;2020;4;2355.00
RESIEMBRA CACAO-Nexarte Servicios temporales S.A-G C H;Huila;2020;5;0.00
RESIEMBRA CACAO-Nexarte Servicios temporales S.A-G C H;Huila;2020;6;0.00
RESIEMBRA CACAO-Nexarte Servicios temporales S.A-G C H;Huila;2020;7;0.00
RESIEMBRA CACAO-Nexarte Servicios temporales S.A-G C H;Huila;2020;8;0.00
RESIEMBRA CACAO-Nexarte Servicios temporales S.A-G C H;Huila;2020;9;0.00
RESIEMBRA CACAO-Nexarte Servicios temporales S.A-G C H;Huila;2020;10;0.00
RESIEMBRA CACAO-Nexarte Servicios temporales S.A-G C H;Huila;2020;11;0.00
RESIEMBRA CACAO-Nexarte Servicios temporales S.A-G C H;Huila;2020;12;0.00
RESIEMBRA DE CACAO-Agricola El Poleo-V C C;Villanueva;2020;1;0.00
RESIEMBRA DE CACAO-Agricola El Poleo-V C C;Villanueva;2020;2;0.00
RESIEMBRA DE CACAO-Agricola El Poleo-V C C;Villanueva;2020;3;0.00
RESIEMBRA DE CACAO-Agricola El Poleo-V C C;Villanueva;2020;4;6628.80
RESIEMBRA DE CACAO-Agricola El Poleo-V C C;Villanueva;2020;5;23816.80
RESIEMBRA DE CACAO-Agricola El Poleo-V C C;Villanueva;2020;6;13760.40
RESIEMBRA DE CACAO-Agricola El Poleo-V C C;Villanueva;2020;7;0.00
RESIEMBRA DE CACAO-Agricola El Poleo-V C C;Villanueva;2020;8;0.00
RESIEMBRA DE CACAO-Agricola El Poleo-V C C;Villanueva;2020;9;0.00
RESIEMBRA DE CACAO-Agricola El Poleo-V C C;Villanueva;2020;10;0.00
RESIEMBRA DE CACAO-Agricola El Poleo-V C C;Villanueva;2020;11;0.00
RESIEMBRA DE CACAO-Agricola El Poleo-V C C;Villanueva;2020;12;0.00
ROCERIA CON GUADANA CACAO-Agricola El Poleo-V C C;Villanueva;2020;1;104.37
ROCERIA CON GUADANA CACAO-Agricola El Poleo-V C C;Villanueva;2020;2;148.11
ROCERIA CON GUADANA CACAO-Agricola El Poleo-V C C;Villanueva;2020;3;104.37
ROCERIA CON GUADANA CACAO-Agricola El Poleo-V C C;Villanueva;2020;4;148.11
ROCERIA CON GUADANA CACAO-Agricola El Poleo-V C C;Villanueva;2020;5;104.37
ROCERIA CON GUADANA CACAO-Agricola El Poleo-V C C;Villanueva;2020;6;156.48
ROCERIA CON GUADANA CACAO-Agricola El Poleo-V C C;Villanueva;2020;7;104.37
ROCERIA CON GUADANA CACAO-Agricola El Poleo-V C C;Villanueva;2020;8;156.48
ROCERIA CON GUADANA CACAO-Agricola El Poleo-V C C;Villanueva;2020;9;104.37
ROCERIA CON GUADANA CACAO-Agricola El Poleo-V C C;Villanueva;2020;10;148.11
ROCERIA CON GUADANA CACAO-Agricola El Poleo-V C C;Villanueva;2020;11;104.37
ROCERIA CON GUADANA CACAO-Agricola El Poleo-V C C;Villanueva;2020;12;106.22
TUMBA DE GMELINA (OPERADOR)-Agricola El Poleo-N M A;Necocli;2020;1;1334.00
TUMBA DE GMELINA (OPERADOR)-Agricola El Poleo-N M A;Necocli;2020;2;1334.00
TUMBA DE GMELINA (OPERADOR)-Agricola El Poleo-N M A;Necocli;2020;3;1334.00
TUMBA DE GMELINA (OPERADOR)-Agricola El Poleo-N M A;Necocli;2020;4;1334.00
TUMBA DE GMELINA (OPERADOR)-Agricola El Poleo-N M A;Necocli;2020;5;1334.00
TUMBA DE GMELINA (OPERADOR)-Agricola El Poleo-N M A;Necocli;2020;6;1334.00
TUMBA DE GMELINA (OPERADOR)-Agricola El Poleo-N M A;Necocli;2020;7;1334.00
TUMBA DE GMELINA (OPERADOR)-Agricola El Poleo-N M A;Necocli;2020;8;1334.00
TUMBA DE GMELINA (OPERADOR)-Agricola El Poleo-N M A;Necocli;2020;9;1334.00
TUMBA DE GMELINA (OPERADOR)-Agricola El Poleo-N M A;Necocli;2020;10;1334.00
TUMBA DE GMELINA (OPERADOR)-Agricola El Poleo-N M A;Necocli;2020;11;1050.00
TUMBA DE GMELINA (OPERADOR)-Agricola El Poleo-N M A;Necocli;2020;12;1050.00
