﻿cid,fids,code,firstName,lastName,typeID,numberID,email,receiveEmail,onlineAccess,contractType,hireDate,contractTerminationDate,periodicity,salary,otherSalaryIncome,otherNonSalaryIncome,job,hours,vacationDays,transportationSubsidy,paymentMethods,bank,accountType,accountNumber,birthDate,homeAddress,cellphone,employeesProtections,roles
PRAVIA,PRAVIA;,1,Edier Manuel,Romero Diaz,Cedula,1068810724,,false,NO,Contrato fijo,2022-09-15,2022-12-14,Mensual,1000000,0,0,Auxiliar de Agricultura,0,0,true,Transferencia,Bancolombia,Cuenta de ahorros,21630686731,1985-03-29,Papayal- Rionegro- Santander,,Salud:4%; AFP:4%;,;
PRAVIA,PRAVIA;,2,Gustavo Adolfo,Villareal Daza,Cedula,1050398278,,false,NO,Contrato fijo,2022-12-02,2023-03-01,Mensual,1000000,0,0,Auxiliar de Agricultura,0,0,true,Transferencia,Bancolombia,Cuenta de ahorros,21639938295,1989-06-27,Papayal- Rionegro- Santander,,Salud:4%; AFP:4%;,;
PRAVIA,PRAVIA;,3,Sebastian,Santos Carreño,Cedula,1098655093,sebastiansantosc@hotmail.com,true,SI,Contrato indefinido ,2017-11-16,,Mensual,3415500,0,1910480,Administrador,0,0,false,Transferencia,Bancolombia,Cuenta de ahorros,79597100651,1988-07-11,Carrera 27a #48-62- Bucaramanga- Santander,3185957718,Salud:4%; AFP:4%;,;
PRAVIA,PRAVIA;,4,Honorio,Rojas Pedrozo,Cedula,5731336,,false,NO,Contrato indefinido ,2011-06-05,,Mensual,1254000,0,0,Auxiliar de Agricultura,0,0,true,Transferencia,Coomultrasan,Cuenta de ahorros,02090002544,1953-12-24,Papayal- Rionegro- Santander,,Salud:4%; AFP:4%;,;
PRAVIA,PRAVIA;,5,Luswing,Rojas Gualdron,Cedula,91464991,,false,NO,Contrato indefinido ,2013-06-02,,Mensual,1000000,0,0,Auxiliar de Agricultura,0,0,true,Transferencia,Coomultrasan,Cuenta de ahorros,02090005936,1973-11-27,Papayal- Rionegro- Santander,,Salud:4%; AFP:4%;,;
PRAVIA,PRAVIA;,6,Rafael ,Rey Picon,Cedula,5637935,rreypicon@gmail.com,true,SI,Contrato indefinido ,2008-04-16,,Mensual,3536830,0,0,Subgerente,0,0,false,Transferencia,Bancolombia,Cuenta de ahorros,60677295524,1956-05-13,Calle 71B #55-40- Bucaramanga- Santander,3153713694,Salud:4%;,;
PRAVIA,PRAVIA;,7,Martin,Rey Londoño,Cedula,1095832460,martinreyl@gmail.com,true,SI,Contrato fijo,2022-11-02,2023-02-01,Mensual,1200000,0,0,Auxiliar Administrativo,0,0,true,Transferencia,Bancolombia,Cuenta de ahorros,51831818780,1997-02-28,Calle 71B #55-40- Bucaramanga- Santander,3045773839,Salud:4%; AFP:4%;,;
PRAVIA,PRAVIA;,8,Carlos Alberto ,Peña Gonzalez,Cedula,1048994939,,false,NO,Contrato fijo,2022-12-02,2023-03-01,Mensual,1000000,0,0,Auxiliar de Agricultura,0,0,true,Transferencia,,,,1985-02-21,Papayal- Rionegro- Santander,3105283533,Salud:4%; AFP:4%;,;
PRAVIA,PRAVIA;,9,Enoc,Peña Paez,Cedula,12601542,,false,NO,Contrato indefinido ,2014-06-10,,Mensual,1008483,0,0,Auxiliar de Agricultura,0,0,false,Transferencia,Coomultrasan,Cuenta de ahorros,02090037707,1969-01-11,Finca Primavera- Rionegro- Santander,3167685045,Salud:4%; AFP:4%;,;
PRAVIA,PRAVIA;,10,Sergio Andres,Pedraza Toloza,Cedula,1098656449,cheche0313@hotmail.com,false,NO,Contrato fijo,2022-12-02,2023-03-01,Mensual,1309550,0,492580,Auxiliar Oficina y Plantacion,0,0,true,Transferencia,Bancolombia,Cuenta de ahorros,29100082371,1988-03-14,Carrera 15 #1N-40- San Rafael- Rionegro Santander,3158001334,Salud:4%; AFP:4%;,;
PRAVIA,PRAVIA;,11,Ingrid,Parra Leal,Cedula,63327797,iparraleal@gmail.com,false,NO,Contrato indefinido ,2007-04-20,,Mensual,1760000,0,0,Auxiliar Contable,0,0,true,Transferencia,Bancolombia,Cuenta de ahorros,29148018454,1966-08-13,Manzana R Casa 15- Piedecuesta- Santander,3174303042,Salud:4%; AFP:4%;,;
PRAVIA,PRAVIA;,12,Luis Alejandro,Paez Pedrozo,Cedula,1003155117,,false,NO,Contrato fijo,2022-10-15,2023-01-14,Mensual,1210000,0,0,Auxiliar de Agricultura,0,0,true,Transferencia,Coomultrasan,Cuenta de ahorros,02090051707,1997-05-27,Papayal- Rionegro- Santander,,Salud:4%; AFP:4%;,;
PRAVIA,PRAVIA;,13,Ivan Dres,Paez Pedrozo,Cedula,1003155112,,false,NO,Contrato fijo,2022-12-02,,Mensual,1000000,0,0,Auxiliar de Agricultura,0,0,true,Transferencia,Coomultrasan,Cuenta de ahorros,02090051420,1998-09-11,Papayal- Rionegro- Santander,,Salud:4%; AFP:4%;,;
PRAVIA,PRAVIA;,14,Antonio ,Ortiz Heredia,Cedula,91296290,,false,NO,Contrato indefinido ,2015-10-27,,Mensual,1375000,0,418000,Auxiliar de Ganaderia,0,0,false,Transferencia,Coomultrasan,Cuenta de ahorros,02090041386,1971-10-21,Finca Villa Isabel- Rionegro- Santander,,Salud:4%; AFP:4%;,;
PRAVIA,PRAVIA;,15,Victor,Mendoza Ospina,Cedula,91468697,,false,NO,Contrato indefinido ,2013-06-02,,Mensual,1000000,0,0,Auxiliar de Agricultura,0,0,true,Transferencia,Coomultrasan,Cuenta de ahorros,02090011241,1984-07-01,Papayal- Rionegro- Santander,,Salud:4%; AFP:4%;,;
PRAVIA,PRAVIA;,16,Pedro,Martinez Rodriguez,Cedula,91464625,,false,SI,Contrato indefinido ,2008-01-03,,Mensual,2462576,0,527601,Administrador de Plantacion,0,0,false,Transferencia,Coomultrasan,Cuenta de ahorros,02090027146,1972-03-04,Papayal- Rionegro- Santander,3175099269,Salud:4%; AFP:4%;,;
PRAVIA,PRAVIA;,17,Edward Alonso,Martinez Fonseca,Cedula,1098734841,,false,NO,Contrato fijo,2022-10-04,2023-01-03,Mensual,1000000,0,0,Auxiliar de Agricultura,0,0,true,Transferencia,Bancolombia,Cuenta de ahorros,21643602064,1993-03-04,Papayal- Rionegro- Santander,3167919560,Salud:4%; AFP:4%;,;
PRAVIA,PRAVIA;,18,Alexander,Martinez Rincon,Cedula,1100893582,escorpion0595@hotmail.com,false,SI,Contrato indefinido ,2012-07-17,,Mensual,1274441,0,234531,Supervisor,0,0,true,Transferencia,Bancolombia,Cuenta de ahorros,21612782048,1992-11-06,Papayal- Rionegro- Santander,3158855715,Salud:4%; AFP:4%;,;
PRAVIA,PRAVIA;,19,Jose Heli,Ojeda Mejia,Cedula,1098750809,,false,NO,Contrato fijo,2022-09-16,2022-12-16,Mensual,1000000,0,0,Auxiliar de Agricultura,0,0,true,Transferencia,Coomultrasan,Cuenta de ahorros,02090034275,1992-06-14,Papayal- Rionegro- Santander,3153489656,Salud:4%; AFP:4%;,;
PRAVIA,PRAVIA;,20,Luis Eduardo ,Madrid Torrejano,Cedula,1002362037,,false,NO,Contrato fijo,2022-12-02,2023-03-01,Mensual,1000000,0,0,Auxiliar de Agricultura,0,0,true,Transferencia,Bancolombia,Cuenta de ahorros,21638273397,1995-03-10,Papayal- Rionegro- Santander,3187371915,Salud:4%; AFP:4%;,;
PRAVIA,PRAVIA;,21,Luis Alberto,Jaimes Badillo,Cedula,91487799,,false,NO,Contrato indefinido ,2014-07-10,,Mensual,1219561,0,243912,Operario de Maquinaria,0,0,true,Transferencia,Coomultrasan,Cuenta de ahorros,02090038341,1976-04-12,Papayal- Rionegro- Santander,3186948452,Salud:4%; AFP:4%;,;
PRAVIA,PRAVIA;,22,Edinson Daniel,Ducon Cubides,Cedula,1100895500,,false,NO,Contrato fijo,2022-11-30,2023-03-01,Mensual,1000000,0,0,Auxiliar de Agricultura,0,0,true,Transferencia,Coomultrasan,Cuenta de ahorros,02090048881,1996-03-20,Parcela Bellavista- Barranco Colorado- Sabana de Torres- Santander,3185028179,Salud:4%; AFP:4%;,;
PRAVIA,PRAVIA;,23,Jairo Alveiro,Cadena Moreno,Cedula,77104377,,false,NO,Contrato indefinido ,2013-06-06,,Mensual,1000000,0,0,Auxiliar de Agricultura,0,0,true,Transferencia,Bancolombia,Cuenta de ahorros,21618023866,1976-03-16,Papayal- Rionegro- Santander,,Salud:4%; AFP:4%;,;
PRAVIA,PRAVIA;,24,Juan Manuel,Batista Mendoza,Cedula,1003091821,,false,NO,Contrato fijo,2022-11-30,2023-03-01,Mensual,1000000,0,0,Auxiliar de Agricultura,0,0,true,Transferencia,Bancolombia,Cuenta de ahorros,03186368282,1998-01-25,Papayal- Rionegro- Santander,3182003439,Salud:4%; AFP:4%;,;
PRAVIA,PRAVIA;,25,Carlos,Duarte Silgado,Cedula,1003204991,,false,NO,Contrato fijo,2022-12-02,2023-03-01,Mensual,1000000,0,0,Auxiliar de Agricultura,0,0,true,Transferencia,,,,1999-01-11,Papayal- Rionegro- Santander,3152739836,Salud:4%; AFP:4%;,;
PRAVIA,PRAVIA;,26,Jesus Alberto ,Flores Salas,Cedula,1046429171,,false,NO,Contrato fijo,2022-12-02,2023-03-01,Mensual,1000000,0,0,Auxiliar de Agricultura,0,0,true,Transferencia,,,,1992-02-07,Papayal- Rionegro- Santander,3167837778,Salud:4%; AFP:4%;,;
PRAVIA,PRAVIA;,27,Dagoberto Manuel,Batista Cortes,Cedula,10883626,,false,NO,Contrato fijo,2022-09-15,2022-12-14,Mensual,1000000,0,0,Auxiliar de Agricultura,0,0,true,Transferencia,Bancolombia,Cuenta de ahorros,03162352807,1976-02-27,Papayal- Rionegro- Santander,3165272137,Salud:4%; AFP:4%;,;
PRAVIA,PRAVIA;,28,Esnerider,Balaguera Serna,Cedula,1148145329,,false,NO,Contrato fijo,2022-09-17,2022-12-16,Mensual,1000000,0,0,Auxiliar de Agricultura,0,0,true,Transferencia,Bancolombia,Cuenta de ahorros,03172548779,1998-05-09,Papayal- Rionegro- Santander,,Salud:4%; AFP:4%;,;
PRAVIA,PRAVIA;,29,Sergio,Blanquicett Martinez,Cedula,1100891335,,false,NO,Contrato fijo,2022-12-02,2023-03-01,Mensual,1000000,0,0,Auxiliar de Agricultura,0,0,true,Transferencia,,,,1989-05-26,Papayal- Rionegro- Santander,,Salud:4%; AFP:4%;,;
PRAVIA,PRAVIA;,30,Emerson Dahir,Arenas Farias,Cedula,1005448679,emersonarenas0213@gmail.com,false,NO,Contrato fijo,2022-05-02,2023-10-25,Mensual,500000,0,0,Aprendiz,0,0,false,Transferencia,Coomultrasan,Cuenta de ahorros,02090053710,2002-09-14,Papayal- Rionegro- Santander,3184213674,,;
PRAVIA,PRAVIA;,31,Osmani,Alvarez Badillo,Cedula,91486436,,false,SI,Contrato indefinido ,2013-07-02,,Mensual,1375000,0,297000,Supervisor,0,0,true,Transferencia,Coomultrasan,Cuenta de ahorros,02090002521,1976-02-15,Papayal- Rionegro- Santander,3182571600,Salud:4%; AFP:4%;,;
PRAVIA,PRAVIA;,32,Luis Fernando,Mendoza Santero,Cedula,1003733753,,false,NO,Contrato fijo,2022-09-17,2022-12-16,Mensual,1000000,0,0,Auxiliar de Agricultura,0,0,true,Transferencia,Bancolombia,Cuenta de ahorros,21640067427,2001-03-21,Papayal- Rionegro- Santander,3172901033,Salud:4%; AFP:4%;,;
