Cuenta Contable Mano de Obra,Cuenta Contable Insumo,Conjunto de Actividades,Lote,Codigo del Lote,Mes,Costo de Mano de Obra,Costo de Inventario,Siembra,Anio
74101505,71103505,Fertilización,H-10,14H10881,Enero,17750.3,0,1988,2020
74101505,71103505,Fertilización,H-11B,14H11B881,Enero,13758.9,0,1988,2020
74101505,71103505,Fertilización,A-19A,14A19A891,Enero,9284.7,0,1989,2020
74101505,71103505,Fertilización,A-20,14A20891,Enero,17267.6,0,1989,2020
74101505,71103505,Fertilización,A-21A,14A21A891,Enero,12750.2,0,1989,2020
74101505,71103505,Fertilización,A-22A,14A22A891,Enero,3439.7,0,1989,2020
74101505,71103505,Fertilización,AP-18,14AP18891,Enero,13422.7,0,1989,2020
74101505,71103505,Fertilización,AP-19,14AP19891,Enero,18077.9,0,1989,2020
74101505,71103505,Fertilización,AP-20A,14AP20A891,Enero,8319.1,0,1989,2020
74101505,71103505,Fertilización,B-20,14B20891,Enero,5457,0,1989,2020
74101505,71103505,Fertilización,B-21,14B21891,Enero,8267.4,0,1989,2020
74101505,71103505,Fertilización,B-22,14B22891,Enero,8146.7,0,1989,2020
74101505,71103505,Fertilización,B-23A,14B23A891,Enero,8181.2,0,1989,2020
74101505,71103505,Fertilización,A-18A,14A18A911,Enero,6319.1,0,1991,2020
74101505,71103505,Fertilización,A-19B,14A19B911,Enero,5560.5,0,1991,2020
74101505,71103505,Fertilización,A-21B,14A21B951,Enero,3402.5,0,1995,2020
74101505,71103505,Fertilización,A-22B,14A22B951,Enero,15292.7,0,1995,2020
74101505,71103505,Fertilización,A-23,14A23951,Enero,21632.8,0,1995,2020
74101505,71103505,Fertilización,A-24,14A24951,Enero,21307.5,0,1995,2020
74101505,71103505,Fertilización,A-25,14A25951,Enero,20851.9,0,1995,2020
74101505,71103505,Fertilización,A-26,14A26951,Enero,14325.8,0,1995,2020
74101505,71103505,Fertilización,A-27,14A27951,Enero,3049.2,0,1995,2020
74101505,71103505,Fertilización,AP-21A,14AP21A951,Enero,3681.4,0,1995,2020
74101505,71103505,Fertilización,AP-22,14AP22951,Enero,15478.6,0,1995,2020
74101505,71103505,Fertilización,AP-23,14AP23951,Enero,15804,0,1995,2020
74101505,71103505,Fertilización,AP-24,14AP24951,Enero,11973.8,0,1995,2020
74101505,71103505,Fertilización,AP-25A,14AP25A951,Enero,4071.8,0,1995,2020
74101505,71103505,Fertilización,AP-26,14AP26951,Enero,966.8,0,1995,2020
74101505,71103505,Fertilización,B-23B,14B23B951,Enero,5615.1,0,1995,2020
74101505,71103505,Fertilización,B-24,14B24951,Enero,6730.6,0,1995,2020
74101505,71103505,Fertilización,B-28B,14B28B951,Enero,7929.9,0,1995,2020
74101505,71103505,Fertilización,B-29B,14B29B951,Enero,7334.9,0,1995,2020
74101505,71103505,Fertilización,B-30B,14B30B951,Enero,5587.2,0,1995,2020
74101505,71103505,Fertilización,AP-21B,14AP21B961,Enero,8180.9,0,1996,2020
74101505,71103505,Fertilización,AP-20B,14AP20B961,Enero,3848.7,0,1996,2020
74101505,71103505,Fertilización,A-16,14A16981,Enero,11434.6,0,1998,2020
74101505,71103505,Fertilización,A-17,14A17981,Enero,15199.7,0,1998,2020
74101505,71103505,Fertilización,A-18B,14A18B981,Enero,2128.9,0,1998,2020
74101505,71103505,Fertilización,A-18C,14A18C981,Enero,5336.2,0,1998,2020
74101505,71103505,Fertilización,A-MUISCAS,14AMSC981,Enero,13433.4,0,1998,2020
74101505,71103505,Fertilización,C-23B,14C23B981,Enero,4453,0,1998,2020
74101505,71103505,Fertilización,MP-1A,14MP01A991,Enero,7204.7,0,1999,2020
74101505,71103505,Fertilización,MP-1B,14MP01B991,Enero,1515.3,0,1999,2020
74101505,71103505,Fertilización,MP-1C,14MP01C991,Enero,5010.8,0,1999,2020
74101505,71103505,Fertilización,MP-2A,14MP02A991,Enero,7056,0,1999,2020
74101505,71103505,Fertilización,MP-2B,14MP02B991,Enero,14333.9,0,1999,2020
74101505,71103505,Fertilización,MP-3A,14MP03A991,Enero,4387.9,0,1999,2020
74101505,71103505,Fertilización,MP-3B,14MP03B991,Enero,2761,0,1999,2020
74101505,71103505,Fertilización,MP-3C,14MP03C991,Enero,6563.3,0,1999,2020
74101505,71103505,Fertilización,MP-4,14MP04991,Enero,5020.1,0,1999,2020
74101505,71103505,Fertilización,CHU-CRISTALINA,14CHCR991,Enero,3644.2,0,1999,2020
74101505,71103505,Fertilización,CHU-SANJNT,14CHSJ991,Enero,2500.7,0,1999,2020
74101505,71103505,Fertilización,AP-20C,14AP20C001,Enero,836.7,0,2000,2020
74101505,71103505,Fertilización,AP-25B,14AP25B001,Enero,1850,0,2000,2020
74101505,71103505,Fertilización,AP-CAPRICHO,14CHCP001,Enero,9342.9,0,2000,2020
74101505,71103505,Fertilización,G-16BR,14G16B061,Enero,13479.9,0,2006,2020
74101505,71103505,Fertilización,G-17BR,14G17B061,Enero,9501,0,2006,2020
74101505,71103505,Fertilización,I-6B,14I06B081,Enero,12085.4,0,2008,2020
74101505,71103505,Fertilización,G-15AR,14G15A081,Enero,4034.7,0,2008,2020
74101505,71103505,Fertilización,G-15BR,14G15B081,Enero,17542.4,0,2008,2020
74101505,71103505,Fertilización,G-16AR,14G16A081,Enero,7818.3,0,2008,2020
74101505,71103505,Fertilización,G-17AR,14G17A081,Enero,12224.8,0,2008,2020
74101505,71103505,Fertilización,G-18AR,14G18A081,Enero,16092.2,0,2008,2020
74101505,71103505,Fertilización,G-19BR,14G19B081,Enero,1124.9,0,2008,2020
74101505,71103505,Fertilización,AP-20D,14AP20D101,Enero,6684.1,0,2010,2020
74101505,71103505,Fertilización,AP-21C,14AP21C101,Enero,6191.4,0,2010,2020
74101505,71103505,Fertilización,B-25,14B25101,Enero,8115.8,0,2010,2020
74101505,71103505,Fertilización,I-7B,14I07B101,Enero,2138.2,0,2010,2020
74101505,71103505,Fertilización,I-11R,14I11101,Enero,23176.1,0,2010,2020
74101505,71103505,Fertilización,I-12R,14I12101,Enero,22292.9,0,2010,2020
74101505,71103505,Fertilización,I-13R,14I13101,Enero,22692.6,0,2010,2020
74101505,71103505,Fertilización,I-14R,14I14101,Enero,22283.6,0,2010,2020
74101505,71103505,Fertilización,I-15R,14I15101,Enero,23111,0,2010,2020
74101505,71103505,Fertilización,I-16R,14I16101,Enero,16352.5,0,2010,2020
74101505,71103505,Fertilización,I-17R,14I17101,Enero,9547.5,0,2010,2020
74101505,71103505,Fertilización,G-19AR,14G19A101,Enero,20024.6,0,2010,2020
74101505,71103505,Fertilización,G-14R,14G14101,Enero,19504,0,2010,2020
74101505,71103505,Fertilización,H-11AR,14H11A101,Enero,5196.7,0,2010,2020
74101505,71103505,Fertilización,H-12AR,14H12A101,Enero,9677.6,0,2010,2020
74101505,71103505,Fertilización,H-13AR,14H13A101,Enero,34752,0,2010,2020
74101505,71103505,Fertilización,H-14AR,14H14A101,Enero,20331.3,0,2010,2020
74101505,71103505,Fertilización,H-22R,14H22111,Enero,18871.8,0,2011,2020
74101505,71103505,Fertilización,H-23R,14H23111,Enero,14167.8,0,2011,2020
74101505,71103505,Fertilización,CHU-3DR,14CH03D111,Enero,14772.1,0,2011,2020
74101505,71103505,Fertilización,CHU-3IR,14CH03I111,Enero,17533.1,0,2011,2020
74101505,71103505,Fertilización,E-22R,14E22111,Enero,21790.9,0,2011,2020
74101505,71103505,Fertilización,E-23R,14E23111,Enero,22534.6,0,2011,2020
74101505,71103505,Fertilización,F-15R,14F15111,Enero,12289.9,0,2011,2020
74101505,71103505,Fertilización,F-16R,14F16111,Enero,20480.1,0,2011,2020
74101505,71103505,Fertilización,F-20AR,14F20A111,Enero,1710.5,0,2011,2020
74101505,71103505,Fertilización,F-21AR,14F21A111,Enero,5977.6,0,2011,2020
74101505,71103505,Fertilización,G-18BR,14G18B111,Enero,4964.3,0,2011,2020
74101505,71103505,Fertilización,G-20R,14G20111,Enero,22144.1,0,2011,2020
74101505,71103505,Fertilización,G-21R,14G21111,Enero,22367.3,0,2011,2020
74101505,71103505,Fertilización,H-15R,14H15111,Enero,22516,0,2011,2020
74101505,71103505,Fertilización,H-16R,14H16111,Enero,22107,0,2011,2020
74101505,71103505,Fertilización,H-18R,14H18111,Enero,26085.8,0,2011,2020
74101505,71103505,Fertilización,J9R,14J09121,Enero,0,0,2012,2020
74101505,71103505,Fertilización,J10R,14J10121,Enero,0,0,2012,2020
74101505,71103505,Fertilización,J11R,14J11121,Enero,0,0,2012,2020
74101505,71103505,Fertilización,J12R,14J12121,Enero,0,0,2012,2020
74101505,71103505,Fertilización,J13R,14J13121,Enero,0,0,2012,2020
74101505,71103505,Fertilización,J14R,14J14121,Enero,0,0,2012,2020
74101505,71103505,Fertilización,C-23AR,14C23A121,Enero,10086.6,0,2012,2020
74101505,71103505,Fertilización,CHU-50R,14CH50121,Enero,48834.3,0,2012,2020
74101505,71103505,Fertilización,F-20BR,14F20B121,Enero,19466.8,0,2012,2020
74101505,71103505,Fertilización,F-21BR,14F21B121,Enero,14967.3,0,2012,2020
74101505,71103505,Fertilización,H-17R,14H17121,Enero,22516,0,2012,2020
74101505,71103505,Fertilización,H-19R,14H19121,Enero,20089.6,0,2012,2020
74101505,71103505,Fertilización,H-20R,14H20121,Enero,13498.4,0,2012,2020
74101505,71103505,Fertilización,H-21R,14H21121,Enero,14279.3,0,2012,2020
74101505,71103505,Fertilización,C-24R,14C24131,Enero,18843.9,0,2013,2020
74101505,71103505,Fertilización,B-26R,14B26131,Enero,33762.1,0,2013,2020
74101505,71103505,Fertilización,CHU-2R,14CH02131,Enero,28930.6,0,2013,2020
74101505,71103505,Fertilización,CHU-27R,14CH27131,Enero,14688.4,0,2013,2020
74101505,71103505,Fertilización,E-24R,14E24131,Enero,21763,0,2013,2020
74101505,71103505,Fertilización,E-34R,14E34131,Enero,20052.4,0,2013,2020
74101505,71103505,Fertilización,F-22AR,14F22A131,Enero,9928.6,0,2013,2020
74101505,71103505,Fertilización,F-22BR,14F22B131,Enero,11313.8,0,2013,2020
74101505,71103505,Fertilización,F-23AR,14F23A131,Enero,14381.6,0,2013,2020
74101505,71103505,Fertilización,F-23BR,14F23B131,Enero,7018.8,0,2013,2020
74101505,71103505,Fertilización,F-24BR,14F24B131,Enero,3067.8,0,2013,2020
74101505,71103505,Fertilización,G-11R,14G11131,Enero,4276.4,0,2013,2020
74101505,71103505,Fertilización,G-12R,14G12131,Enero,10300.5,0,2013,2020
74101505,71103505,Fertilización,G-13R,14G13131,Enero,17393.7,0,2013,2020
74101505,71103505,Fertilización,G-22R,14G22131,Enero,21958.2,0,2013,2020
74101505,71103505,Fertilización,H-12BR,14H12B131,Enero,9519.6,0,2013,2020
74101505,71103505,Fertilización,H-13BR,14H13B131,Enero,3867.3,0,2013,2020
74101505,71103505,Fertilización,CHU-1R,14CH01141,Enero,26811,0,2014,2020
74101505,71103505,Fertilización,CHU-1AR,14CH01A141,Enero,33114,0,2014,2020
74101505,71103505,Fertilización,CHU-1BR,14CH01B141,Enero,24747.2,0,2014,2020
74101505,71103505,Fertilización,CHU-10R,14CH10141,Enero,10672.3,0,2014,2020
74101505,71103505,Fertilización,CHU-ISLR,14CHIS141,Enero,9361.5,0,2014,2020
74101505,71103505,Fertilización,CHU-PLR,14CHPL141,Enero,19438.9,0,2014,2020
74101505,71103505,Fertilización,E-21R,14E21141,Enero,22302.2,0,2014,2020
74101505,71103505,Fertilización,F-28R,14F28141,Enero,20879.8,0,2014,2020
74101505,71103505,Fertilización,F-29R,14F29141,Enero,12708.2,0,2014,2020
74101505,71103505,Fertilización,F-30R,14F30141,Enero,11378.9,0,2014,2020
74101505,71103505,Fertilización,F-31R,14F31141,Enero,25821.7,0,2014,2020
74101505,71103505,Fertilización,F-32R,14F32141,Enero,10774.6,0,2014,2020
74101505,71103505,Fertilización,F-33R,14F33141,Enero,8738.7,0,2014,2020
74101505,71103505,Fertilización,G-23R,14G23141,Enero,22292.9,0,2014,2020
74101505,71103505,Fertilización,G-24R,14G24141,Enero,28400.7,0,2014,2020
74101505,71103505,Fertilización,G-25R,14G25141,Enero,22469.5,0,2014,2020
74101505,71103505,Fertilización,G-26R,14G26141,Enero,15404.2,0,2014,2020
74101505,71103505,Fertilización,G-27R,14G27141,Enero,8329.6,0,2014,2020
74101505,71103505,Fertilización,C-26R,14C26151,Enero,21093.6,0,2015,2020
74101505,71103505,Fertilización,C-27R,14C27151,Enero,22237.1,0,2015,2020
74101505,71103505,Fertilización,D-21R,14D21151,Enero,10756,0,2015,2020
74101505,71103505,Fertilización,D-22R,14D22151,Enero,18843.9,0,2015,2020
74101505,71103505,Fertilización,D-23R,14D23151,Enero,20972.8,0,2015,2020
74101505,71103505,Fertilización,E-25R,14E25151,Enero,21391.1,0,2015,2020
74101505,71103505,Fertilización,E-26R,14E26151,Enero,21102.9,0,2015,2020
74101505,71103505,Fertilización,E-27R,14E27151,Enero,50364.7,0,2015,2020
74101505,71103505,Fertilización,E-28R,14E28151,Enero,22237.1,0,2015,2020
74101505,71103505,Fertilización,F-17R,14F17151,Enero,21549.2,0,2015,2020
74101505,71103505,Fertilización,F-24AR,14F24A151,Enero,17003.2,0,2015,2020
74101505,71103505,Fertilización,F-25R,14F25151,Enero,22367.3,0,2015,2020
74101505,71103505,Fertilización,F-26R,14F26151,Enero,18304.7,0,2015,2020
74101505,71103505,Fertilización,F-27R,14F27151,Enero,10718.8,0,2015,2020
74101505,71103505,Fertilización,B-27R,14B27161,Enero,23138.9,0,2016,2020
74101505,71103505,Fertilización,B-28AR,14B28A161,Enero,20480.1,0,2016,2020
74101505,71103505,Fertilización,B-29AR,14B29A161,Enero,20898.4,0,2016,2020
74101505,71103505,Fertilización,C-25R,14C25161,Enero,21298.2,0,2016,2020
74101505,71103505,Fertilización,D-24R,14D24161,Enero,20963.5,0,2016,2020
74101505,71103505,Fertilización,E-17R,14E17161,Enero,12838.4,0,2016,2020
74101505,71103505,Fertilización,E-18R,14E18161,Enero,18974.1,0,2016,2020
74101505,71103505,Fertilización,E-19R,14E19161,Enero,15441.4,0,2016,2020
74101505,71103505,Fertilización,E-20R,14E20161,Enero,20275.6,0,2016,2020
74101505,71103505,Fertilización,F-18R,14F18161,Enero,22172,0,2016,2020
74101505,71103505,Fertilización,F-19R,14F19161,Enero,21288.9,0,2016,2020
74101505,71103505,Fertilización,H-9R,14H09161,Enero,12438.7,0,2016,2020
74101505,71103505,Fertilización,I-5R,14I05161,Enero,7056,0,2016,2020
74101505,71103505,Fertilización,I-6R,14I06161,Enero,11025.6,0,2016,2020
74101505,71103505,Fertilización,I-7R,14I07161,Enero,12494.4,0,2016,2020
74101505,71103505,Fertilización,I-8R,14I08161,Enero,14344.4,0,2016,2020
74101505,71103505,Fertilización,I-9R,14I09161,Enero,20024.6,0,2016,2020
74101505,71103505,Fertilización,I-10R,14I10161,Enero,14958,0,2016,2020
74101505,71103505,Fertilización,VIVERO,140101,Enero,0,0,2020,2020
74103505,,Corte y recoleccion,H-10,14H10881,Enero,2585469.4,0,1988,2020
74103505,,Corte y recoleccion,H-11B,14H11B881,Enero,2004084.1,0,1988,2020
74103505,,Corte y recoleccion,A-19A,14A19A891,Enero,1010702,0,1989,2020
74103505,,Corte y recoleccion,A-20,14A20891,Enero,1879699.3,0,1989,2020
74103505,,Corte y recoleccion,A-21A,14A21A891,Enero,1387955.7,0,1989,2020
74103505,,Corte y recoleccion,A-22A,14A22A891,Enero,374438.4,0,1989,2020
74103505,,Corte y recoleccion,AP-18,14AP18891,Enero,1461154.2,0,1989,2020
74103505,,Corte y recoleccion,AP-19,14AP19891,Enero,1967912.9,0,1989,2020
74103505,,Corte y recoleccion,AP-20A,14AP20A891,Enero,905596.5,0,1989,2020
74103505,,Corte y recoleccion,B-20,14B20891,Enero,594033.8,0,1989,2020
74103505,,Corte y recoleccion,B-21,14B21891,Enero,899965.9,0,1989,2020
74103505,,Corte y recoleccion,B-22,14B22891,Enero,886827.7,0,1989,2020
74103505,,Corte y recoleccion,B-23A,14B23A891,Enero,890581.5,0,1989,2020
74103505,,Corte y recoleccion,A-18A,14A18A911,Enero,681504.2,0,1991,2020
74103505,,Corte y recoleccion,A-19B,14A19B911,Enero,599686.5,0,1991,2020
74103505,,Corte y recoleccion,A-21B,14A21B951,Enero,500811.9,0,1995,2020
74103505,,Corte y recoleccion,A-22B,14A22B951,Enero,2250916.8,0,1995,2020
74103505,,Corte y recoleccion,A-23,14A23951,Enero,3184123.6,0,1995,2020
74103505,,Corte y recoleccion,A-24,14A24951,Enero,3136231.8,0,1995,2020
74103505,,Corte y recoleccion,A-25,14A25951,Enero,3069183.2,0,1995,2020
74103505,,Corte y recoleccion,A-26,14A26951,Enero,2108609.6,0,1995,2020
74103505,,Corte y recoleccion,A-27,14A27951,Enero,448815,0,1995,2020
74103505,,Corte y recoleccion,AP-21A,14AP21A951,Enero,541862,0,1995,2020
74103505,,Corte y recoleccion,AP-22,14AP22951,Enero,2278283.6,0,1995,2020
74103505,,Corte y recoleccion,AP-23,14AP23951,Enero,2326175.4,0,1995,2020
74103505,,Corte y recoleccion,AP-24,14AP24951,Enero,1762420,0,1995,2020
74103505,,Corte y recoleccion,AP-25A,14AP25A951,Enero,599332.3,0,1995,2020
74103505,,Corte y recoleccion,AP-26,14AP26951,Enero,142307.2,0,1995,2020
74103505,,Corte y recoleccion,B-23B,14B23B951,Enero,826476.4,0,1995,2020
74103505,,Corte y recoleccion,B-24,14B24951,Enero,990677.1,0,1995,2020
74103505,,Corte y recoleccion,B-28B,14B28B951,Enero,1167192.7,0,1995,2020
74103505,,Corte y recoleccion,B-29B,14B29B951,Enero,1079619.1,0,1995,2020
74103505,,Corte y recoleccion,B-30B,14B30B951,Enero,822371.4,0,1995,2020
74103505,,Corte y recoleccion,AP-21B,14AP21B961,Enero,1216020.9,0,1996,2020
74103505,,Corte y recoleccion,AP-20B,14AP20B961,Enero,572082.6,0,1996,2020
74103505,,Corte y recoleccion,A-16,14A16981,Enero,1711350.9,0,1998,2020
74103505,,Corte y recoleccion,A-17,14A17981,Enero,2274844.5,0,1998,2020
74103505,,Corte y recoleccion,A-18B,14A18B981,Enero,318617.4,0,1998,2020
74103505,,Corte y recoleccion,A-18C,14A18C981,Enero,798630.4,0,1998,2020
74103505,,Corte y recoleccion,A-MUISCAS,14AMSC981,Enero,2010489.5,0,1998,2020
74103505,,Corte y recoleccion,C-23B,14C23B981,Enero,666452.9,0,1998,2020
74103505,,Corte y recoleccion,MP-1A,14MP01A991,Enero,1271711.4,0,1999,2020
74103505,,Corte y recoleccion,MP-1B,14MP01B991,Enero,267469.6,0,1999,2020
74103505,,Corte y recoleccion,MP-1C,14MP01C991,Enero,884454.8,0,1999,2020
74103505,,Corte y recoleccion,MP-2A,14MP02A991,Enero,1245456.7,0,1999,2020
74103505,,Corte y recoleccion,MP-2B,14MP02B991,Enero,1140438,0,1999,2020
74103505,,Corte y recoleccion,MP-3A,14MP03A991,Enero,774513.3,0,1999,2020
74103505,,Corte y recoleccion,MP-3B,14MP03B991,Enero,487352.6,0,1999,2020
74103505,,Corte y recoleccion,MP-3C,14MP03C991,Enero,1158488.1,0,1999,2020
74103505,,Corte y recoleccion,MP-4,14MP04991,Enero,886095.7,0,1999,2020
74103505,,Corte y recoleccion,CHU-CRISTALINA,14CHCR991,Enero,643239.8,0,1999,2020
74103505,,Corte y recoleccion,CHU-SANJNT,14CHSJ991,Enero,441406.9,0,1999,2020
74103505,,Corte y recoleccion,AP-20C,14AP20C001,Enero,125247.7,0,2000,2020
74103505,,Corte y recoleccion,AP-25B,14AP25B001,Enero,276936.6,0,2000,2020
74103505,,Corte y recoleccion,AP-CAPRICHO,14CHCP001,Enero,1398599.2,0,2000,2020
74103505,,Corte y recoleccion,G-16BR,14G16B061,Enero,1657539.9,0,2006,2020
74103505,,Corte y recoleccion,G-17BR,14G17B061,Enero,1168279.9,0,2006,2020
74103505,,Corte y recoleccion,I-6B,14I06B081,Enero,1774529.1,0,2008,2020
74103505,,Corte y recoleccion,G-15AR,14G15A081,Enero,592419.7,0,2008,2020
74103505,,Corte y recoleccion,G-15BR,14G15B081,Enero,2575797.2,0,2008,2020
74103505,,Corte y recoleccion,G-16AR,14G16A081,Enero,1147983.8,0,2008,2020
74103505,,Corte y recoleccion,G-17AR,14G17A081,Enero,1796352,0,2008,2020
74103505,,Corte y recoleccion,G-18AR,14G18A081,Enero,2361506.1,0,2008,2020
74103505,,Corte y recoleccion,G-19BR,14G19B081,Enero,165167.7,0,2008,2020
74103505,,Corte y recoleccion,AP-20D,14AP20D101,Enero,945721.5,0,2010,2020
74103505,,Corte y recoleccion,AP-21C,14AP21C101,Enero,876009.1,0,2010,2020
74103505,,Corte y recoleccion,B-25,14B25101,Enero,1148282.2,0,2010,2020
74103505,,Corte y recoleccion,I-7B,14I07B101,Enero,302525.7,0,2010,2020
74103505,,Corte y recoleccion,I-11R,14I11101,Enero,3279115.2,0,2010,2020
74103505,,Corte y recoleccion,I-12R,14I12101,Enero,3154158.9,0,2010,2020
74103505,,Corte y recoleccion,I-13R,14I13101,Enero,3210718.1,0,2010,2020
74103505,,Corte y recoleccion,I-14R,14I14101,Enero,3152843.6,0,2010,2020
74103505,,Corte y recoleccion,I-15R,14I15101,Enero,3269907.9,0,2010,2020
74103505,,Corte y recoleccion,I-16R,14I16101,Enero,2313663.7,0,2010,2020
74103505,,Corte y recoleccion,I-17R,14I17101,Enero,1350842.9,0,2010,2020
74103505,,Corte y recoleccion,G-19AR,14G19A101,Enero,2833218.6,0,2010,2020
74103505,,Corte y recoleccion,G-14R,14G14101,Enero,2759560.2,0,2010,2020
74103505,,Corte y recoleccion,H-11AR,14H11A101,Enero,735268.9,0,2010,2020
74103505,,Corte y recoleccion,H-12AR,14H12A101,Enero,1369257.5,0,2010,2020
74103505,,Corte y recoleccion,H-13AR,14H13A101,Enero,2216329.3,0,2010,2020
74103505,,Corte y recoleccion,H-14AR,14H14A101,Enero,2876624.5,0,2010,2020
74103505,,Corte y recoleccion,H-22R,14H22111,Enero,2433022.9,0,2011,2020
74103505,,Corte y recoleccion,H-23R,14H23111,Enero,1826565,0,2011,2020
74103505,,Corte y recoleccion,CHU-3DR,14CH03D111,Enero,2772609.4,0,2011,2020
74103505,,Corte y recoleccion,CHU-3IR,14CH03I111,Enero,1392294.4,0,2011,2020
74103505,,Corte y recoleccion,E-22R,14E22111,Enero,2809362.4,0,2011,2020
74103505,,Corte y recoleccion,E-23R,14E23111,Enero,2905245.1,0,2011,2020
74103505,,Corte y recoleccion,F-15R,14F15111,Enero,1584461.2,0,2011,2020
74103505,,Corte y recoleccion,F-16R,14F16111,Enero,2640369.2,0,2011,2020
74103505,,Corte y recoleccion,F-20AR,14F20A111,Enero,220530.2,0,2011,2020
74103505,,Corte y recoleccion,F-21AR,14F21A111,Enero,770657,0,2011,2020
74103505,,Corte y recoleccion,G-18BR,14G18B111,Enero,640016.9,0,2011,2020
74103505,,Corte y recoleccion,G-20R,14G20111,Enero,2854906.7,0,2011,2020
74103505,,Corte y recoleccion,G-21R,14G21111,Enero,2883671.5,0,2011,2020
74103505,,Corte y recoleccion,H-15R,14H15111,Enero,2902848,0,2011,2020
74103505,,Corte y recoleccion,H-16R,14H16111,Enero,2850112.6,0,2011,2020
74103505,,Corte y recoleccion,H-18R,14H18111,Enero,3363084.9,0,2011,2020
74103505,,Corte y recoleccion,J9R,14J09121,Enero,0,0,2012,2020
74103505,,Corte y recoleccion,J10R,14J10121,Enero,0,0,2012,2020
74103505,,Corte y recoleccion,J11R,14J11121,Enero,0,0,2012,2020
74103505,,Corte y recoleccion,J12R,14J12121,Enero,0,0,2012,2020
74103505,,Corte y recoleccion,J13R,14J13121,Enero,0,0,2012,2020
74103505,,Corte y recoleccion,J14R,14J14121,Enero,0,0,2012,2020
74103505,,Corte y recoleccion,C-23AR,14C23A121,Enero,798560.7,0,2012,2020
74103505,,Corte y recoleccion,CHU-50R,14CH50121,Enero,3866211.3,0,2012,2020
74103505,,Corte y recoleccion,F-20BR,14F20B121,Enero,1541185.3,0,2012,2020
74103505,,Corte y recoleccion,F-21BR,14F21B121,Enero,1184961,0,2012,2020
74103505,,Corte y recoleccion,H-17R,14H17121,Enero,762684.2,0,2012,2020
74103505,,Corte y recoleccion,H-19R,14H19121,Enero,680495.7,0,2012,2020
74103505,,Corte y recoleccion,H-20R,14H20121,Enero,1068672.9,0,2012,2020
74103505,,Corte y recoleccion,H-21R,14H21121,Enero,1130497,0,2012,2020
74103505,,Corte y recoleccion,C-24R,14C24131,Enero,2319019.1,0,2013,2020
74103505,,Corte y recoleccion,B-26R,14B26131,Enero,1872833.9,0,2013,2020
74103505,,Corte y recoleccion,CHU-2R,14CH02131,Enero,3560329.3,0,2013,2020
74103505,,Corte y recoleccion,CHU-27R,14CH27131,Enero,1807622.2,0,2013,2020
74103505,,Corte y recoleccion,E-24R,14E24131,Enero,2678255.5,0,2013,2020
74103505,,Corte y recoleccion,E-34R,14E34131,Enero,2467747.6,0,2013,2020
74103505,,Corte y recoleccion,F-22AR,14F22A131,Enero,1221861.1,0,2013,2020
74103505,,Corte y recoleccion,F-22BR,14F22B131,Enero,1392326.7,0,2013,2020
74103505,,Corte y recoleccion,F-23AR,14F23A131,Enero,1769868.1,0,2013,2020
74103505,,Corte y recoleccion,F-23BR,14F23B131,Enero,863768.8,0,2013,2020
74103505,,Corte y recoleccion,F-24BR,14F24B131,Enero,377541.3,0,2013,2020
74103505,,Corte y recoleccion,G-11R,14G11131,Enero,526269.8,0,2013,2020
74103505,,Corte y recoleccion,G-12R,14G12131,Enero,1267623.7,0,2013,2020
74103505,,Corte y recoleccion,G-13R,14G13131,Enero,2140545,0,2013,2020
74103505,,Corte y recoleccion,G-22R,14G22131,Enero,2702280.8,0,2013,2020
74103505,,Corte y recoleccion,H-12BR,14H12B131,Enero,1171522.2,0,2013,2020
74103505,,Corte y recoleccion,H-13BR,14H13B131,Enero,475930.9,0,2013,2020
74103505,,Corte y recoleccion,CHU-1R,14CH01141,Enero,3496904.7,0,2014,2020
74103505,,Corte y recoleccion,CHU-1AR,14CH01A141,Enero,4318992.6,0,2014,2020
74103505,,Corte y recoleccion,CHU-1BR,14CH01B141,Enero,3227725.5,0,2014,2020
74103505,,Corte y recoleccion,CHU-10R,14CH10141,Enero,1391971.8,0,2014,2020
74103505,,Corte y recoleccion,CHU-ISLR,14CHIS141,Enero,1221006.6,0,2014,2020
74103505,,Corte y recoleccion,CHU-PLR,14CHPL141,Enero,2535377.2,0,2014,2020
74103505,,Corte y recoleccion,E-21R,14E21141,Enero,2908833,0,2014,2020
74103505,,Corte y recoleccion,F-28R,14F28141,Enero,2723317.6,0,2014,2020
74103505,,Corte y recoleccion,F-29R,14F29141,Enero,1657513.4,0,2014,2020
74103505,,Corte y recoleccion,F-30R,14F30141,Enero,1484123.2,0,2014,2020
74103505,,Corte y recoleccion,F-31R,14F31141,Enero,1518073.8,0,2014,2020
74103505,,Corte y recoleccion,F-32R,14F32141,Enero,1405309.5,0,2014,2020
74103505,,Corte y recoleccion,F-33R,14F33141,Enero,1139767.8,0,2014,2020
74103505,,Corte y recoleccion,G-23R,14G23141,Enero,2907620.5,0,2014,2020
74103505,,Corte y recoleccion,G-24R,14G24141,Enero,3704245.5,0,2014,2020
74103505,,Corte y recoleccion,G-25R,14G25141,Enero,2930658.4,0,2014,2020
74103505,,Corte y recoleccion,G-26R,14G26141,Enero,2009143.9,0,2014,2020
74103505,,Corte y recoleccion,G-27R,14G27141,Enero,1086417,0,2014,2020
74103505,,Corte y recoleccion,C-26R,14C26151,Enero,2059710.5,0,2015,2020
74103505,,Corte y recoleccion,C-27R,14C27151,Enero,2171365.1,0,2015,2020
74103505,,Corte y recoleccion,D-21R,14D21151,Enero,1050279.9,0,2015,2020
74103505,,Corte y recoleccion,D-22R,14D22151,Enero,1840032.2,0,2015,2020
74103505,,Corte y recoleccion,D-23R,14D23151,Enero,2047909.6,0,2015,2020
74103505,,Corte y recoleccion,E-25R,14E25151,Enero,2088758.8,0,2015,2020
74103505,,Corte y recoleccion,E-26R,14E26151,Enero,2060618.2,0,2015,2020
74103505,,Corte y recoleccion,E-27R,14E27151,Enero,2216753.2,0,2015,2020
74103505,,Corte y recoleccion,E-28R,14E28151,Enero,2171365.1,0,2015,2020
74103505,,Corte y recoleccion,F-17R,14F17151,Enero,2104190.8,0,2015,2020
74103505,,Corte y recoleccion,F-24AR,14F24A151,Enero,1660295.5,0,2015,2020
74103505,,Corte y recoleccion,F-25R,14F25151,Enero,2184073.8,0,2015,2020
74103505,,Corte y recoleccion,F-26R,14F26151,Enero,1787382.1,0,2015,2020
74103505,,Corte y recoleccion,F-27R,14F27151,Enero,1046648.8,0,2015,2020
74103505,,Corte y recoleccion,B-27R,14B27161,Enero,1305268.9,0,2016,2020
74103505,,Corte y recoleccion,B-28AR,14B28A161,Enero,1155286.2,0,2016,2020
74103505,,Corte y recoleccion,B-29AR,14B29A161,Enero,1178884.9,0,2016,2020
74103505,,Corte y recoleccion,C-25R,14C25161,Enero,1201434.7,0,2016,2020
74103505,,Corte y recoleccion,D-24R,14D24161,Enero,1182555.8,0,2016,2020
74103505,,Corte y recoleccion,E-17R,14E17161,Enero,724217.1,0,2016,2020
74103505,,Corte y recoleccion,E-18R,14E18161,Enero,1070331,0,2016,2020
74103505,,Corte y recoleccion,E-19R,14E19161,Enero,871053.3,0,2016,2020
74103505,,Corte y recoleccion,E-20R,14E20161,Enero,1143749.1,0,2016,2020
74103505,,Corte y recoleccion,F-18R,14F18161,Enero,1250729.7,0,2016,2020
74103505,,Corte y recoleccion,F-19R,14F19161,Enero,1200910.3,0,2016,2020
74103505,,Corte y recoleccion,H-9R,14H09161,Enero,701667.2,0,2016,2020
74103505,,Corte y recoleccion,I-5R,14I05161,Enero,398031,0,2016,2020
74103505,,Corte y recoleccion,I-6R,14I06161,Enero,621956.2,0,2016,2020
74103505,,Corte y recoleccion,I-7R,14I07161,Enero,704813.7,0,2016,2020
74103505,,Corte y recoleccion,I-8R,14I08161,Enero,809172.3,0,2016,2020
74103505,,Corte y recoleccion,I-9R,14I09161,Enero,1129589.9,0,2016,2020
74103505,,Corte y recoleccion,I-10R,14I10161,Enero,843783.7,0,2016,2020
74103505,,Corte y recoleccion,VIVERO,140101,Enero,0,0,2020,2020
74102505,71102005,Control de enfermedades,H-10,14H10881,Enero,164690.7,0,1988,2020
74102505,71102005,Control de enfermedades,H-11B,14H11B881,Enero,127657.3,0,1988,2020
74102505,71102005,Control de enfermedades,A-19A,14A19A891,Enero,96239.8,155.3,1989,2020
74102505,71102005,Control de enfermedades,A-20,14A20891,Enero,170306.6,155.3,1989,2020
74102505,71102005,Control de enfermedades,A-21A,14A21A891,Enero,128394,155.3,1989,2020
74102505,71102005,Control de enfermedades,A-22A,14A22A891,Enero,47057,232.9,1989,2020
74102505,71102005,Control de enfermedades,AP-18,14AP18891,Enero,139680.5,232.9,1989,2020
74102505,71102005,Control de enfermedades,AP-19,14AP19891,Enero,182872.8,232.9,1989,2020
74102505,71102005,Control de enfermedades,AP-20A,14AP20A891,Enero,92328.9,232.9,1989,2020
74102505,71102005,Control de enfermedades,B-20,14B20891,Enero,91011.3,621,1989,2020
74102505,71102005,Control de enfermedades,B-21,14B21891,Enero,117086.7,621,1989,2020
74102505,71102005,Control de enfermedades,B-22,14B22891,Enero,115966.9,621,1989,2020
74102505,71102005,Control de enfermedades,B-23A,14B23A891,Enero,116286.8,621,1989,2020
74102505,71102005,Control de enfermedades,A-18A,14A18A911,Enero,68724.7,155.3,1991,2020
74102505,71102005,Control de enfermedades,A-19B,14A19B911,Enero,61685.9,155.3,1991,2020
74102505,71102005,Control de enfermedades,A-21B,14A21B951,Enero,43208.9,155.3,1995,2020
74102505,71102005,Control de enfermedades,A-22B,14A22B951,Enero,158926.5,155.3,1995,2020
74102505,71102005,Control de enfermedades,A-23,14A23951,Enero,220630.5,155.3,1995,2020
74102505,71102005,Control de enfermedades,A-24,14A24951,Enero,217463.8,155.3,1995,2020
74102505,71102005,Control de enfermedades,A-25,14A25951,Enero,213030.6,155.3,1995,2020
74102505,71102005,Control de enfermedades,A-26,14A26951,Enero,149517.1,155.3,1995,2020
74102505,71102005,Control de enfermedades,A-27,14A27951,Enero,39770.9,155.3,1995,2020
74102505,71102005,Control de enfermedades,AP-21A,14AP21A951,Enero,45923.2,155.3,1995,2020
74102505,71102005,Control de enfermedades,AP-22,14AP22951,Enero,160736,155.3,1995,2020
74102505,71102005,Control de enfermedades,AP-23,14AP23951,Enero,163902.6,155.3,1995,2020
74102505,71102005,Control de enfermedades,AP-24,14AP24951,Enero,126626.9,155.3,1995,2020
74102505,71102005,Control de enfermedades,AP-25A,14AP25A951,Enero,49723.1,155.3,1995,2020
74102505,71102005,Control de enfermedades,AP-26,14AP26951,Enero,19504.5,155.3,1995,2020
74102505,71102005,Control de enfermedades,B-23B,14B23B951,Enero,64742,155.3,1995,2020
74102505,71102005,Control de enfermedades,B-24,14B24951,Enero,75599,155.3,1995,2020
74102505,71102005,Control de enfermedades,B-28B,14B28B951,Enero,87270.3,155.3,1995,2020
74102505,71102005,Control de enfermedades,B-29B,14B29B951,Enero,81479.9,155.3,1995,2020
74102505,71102005,Control de enfermedades,B-30B,14B30B951,Enero,64470.6,155.3,1995,2020
74102505,71102005,Control de enfermedades,AP-21B,14AP21B961,Enero,89713.1,155.3,1996,2020
74102505,71102005,Control de enfermedades,AP-20B,14AP20B961,Enero,47551.7,155.3,1996,2020
74102505,71102005,Control de enfermedades,A-16,14A16981,Enero,121379.4,155.3,1998,2020
74102505,71102005,Control de enfermedades,A-17,14A17981,Enero,158021.7,155.3,1998,2020
74102505,71102005,Control de enfermedades,A-18B,14A18B981,Enero,30813.9,155.3,1998,2020
74102505,71102005,Control de enfermedades,A-18C,14A18C981,Enero,62027.7,155.3,1998,2020
74102505,71102005,Control de enfermedades,A-MUISCAS,14AMSC981,Enero,140831.5,155.3,1998,2020
74102505,71102005,Control de enfermedades,C-23B,14C23B981,Enero,53432.6,155.3,1998,2020
74102505,71102005,Control de enfermedades,MP-1A,14MP01A991,Enero,75165.7,77.6,1999,2020
74102505,71102005,Control de enfermedades,MP-1B,14MP01B991,Enero,19795,77.6,1999,2020
74102505,71102005,Control de enfermedades,MP-1C,14MP01C991,Enero,53813.6,77.6,1999,2020
74102505,71102005,Control de enfermedades,MP-2A,14MP02A991,Enero,73718.1,77.6,1999,2020
74102505,71102005,Control de enfermedades,MP-2B,14MP02B991,Enero,67927.7,77.6,1999,2020
74102505,71102005,Control de enfermedades,MP-3A,14MP03A991,Enero,47751.8,77.6,1999,2020
74102505,71102005,Control de enfermedades,MP-3B,14MP03B991,Enero,31918.6,77.6,1999,2020
74102505,71102005,Control de enfermedades,MP-3C,14MP03C991,Enero,68922.9,77.6,1999,2020
74102505,71102005,Control de enfermedades,MP-4,14MP04991,Enero,53904.1,77.6,1999,2020
74102505,71102005,Control de enfermedades,CHU-CRISTALINA,14CHCR991,Enero,40513.8,77.6,1999,2020
74102505,71102005,Control de enfermedades,CHU-SANJNT,14CHSJ991,Enero,29385.3,77.6,1999,2020
74102505,71102005,Control de enfermedades,AP-20C,14AP20C001,Enero,13190.3,77.6,2000,2020
74102505,71102005,Control de enfermedades,AP-25B,14AP25B001,Enero,23052.1,77.6,2000,2020
74102505,71102005,Control de enfermedades,AP-CAPRICHO,14CHCP001,Enero,95974.9,77.6,2000,2020
74102505,71102005,Control de enfermedades,G-16BR,14G16B061,Enero,131188.8,0,2006,2020
74102505,71102005,Control de enfermedades,G-17BR,14G17B061,Enero,92465.5,0,2006,2020
74102505,71102005,Control de enfermedades,I-6B,14I06B081,Enero,132760.2,232.9,2008,2020
74102505,71102005,Control de enfermedades,G-15AR,14G15A081,Enero,39266.2,0,2008,2020
74102505,71102005,Control de enfermedades,G-15BR,14G15B081,Enero,170726.4,0,2008,2020
74102505,71102005,Control de enfermedades,G-16AR,14G16A081,Enero,76089.5,0,2008,2020
74102505,71102005,Control de enfermedades,G-17AR,14G17A081,Enero,118974.7,0,2008,2020
74102505,71102005,Control de enfermedades,G-18AR,14G18A081,Enero,156612.3,0,2008,2020
74102505,71102005,Control de enfermedades,G-19BR,14G19B081,Enero,10947.5,0,2008,2020
74102505,71102005,Control de enfermedades,AP-20D,14AP20D101,Enero,65051.5,0,2010,2020
74102505,71102005,Control de enfermedades,AP-21C,14AP21C101,Enero,60256.4,0,2010,2020
74102505,71102005,Control de enfermedades,B-25,14B25101,Enero,78984.7,0,2010,2020
74102505,71102005,Control de enfermedades,I-7B,14I07B101,Enero,20809.3,0,2010,2020
74102505,71102005,Control de enfermedades,I-11R,14I11101,Enero,225554.2,0,2010,2020
74102505,71102005,Control de enfermedades,I-12R,14I12101,Enero,216959.1,0,2010,2020
74102505,71102005,Control de enfermedades,I-13R,14I13101,Enero,220849.5,0,2010,2020
74102505,71102005,Control de enfermedades,I-14R,14I14101,Enero,216868.6,0,2010,2020
74102505,71102005,Control de enfermedades,I-15R,14I15101,Enero,224920.9,0,2010,2020
74102505,71102005,Control de enfermedades,I-16R,14I16101,Enero,159145.6,0,2010,2020
74102505,71102005,Control de enfermedades,I-17R,14I17101,Enero,92917.8,0,2010,2020
74102505,71102005,Control de enfermedades,G-19AR,14G19A101,Enero,194883.2,0,2010,2020
74102505,71102005,Control de enfermedades,G-14R,14G14101,Enero,189816.6,0,2010,2020
74102505,71102005,Control de enfermedades,H-11AR,14H11A101,Enero,50575.5,0,2010,2020
74102505,71102005,Control de enfermedades,H-12AR,14H12A101,Enero,94184.5,0,2010,2020
74102505,71102005,Control de enfermedades,H-13AR,14H13A101,Enero,152450.4,0,2010,2020
74102505,71102005,Control de enfermedades,H-14AR,14H14A101,Enero,197868.9,0,2010,2020
74102505,71102005,Control de enfermedades,H-22R,14H22111,Enero,183664.3,0,2011,2020
74102505,71102005,Control de enfermedades,H-23R,14H23111,Enero,137883.9,0,2011,2020
74102505,71102005,Control de enfermedades,CHU-3DR,14CH03D111,Enero,143764.8,0,2011,2020
74102505,71102005,Control de enfermedades,CHU-3IR,14CH03I111,Enero,170635.9,0,2011,2020
74102505,71102005,Control de enfermedades,E-22R,14E22111,Enero,388374.2,48515.6,2011,2020
74102505,71102005,Control de enfermedades,E-23R,14E23111,Enero,219311.4,0,2011,2020
74102505,71102005,Control de enfermedades,F-15R,14F15111,Enero,119608,0,2011,2020
74102505,71102005,Control de enfermedades,F-16R,14F16111,Enero,199316.5,0,2011,2020
74102505,71102005,Control de enfermedades,F-20AR,14F20A111,Enero,16647.4,0,2011,2020
74102505,71102005,Control de enfermedades,F-21AR,14F21A111,Enero,58175.4,0,2011,2020
74102505,71102005,Control de enfermedades,G-18BR,14G18B111,Enero,48313.7,0,2011,2020
74102505,71102005,Control de enfermedades,G-20R,14G20111,Enero,333045.3,32343.8,2011,2020
74102505,71102005,Control de enfermedades,G-21R,14G21111,Enero,335216.7,32343.8,2011,2020
74102505,71102005,Control de enfermedades,H-15R,14H15111,Enero,219130.5,0,2011,2020
74102505,71102005,Control de enfermedades,H-16R,14H16111,Enero,215149.6,0,2011,2020
74102505,71102005,Control de enfermedades,H-18R,14H18111,Enero,253872.9,0,2011,2020
74102505,71102005,Control de enfermedades,J9R,14J09121,Enero,0,0,2012,2020
74102505,71102005,Control de enfermedades,J10R,14J10121,Enero,0,0,2012,2020
74102505,71102005,Control de enfermedades,J11R,14J11121,Enero,0,0,2012,2020
74102505,71102005,Control de enfermedades,J12R,14J12121,Enero,0,0,2012,2020
74102505,71102005,Control de enfermedades,J13R,14J13121,Enero,0,0,2012,2020
74102505,71102005,Control de enfermedades,J14R,14J14121,Enero,0,0,2012,2020
74102505,71102005,Control de enfermedades,C-23AR,14C23A121,Enero,337994.3,70048.8,2012,2020
74102505,71102005,Control de enfermedades,CHU-50R,14CH50121,Enero,976031.3,158494.7,2012,2020
74102505,71102005,Control de enfermedades,F-20BR,14F20B121,Enero,435695.9,72222.3,2012,2020
74102505,71102005,Control de enfermedades,F-21BR,14F21B121,Enero,394516.8,73107.2,2012,2020
74102505,71102005,Control de enfermedades,H-17R,14H17121,Enero,392009.4,55600.2,2012,2020
74102505,71102005,Control de enfermedades,H-19R,14H19121,Enero,195516.5,0,2012,2020
74102505,71102005,Control de enfermedades,H-20R,14H20121,Enero,387092.1,75436,2012,2020
74102505,71102005,Control de enfermedades,H-21R,14H21121,Enero,385623.1,72362,2012,2020
74102505,71102005,Control de enfermedades,C-24R,14C24131,Enero,380923.6,62457.1,2013,2020
74102505,71102005,Control de enfermedades,B-26R,14B26131,Enero,320126.4,53809.7,2013,2020
74102505,71102005,Control de enfermedades,CHU-2R,14CH02131,Enero,561762.6,90479.7,2013,2020
74102505,71102005,Control de enfermedades,CHU-27R,14CH27131,Enero,240235.2,32975.1,2013,2020
74102505,71102005,Control de enfermedades,E-24R,14E24131,Enero,508700.9,89393,2013,2020
74102505,71102005,Control de enfermedades,E-34R,14E34131,Enero,443182.1,72827.8,2013,2020
74102505,71102005,Control de enfermedades,F-22AR,14F22A131,Enero,336960,70219.6,2013,2020
74102505,71102005,Control de enfermedades,F-22BR,14F22B131,Enero,343570.4,67890.8,2013,2020
74102505,71102005,Control de enfermedades,F-23AR,14F23A131,Enero,377732.6,69350.2,2013,2020
74102505,71102005,Control de enfermedades,F-23BR,14F23B131,Enero,285923.3,62519.2,2013,2020
74102505,71102005,Control de enfermedades,F-24BR,14F24B131,Enero,95557.7,19271.7,2013,2020
74102505,71102005,Control de enfermedades,G-11R,14G11131,Enero,118357.9,23013.2,2013,2020
74102505,71102005,Control de enfermedades,G-12R,14G12131,Enero,216833.9,36520,2013,2020
74102505,71102005,Control de enfermedades,G-13R,14G13131,Enero,343852.4,56174.6,2013,2020
74102505,71102005,Control de enfermedades,G-22R,14G22131,Enero,554939.9,100674.5,2013,2020
74102505,71102005,Control de enfermedades,H-12BR,14H12B131,Enero,203508.7,34579.4,2013,2020
74102505,71102005,Control de enfermedades,H-13BR,14H13B131,Enero,117079.3,23929.2,2013,2020
74102505,71102005,Control de enfermedades,CHU-1R,14CH01141,Enero,506402.7,78204.6,2014,2020
74102505,71102005,Control de enfermedades,CHU-1AR,14CH01A141,Enero,1068838.9,247582.4,2014,2020
74102505,71102005,Control de enfermedades,CHU-1BR,14CH01B141,Enero,811885.2,188711.6,2014,2020
74102505,71102005,Control de enfermedades,CHU-10R,14CH10141,Enero,377066.6,88808.2,2014,2020
74102505,71102005,Control de enfermedades,CHU-ISLR,14CHIS141,Enero,355501.6,85920.5,2014,2020
74102505,71102005,Control de enfermedades,CHU-PLR,14CHPL141,Enero,693648.8,166541.9,2014,2020
74102505,71102005,Control de enfermedades,E-21R,14E21141,Enero,571121.3,107107,2014,2020
74102505,71102005,Control de enfermedades,F-28R,14F28141,Enero,670551.2,153102.4,2014,2020
74102505,71102005,Control de enfermedades,F-29R,14F29141,Enero,426533.2,97957.6,2014,2020
74102505,71102005,Control de enfermedades,F-30R,14F30141,Enero,362186.8,80631.7,2014,2020
74102505,71102005,Control de enfermedades,F-31R,14F31141,Enero,376319.7,84544,2014,2020
74102505,71102005,Control de enfermedades,F-32R,14F32141,Enero,320446.8,68522.2,2014,2020
74102505,71102005,Control de enfermedades,F-33R,14F33141,Enero,286581,63911.3,2014,2020
74102505,71102005,Control de enfermedades,G-23R,14G23141,Enero,830454.5,195040.6,2014,2020
74102505,71102005,Control de enfermedades,G-24R,14G24141,Enero,741467.5,144273.8,2014,2020
74102505,71102005,Control de enfermedades,G-25R,14G25141,Enero,474749.7,83620.2,2014,2020
74102505,71102005,Control de enfermedades,G-26R,14G26141,Enero,333942.4,59727.3,2014,2020
74102505,71102005,Control de enfermedades,G-27R,14G27141,Enero,191393.7,35275.4,2014,2020
74102505,71102005,Control de enfermedades,C-26R,14C26151,Enero,529790.4,102421,2015,2020
74102505,71102005,Control de enfermedades,C-27R,14C27151,Enero,548453.2,104889.5,2015,2020
74102505,71102005,Control de enfermedades,D-21R,14D21151,Enero,589488.4,276971.1,2015,2020
74102505,71102005,Control de enfermedades,D-22R,14D22151,Enero,981891.1,472507.4,2015,2020
74102505,71102005,Control de enfermedades,D-23R,14D23151,Enero,1134940.9,540843.3,2015,2020
74102505,71102005,Control de enfermedades,E-25R,14E25151,Enero,1144622.9,547359.3,2015,2020
74102505,71102005,Control de enfermedades,E-26R,14E26151,Enero,1132997.2,541190.7,2015,2020
74102505,71102005,Control de enfermedades,E-27R,14E27151,Enero,1192740.2,573803,2015,2020
74102505,71102005,Control de enfermedades,E-28R,14E28151,Enero,1134462.3,550455.8,2015,2020
74102505,71102005,Control de enfermedades,F-17R,14F17151,Enero,1141771.9,547614.8,2015,2020
74102505,71102005,Control de enfermedades,F-24AR,14F24A151,Enero,379635.2,65324,2015,2020
74102505,71102005,Control de enfermedades,F-25R,14F25151,Enero,535389.5,100022.4,2015,2020
74102505,71102005,Control de enfermedades,F-26R,14F26151,Enero,460605.2,88378.7,2015,2020
74102505,71102005,Control de enfermedades,F-27R,14F27151,Enero,321967.9,66977.4,2015,2020
74102505,71102005,Control de enfermedades,B-27R,14B27161,Enero,602036.8,117011.9,2016,2020
74102505,71102005,Control de enfermedades,B-28AR,14B28A161,Enero,559567.4,111585.9,2016,2020
74102505,71102005,Control de enfermedades,B-29AR,14B29A161,Enero,557822.4,109583.2,2016,2020
74102505,71102005,Control de enfermedades,C-25R,14C25161,Enero,587221.3,118199.6,2016,2020
74102505,71102005,Control de enfermedades,D-24R,14D24161,Enero,566164.9,112191.4,2016,2020
74102505,71102005,Control de enfermedades,E-17R,14E17161,Enero,770704.6,351496.8,2016,2020
74102505,71102005,Control de enfermedades,E-18R,14E18161,Enero,1040289.5,490310.1,2016,2020
74102505,71102005,Control de enfermedades,E-19R,14E19161,Enero,854192.6,399919.9,2016,2020
74102505,71102005,Control de enfermedades,E-20R,14E20161,Enero,1066266,509177.2,2016,2020
74102505,71102005,Control de enfermedades,F-18R,14F18161,Enero,1224700.5,577541.4,2016,2020
74102505,71102005,Control de enfermedades,F-19R,14F19161,Enero,1121083.4,535592,2016,2020
74102505,71102005,Control de enfermedades,H-9R,14H09161,Enero,755906.2,343390.3,2016,2020
74102505,71102005,Control de enfermedades,I-5R,14I05161,Enero,478658.2,207801.2,2016,2020
74102505,71102005,Control de enfermedades,I-6R,14I06161,Enero,668839.7,302954,2016,2020
74102505,71102005,Control de enfermedades,I-7R,14I07161,Enero,717678.7,330864.1,2016,2020
74102505,71102005,Control de enfermedades,I-8R,14I08161,Enero,809448.2,376272.6,2016,2020
74102505,71102005,Control de enfermedades,I-9R,14I09161,Enero,1091744.6,515872.7,2016,2020
74102505,71102005,Control de enfermedades,I-10R,14I10161,Enero,870902.9,401846.5,2016,2020
74102505,71102005,Control de enfermedades,VIVERO,140101,Enero,1591,0,2020,2020
74103005,71101505,Control de plagas,H-10,14H10881,Enero,217080.7,104464.1,1988,2020
74103005,71101505,Control de plagas,H-11B,14H11B881,Enero,166846.4,80973.6,1988,2020
74103005,71101505,Control de plagas,A-19A,14A19A891,Enero,112590,54642,1989,2020
74103005,71101505,Control de plagas,A-20,14A20891,Enero,209394.4,101622.9,1989,2020
74103005,71101505,Control de plagas,A-21A,14A21A891,Enero,158278.4,75037.6,1989,2020
74103005,71101505,Control de plagas,A-22A,14A22A891,Enero,41711.6,20243.4,1989,2020
74103005,71101505,Control de plagas,AP-18,14AP18891,Enero,165517.4,78995,1989,2020
74103005,71101505,Control de plagas,AP-19,14AP19891,Enero,221053.2,106392.1,1989,2020
74103005,71101505,Control de plagas,AP-20A,14AP20A891,Enero,100881.5,48959.6,1989,2020
74103005,71101505,Control de plagas,B-20,14B20891,Enero,66174.1,32115.5,1989,2020
74103005,71101505,Control de plagas,B-21,14B21891,Enero,100254.2,48655.2,1989,2020
74103005,71101505,Control de plagas,B-22,14B22891,Enero,98790.7,47944.9,1989,2020
74103005,71101505,Control de plagas,B-23A,14B23A891,Enero,99208.8,48147.9,1989,2020
74103005,71101505,Control de plagas,A-18A,14A18A911,Enero,76628.1,37189,1991,2020
74103005,71101505,Control de plagas,A-19B,14A19B911,Enero,67428.5,32724.3,1991,2020
74103005,71101505,Control de plagas,A-21B,14A21B951,Enero,38742.3,18569.1,1995,2020
74103005,71101505,Control de plagas,A-22B,14A22B951,Enero,174128.6,83459.7,1995,2020
74103005,71101505,Control de plagas,A-23,14A23951,Enero,246320.5,118061.2,1995,2020
74103005,71101505,Control de plagas,A-24,14A24951,Enero,242615.7,116285.5,1995,2020
74103005,71101505,Control de plagas,A-25,14A25951,Enero,237428.9,113799.4,1995,2020
74103005,71101505,Control de plagas,A-26,14A26951,Enero,163119.9,78183.2,1995,2020
74103005,71101505,Control de plagas,A-27,14A27951,Enero,34719.9,16641.2,1995,2020
74103005,71101505,Control de plagas,AP-21A,14AP21A951,Enero,41917.9,20091.2,1995,2020
74103005,71101505,Control de plagas,AP-22,14AP22951,Enero,176245.7,84474.4,1995,2020
74103005,71101505,Control de plagas,AP-23,14AP23951,Enero,179950.5,86250.1,1995,2020
74103005,71101505,Control de plagas,AP-24,14AP24951,Enero,136339,65347.2,1995,2020
74103005,71101505,Control de plagas,AP-25A,14AP25A951,Enero,46363.7,22222.1,1995,2020
74103005,71101505,Control de plagas,AP-26,14AP26951,Enero,11008.7,5276.5,1995,2020
74103005,71101505,Control de plagas,B-23B,14B23B951,Enero,66683.4,30644.2,1995,2020
74103005,71101505,Control de plagas,B-24,14B24951,Enero,76637.8,36732.4,1995,2020
74103005,71101505,Control de plagas,B-28B,14B28B951,Enero,90292.8,43277.3,1995,2020
74103005,71101505,Control de plagas,B-29B,14B29B951,Enero,89930.3,40030.2,1995,2020
74103005,71101505,Control de plagas,B-30B,14B30B951,Enero,63617.8,30492,1995,2020
74103005,71101505,Control de plagas,AP-21B,14AP21B961,Enero,94982.9,44647.1,1996,2020
74103005,71101505,Control de plagas,AP-20B,14AP20B961,Enero,46571.3,21004.4,1996,2020
74103005,71101505,Control de plagas,A-16,14A16981,Enero,188478.4,77092.2,1998,2020
74103005,71101505,Control de plagas,A-17,14A17981,Enero,174902.1,82952.3,1998,2020
74103005,71101505,Control de plagas,A-18B,14A18B981,Enero,24240.4,11618.4,1998,2020
74103005,71101505,Control de plagas,A-18C,14A18C981,Enero,60759.8,29122.1,1998,2020
74103005,71101505,Control de plagas,A-MUISCAS,14AMSC981,Enero,159370.1,73312.6,1998,2020
74103005,71101505,Control de plagas,C-23B,14C23B981,Enero,50703.7,24302.2,1998,2020
74103005,71101505,Control de plagas,MP-1A,14MP01A991,Enero,82036.3,39319.9,1999,2020
74103005,71101505,Control de plagas,MP-1B,14MP01B991,Enero,17254.1,8269.9,1999,2020
74103005,71101505,Control de plagas,MP-1C,14MP01C991,Enero,57054.9,27346.4,1999,2020
74103005,71101505,Control de plagas,MP-2A,14MP02A991,Enero,80342.6,38508.1,1999,2020
74103005,71101505,Control de plagas,MP-2B,14MP02B991,Enero,73568,35261.1,1999,2020
74103005,71101505,Control de plagas,MP-3A,14MP03A991,Enero,49962.7,23947.1,1999,2020
74103005,71101505,Control de plagas,MP-3B,14MP03B991,Enero,31438.4,15068.4,1999,2020
74103005,71101505,Control de plagas,MP-3C,14MP03C991,Enero,74732.4,35819.2,1999,2020
74103005,71101505,Control de plagas,MP-4,14MP04991,Enero,57160.8,27397.1,1999,2020
74103005,71101505,Control de plagas,CHU-CRISTALINA,14CHCR991,Enero,41494.5,19888.3,1999,2020
74103005,71101505,Control de plagas,CHU-SANJNT,14CHSJ991,Enero,28474.5,13647.8,1999,2020
74103005,71101505,Control de plagas,AP-20C,14AP20C001,Enero,9526.8,4566.2,2000,2020
74103005,71101505,Control de plagas,AP-25B,14AP25B001,Enero,21064.8,10096.3,2000,2020
74103005,71101505,Control de plagas,AP-CAPRICHO,14CHCP001,Enero,110962.6,50989,2000,2020
74103005,71101505,Control de plagas,G-16BR,14G16B061,Enero,153487.2,73566.3,2006,2020
74103005,71101505,Control de plagas,G-17BR,14G17B061,Enero,108182,51851.5,2006,2020
74103005,71101505,Control de plagas,I-6B,14I06B081,Enero,137609.2,65956,2008,2020
74103005,71101505,Control de plagas,G-15AR,14G15A081,Enero,45940.3,22019.2,2008,2020
74103005,71101505,Control de plagas,G-15BR,14G15B081,Enero,199745.1,95737.6,2008,2020
74103005,71101505,Control de plagas,G-16AR,14G16A081,Enero,89022.6,42668.4,2008,2020
74103005,71101505,Control de plagas,G-17AR,14G17A081,Enero,139197,66717,2008,2020
74103005,71101505,Control de plagas,G-18AR,14G18A081,Enero,183232,87822.9,2008,2020
74103005,71101505,Control de plagas,G-19BR,14G19B081,Enero,12808.2,6139,2008,2020
74103005,71101505,Control de plagas,AP-20D,14AP20D101,Enero,76108.5,36478.7,2010,2020
74103005,71101505,Control de plagas,AP-21C,14AP21C101,Enero,70498.3,33789.8,2010,2020
74103005,71101505,Control de plagas,B-25,14B25101,Enero,92409.9,44292,2010,2020
74103005,71101505,Control de plagas,I-7B,14I07B101,Enero,24346.2,11669.1,2010,2020
74103005,71101505,Control de plagas,I-11R,14I11101,Enero,263892.2,126483.3,2010,2020
74103005,71101505,Control de plagas,I-12R,14I12101,Enero,253836.1,121663.4,2010,2020
74103005,71101505,Control de plagas,I-13R,14I13101,Enero,258387.8,123845,2010,2020
74103005,71101505,Control de plagas,I-14R,14I14101,Enero,253730.3,121612.7,2010,2020
74103005,71101505,Control de plagas,I-15R,14I15101,Enero,266815.3,126128.1,2010,2020
74103005,71101505,Control de plagas,I-16R,14I16101,Enero,189859.9,89243.5,2010,2020
74103005,71101505,Control de plagas,I-17R,14I17101,Enero,112375.4,52105.2,2010,2020
74103005,71101505,Control de plagas,G-19AR,14G19A101,Enero,228007.9,109284,2010,2020
74103005,71101505,Control de plagas,G-14R,14G14101,Enero,231240.3,106442.8,2010,2020
74103005,71101505,Control de plagas,H-11AR,14H11A101,Enero,59172,28361.1,2010,2020
74103005,71101505,Control de plagas,H-12AR,14H12A101,Enero,110193.2,52815.5,2010,2020
74103005,71101505,Control de plagas,H-13AR,14H13A101,Enero,178362.7,85489.1,2010,2020
74103005,71101505,Control de plagas,H-14AR,14H14A101,Enero,231501.1,110958.3,2010,2020
74103005,71101505,Control de plagas,H-22R,14H22111,Enero,217630.2,102992.8,2011,2020
74103005,71101505,Control de plagas,H-23R,14H23111,Enero,164068.4,77320.7,2011,2020
74103005,71101505,Control de plagas,CHU-3DR,14CH03D111,Enero,168200.8,80618.5,2011,2020
74103005,71101505,Control de plagas,CHU-3IR,14CH03I111,Enero,210631.5,95686.9,2011,2020
74103005,71101505,Control de plagas,E-22R,14E22111,Enero,254532.2,118923.7,2011,2020
74103005,71101505,Control de plagas,E-23R,14E23111,Enero,256588.3,122982.5,2011,2020
74103005,71101505,Control de plagas,F-15R,14F15111,Enero,153678.3,67072.2,2011,2020
74103005,71101505,Control de plagas,F-16R,14F16111,Enero,235942.8,111770,2011,2020
74103005,71101505,Control de plagas,F-20AR,14F20A111,Enero,19477,9335.3,2011,2020
74103005,71101505,Control de plagas,F-21AR,14F21A111,Enero,68063.6,32622.8,2011,2020
74103005,71101505,Control de plagas,G-18BR,14G18B111,Enero,56525.6,27092.7,2011,2020
74103005,71101505,Control de plagas,G-20R,14G20111,Enero,252142.5,120851.6,2011,2020
74103005,71101505,Control de plagas,G-21R,14G21111,Enero,254682.9,122069.3,2011,2020
74103005,71101505,Control de plagas,H-15R,14H15111,Enero,256376.6,122881.1,2011,2020
74103005,71101505,Control de plagas,H-16R,14H16111,Enero,251719,120648.7,2011,2020
74103005,71101505,Control de plagas,H-18R,14H18111,Enero,355303.1,157051.1,2011,2020
74103005,71101505,Control de plagas,J9R,14J09121,Enero,0,0,2012,2020
74103005,71101505,Control de plagas,J10R,14J10121,Enero,0,0,2012,2020
74103005,71101505,Control de plagas,J11R,14J11121,Enero,0,0,2012,2020
74103005,71101505,Control de plagas,J12R,14J12121,Enero,0,0,2012,2020
74103005,71101505,Control de plagas,J13R,14J13121,Enero,0,0,2012,2020
74103005,71101505,Control de plagas,J14R,14J14121,Enero,0,0,2012,2020
74103005,71101505,Control de plagas,C-23AR,14C23A121,Enero,114850.8,55047.9,2012,2020
74103005,71101505,Control de plagas,CHU-50R,14CH50121,Enero,556047.2,266512.9,2012,2020
74103005,71101505,Control de plagas,F-20BR,14F20B121,Enero,221656.7,106239.9,2012,2020
74103005,71101505,Control de plagas,F-21BR,14F21B121,Enero,170423.7,81683.9,2012,2020
74103005,71101505,Control de plagas,H-17R,14H17121,Enero,256376.6,122881.1,2012,2020
74103005,71101505,Control de plagas,H-19R,14H19121,Enero,232413,109639.1,2012,2020
74103005,71101505,Control de plagas,H-20R,14H20121,Enero,157363,73667.8,2012,2020
74103005,71101505,Control de plagas,H-21R,14H21121,Enero,166254.7,77929.5,2012,2020
74103005,71101505,Control de plagas,C-24R,14C24131,Enero,214564.5,102840.6,2013,2020
74103005,71101505,Control de plagas,B-26R,14B26131,Enero,173281.8,83053.8,2013,2020
74103005,71101505,Control de plagas,CHU-2R,14CH02131,Enero,329415.3,157888.5,2013,2020
74103005,71101505,Control de plagas,CHU-27R,14CH27131,Enero,167248.1,80161.9,2013,2020
74103005,71101505,Control de plagas,E-24R,14E24131,Enero,247802.5,118771.5,2013,2020
74103005,71101505,Control de plagas,E-34R,14E34131,Enero,228325.5,109436.2,2013,2020
74103005,71101505,Control de plagas,F-22AR,14F22A131,Enero,113051.3,54185.4,2013,2020
74103005,71101505,Control de plagas,F-22BR,14F22B131,Enero,128823.4,61744.9,2013,2020
74103005,71101505,Control de plagas,F-23AR,14F23A131,Enero,163755,78487.6,2013,2020
74103005,71101505,Control de plagas,F-23BR,14F23B131,Enero,79919.2,38305.2,2013,2020
74103005,71101505,Control de plagas,F-24BR,14F24B131,Enero,34931.6,16742.7,2013,2020
74103005,71101505,Control de plagas,G-11R,14G11131,Enero,48692.5,23338.3,2013,2020
74103005,71101505,Control de plagas,G-12R,14G12131,Enero,117285.4,56214.8,2013,2020
74103005,71101505,Control de plagas,G-13R,14G13131,Enero,198051.4,94925.9,2013,2020
74103005,71101505,Control de plagas,G-22R,14G22131,Enero,250025.4,119836.9,2013,2020
74103005,71101505,Control de plagas,H-12BR,14H12B131,Enero,108393.7,51953,2013,2020
74103005,71101505,Control de plagas,H-13BR,14H13B131,Enero,44035,21105.9,2013,2020
74103005,71101505,Control de plagas,CHU-1R,14CH01141,Enero,566252.6,185029.8,2014,2020
74103005,71101505,Control de plagas,CHU-1AR,14CH01A141,Enero,633288.3,219428.4,2014,2020
74103005,71101505,Control de plagas,CHU-1BR,14CH01B141,Enero,293870.7,135057.6,2014,2020
74103005,71101505,Control de plagas,CHU-10R,14CH10141,Enero,124362.9,58244.2,2014,2020
74103005,71101505,Control de plagas,CHU-ISLR,14CHIS141,Enero,112752.4,51090.5,2014,2020
74103005,71101505,Control de plagas,CHU-PLR,14CHPL141,Enero,226518.1,106087.7,2014,2020
74103005,71101505,Control de plagas,E-21R,14E21141,Enero,1097176.4,146639.4,2014,2020
74103005,71101505,Control de plagas,F-28R,14F28141,Enero,246057.3,113951.6,2014,2020
74103005,71101505,Control de plagas,F-29R,14F29141,Enero,148087.2,69355.2,2014,2020
74103005,71101505,Control de plagas,F-30R,14F30141,Enero,135344,62100.1,2014,2020
74103005,71101505,Control de plagas,F-31R,14F31141,Enero,138377.3,63520.7,2014,2020
74103005,71101505,Control de plagas,F-32R,14F32141,Enero,128302.6,58802.3,2014,2020
74103005,71101505,Control de plagas,F-33R,14F33141,Enero,160109.1,62378.9,2014,2020
74103005,71101505,Control de plagas,G-23R,14G23141,Enero,259775.4,121663.4,2014,2020
74103005,71101505,Control de plagas,G-24R,14G24141,Enero,333696.3,154996.6,2014,2020
74103005,71101505,Control de plagas,G-25R,14G25141,Enero,264581.8,122627.4,2014,2020
74103005,71101505,Control de plagas,G-26R,14G26141,Enero,183166.9,84068.5,2014,2020
74103005,71101505,Control de plagas,G-27R,14G27141,Enero,99811.8,45458.9,2014,2020
74103005,71101505,Control de plagas,C-26R,14C26151,Enero,245224.9,115118.6,2015,2020
74103005,71101505,Control de plagas,C-27R,14C27151,Enero,258518.3,121359,2015,2020
74103005,71101505,Control de plagas,D-21R,14D21151,Enero,125044.2,58700.8,2015,2020
74103005,71101505,Control de plagas,D-22R,14D22151,Enero,219070.5,102840.6,2015,2020
74103005,71101505,Control de plagas,D-23R,14D23151,Enero,243819.9,114459,2015,2020
74103005,71101505,Control de plagas,E-25R,14E25151,Enero,248683.4,116742.1,2015,2020
74103005,71101505,Control de plagas,E-26R,14E26151,Enero,245333,115169.3,2015,2020
74103005,71101505,Control de plagas,E-27R,14E27151,Enero,263922.1,123895.8,2015,2020
74103005,71101505,Control de plagas,E-28R,14E28151,Enero,582840.9,121359,2015,2020
74103005,71101505,Control de plagas,F-17R,14F17151,Enero,250520.7,117604.6,2015,2020
74103005,71101505,Control de plagas,F-24AR,14F24A151,Enero,197671.4,92795,2015,2020
74103005,71101505,Control de plagas,F-25R,14F25151,Enero,260031.4,122069.3,2015,2020
74103005,71101505,Control de plagas,F-26R,14F26151,Enero,212802.1,99897.9,2015,2020
74103005,71101505,Control de plagas,F-27R,14F27151,Enero,124611.9,58497.9,2015,2020
74103005,71101505,Control de plagas,B-27R,14B27161,Enero,269001.7,126280.3,2016,2020
74103005,71101505,Control de plagas,B-28AR,14B28A161,Enero,238091.9,111770,2016,2020
74103005,71101505,Control de plagas,B-29AR,14B29A161,Enero,242955.3,114053.1,2016,2020
74103005,71101505,Control de plagas,C-25R,14C25161,Enero,492271.2,154943.7,2016,2020
74103005,71101505,Control de plagas,D-24R,14D24161,Enero,243711.9,114408.3,2016,2020
74103005,71101505,Control de plagas,E-17R,14E17161,Enero,448536.7,123462.2,2016,2020
74103005,71101505,Control de plagas,E-18R,14E18161,Enero,465252.2,142259.9,2016,2020
74103005,71101505,Control de plagas,E-19R,14E19161,Enero,503837.2,84271.4,2016,2020
74103005,71101505,Control de plagas,E-20R,14E20161,Enero,560036.8,110653.8,2016,2020
74103005,71101505,Control de plagas,F-18R,14F18161,Enero,582084.4,121003.9,2016,2020
74103005,71101505,Control de plagas,F-19R,14F19161,Enero,247494.5,116184,2016,2020
74103005,71101505,Control de plagas,H-9R,14H09161,Enero,144606,67883.9,2016,2020
74103005,71101505,Control de plagas,I-5R,14I05161,Enero,82029.8,38508.1,2016,2020
74103005,71101505,Control de plagas,I-6R,14I06161,Enero,128178.4,60172.1,2016,2020
74103005,71101505,Control de plagas,I-7R,14I07161,Enero,145254.4,68188.3,2016,2020
74103005,71101505,Control de plagas,I-8R,14I08161,Enero,166761.6,78284.7,2016,2020
74103005,71101505,Control de plagas,I-9R,14I09161,Enero,232796.2,109284,2016,2020
74103005,71101505,Control de plagas,I-10R,14I10161,Enero,173894.6,81633.2,2016,2020
74103005,71101505,Control de plagas,VIVERO,140101,Enero,1640.6,0,2020,2020
74102005,71101005,Arvenses,H-10,14H10881,Enero,3065,0,1988,2020
74102005,71101005,Arvenses,H-11B,14H11B881,Enero,2375.8,0,1988,2020
74102005,71101005,Arvenses,A-19A,14A19A891,Enero,1603.2,0,1989,2020
74102005,71101005,Arvenses,A-20,14A20891,Enero,2981.7,0,1989,2020
74102005,71101005,Arvenses,A-21A,14A21A891,Enero,2201.6,0,1989,2020
74102005,71101005,Arvenses,A-22A,14A22A891,Enero,593.9,0,1989,2020
74102005,71101005,Arvenses,AP-18,14AP18891,Enero,2317.7,0,1989,2020
74102005,71101005,Arvenses,AP-19,14AP19891,Enero,3121.6,0,1989,2020
74102005,71101005,Arvenses,AP-20A,14AP20A891,Enero,1436.5,0,1989,2020
74102005,71101005,Arvenses,B-20,14B20891,Enero,942.3,0,1989,2020
74102005,71101005,Arvenses,B-21,14B21891,Enero,1427.6,0,1989,2020
74102005,71101005,Arvenses,B-22,14B22891,Enero,1406.7,0,1989,2020
74102005,71101005,Arvenses,B-23A,14B23A891,Enero,1412.7,0,1989,2020
74102005,71101005,Arvenses,A-18A,14A18A911,Enero,1091.1,0,1991,2020
74102005,71101005,Arvenses,A-19B,14A19B911,Enero,960.1,0,1991,2020
74102005,71101005,Arvenses,A-21B,14A21B951,Enero,544.8,0,1995,2020
74102005,71101005,Arvenses,A-22B,14A22B951,Enero,2448.7,0,1995,2020
74102005,71101005,Arvenses,A-23,14A23951,Enero,3464,0,1995,2020
74102005,71101005,Arvenses,A-24,14A24951,Enero,3411.9,0,1995,2020
74102005,71101005,Arvenses,A-25,14A25951,Enero,3338.9,0,1995,2020
74102005,71101005,Arvenses,A-26,14A26951,Enero,2293.9,0,1995,2020
74102005,71101005,Arvenses,A-27,14A27951,Enero,488.3,0,1995,2020
74102005,71101005,Arvenses,AP-21A,14AP21A951,Enero,589.5,0,1995,2020
74102005,71101005,Arvenses,AP-22,14AP22951,Enero,2478.5,0,1995,2020
74102005,71101005,Arvenses,AP-23,14AP23951,Enero,2530.6,0,1995,2020
74102005,71101005,Arvenses,AP-24,14AP24951,Enero,1917.3,0,1995,2020
74102005,71101005,Arvenses,AP-25A,14AP25A951,Enero,652,0,1995,2020
74102005,71101005,Arvenses,AP-26,14AP26951,Enero,154.8,0,1995,2020
74102005,71101005,Arvenses,B-23B,14B23B951,Enero,899.1,0,1995,2020
74102005,71101005,Arvenses,B-24,14B24951,Enero,1077.7,0,1995,2020
74102005,71101005,Arvenses,B-28B,14B28B951,Enero,1269.8,0,1995,2020
74102005,71101005,Arvenses,B-29B,14B29B951,Enero,1174.5,0,1995,2020
74102005,71101005,Arvenses,B-30B,14B30B951,Enero,894.6,0,1995,2020
74102005,71101005,Arvenses,AP-21B,14AP21B961,Enero,1310,0,1996,2020
74102005,71101005,Arvenses,AP-20B,14AP20B961,Enero,616.3,0,1996,2020
74102005,71101005,Arvenses,A-16,14A16981,Enero,1831,0,1998,2020
74102005,71101005,Arvenses,A-17,14A17981,Enero,2433.9,0,1998,2020
74102005,71101005,Arvenses,A-18B,14A18B981,Enero,340.9,0,1998,2020
74102005,71101005,Arvenses,A-18C,14A18C981,Enero,854.5,0,1998,2020
74102005,71101005,Arvenses,A-MUISCAS,14AMSC981,Enero,2151,0,1998,2020
74102005,71101005,Arvenses,C-23B,14C23B981,Enero,713,0,1998,2020
74102005,71101005,Arvenses,MP-1A,14MP01A991,Enero,1153.7,0,1999,2020
74102005,71101005,Arvenses,MP-1B,14MP01B991,Enero,242.6,0,1999,2020
74102005,71101005,Arvenses,MP-1C,14MP01C991,Enero,802.4,0,1999,2020
74102005,71101005,Arvenses,MP-2A,14MP02A991,Enero,1129.8,0,1999,2020
74102005,71101005,Arvenses,MP-2B,14MP02B991,Enero,1034.6,0,1999,2020
74102005,71101005,Arvenses,MP-3A,14MP03A991,Enero,702.6,0,1999,2020
74102005,71101005,Arvenses,MP-3B,14MP03B991,Enero,442.1,0,1999,2020
74102005,71101005,Arvenses,MP-3C,14MP03C991,Enero,1050.9,0,1999,2020
74102005,71101005,Arvenses,MP-4,14MP04991,Enero,803.8,0,1999,2020
74102005,71101005,Arvenses,CHU-CRISTALINA,14CHCR991,Enero,583.5,0,1999,2020
74102005,71101005,Arvenses,CHU-SANJNT,14CHSJ991,Enero,400.4,0,1999,2020
74102005,71101005,Arvenses,AP-20C,14AP20C001,Enero,134,0,2000,2020
74102005,71101005,Arvenses,AP-25B,14AP25B001,Enero,296.2,0,2000,2020
74102005,71101005,Arvenses,AP-CAPRICHO,14CHCP001,Enero,1496,0,2000,2020
74102005,71101005,Arvenses,G-16BR,14G16B061,Enero,2158.5,0,2006,2020
74102005,71101005,Arvenses,G-17BR,14G17B061,Enero,1521.3,0,2006,2020
74102005,71101005,Arvenses,I-6B,14I06B081,Enero,1935.2,0,2008,2020
74102005,71101005,Arvenses,G-15AR,14G15A081,Enero,646.1,0,2008,2020
74102005,71101005,Arvenses,G-15BR,14G15B081,Enero,2809,0,2008,2020
74102005,71101005,Arvenses,G-16AR,14G16A081,Enero,1251.9,0,2008,2020
74102005,71101005,Arvenses,G-17AR,14G17A081,Enero,1957.5,0,2008,2020
74102005,71101005,Arvenses,G-18AR,14G18A081,Enero,2576.8,0,2008,2020
74102005,71101005,Arvenses,G-19BR,14G19B081,Enero,180.1,0,2008,2020
74102005,71101005,Arvenses,AP-20D,14AP20D101,Enero,1070.3,0,2010,2020
74102005,71101005,Arvenses,AP-21C,14AP21C101,Enero,991.4,0,2010,2020
74102005,71101005,Arvenses,B-25,14B25101,Enero,0,0,2010,2020
74102005,71101005,Arvenses,I-7B,14I07B101,Enero,342.4,0,2010,2020
74102005,71101005,Arvenses,I-11R,14I11101,Enero,3711.1,0,2010,2020
74102005,71101005,Arvenses,I-12R,14I12101,Enero,3569.7,0,2010,2020
74102005,71101005,Arvenses,I-13R,14I13101,Enero,3633.7,0,2010,2020
74102005,71101005,Arvenses,I-14R,14I14101,Enero,3568.2,0,2010,2020
74102005,71101005,Arvenses,I-15R,14I15101,Enero,3700.6,0,2010,2020
74102005,71101005,Arvenses,I-16R,14I16101,Enero,2618.4,0,2010,2020
74102005,71101005,Arvenses,I-17R,14I17101,Enero,1528.8,0,2010,2020
74102005,71101005,Arvenses,G-19AR,14G19A101,Enero,3206.4,0,2010,2020
74102005,71101005,Arvenses,G-14R,14G14101,Enero,3123.1,0,2010,2020
74102005,71101005,Arvenses,H-11AR,14H11A101,Enero,216635.2,0,2010,2020
74102005,71101005,Arvenses,H-12AR,14H12A101,Enero,1549.6,0,2010,2020
74102005,71101005,Arvenses,H-13AR,14H13A101,Enero,649917.4,0,2010,2020
74102005,71101005,Arvenses,H-14AR,14H14A101,Enero,3255.6,0,2010,2020
74102005,71101005,Arvenses,H-22R,14H22111,Enero,3021.8,0,2011,2020
74102005,71101005,Arvenses,H-23R,14H23111,Enero,2268.6,0,2011,2020
74102005,71101005,Arvenses,CHU-3DR,14CH03D111,Enero,2365.4,0,2011,2020
74102005,71101005,Arvenses,CHU-3IR,14CH03I111,Enero,2807.5,0,2011,2020
74102005,71101005,Arvenses,E-22R,14E22111,Enero,3489.3,0,2011,2020
74102005,71101005,Arvenses,E-23R,14E23111,Enero,3608.4,0,2011,2020
74102005,71101005,Arvenses,F-15R,14F15111,Enero,1967.9,0,2011,2020
74102005,71101005,Arvenses,F-16R,14F16111,Enero,3279.4,0,2011,2020
74102005,71101005,Arvenses,F-20AR,14F20A111,Enero,273.9,0,2011,2020
74102005,71101005,Arvenses,F-21AR,14F21A111,Enero,957.2,0,2011,2020
74102005,71101005,Arvenses,G-18BR,14G18B111,Enero,794.9,0,2011,2020
74102005,71101005,Arvenses,G-20R,14G20111,Enero,3545.8,0,2011,2020
74102005,71101005,Arvenses,G-21R,14G21111,Enero,3581.6,0,2011,2020
74102005,71101005,Arvenses,H-15R,14H15111,Enero,866817.5,0,2011,2020
74102005,71101005,Arvenses,H-16R,14H16111,Enero,3539.9,0,2011,2020
74102005,71101005,Arvenses,H-18R,14H18111,Enero,4177,0,2011,2020
74102005,71101005,Arvenses,J9R,14J09121,Enero,0,0,2012,2020
74102005,71101005,Arvenses,J10R,14J10121,Enero,0,0,2012,2020
74102005,71101005,Arvenses,J11R,14J11121,Enero,0,0,2012,2020
74102005,71101005,Arvenses,J12R,14J12121,Enero,0,0,2012,2020
74102005,71101005,Arvenses,J13R,14J13121,Enero,0,0,2012,2020
74102005,71101005,Arvenses,J14R,14J14121,Enero,0,0,2012,2020
74102005,71101005,Arvenses,C-23AR,14C23A121,Enero,1615.1,0,2012,2020
74102005,71101005,Arvenses,CHU-50R,14CH50121,Enero,7819.6,0,2012,2020
74102005,71101005,Arvenses,F-20BR,14F20B121,Enero,3117.1,0,2012,2020
74102005,71101005,Arvenses,F-21BR,14F21B121,Enero,2396.6,0,2012,2020
74102005,71101005,Arvenses,H-17R,14H17121,Enero,3605.4,0,2012,2020
74102005,71101005,Arvenses,H-19R,14H19121,Enero,3216.9,0,2012,2020
74102005,71101005,Arvenses,H-20R,14H20121,Enero,2161.4,0,2012,2020
74102005,71101005,Arvenses,H-21R,14H21121,Enero,2286.5,0,2012,2020
74102005,71101005,Arvenses,C-24R,14C24131,Enero,3017.4,0,2013,2020
74102005,71101005,Arvenses,B-26R,14B26131,Enero,2436.8,0,2013,2020
74102005,71101005,Arvenses,CHU-2R,14CH02131,Enero,4632.5,0,2013,2020
74102005,71101005,Arvenses,CHU-27R,14CH27131,Enero,2352,0,2013,2020
74102005,71101005,Arvenses,E-24R,14E24131,Enero,3484.8,0,2013,2020
74102005,71101005,Arvenses,E-34R,14E34131,Enero,3210.9,0,2013,2020
74102005,71101005,Arvenses,F-22AR,14F22A131,Enero,1589.8,0,2013,2020
74102005,71101005,Arvenses,F-22BR,14F22B131,Enero,1811.6,0,2013,2020
74102005,71101005,Arvenses,F-23AR,14F23A131,Enero,2302.9,0,2013,2020
74102005,71101005,Arvenses,F-23BR,14F23B131,Enero,1123.9,0,2013,2020
74102005,71101005,Arvenses,F-24BR,14F24B131,Enero,491.2,0,2013,2020
74102005,71101005,Arvenses,G-11R,14G11131,Enero,684.8,0,2013,2020
74102005,71101005,Arvenses,G-12R,14G12131,Enero,1649.4,0,2013,2020
74102005,71101005,Arvenses,G-13R,14G13131,Enero,2785.2,0,2013,2020
74102005,71101005,Arvenses,G-22R,14G22131,Enero,3516.1,0,2013,2020
74102005,71101005,Arvenses,H-12BR,14H12B131,Enero,1524.3,0,2013,2020
74102005,71101005,Arvenses,H-13BR,14H13B131,Enero,619.3,0,2013,2020
74102005,71101005,Arvenses,CHU-1R,14CH01141,Enero,148493.1,0,2014,2020
74102005,71101005,Arvenses,CHU-1AR,14CH01A141,Enero,183402.4,0,2014,2020
74102005,71101005,Arvenses,CHU-1BR,14CH01B141,Enero,137062.6,0,2014,2020
74102005,71101005,Arvenses,CHU-10R,14CH10141,Enero,59108.9,0,2014,2020
74102005,71101005,Arvenses,CHU-ISLR,14CHIS141,Enero,51849,0,2014,2020
74102005,71101005,Arvenses,CHU-PLR,14CHPL141,Enero,1223262.6,0,2014,2020
74102005,71101005,Arvenses,E-21R,14E21141,Enero,123521.1,0,2014,2020
74102005,71101005,Arvenses,F-28R,14F28141,Enero,1110144.3,0,2014,2020
74102005,71101005,Arvenses,F-29R,14F29141,Enero,664379.3,0,2014,2020
74102005,71101005,Arvenses,F-30R,14F30141,Enero,531181.6,0,2014,2020
74102005,71101005,Arvenses,F-31R,14F31141,Enero,561037.6,0,2014,2020
74102005,71101005,Arvenses,F-32R,14F32141,Enero,439885.8,0,2014,2020
74102005,71101005,Arvenses,F-33R,14F33141,Enero,395121.5,0,2014,2020
74102005,71101005,Arvenses,G-23R,14G23141,Enero,123469.7,0,2014,2020
74102005,71101005,Arvenses,G-24R,14G24141,Enero,1548245.9,0,2014,2020
74102005,71101005,Arvenses,G-25R,14G25141,Enero,1245121.9,0,2014,2020
74102005,71101005,Arvenses,G-26R,14G26141,Enero,858930.1,0,2014,2020
74102005,71101005,Arvenses,G-27R,14G27141,Enero,464568.3,0,2014,2020
74102005,71101005,Arvenses,C-26R,14C26151,Enero,1233644.1,0,2015,2020
74102005,71101005,Arvenses,C-27R,14C27151,Enero,1276101,0,2015,2020
74102005,71101005,Arvenses,D-21R,14D21151,Enero,440947.4,0,2015,2020
74102005,71101005,Arvenses,D-22R,14D22151,Enero,108778.2,0,2015,2020
74102005,71101005,Arvenses,D-23R,14D23151,Enero,121067.4,0,2015,2020
74102005,71101005,Arvenses,E-25R,14E25151,Enero,123482.3,0,2015,2020
74102005,71101005,Arvenses,E-26R,14E26151,Enero,1194458.9,0,2015,2020
74102005,71101005,Arvenses,E-27R,14E27151,Enero,1069411.7,0,2015,2020
74102005,71101005,Arvenses,E-28R,14E28151,Enero,871343.1,0,2015,2020
74102005,71101005,Arvenses,F-17R,14F17151,Enero,8494.6,0,2015,2020
74102005,71101005,Arvenses,F-24AR,14F24A151,Enero,579724.5,0,2015,2020
74102005,71101005,Arvenses,F-25R,14F25151,Enero,8817.1,0,2015,2020
74102005,71101005,Arvenses,F-26R,14F26151,Enero,7215.6,0,2015,2020
74102005,71101005,Arvenses,F-27R,14F27151,Enero,4225.3,0,2015,2020
74102005,71101005,Arvenses,B-27R,14B27161,Enero,9121.2,0,2016,2020
74102005,71101005,Arvenses,B-28AR,14B28A161,Enero,8073.1,0,2016,2020
74102005,71101005,Arvenses,B-29AR,14B29A161,Enero,8238,0,2016,2020
74102005,71101005,Arvenses,C-25R,14C25161,Enero,8395.6,0,2016,2020
74102005,71101005,Arvenses,D-24R,14D24161,Enero,8263.7,0,2016,2020
74102005,71101005,Arvenses,E-17R,14E17161,Enero,645735.9,0,2016,2020
74102005,71101005,Arvenses,E-18R,14E18161,Enero,800035.8,0,2016,2020
74102005,71101005,Arvenses,E-19R,14E19161,Enero,559151.2,0,2016,2020
74102005,71101005,Arvenses,E-20R,14E20161,Enero,679111.5,0,2016,2020
74102005,71101005,Arvenses,F-18R,14F18161,Enero,8740.1,0,2016,2020
74102005,71101005,Arvenses,F-19R,14F19161,Enero,755282.4,0,2016,2020
74102005,71101005,Arvenses,H-9R,14H09161,Enero,649299.2,0,2016,2020
74102005,71101005,Arvenses,I-5R,14I05161,Enero,313309.3,0,2016,2020
74102005,71101005,Arvenses,I-6R,14I06161,Enero,490772.2,0,2016,2020
74102005,71101005,Arvenses,I-7R,14I07161,Enero,450421.1,0,2016,2020
74102005,71101005,Arvenses,I-8R,14I08161,Enero,548570.8,0,2016,2020
74102005,71101005,Arvenses,I-9R,14I09161,Enero,7893.6,0,2016,2020
74102005,71101005,Arvenses,I-10R,14I10161,Enero,733844,0,2016,2020
74102005,71101005,Arvenses,VIVERO,140101,Enero,0,0,2020,2020
74105505,,Poda,H-10,14H10881,Enero,0,0,1988,2020
74105505,,Poda,H-11B,14H11B881,Enero,0,0,1988,2020
74105505,,Poda,A-19A,14A19A891,Enero,0,0,1989,2020
74105505,,Poda,A-20,14A20891,Enero,0,0,1989,2020
74105505,,Poda,A-21A,14A21A891,Enero,0,0,1989,2020
74105505,,Poda,A-22A,14A22A891,Enero,0,0,1989,2020
74105505,,Poda,AP-18,14AP18891,Enero,0,0,1989,2020
74105505,,Poda,AP-19,14AP19891,Enero,0,0,1989,2020
74105505,,Poda,AP-20A,14AP20A891,Enero,0,0,1989,2020
74105505,,Poda,B-20,14B20891,Enero,0,0,1989,2020
74105505,,Poda,B-21,14B21891,Enero,0,0,1989,2020
74105505,,Poda,B-22,14B22891,Enero,0,0,1989,2020
74105505,,Poda,B-23A,14B23A891,Enero,0,0,1989,2020
74105505,,Poda,A-18A,14A18A911,Enero,0,0,1991,2020
74105505,,Poda,A-19B,14A19B911,Enero,0,0,1991,2020
74105505,,Poda,A-21B,14A21B951,Enero,247.3,0,1995,2020
74105505,,Poda,A-22B,14A22B951,Enero,1111.4,0,1995,2020
74105505,,Poda,A-23,14A23951,Enero,1572.1,0,1995,2020
74105505,,Poda,A-24,14A24951,Enero,1548.5,0,1995,2020
74105505,,Poda,A-25,14A25951,Enero,1515.4,0,1995,2020
74105505,,Poda,A-26,14A26951,Enero,1041.1,0,1995,2020
74105505,,Poda,A-27,14A27951,Enero,221.6,0,1995,2020
74105505,,Poda,AP-21A,14AP21A951,Enero,267.5,0,1995,2020
74105505,,Poda,AP-22,14AP22951,Enero,1124.9,0,1995,2020
74105505,,Poda,AP-23,14AP23951,Enero,1148.5,0,1995,2020
74105505,,Poda,AP-24,14AP24951,Enero,870.2,0,1995,2020
74105505,,Poda,AP-25A,14AP25A951,Enero,295.9,0,1995,2020
74105505,,Poda,AP-26,14AP26951,Enero,70.3,0,1995,2020
74105505,,Poda,B-23B,14B23B951,Enero,408.1,0,1995,2020
74105505,,Poda,B-24,14B24951,Enero,489.1,0,1995,2020
74105505,,Poda,B-28B,14B28B951,Enero,576.3,0,1995,2020
74105505,,Poda,B-29B,14B29B951,Enero,533,0,1995,2020
74105505,,Poda,B-30B,14B30B951,Enero,406,0,1995,2020
74105505,,Poda,AP-21B,14AP21B961,Enero,594.5,0,1996,2020
74105505,,Poda,AP-20B,14AP20B961,Enero,279.7,0,1996,2020
74105505,,Poda,A-16,14A16981,Enero,1681419,0,1998,2020
74105505,,Poda,A-17,14A17981,Enero,2216200.6,0,1998,2020
74105505,,Poda,A-18B,14A18B981,Enero,316314.7,0,1998,2020
74105505,,Poda,A-18C,14A18C981,Enero,785847.8,0,1998,2020
74105505,,Poda,A-MUISCAS,14AMSC981,Enero,1930540.2,0,1998,2020
74105505,,Poda,C-23B,14C23B981,Enero,323.6,0,1998,2020
74105505,,Poda,MP-1A,14MP01A991,Enero,523.6,0,1999,2020
74105505,,Poda,MP-1B,14MP01B991,Enero,110.1,0,1999,2020
74105505,,Poda,MP-1C,14MP01C991,Enero,364.1,0,1999,2020
74105505,,Poda,MP-2A,14MP02A991,Enero,512.8,0,1999,2020
74105505,,Poda,MP-2B,14MP02B991,Enero,469.5,0,1999,2020
74105505,,Poda,MP-3A,14MP03A991,Enero,318.9,0,1999,2020
74105505,,Poda,MP-3B,14MP03B991,Enero,200.7,0,1999,2020
74105505,,Poda,MP-3C,14MP03C991,Enero,477,0,1999,2020
74105505,,Poda,MP-4,14MP04991,Enero,364.8,0,1999,2020
74105505,,Poda,CHU-CRISTALINA,14CHCR991,Enero,264.8,0,1999,2020
74105505,,Poda,CHU-SANJNT,14CHSJ991,Enero,181.7,0,1999,2020
74105505,,Poda,AP-20C,14AP20C001,Enero,60.8,0,2000,2020
74105505,,Poda,AP-25B,14AP25B001,Enero,134.4,0,2000,2020
74105505,,Poda,AP-CAPRICHO,14CHCP001,Enero,679,0,2000,2020
74105505,,Poda,G-16BR,14G16B061,Enero,979.6,0,2006,2020
74105505,,Poda,G-17BR,14G17B061,Enero,690.5,0,2006,2020
74105505,,Poda,I-6B,14I06B081,Enero,1467016.3,0,2008,2020
74105505,,Poda,G-15AR,14G15A081,Enero,293.2,0,2008,2020
74105505,,Poda,G-15BR,14G15B081,Enero,1274.8,0,2008,2020
74105505,,Poda,G-16AR,14G16A081,Enero,568.2,0,2008,2020
74105505,,Poda,G-17AR,14G17A081,Enero,888.4,0,2008,2020
74105505,,Poda,G-18AR,14G18A081,Enero,1169.5,0,2008,2020
74105505,,Poda,G-19BR,14G19B081,Enero,81.7,0,2008,2020
74105505,,Poda,AP-20D,14AP20D101,Enero,485.8,0,2010,2020
74105505,,Poda,AP-21C,14AP21C101,Enero,449.9,0,2010,2020
74105505,,Poda,B-25,14B25101,Enero,589.8,0,2010,2020
74105505,,Poda,I-7B,14I07B101,Enero,155.4,0,2010,2020
74105505,,Poda,I-11R,14I11101,Enero,1684.3,0,2010,2020
74105505,,Poda,I-12R,14I12101,Enero,1620.1,0,2010,2020
74105505,,Poda,I-13R,14I13101,Enero,1649.1,0,2010,2020
74105505,,Poda,I-14R,14I14101,Enero,1619.4,0,2010,2020
74105505,,Poda,I-15R,14I15101,Enero,1679.5,0,2010,2020
74105505,,Poda,I-16R,14I16101,Enero,1188.4,0,2010,2020
74105505,,Poda,I-17R,14I17101,Enero,693.8,0,2010,2020
74105505,,Poda,G-19AR,14G19A101,Enero,1455.2,0,2010,2020
74105505,,Poda,G-14R,14G14101,Enero,1417.4,0,2010,2020
74105505,,Poda,H-11AR,14H11A101,Enero,377.7,0,2010,2020
74105505,,Poda,H-12AR,14H12A101,Enero,703.3,0,2010,2020
74105505,,Poda,H-13AR,14H13A101,Enero,1138.4,0,2010,2020
74105505,,Poda,H-14AR,14H14A101,Enero,1477.5,0,2010,2020
74105505,,Poda,H-22R,14H22111,Enero,1371.5,0,2011,2020
74105505,,Poda,H-23R,14H23111,Enero,1029.6,0,2011,2020
74105505,,Poda,CHU-3DR,14CH03D111,Enero,1073.5,0,2011,2020
74105505,,Poda,CHU-3IR,14CH03I111,Enero,1274.2,0,2011,2020
74105505,,Poda,E-22R,14E22111,Enero,1583.6,0,2011,2020
74105505,,Poda,E-23R,14E23111,Enero,1637.6,0,2011,2020
74105505,,Poda,F-15R,14F15111,Enero,893.1,0,2011,2020
74105505,,Poda,F-16R,14F16111,Enero,1488.3,0,2011,2020
74105505,,Poda,F-20AR,14F20A111,Enero,124.3,0,2011,2020
74105505,,Poda,F-21AR,14F21A111,Enero,434.4,0,2011,2020
74105505,,Poda,G-18BR,14G18B111,Enero,360.8,0,2011,2020
74105505,,Poda,G-20R,14G20111,Enero,1609.3,0,2011,2020
74105505,,Poda,G-21R,14G21111,Enero,1625.5,0,2011,2020
74105505,,Poda,H-15R,14H15111,Enero,1636.3,0,2011,2020
74105505,,Poda,H-16R,14H16111,Enero,2204404.6,0,2011,2020
74105505,,Poda,H-18R,14H18111,Enero,1895.7,0,2011,2020
74105505,,Poda,J9R,14J09121,Enero,0,0,2012,2020
74105505,,Poda,J10R,14J10121,Enero,0,0,2012,2020
74105505,,Poda,J11R,14J11121,Enero,0,0,2012,2020
74105505,,Poda,J12R,14J12121,Enero,0,0,2012,2020
74105505,,Poda,J13R,14J13121,Enero,0,0,2012,2020
74105505,,Poda,J14R,14J14121,Enero,0,0,2012,2020
74105505,,Poda,C-23AR,14C23A121,Enero,733,0,2012,2020
