Actividad Agrimanager,Ceco Presupuesto,Cultivo,Plantacion
APLICACION FOLIAR CACAO MENOR A 1 ANO-Nexarte Servicios temporales S.A-G C H,Control de plagas,Cacao,Huila
APLICACION FOLIAR VIVERO CACAO-Agricola El Poleo-V C C,Vivero,Cacao,Villanueva
AUXILIAR AGRONOMIA CACAO-Agricola El Poleo-V C C,Fertilización,Cacao,Villanueva
AUXILIAR AGRONOMIA FERTILIZACION CACAO,Fertilización,Cacao,Villanueva
AUXILIAR AGRONOMIA FERTILIZACION CACAO-Agricola El Poleo-V C C,Fertilización,Cacao,Villanueva
AUXILIAR AGRONOMIA MANTENIMIENTO CACAO-Agricola El Poleo-V C C,Censos y Conteos,Cacao,Villanueva
CARGUE PLANTULAS Y FERTILIZANTE SIEMBRA CACAO-Agricola El Poleo-V C C,Siembra,Cacao,Villanueva
CARGUE Y DIST. FERTILIZANTE CACAO-Agricola El Poleo-V C C,Fertilización,Cacao,Villanueva
CENSO DE PLAGAS Y ENFERMEDADES-Nexarte Servicios temporales S.A-G C H,Censos y Conteos,Cacao,Huila
CENSO DE PRODUCCION CACAO-Agricola El Poleo-V C C,Censos y Conteos,Cacao,Villanueva
CONTEO DE POBLACION-Agricola El Poleo-V C C,Censos y Conteos,Cacao,Villanueva
CONTEO ESTIMADO DE RACIMOS 1987-1988 -1989-LUKER AGRICOLA-P V C,Control de enfermedades,Cacao,Villanueva
CONTEO-Nexarte Servicios temporales S.A-G C H,Censos y Conteos,Cacao,Huila
CONTROL DE HORMIGAS MENOR PRECIO-Agricola El Poleo-N C A,Control de plagas,Cacao,Necocli
CONTROL DE HORMIGAS MENOR PRECIO-LUKER AGRICOLA-N C A,Control de plagas,Cacao,Necocli
CONTROL DE TERMITAS HA-Agricola El Poleo-N C A,Control de plagas,Cacao,Necocli
CONTROL DE TERMITAS HA-LUKER AGRICOLA-N C A,Control de plagas,Cacao,Necocli
CONTROL FITOSANITARIO MANUAL CACAO-Agricola El Poleo-V C C,Control de enfermedades,Cacao,Villanueva
CONTROL FITOSANITARIO MANUAL CACAO-Agroindustria Feleda-V C C,Control de enfermedades,Cacao,Villanueva
CONTROL FITOSANITARIO MENOR PRECIO -Agricola El Poleo-N C A,Fitosanitario,Cacao,Necocli
CONTROL FITOSANITARIO MENOR PRECIO -LUKER AGRICOLA-N C A,Fitosanitario,Cacao,Necocli
CONTROL FITOSANITARIO-Agricola El Poleo-N C A,Fitosanitario,Cacao,Necocli
CONTROL FITOSANITARIO-LUKER AGRICOLA-N C A,Fitosanitario,Cacao,Necocli
CONTROL HORMIGA ARRIERA LOTES CACAO-Agricola El Poleo-V C C,Control de plagas,Cacao,Villanueva
CONTROL HORMIGAS-Nexarte Servicios temporales S.A-G C H,Control de plagas,Cacao,Huila
CONTROL MALEZAS GUADANA-Agricola El Poleo-N C A,Arvenses,Cacao,Necocli
CONTROL MALEZAS QUIMICO-Agricola El Poleo-N C A,Arvenses,Cacao,Necocli
CONTROL PLAGAS TRACTOR CACAO-Agricola El Poleo-V C C,Control de plagas,Cacao,Villanueva
CONTROL QUIMICO ARVENSES CACAO-Agricola El Poleo-V C C,Arvenses,Cacao,Villanueva
CONTROL QUIMICO CANALES INTERLINEALES CACAO-Agricola El Poleo-V C C,Riego y Drenajes,Cacao,Villanueva
CORTE Y RECOLECCION DE CACAO AREA - Nexarte Servicios temporales S.A - N C A,Corte y recoleccion,Cacao,Necocli
CORTE Y RECOLECCION DE CACAO KILO - Nexarte Servicios temporales S.A - N C A,Corte y recoleccion,Cacao,Necocli
DESBEJUCADA EN CACAO-Nexarte Servicios temporales S.A-G C H,Arvenses,Cacao,Huila
DESCHUPONE DE CACAO POR HA-Agricola El Poleo-N C A,Arvenses,Cacao,Necocli
DESCHUPONE-Agricola El Poleo-V C C,Poda,Cacao,Villanueva
DESHIERBE BOLSA VIVERO CACAO-Agricola El Poleo-V C C,Vivero,Cacao,Villanueva
DESPATRONAJE-Agricola El Poleo-V C C,injertacion,Cacao,Villanueva
DESTRUCTOR DE TERMITAS-Agricola El Poleo-N C A,Control de plagas,Cacao,Necocli
ELABORACION CEBO PARA RATONES-Agricola El Poleo-P V C,Siembra,Cacao,Villanueva
ENCANASTILLADA PLANTAS DE CACAO-Agricola El Poleo-V C C,Siembra,Cacao,Villanueva
EQUIPADA APLICACION ENMIENDA CACAO-Agricola El Poleo-V C C,Fertilización,Cacao,Villanueva
ERRADICACION PALMA EN LOTES DE CACAO-Agroindustria Feleda-V C C,Adecuacion de terreno,Cacao,Villanueva
ERVICIO SUPERVISION LABORES CULTIVO CACAO AR-Agricola El Poleo-V C C,Arvenses,Cacao,Villanueva
ESCUELA PODA DE CACAO-Agricola El Poleo-V C C,Poda,Cacao,Villanueva
ESCUELA PODA DE CACAO-Nexarte Servicios temporales S.A-V C C,Poda,Cacao,Villanueva
EVALUACIONES FITOSANITARIAS -Agricola El Poleo-N C A,Fitosanitario,Cacao,Necocli
EVALUACIONES FITOSANITARIAS -LUKER AGRICOLA-N C A,Fitosanitario,Cacao,Necocli
FERTILIZACION CACAO > A 250 GRAMOS-Agricola El Poleo-V C C,Fertilización,Cacao,Villanueva
FERTILIZACION EDAFICA CACAO-Agricola El Poleo-V C C,Fertilización,Cacao,Villanueva
FERTILIZACION EDAFICA VIVERO CACAO 2017-Agricola El Poleo-V C C,Vivero,Cacao,Villanueva
FERTILIZACION EDAFICA-Nexarte Servicios temporales S.A-G C H,Fertilización,Cacao,Huila
FERTILIZACION FOLIAR RESIEMBRAS -Agricola El Poleo-N C A,Fertilización,Cacao,Necocli
FERTILIZACIÓN HORMONAL CON MOTOR- Agricola El Poleo- N C A,Fertilización,Cacao,Necocli
FERTILIZACIÓN HORMONAL CON MOTOR- LUKER AGRICOLA- N C A,Fertilización,Cacao,Necocli
FERTILIZACION VIVERO-Agricola El Poleo-P V C,Fertilización,Cacao,Huila
FERTIRRIEGO-Agricola El Poleo-N C A,Riego y Drenajes,Cacao,Necocli
FUMIGACION BOMBA ESPALDA CONTROL SANITARIO CACAO 1-Agricola El Poleo-V C C,Control de enfermedades,Cacao,Villanueva
HORA TRACTOR PQ CONTROL ENFERMEDADES CACAO-Agricola El Poleo-V C C,Control de enfermedades,Cacao,Villanueva
HORA TRACTOR PQ CONTROL ENFERMEDADES CACAO-Agroindustria Feleda-V C C,Control de enfermedades,Cacao,Villanueva
HORA TRACTOR PQ LABORES MANTENIMIENTO CACAO-Agricola El Poleo-V C C,Arvenses,Cacao,Villanueva
HORA TRACTOR PQ TRANSPORTE DE PLANTULAS CACAO-Agricola El Poleo-V C C,Siembra,Cacao,Villanueva
HORA TRACTOR PQ TRANSPORTE FERTILIZANTE CACAO-Agricola El Poleo-V C C,Fertilización,Cacao,Villanueva
INJERTACION CACAO CAMPO-Agricola El Poleo-V C C,injertacion,Cacao,Villanueva
INJERTACION EN VIVERO,Vivero,Cacao,Villanueva
INJERTACION EN VIVERO-Agricola El Poleo-V C C,Vivero,Cacao,Villanueva
INJERTACION EN VIVERO-Nexarte Servicios temporales S.A-G C H,Vivero,Cacao,Huila
JORNAL BENEFICIO CACAO-Agricola El Poleo-V C C,Corte y recoleccion,Cacao,Villanueva
JORNAL CONTROL ARVENSES CACAO-Agricola El Poleo-V C C,Arvenses,Cacao,Villanueva
JORNAL CONTROL ARVENSES CACAO-Agroindustria Feleda-V C C,Arvenses,Cacao,Villanueva
JORNAL CONTROL ARVENSES CACAO-Nexarte Servicios temporales S.A-V C C,Arvenses,Cacao,Villanueva
JORNAL CONTROL PLAGAS CACAO-Agricola El Poleo-V C C,Control de plagas,Cacao,Villanueva
JORNAL CONTROL PLAGAS CACAO-Agroindustria Feleda-V C C,Control de plagas,Cacao,Villanueva
LIMPIEZA CANAL TERCIARIO-D CACAO-Agricola El Poleo-P V C,Riego y Drenajes,Cacao,Villanueva
LIMPIEZA CANAL TERCIARIO-D CACAO-Agroindustria Feleda-P V C,Riego y Drenajes,Cacao,Villanueva
LIMPIEZA CANALES INTERLINEALES CON MACHETE CACAO-Agricola El Poleo-V C C,Riego y Drenajes,Cacao,Villanueva
LLENADO BOLSA VIVERO CACAO-Agricola El Poleo-V C C,Vivero,Cacao,Villanueva
MONITOREO FITOSANITARIO CACAO-Agricola El Poleo-V C C,Control de enfermedades,Cacao,Villanueva
MUESTRAS FOLIARES CACAO-Agricola El Poleo-V C C,Censos y Conteos,Cacao,Villanueva
OFICIOS VARIOS VIVERO CACAO-Agricola El Poleo-V C C,Vivero,Cacao,Villanueva
OFICIOS VARIOS VIVERO CACAO-Nexarte Servicios temporales S.A-V C C,Vivero,Cacao,Villanueva
OPERACION DE RIEGO -Agricola El Poleo-N C A,Riego y Drenajes,Cacao,Necocli
OPERACION DE RIEGO- LUKER AGRICOLA- N C A,Riego y Drenajes,Cacao,Necocli
OPERARIO SISTEMA RIEGO-Nexarte Servicios temporales S.A-G C H,Riego y Drenajes,Cacao,Huila
ORGANIZACION CAMAS VIVERO,Vivero,Cacao,Villanueva
PLATEO CACAO MANUAL-Nexarte Servicios temporales S.A-G C H,Arvenses,Cacao,Huila
PLATEO CACAO-Nexarte Servicios temporales S.A-G C H,Arvenses,Cacao,Huila
PLATEO MANUAL CACAO-Agricola El Poleo-V C C,Arvenses,Cacao,Villanueva
PLATEO MANUAL SIEMBRAS -Agricola El Poleo-N C A,Arvenses,Cacao,Necocli
PLATEO MANUAL SIEMBRAS CON AZADO 2018-Agricola El Poleo-N C A,Arvenses,Cacao,Necocli
PLATEO MECANICO CACAO-Agricola El Poleo-N C A,Arvenses,Cacao,Necocli
PLATEO QUIMICO CACAO-Agricola El Poleo-N C A,Arvenses,Cacao,Necocli
PLATEO QUÍMICO-Nexarte Servicios temporales S.A-G C H,Arvenses,Cacao,Huila
PODA CACAO ALTURA-Agricola El Poleo-N C A,Poda,Cacao,Necocli
PODA CACAO ALTURA-Nexarte Servicios temporales S.A-N C A,Poda,Cacao,Necocli
PODA CACAO FORMACION-Agricola El Poleo-N C A,Poda,Cacao,Necocli
PODA CACAO MANTENIMIENTO-Agricola El Poleo-N C A,Poda,Cacao,Necocli
PODA DE FORMACION CACAO -1-Agricola El Poleo-V C C,Poda,Cacao,Villanueva
PODA DE FORMACION CACAO 2018-Nexarte Servicios temporales S.A-V C C,Poda,Cacao,Villanueva
PODA DE GUANDUL-Nexarte Servicios temporales S.A-G C H,Poda,Cacao,Huila
PODA DE MANTENIMIENTO CACAO -1-Agricola El Poleo-V C C,Poda,Cacao,Villanueva
PODA DE MANTENIMIENTO CACAO -1-Nexarte Servicios temporales S.A-V C C,Poda,Cacao,Villanueva
RECOLECCION SANITARIA CACAO-Agricola El Poleo-V C C,Control de enfermedades,Cacao,Villanueva
RECOLECCION SANITARIA CACAO-Nexarte Servicios temporales S.A-V C C,Corte y recoleccion,Cacao,Villanueva
RESIEMBRA CACAO AL DIA-Nexarte Servicios temporales S.A-G C H,Siembra,Cacao,Huila
RESIEMBRA CACAO-Nexarte Servicios temporales S.A-G C H,Siembra,Cacao,Huila
RESIEMBRA DE CACAO JORNAL,Siembra,Cacao,Villanueva
RESIEMBRA DE CACAO-Agricola El Poleo-V C C,Siembra,Cacao,Villanueva
RIEGO PLANTACION CACAO-Agricola El Poleo-V C C,Riego y Drenajes,Cacao,Villanueva
RIEGO PLANTACION CACAO-LUKER AGRICOLA-V C C,Riego y Drenajes,Cacao,Villanueva
ROCERIA CON GUADANA CACAO-Agricola El Poleo-V C C,Arvenses,Cacao,Villanueva
SERVICIO AGRONOMIA RIEGO CACAO-Agricola El Poleo-V C C,Riego y Drenajes,Cacao,Villanueva
SERVICIO APLICACION CONTROL PLAGAS CACAO-Agricola El Poleo-V C C,Control de plagas,Cacao,Villanueva
SERVICIO AUXILIAR CONTROL PLAGAS CACAO-Agricola El Poleo-V C C,Control de plagas,Cacao,Villanueva
SERVICIO AYUDANTE SIEMBRA CACAO-Agricola El Poleo-V C C,Siembra,Cacao,Villanueva
SERVICIO JARDINERIA CACAO-Agricola El Poleo-V C C,Censos y Conteos,Cacao,Villanueva
SERVICIO MANTENIMIENTO ARVENSES CACAO-Agricola El Poleo-V C C,Arvenses,Cacao,Villanueva
SERVICIO MANTENIMIENTO COSECHA CACAO-Nexarte Servicios temporales S.A-V C C,Corte y recoleccion,Cacao,Villanueva
SERVICIO SUPERVISION LABORES CULTIVO CACAO AR-Agricola El Poleo-V C C,Arvenses,Cacao,Villanueva
SERVICIO SUPERVISION LABORES CULTIVO CACAO CC-Agricola El Poleo-V C C,Arvenses,Cacao,Villanueva
SERVICIO SUPERVISION LABORES CULTIVO CACAO FT-Agricola El Poleo-V C C,Control de enfermedades,Cacao,Villanueva
SERVICIO SUPERVISION LABORES CULTIVO CACAO PL-Agricola El Poleo-V C C,Control de plagas,Cacao,Villanueva
SIEMBRA DE CACAO AL DIA-Agricola El Poleo-V C C,Siembra,Cacao,Villanueva
SOLTADA INJERTO CAMPO-Agricola El Poleo-V C C,Vivero,Cacao,Villanueva
TRAZO Y ESTAQUILLADO CACAO-Agricola El Poleo-V C C,Siembra,Cacao,Villanueva
TUMBA DE GMELINA (OPERADOR)-Agricola El Poleo-N M A,Melina,Cacao,Necocli