﻿Finca,Lote,Anio Siembra
San Alejo,3-13CA,2004
San Alejo,3-13C B,2004
San Alejo,3-15C A,2013
San Alejo,3-15C B,2013
San Alejo,3-4D A,1990
San Alejo,3-4D B,1990
San Alejo,3-9D,1997
San Alejo,3-9C,1991
San Alejo,3-9B,1980
San Alejo,3-9A,1982
San Alejo,3-8D,2006
San Alejo,3-8C,1973
San Alejo,3-8B,1991
San Alejo,3-8A,1980
San Alejo,3-7D,2006
San Alejo,3-7C,1973
San Alejo,3-7B,1991
San Alejo,3-6D,2009
San Alejo,3-6C,1973
San Alejo,3-6B,1991
San Alejo,3-6A,1987
San Alejo,3-5D,1992
San Alejo,3-5C,1974
San Alejo,3-5B,2014
San Alejo,3-5A,1987
San Alejo,3-4C,1974
San Alejo,3-4A,1988
San Alejo,3-3D,2014
San Alejo,3-3C,2016
San Alejo,3-3B,2014
San Alejo,3-3A,1988
San Alejo,3-2G,1991
San Alejo,3-2D,1992
San Alejo,3-2C,1989
San Alejo,3-2B,1990
San Alejo,3-2A,1988
San Alejo,3-21C,2005
San Alejo,3-20C,1995
San Alejo,3-1D,1979
San Alejo,3-1C,1981
San Alejo,3-1B,1990
San Alejo,3-1A,1989
San Alejo,3-19C,1997
San Alejo,3-18D,1995
San Alejo,3-18C,1997
San Alejo,3-17C,1991
San Alejo,3-16D,1997
San Alejo,3-16C,2005
San Alejo,3-15D,1997
San Alejo,3-15B,1992
San Alejo,3-15A,1989
San Alejo,3-14D,1997
San Alejo,3-14C,2005
San Alejo,3-14B,2009
San Alejo,3-14A,1982
San Alejo,3-13D,1980
San Alejo,3-13B,2009
San Alejo,3-13 A,1982
San Alejo,3-12D,2005
San Alejo,3-12C,2017
San Alejo,3-12B,2009
San Alejo,3-12A,1992
San Alejo,3-11D,1997
San Alejo,3-11C,1991
San Alejo,3-11B,2009
San Alejo,3-11A,1979
San Alejo,3-10D,2004
San Alejo,3-10C,1992
San Alejo,3-10B,2009
San Alejo,3-10A,1999
