﻿name,category,type,inputmeasure,regulatoryEntity,sku,frac,irac,certifications,description,puc,water,pc,pr,pr2,pc2,biologicalTarget,activeIngredients
#AGRISPON SL,IV,Consumibles,Centimetros cúbicos,2303,,,,,Bioestimulantes,,true,0,0,0,0,;,Moléculas Orgánicas ; (Purinas ; Ácidos Nucléicos ;(DNA y RNA) ; Vitamina A  ; Porfirinas  ; Morfógenos y Glicocidos) 30 mg/L;
#ANTAGON,III,Consumibles,Gramos,4778,,,,,Fungicidas,,true,0,0,0,0,;,AGENTE MICRODIANOMTRICHODERMA HARZIANUM;
#BELT SC,III,Consumibles,Centimetros cúbicos,,,,28,,Insecticidas,,true,0,0,0,0,;,Flubendiamine;
#BENOMYL 50WP PHYTHOCARE,III,Consumibles,Gramos,345,,1,,,Fungicidas,,true,24,4,0,0,;,BENOMYL .500gr/kg: polvo mojado wp (BENZIMIDAZOL) ;
#BENOPOINT 50 WP,III,Consumibles,Gramos,1298,,1,,,Fungicidas,,true,14,4,0,0,;,Benomyl 500 g/Kg;
#BIOBACT,,Consumibles,Centimetros cúbicos,,,,,,Bioinsumos de uso agricola,,true,0,0,0,0,;,Consorcio bacteriano;
#BIOFIT RTU,,Consumibles,Gramos,11382,,BM 02,,,Bioinsumos de uso agricola,,true,0,0,0,0,;,Bacillus subtilis [1x10⁶ UFC/g] ; Penicillium bilaiae [1x10⁶ UFC/g] ;Trichoderma harzianum [1x10⁶ UFC/g];
#BIONUTRE,,Consumibles,Centimetros cúbicos,1155,,,,,Bioinsumos de uso agricola,,true,0,0,0,0,;, Bacterias Biodegradadoras ; Bacterias solubilizadoras de fosforo ; Bacterias fijadoras de nitrógeno ; Bacteria antagonista;
#BT-BIOX SL,III,Consumibles,Gramos,11543,,44,11A,,Bioinsumos de uso agricola,,true,0,0,0,0,;,BACILLUS THURINGIENSIS VAR KURSTAKI [32000 IU/mg 2x10⁹ UFC/g];
#CALBIT C,,Consumibles,Centimetros cúbicos,2577,,,,,Fertilizantes foliares,,true,0,0,0,0,;,OXIDO DE CALCIO. 21.7% PH (1%). 8.6 - CONDUCTIVIDAD 0.6  - DEMSIDAD 1.4;
#CARBENDAZIM VASCAL 500 SC,III,Consumibles,Centimetros cúbicos,515,,,,,Fungicidas,,true,30,12,0,0,;,CARBENDAZIM ; METHYL BENZIMIDAZOL -2; YLCARBAMATE;
#CENTAURO,,Consumibles,Centimetros cúbicos,818,,,,,Fungicidas,,true,14,4,0,0,;,Clorotalonil [720 g/L];
#CLEAN,,Consumibles,Centimetros cúbicos,,,,,,Bioinsumos de uso agricola,,true,0,0,0,0,;,;
#CLORPIRICOL 4EC,II,Consumibles,Centimetros cúbicos,1082,,,1B,,Insecticidas,,true,21,24,0,0,;,Clorpirifos 480 g/L;
#CLORPYRIFOS AGROGEN 480EC,III,Consumibles,Centimetros cúbicos,2945,,,1B,,Insecticidas,,true,21,24,0,0,;,Clorpyrifos:  480 g/L; 0.0-diethyl-0-3.5.6; trichloro-2; pyridyl phosphorothioate; de formulación a 20° C;
#COSECHANDO,IV,Consumibles,Centimetros cúbicos,4838,,,,,Fertilizantes foliares,,true,0,0,0,0,;,N:45 ; P:15 ; K:13.1 ; Ca:2 ; Mg:0.5; S:1.7;
#DEGRADEX,,Consumibles,Centimetros cúbicos,,,,,,Bioinsumos de uso agricola,,true,0,0,0,0,;,ENZIMAS DE MICROORGANISMOS PARA ACELERAR  LA DESCOMPOSION DE LA MATERIA ORGANICA;
#DIFECONAZOLE 250 EC,II,Consumibles,Centimetros cúbicos,1490,,3,,,Fungicidas,,true,7,12,0,0,;,Difenoconazole 250 g/L;  3-chloro-4-[(2RS.4RS; 2RS.4SR); 4-methyl-2-(1H-1.2.4-triazol-1-ylmethyl); 1.3-dioxolan-2-yl]phenyl ; 4-chlorophenyl ether;
#DINASTIA 100 EC,II,Consumibles,Centimetros cúbicos,74,,,3A,,Insecticidas,,true,20,4,0,0,;,Deltamethrin / 100 g/L;
#EVOPRID 35SC,II,Consumibles,Centimetros cúbicos,114,,,4A,,Insecticidas,,true,21,24,0,0,;,Imidacloprid 350 g/l;
#FITOMARE-F,IV,Consumibles,Centimetros cúbicos,5214,,,,,Fertilizantes foliares,,true,0,0,0,0,;,Manitol:[0.5%]; N:[5.5%] ; P:[3%];  K:[3.5%] ; B:[0.35%] ; Mo:[0.2%];
#FLORONE,IV,Consumibles,Centimetros cúbicos,5213,,,,,Bioestimulantes,,true,0,0,0,0,;,AA:[4%] ; N:[1%];  P:[10%];  K:[10%] ; B:[0.25%] ; Mo:[0.20%];
#FOLTRON,IV,Consumibles,Centimetros cúbicos,5664,,,,,Fertilizantes foliares,,true,0,0,0,0,;,Nitrógeno Total (N) 75.00 Nitrógeno Amoniacal (N) 75.00;  Fósforo Total (P2O5) 260.00; Potasio Total (K2O) 68.00; Hierro Total (Fe) 0.65;  Manganeso Total (Mn) 0.13 ; Zinc Total (Zn) 0.66;
#FORMOL,,Consumibles,Centimetros cúbicos,,,,,,Desinfectantes de suelo,,true,0,0,0,0,;,Methanal;
#FORMULA 55X,,Consumibles,Centimetros cúbicos,,,,,,Desinfectantes de suelo,,true,0,0,0,0,;,AMONIO CUTERNARIO;
#FOSETYL AGROGEN 800WP,III,Consumibles,Gramos,83,,P07,,,Fungicidas,,true,20,4,0,0,;,Fosetyl-Al 800 g/kg ; aluminium tris  (ethyl phosphonate). de formulacion a 20ºC;
#FUNGAZIM,III,Consumibles,Gramos,1214,,P07,,,Fungicidas,,true,14,4,0,0,;,Fosetil Aluminio [800g/Kg];
#HEAT WG,III,Consumibles,Gramos,,,,,,Herbicida,,true,0,2,0,0,;,Saflufenacil: 700 g/Kg N'-{2-chloro-4-fluoro-5-[1.2.3.6-tetrahydro-3-methyl-2.6-dioxo-4(trifluoromethyl) pyrimidin-1-yl]benzoyl}-N-isopropyl-N-methylsulfamide. formulación a 20 °C;
#IMIDOGEN 350 SC,II,Consumibles,Centimetros cúbicos,238,,,4A,,Insecticidas,,true,21,24,0,0,;,Imidacloprid [350g/L];
#KELPAK,,Consumibles,Centimetros cúbicos,3077,,,,,Bioestimulantes,,true,0,0,0,0,;,Alga marina Ecklonia máxima [34.26%] ;Auxinas: [0.0011%]; Citoquininas:[0.000003%];
#KEYLATE MAGNESIO,,Consumibles,Centimetros cúbicos,3398,,,,,Fertilizantes foliares,,true,0,0,0,0,;,Magnesio Quelatado; Concetración de  Magnesio (MgO) 4% p/v ; Azufre (S) 2% p/v;
#K-FOL 0-20-50,,Consumibles,Gramos,3050,,,,,Fertilizantes foliares,,true,0,0,0,0,;,Fósforo disponible 20%; Potasio 55%; Magnesio 600ppm; Azufre 800ppm; Boro 100ppm; Fitohormonas 12ppm; Presentación: 10 Kg;
#KILLBACTER WP,III,Consumibles,Gramos,1164,,,,,Bactericidas,,true,7,12,0,0,;,Clorhidrato de Oxitetraciclina (350g i.a./kg); Oxicloruro de Cobre (450g i.a./kg);
#LUFENURON,III,Consumibles,Centimetros cúbicos,552,,,15,,Insecticidas,,true,15,4,0,0,;,LufenuroN 50 gr/L ; Ingredientes Aditivos  c.s.p 1/litro;
#MATA BABOSA AB AGRICENSE,IV,Consumibles,Gramos,2338,,,8D,,Insecticidas,,false,21,7,0,0,;,– Bórax (99%);
#MELYRA SC,II,Consumibles,Centimetros cúbicos,2329,,3,,,Fungicidas,,true,45,4,0,0,;,MEFENTRIFLUCONAZOLE PYRACLOSTROBIN;
#METATROPICO WP,IV,Consumibles,Gramos,7362,,,UNF,,Insecticidas,,true,0,0,0,0,;,METARHIZIUM ANISOPLIAE;
#MUSCARDIN,IV,Consumibles,Gramos,5673,,,UNF,,Bioinsumos de uso agricola,,true,0,0,0,0,;,Beauveria bassiana CEPA BB 9205 [1 X 10⁸ conidias viables/g];
#NUFOSOL SL,IV,Consumibles,Centimetros cúbicos,,,,,,Fertilizantes edaficos,,true,0,0,0,0,;,Células Viables de Azospirillium brasilensi; Azotobacter chrocoocum; Rhizobium sp; Lactobacillus sp;  Saccharomyces cerevisiae; Penicillium janthinellum y Medio de Cultivo con Nutrientes Esenciales;
#OXICLORURO DE COBRE 58.8%WP PROFICOL,,Consumibles,Gramos,849,,,,,Fungicidas,,true,0,0,0,0,;,Oxicloruro de cobre 58.1% Dicopper chloride trihydroxide;
#PELEO WG,II,Consumibles,Gramos,1414,,1,,,Fungicidas,,true,14,12,0,0,;,Carbendazim ; Flutriafol;
#POLYTHION SC,III,Consumibles,Centimetros cúbicos,2291,,,,,Insecticidas,,true,0,12,0,0,;,Azufre:[720g/L];
#PREVALOR SL,II,Consumibles,Centimetros cúbicos,829,,P07,,,Fungicidas,,true,14,12,0,0,;,Fosetyl ; Propamocarb / 310; 530 g/L;
#PROFIAMINA 720SL,II,Consumibles,Centimetros cúbicos,1233,,,,,Herbicida,,true,0,0,0,0,;,ÁCIDO 2.4; DICLOROFENOXIACÉTICO;
#QUEMAZONE,III,Consumibles,Centimetros cúbicos,1772,,,22,,Herbicida,,true,0,24,0,0,;,DICLORURO DE PARAQUAT 200 g/L;
#REGLONE SL,II,Consumibles,Centimetros cúbicos,1988,,,,,Herbicida,,true,0,0,0,0,;,Diquat;
#REQUIEM SC,III,Consumibles,Centimetros cúbicos,1442,,,3A,,Insecticidas,,true,21,12,0,0,;,Lambdacihalotrina 106 g/L ; Tiamethoxam 141 g/L;
#SEVIN XLR SC,,Consumibles,Gramos,2229,,,1A,,Insecticidas,,true,0,0,0,0,;,Solventes Organicos 52% ; Carbaril;
#SPEED EVOFARMS 80 WP,III,Consumibles,Centimetros cúbicos,290,,P07,,,Fungicidas,,true,0,0,0,0,;,FOSE TIL  ALUMINIO;
#TORDON XT,III,Consumibles,Centimetros cúbicos,290,,,,,Herbicida,,true,0,0,0,0,;,Aminopiralid 20 g/L ; 4-amino-3.6-dichloropyridine-2-carboxylic acid. Equivalente a 24.37 g/L de sal dimetilamina de aminopiralid.;
#TOUCHDOWN IQ SL,III,Consumibles,Centimetros cúbicos,290,,,,,Herbicida,,true,0,0,0,0,;,Glifosato Acido;
#TRYON 72 WP,II,Consumibles,Gramos,,,,UN,,Fungicidas,,true,0,0,0,0,;,Mancozeb 640 g/kg; Metalaxyl 80 g/kg;
#VERTIMEC 084 SC,III,Consumibles,Centimetros cúbicos,290,,,6,,Acaricidas,,true,0,0,0,0,;,Abamectina (Mezcla de Avermectina B1a (min. 80%) ; Avermectina B1b (max. 20%));
#VITAVAX 300 WP,III,Consumibles,Gramos,,,7,,,Fungicidas,,true,0,0,0,0,;,CARBOXIN;
* ACAREX SC,IV,Consumibles,Centimetros cúbicos,,,1,,,Bioinsumos de uso agricola,,true,0,0,0,0,;,Thiophanate-methyl;
*ABAMECTINA DEL MONTE 1.8EC,II,Consumibles,Centimetros cúbicos,1845,,,6,,Acaricidas,,true,3,12,0,0,;,Abamectina 18 g/L;
*ACIDO FOSFORICO,,Consumibles,Centimetros cúbicos,,,,,,Fertilizantes foliares,,true,0,0,0,0,;,;
*AGRODYNE SL,II,Consumibles,Centimetros cúbicos,,,,,,Fungicidas,,true,0,0,0,0,;,Yodo polietoxico; acido yodhidrico;
*CERTUS 70 WS,III,Consumibles,Gramos,1367,,,4A,,Insecticidas,,true,1,21,0,0,;,Thiametoxam [700g/Kg];
*CRONOX WP,IV,Consumibles,Gramos,,,,,,Insecticidas,,true,0,0,0,0,;,160 millones de Unidades Formadoras de Colonia de Bacillus popilliae e inertes u.s.p.;
*DESTIERRO,II,Consumibles,Centimetros cúbicos,991,,,,,Herbicida,,true,0,0,0,0,;,GLUFOSINATO DE AMONIO;
*DILIGENT,II,Consumibles,Gramos,,,4,,,Fungicidas,,true,0,0,0,0,;,Metalaxil 80 ; Mancozeb 640 g/Kg;
*EMPROX 380SC,II,Consumibles,Centimetros cúbicos,1799,,,4A,,Insecticidas,,true,7,12,0,0,;,Imidacloprid 300 ; Abamectina 28 gr/L;
*FINALE S.L,IV,Consumibles,Centimetros cúbicos,2451,,,,,Herbicida,,true,0,0,0,0,;,Glufosinato de Amonio; 150 gramos por litro de formulación a 20°C;
*FIPRONIL,II,Consumibles,Centimetros cúbicos,,,,2B,,Insecticidas,,true,0,0,0,0,;,Fipronil;
*INVETRINA,II,Consumibles,Centimetros cúbicos,,,,3A,,Insecticidas,,true,0,0,0,0,;,Cipermetrina;
*KASUMIN,III,Consumibles,Centimetros cúbicos,,,24,,,Fungicidas,,true,0,0,0,0,;,Kasugamicina;
*LORSBAN,ll,Consumibles,Centimetros cúbicos,,,,1B,,Insecticidas,,true,0,0,0,0,;,clorpirifos;
*METSULFURON,III,Consumibles,Centimetros cúbicos,,,,,,Herbicida,,true,0,0,0,0,;,;
*PROPIZOLE,III,Consumibles,Centimetros cúbicos,,,3,,,Fungicidas,,true,0,0,0,0,;,Propiconazol;
*RAFAGA,II,Consumibles,Gramos,,,,1B,,Insecticidas,,true,0,0,0,0,;,Chlorpirifos;
*RIDOMIL GOLD MZ 68 WP,III,Consumibles,Gramos,1792,,4,UN,,Fungicidas,,true,14,7,0,0,;,Metalaxyl:[40g/Kg] ;  Mancozeb:[640g/Kg];
*SAFERMIX WP,IV,Consumibles,Gramos,,,,UNF,,Insecticidas,,true,0,0,0,0,;,Beauveria bassiana; Metarhizium anisopliae; Lecanicillium lecanii y la bacteria Bacillus thuringiensis;
*SANTIMEC,II,Consumibles,Centimetros cúbicos,642,,,6,,Acaricidas,,true,7,12,0,0,;,Abamectin. .12 g/L;  Pyridaben 90 g/L;
*SILVACUR,II,Consumibles,Centimetros cúbicos,1981,,,,,FUNGICIDAS,,true,0,0,0,0,;,Tubeconazole-triadomenol;
*SPIRAL,III,Consumibles,Centimetros cúbicos,290,,,23,,Acaricidas,,true,0,0,0,0,;,Spirodiclofen. .240 g/L; 3-(2.4-dichlorophenyl)-2-oxo-1-oxaspiro`[4.5]dec-3-en-4-yl2.2-dimethylbuthyrate. formulación a 20°C;
*VERDADERO,III,Consumibles,Gramos,,,,4A,,Fungicidas,,true,0,0,0,0,;,Thiamethoxam ; Cyproconazole;
ACIDOS HUMICOS,,Consumibles,Centimetros cúbicos,,,,8D,,Bioinsumos de uso agricola,,true,0,0,0,0,;,Borax;  potasa caustica; lombricompuesto;
ACTIVA HIERRO,,Consumibles,Gramos,2230,,,,,Fertilizantes foliares,,true,0,0,0,0,;,NITROGENO TOTAL(N) 3.0% ; NITROGENO UREICO(N) 3.0% ; HIERRO TOTAL(FE) 12.0%;
ACTIVA MANGANESO,,Consumibles,Gramos,2229,,,,,Fertilizantes fertirrigacion,,true,0,0,0,0,;,NITROGENO ; NITROGENO ; UREICO; MANGANESO;
ADN MILBE,III,Consumibles,Centimetros cúbicos,7908,,,,,Acaricidas,,true,0,0,0,0,;,;
AGRICLEAN,,Consumibles,Centimetros cúbicos,,,,,,Bioinsumos de uso agricola,,true,0,0,0,0,;,Surfactante No-ionico 12.5%;
AGRIFOS 400 SL,III,Consumibles,Centimetros cúbicos,2766,,,,,Fungicidas,,true,15,4,0,0,;,Fosfito monopotásico y dipotásico 45.8% Equivalente a 400 g/L de ácido fosforoso; presente en forma de fosfito monopotásico y dipotásico;
AGRIMINS K CALCIO BORO,,Consumibles,Centimetros cúbicos,10366,,,24B,,Fertilizantes foliares,,true,0,0,0,0,;,Potasio Soluble en Agua (K2O)35.5-Calcio (CaO)56.0-Boro (B)10.0;
AGRONEX,,Consumibles,Gramos,,,,N/A,,Coadyuvantes,,true,0,0,0,0,;,Arilpolietilenglicoleter   140 g/L; Alquipolieter alcohol etoxilado;
AGROSTIM SL,IV,Consumibles,Centimetros cúbicos,7045,,,,,Reguladores fisiologicos,,true,0,0,0,0,;,AATC ; DERIVADOS DE L/CISTEINA (50 g/l) ; Acido folico (1 g/l);
ALTAIR WP,,Consumibles,Gramos,1162,,4,,,Fungicidas,,true,7,12,0,0,;,Metalaxil (150g/kg) ; Oxicloruro de cobre (350 g/kg) ;
AMINOACIDOS 80 %,,Consumibles,Gramos,,,,,,Fertilizantes foliares,,true,0,0,0,0,;,L-Aspartico 6.52% ; L-Cysteina 1.22% ; L-Fenylalanina 2.19% ; L-Thrionina 5.40% ; L-Valina 3.86% ; L Lysina 6.13% ; L-Serina 8.16%  ; L-Metionina 0.59% ; L-Glicina 14.99 ; L-Isoleucina 1.89% ; L-Histidina 0.91% ; L-Leucina2.09% ; L-Arginina 7.31% ; L-Alanina 4.00% ; L-Tyrosina 0.91% ; L-Prolina 5.77% ; L-Acido glutamico9.09% ;  l-Tryptofano 0.17% ; pH 0.36 nitrogeno total 14.17;
AMISOL KP,,Consumibles,Gramos,10820,,,,,Fertilizantes fertirrigacion,,true,0,0,0,0,;,Nitrogeno; fosforo; potasio;
AMISTAR TOP,II,Consumibles,Centimetros cúbicos,297,, 11  3 ,,,Fungicidas,,true,7,12,0,0,;,200 AZOXYTROBIN ; 125 DIFENOCONAZOLA;
ANTIBIOL,,Consumibles,Centimetros cúbicos,4435,,,,,Bioinsumos de uso agricola,,true,0,0,0,0,;,TRICODERMA HARZIANUM; TRICHODERMA  HARZIANUM; BACILLUS SUBTILUS ;
ANTRASIN P.C,IV,Consumibles,Centimetros cúbicos,53,,,,,Fungicidas,,true,7,4,0,0,;,Sulfato de Cobre 21%;  Sulfato de Calcio 18%;
ARPON,III,Consumibles,Centimetros cúbicos,6880,,,,,Coadyuvantes,,true,0,0,0,0,;,Polyether; polymethyl; siloxano; copolymer;
ATP UP,,Consumibles,Centimetros cúbicos,5328,,7,,,Fertilizantes foliares,,true,0,0,0,0,;,ácidos *ECCA Carboxy;
AZUFRE,,Consumibles,Gramos,3048,,,,,Acondicionadores de suelo,,true,0,0,0,0,;,;
BANGUARD 42 SD,,Consumibles,Centimetros cúbicos,855,,,,,FUNGICIDAS,,true,0,0,0,0,;,Tetramethythiuram;
BELLIS,III,Consumibles,Gramos,285,,7,,,Fungicidas,,true,7,24,0,0,;,Boscalid: 2-cloro-N-(4’-clorobifenil-2-yl); nicotinamida 252 g/Kg. Pyraclostrobin: Metil N-(2-{[1-(4-clorofenil) -1H-pirrazol-3il] oximetil}fenil)- N-metoxicarbamato 128 g/Kg;
BIOCEL,,Consumibles,Centimetros cúbicos,,,,24B,,Fertilizantes foliares,,true,0,0,0,0,;,Nitrogeno total (N) 6.60 g/L ; Nitrógeno Ureico (N) 6.60 g/L ; Fósforo asimilable (PO5) 13.30 g/L ; Potasio Soluble en Agua (K2O) 13.30 g/L ; Calcio (CaO) 2.80 g/L;  Magnesio (MgO) 6.40 g/L ; Cobre (Cu) 13.30 g/L ; Hierro (Fe) 17.20 g/L ; Manganeso (Mn) 13.30 g/L ; Zinc (Zn) 26.50 g/L ; Carbono del Extracto Humico Total (CEHT) 65.2 g/L ; Carbonato de Ácidos Fulvicos (CAF) 62.5g/L;
BIO-MA,,Consumibles,Gramos,10286,,,UNF,,Bioinsumos de uso agricola,,true,0,0,0,0,;,METARHIZIUM ANISOPLIAE;
BIOPREPARADO,,Consumibles,Centimetros cúbicos,,,,,,Bioinsumos de uso agricola,,true,0,0,0,0,;,Rumen. melaza. cal. suero. bio  bac;
BIORGANIK,,Consumibles,Gramos,11294,,,,,Acondicionadores de suelo,,true,0,0,0,0,;,Nitrógeno Total (N) 1.9 % ; Potasio Total (K2O) 14.5 % ; Carbono Orgánico Oxidable Total 28.4 %; Silicio Total (SiO2) 1.7 % ; Humedad 1.2 % ; pH en solución al 10% 5.54;
BORAX +K (DISAN),,Consumibles,Gramos,,,,,,Fertilizantes edaficos,,true,0,0,0,0,;,K2O 3% ; B 14.2% ; HUMEDAD MAXIMA 1.67;
BORNEO 11 SC,II,Consumibles,Centimetros cúbicos,1976,,,,,Acaricidas,,true,7,12,0,0,;,ATOXAZOLE;
BORO GRANULADO (Microfertisa),,Consumibles,Gramos,1947,,,,,Fertilizantes edaficos,,false,0,0,0,0,;,Fosforo Asimilable (P2O5) ; Boro (B)10.0%;
BOROFOS 16 0-3-0,,Consumibles,Gramos,5590,,,,,Fertilizantes fertirrigacion,,false,0,0,0,0,;,Fósforo Asimilable (P2O5) 3.0 NTC 234;  Boro Soluble en Agua (B) 16.0;
BOTRYCID,III,Consumibles,Centimetros cúbicos,6204,,,,,Bactericidas,,true,0,0,0,0,;,burkholderia cepaciaespecie b;
CAL AGRICOLA 60 %,,Consumibles,Gramos,,,,,,Enmiendas,,false,0,0,0,0,;,OXIDO DE CALCIO 60%;
CAL HARD,,Consumibles,Centimetros cúbicos,5333,,,,,Fertilizantes foliares,,true,0,0,0,0,;,CaO 140.5 ; B 3.50 ; Carbono organico 102.78 ; Ph En solucion al 10% 7.1 ; Densidad 1.3;
CALCINIT,,Consumibles,Gramos,,,,,,Fertilizantes edaficos,,false,0,0,0,0,;,Nitrogeno total 15.5 %; nitrato 14.4 amonio 1.1 ; calcio 26.4;
CALVIVA,,Consumibles,Gramos,6656,,,24B,,Acondicionadores de suelo,,false,0,0,0,0,;,Calcio;
CARBOXY BORO,,Consumibles,Centimetros cúbicos,6790,,,,,Fertilizantes foliares,,true,0,0,0,0,;,Cascarillas agricolas ;  Boro;
CARBOXY LIQUIDO,,Consumibles,Centimetros cúbicos,5329,,,,,Acondicionadores de suelo,,true,0,0,0,0,;, Carbono organico oxidable total 5; ingredientes inertes ;
CARBOXY POTASIO,,Consumibles,Centimetros cúbicos,5331,,7,,,Fertilizantes foliares,,true,0,0,0,0,;,ácidos *ECCA Carboxy ; K;
CARRIER,IV,Consumibles,Centimetros cúbicos,1531,,,,,Coadyuvantes,,true,0,0,0,0,;,Acidos carboxilicos insaturados ; gliceridos saturados;
CEBOFRUIT,II,Consumibles,Centimetros cúbicos,9989,,,,,Fertilizantes foliares,,false,0,0,0,0,;,Cloruro de sodio;
CERAQUINT SP,III,Consumibles,Gramos,1230,,,,,Fungicidas,,true,7,6,0,0,;,Fosfito de potasio [519g/Kg] ; Sulfato de cobre pentahidratado [102g/Kg];
CHOQUE 240SC,II,Consumibles,Centimetros cúbicos,1885,,,23,,Acaricidas,,true,7,12,0,0,;,Spirodiclofen 240g/l ; 1-(6-cloro-3piridilmetil); Nnitroimidazolidin-2; ilideneamina; de formulacion a 20º C;
CIPERMETRINA,II,Consumibles,Centimetros cúbicos,306,,,1B,,Insecticidas,,true,7,24,0,0,;,Cipermetrina: (RS)-alfa-ciano-3-fenoxibencil-(1RS)-cis.trans-3-(2.2-diclorovinil)-2.2-dimetil ciclopropanocarboxilato 200 g/L;
CLORFENAPYR,III,Consumibles,Centimetros cúbicos,1281,,,,,Insecticidas,,true,7,12,0,0,;,CHORFENAPRIR 24% P/V.SC;
CLORURO DE POTASIO,,Consumibles,Gramos,,,,,,Fertilizantes edaficos,,false,0,0,0,0,;,0-0-60 Potasio soluble en agua 60%; Cloro maximo 46%;
CLOSERTM 240SC,III,Consumibles,Centimetros cúbicos,1400,,,4C,,Insecticidas,,true,7,12,0,0,;,Sulfoxaflor 240 g/L;  [1-(6-trifluoromethylpyridin-3-yl)ethyl](methyl) oxido-?6-sulfanylidenecyanamide); de formulación a 20°C; Ingredientes aditivos: c.s.p 1 L;
COSMO AGUA,IV,Consumibles,Gramos,2094,,,,,Coadyuvantes,,true,0,0,0,0,;,CITRATOS (ACIDO CITRICO Y CITRATO DE SODIO) REGULADORES DE PH [44.4%];
COSMO SORB,,Consumibles,Gramos,,,,,,Acondicionadores de suelo,,false,0,0,0,0,;,POLÍMERO DE POLIACRILAMIDA 94%;
COSMOAGRO,,Consumibles,Gramos,,,,,,Fertilizantes edaficos,,true,0,0,0,0,;,;
COSMO-ION-BORO,,Consumibles,Gramos,3212,,,,,Fertilizantes foliares,,true,0,0,0,0,;,FOSFORO; POTASIO; BORO;
COSMOQUEL BORO,,Consumibles,Gramos,3220,,,,,Fertilizantes fertirrigacion,,true,0,0,0,0,;,Boro;
COSMOQUEL ZINC,,Consumibles,Gramos,3207,,,,,Fertilizantes foliares,,true,0,0,0,0,;,Zn (12%);
CUMBRE,III,Consumibles,Gramos,,,,,,Bactericidas,,true,0,0,0,0,;,Sulfato de Gentamicina;Clorhidrato de Oxitetaciclina;
DIFECOL,III,Consumibles,Centimetros cúbicos,422,,3,,,Fungicidas,,true,21,6,0,0,;,Difeconazole;
DISPER CU,,Consumibles,Gramos,10032,,,,,Fertilizantes foliares,,true,0,0,0,0,;,CU 14.20% ; S8.58% ; PH (SOLUCION 10% ) 4.03 ; SOLUBILIDAD MAX 20 º C 1 G/100 ML ;  CONDUCTIVIDAD ELECTRICA 2.12 DS/M ;
ECLIPSE BORO,,Consumibles,Gramos,6018,,,,,Fertilizantes foliares,,true,0,0,0,0,;,FERTILIZANTE AGRICOLA ;
ECLIPSE MAGNESIO,,Consumibles,Gramos,5776,,,,,Fertilizantes foliares,,true,0,0,0,0,;,K2O.3.0%;  Magnesio 10.0%;
ECLIPSE Mo-B,,Consumibles,Gramos,8758,,,,,Fertilizantes foliares,,true,0,0,0,0,;,Potasio8%; Boro 7%;  Mb 10%;
EFIAGUAS,,Consumibles,Centimetros cúbicos,,,,,,Coadyuvantes,,false,0,0,0,0,;,Alquil poliglicol éter de 8 moles de etoxilación 260 g/L;
ESIOM 150 SL,II,Consumibles,Centimetros cúbicos,1857,,,4A,,Insecticidas,,true,14,4,0,0,;,Acetamiprid: (E)-N1-((6-cloro-3-piridil) metil)-N2-ciano-N1- metilacetamidina; Cipermetrina: alfa-ciano-3-fenoxibencil (±)-cis.trans- 3-(2.2- diclovinil) -2.2-dimetil ciclopropano carboxilato;
ESTREPTOMICINA SULFATO ESTERIL,,Consumibles,Gramos,,,,,,Bactericidas,,true,0,0,0,0,;,;
EVIL 1.8EC,II,Consumibles,Centimetros cúbicos,244,,,6,,Acaricidas,,true,7,4,0,0,;,Abamectina 18 g/L;
EVISECT,II,Consumibles,Gramos,2182,,,,,Insecticidas,,true,0,0,0,0,;,THIOCYCLAM HIDROGENOXALATO;
FERTI BAGRA 21,,Consumibles,Gramos,,,,,,Fertilizantes edaficos,,true,0,0,0,0,;,;
FERTICH,,Consumibles,Gramos,,,,24B,,Fertilizantes foliares,,true,0,0,0,0,;,Nitrogeno;Nitrogeno Amoniacal;Fosforo;Potacio;Calcio;Magnesio;
FITOBOLIC,,Consumibles,Centimetros cúbicos,11893,,,,,Fertilizantes foliares,,true,0,0,0,0,;,K2O 51.70g/L ; Fe5.8g/L; Mn1.37g/L;  Zn4.20g//L;
FLORAMITE 50 W P,III,Consumibles,Gramos,2300,,,20D,,Acaricidas,,true,7,4,0,0,;,Bifenazate 500 g/l;
FOLI-CAL,,Consumibles,Centimetros cúbicos,,,,,,Fertilizantes fertirrigacion,,true,0,0,0,0,;,Nitrogeno;Calcio;
FORGE,,Consumibles,Centimetros cúbicos,4248,,,,,Fertilizantes foliares,,true,0,0,0,0,;,Nitrogeno Total ; nitrogemo ureico ; potasio soluble en agua ; ph en solucion en agua al 10 %;
FORMULA DE FOSFORO,,Consumibles,Centimetros cúbicos,4662,,,,,Fertilizantes fertirrigacion,,true,0,0,0,0,;,FOSFORO ASIMILABLE 1050.0G/L;
FOSFOTRES,,Consumibles,Centimetros cúbicos,,,,,,Fertilizantes foliares,,true,0,0,0,0,;,;
GALLINAZA,II,Consumibles,Gramos,,,,,,Fertilizantes edaficos,,false,0,0,0,0,;,Materia Organica ;
GLOBAFOL,,Consumibles,Centimetros cúbicos,7928,,,,,Fertilizantes foliares,,true,30,12,0,0,;,NITROGENO TOTAL 40.8G; POTASIO SOLUBLE EN AGUA 124.0G; SALMONELA SP AUSENTE EN 25 Ml;
HAIFA MAP,,Consumibles,Gramos,6633,,,,,Fertilizantes fertirrigacion,,true,0,0,0,0,;,Fosforo; Magnesio;
HELMTIOFAN 50SC,II,Consumibles,Centimetros cúbicos,517,,1,,,Fungicidas,,true,15,12,0,0,;,Thiophanate-methyl 500 g/l; dimethyl 4.4 -(phenylene)bis(3-thiallophanate) de formulacion a 20°C;
HIDROCOMPLEX,,Consumibles,Gramos,,,,,,Fertilizantes foliares,,false,0,0,0,0,;,;
HIDROKEEPER,,Consumibles,Gramos,,,,,,Acondicionadores de suelo,,false,0,0,0,0,;,Copolimer de acrilimida ; acrilato de potasio; nitrogeno total ph;
HIDROXIDO DE CALCIO,,Consumibles,Gramos,,,,,,Fertilizantes edaficos,,false,0,0,0,0,;,CaO2;
HORMIX,,Consumibles,Gramos,966,,,2B,,Insecticidas,,true,0,0,0,0,;,Fipronil;
HORMONAGRO 1,IV,Consumibles,Gramos,370,,,,,Reguladores fisiologicos,,true,0,0,0,0,;,Ácido alfa-naftalenacético 0.40%;
HORMONAGRO A.N.A,III,Consumibles,Centimetros cúbicos,1966,,,,,Bioestimulantes,,true,0,0,0,0,;,cido 1-Naftalen­cacético (fitohormona). 17.2 g por L de formulación a 20 °C;
HORTICaB,,Consumibles,Centimetros cúbicos,11666,,,,,Fertilizantes edaficos,,true,0,0,0,0,;,Calcio Total 170 g/l; Zn 23.0 gl; Boro Total 35.0gl ; Densidad a 20°c 1.427 g/cc;
HUMIAGRO,,Consumibles,Centimetros cúbicos,4836,,,24B,,Acondicionadores de suelo,,true,0,0,0,0,;,POTASIO; MAGNICIO; CALCIO;
HYDRA,,Consumibles,Centimetros cúbicos,552,,,,,Bioinsumos de uso agricola,,true,0,0,0,0,;,Mezcla de aceites y extractos vegetales con tenso activos;
HYDROCOMPLEX,,Consumibles,Gramos,4064,,,,,Fertilizantes edaficos,,true,0,0,0,0,;,Nitrogeno; fosforo; potasio; magnesio; azufre; boro; zinc; hierro; manganeso;
IBA.3,,Consumibles,Gramos,,,,,,Reguladores fisiologicos,,true,0,0,0,0,;,Acido Indol Butirico 98%  c.s.p 2%;
IMIDACLOPRID,II,Consumibles,Centimetros cúbicos,1340,,,4A,,Insecticidas,,true,15,12,0,0,;,IMIDACLOPRID 350 g/L;
INTREPIC,II,Consumibles,Centimetros cúbicos,1305,,,,,Insecticidas,,true,0,0,0,0,;,METHOXYFENOZOIDE;
JABON,,Consumibles,Centimetros cúbicos,,,,,,Coadyuvantes,,true,0,0,0,0,;,Álcali (Hidróxido de siodio o de potasio) Lípido (o grasa);
JAGER,,Consumibles,Centimetros cúbicos,,,,,,Bioinsumos de uso agricola,,true,0,0,0,0,;,;
KCL,,Consumibles,Gramos,,,,,,Fertilizantes foliares,,false,0,0,0,0,;,KCL;
KELI C,,Consumibles,Centimetros cúbicos,,,,,,,,true,0,0,0,0,;,;
KEYLATE DE MOLIBDENO,,Consumibles,Centimetros cúbicos,3756,,,,,Fertilizantes fertirrigacion,,true,0,0,0,0,;,Molibdeno;
KEYLATEX ZINC,,Consumibles,Gramos,3399,,,,,Fertilizantes fertirrigacion,,true,0,0,0,0,;,ZINC ;
KIESERITA,,Consumibles,Gramos,11032,,,,,fertilizantes edaficos,,false,0,0,0,0,;,Potasio Soluble en Agua (K2O) 3.0%; Magnesio Total (MgO)19.0%; Azufre Total (S) 15.0%; Humedad 5.08%;
KO KNOCK OUT,,Consumibles,Centimetros cúbicos,194,,,,,Bioinsumos de uso agricola,,true,0,0,0,0,;,Extracto citrico 2% aditivos ; y solventes 98 %;
MAGI CAL K,,Consumibles,Centimetros cúbicos,,,,24B,,Fertilizantes edaficos,,true,0,0,0,0,;,Potasio soluble; Calcio total;
MAGKIERITA 0-0-3,,Consumibles,Gramos,10415,,,,,Fertilizantes edaficos,,false,0,0,0,0,;,Magnesio Total (MgO) 25.0;  Azufre Total (S) 6.5;
MALATHION 57%EC,III,Consumibles,Centimetros cúbicos,1955,,,1B,,Insecticidas,,true,7,0,0,0,;,Malathin: Diethyl (dimethoxyphosphinothioylthio) succinate.;
MANNI-PLEX ZN,III,Consumibles,Centimetros cúbicos,7556,,,,,Fertilizantes foliares,,true,0,0,0,0,;,3.0% N 7.0% ; Zn Nitrogeno Total 43.80 g/L; Nitrogeno Nitrico 43.8 g/L; Densidad a 20°C;
MAP,,Consumibles,Gramos,,,,,,Fertilizantes edaficos,,false,0,0,0,0,;,10-50-0;
MASTERCOP SC,II,Consumibles,Centimetros cúbicos,1694,,,,,Fungicidas,,true,0,48,0,0,;,Sulfato de Cobre Pentahidratado 260 g/L de formulación a 20°C equivalentes a 66 g/L de I.A./L;
MAXIM  XL,II,Consumibles,Centimetros cúbicos,75,,12,,,Fungicidas,,true,0,0,0,0,;,Fludioxonil 25g/l 4-(2.2-difuro-1.3-benzodioxol-4-yl)-1Hpyrrole-3-carbonitrile.de formulacion a 20°C ; MEFENOXAM 10g/l Methyl N-(methoxyacetyl)-N-(2.6-xylyl)-D-alaninate; de formulacion a 20°C;
MELAZA,,Consumibles,Gramos,,,,,,Bioinsumos de uso agricola,,true,0,0,0,0,;,pH...5.0 C. E. (mS/cm)....31.5; DENSIDAD (Kg/l)...1.4 ; HUMEDAD (%)…26.0 (a 110ºC) ; CENIZAS (%)…12.30 (Por calcinación 550ºC) ; MATERIA ORGÁNICA (%)…… 61.7 (Por calcinación 550ºC);  EXTRACTO HUMICO TOTAL (%) 56.5;  NITRÓGENO TOTAL (%N)...1.3;  FOSFORO TOTAL (% P2O5).. 0.5;  POTASIO TOTAL (% K2O).4.0;
MELTDOWN,,Consumibles,Centimetros cúbicos,8026,,19,,,Coadyuvantes,,true,0,0,0,0,;,POLYOXYETHYLENE MODIFIED TRISILOXANE p/v;
MERTECT 20,III,Consumibles,Centimetros cúbicos,2248,,,,,Fungicidas,,true,0,0,0,0,;,Tiabendazol -( 2-(thiazol-4-yl)benzimidazole);
MERTECT 500SC,IV,Consumibles,Centimetros cúbicos,2247,,1,,,Fungicidas,,true,5,4,0,0,;,Tiabendazol;
MESSENGER,,Consumibles,Gramos,,,,,,Bioestimulantes,,true,0,0,0,0,;,Proteína Harpin AB (Proteina harpin αβ)……………………………………….1.00%;
MEZCLA DE FERTILIZANTE #2,,Consumibles,Gramos,,,,,,Fertilizantes foliares,,false,0,0,0,0,;,;
MF REDUX,IV,Consumibles,Centimetros cúbicos,6070,,,,,Coadyuvantes,,true,0,0,0,0,;,ALQUIL; ALCOHOL; POLIGLICOL; ETER;
MICORRIZAS,,Consumibles,Gramos,,,,,,Bioestimulantes,,false,0,0,0,0,;,Glomus; Acaulospora; Scutellospora ; Entrophospora;
MICOSIS,,Consumibles,Gramos,6051,,,UNF,,Bioinsumos de uso agricola,,false,0,0,0,0,;,Beauveria bassiana;
MICROFLEX COLCOA (microfertiza),,Consumibles,Gramos,,,,,,Fertilizantes edaficos,,false,0,0,0,0,;,Boro;
MICROKEL MG,,Consumibles,Gramos,6862,,,,,Fertilizantes foliares,,true,0,0,0,0,;,K2O 3.0% ; MgO10.0% ;
MICRONFOS 3-3-0 (Microfertisa),,Consumibles,Gramos,1003,,,,,Fertilizantes edaficos,,false,0,0,0,0,;,(N)3.0%; (N-uréico)(P2O2)3%; (CaO)15%; (MgO)5%; (S1)50%-(B)1%; (Cu)0.75%; (Fe)5.00%; (Mn)1.00%; (Mo)0.01%; (Zn)2.20%;
MICROZINC,,Consumibles,Gramos,,,,,,Fertilizantes edaficos,,false,0,0,0,0,;,Fosforo;Azufre;Zinc;
MIRAGE 45 EC,II,Consumibles,Centimetros cúbicos,1169,,,,,Fungicidas,,true,7,24,0,0,;,Prochloraz [450g/L];
MIXEL TOP SL,III,Consumibles,Centimetros cúbicos,3008,,,8A,,Coadyuvantes,,true,0,0,0,0,;,Alkil Aril Polieter Alcohol;
MULT I- NPK 13-3-43,,Consumibles,Gramos,6065,,,,,Fertilizantes edaficos,,false,0,0,0,0,;,Nitrogeno 13%; Nitrogeno Nitrico 13% ; Fosforo asimilable 3% ; Potasio soluble en agua 43% ; PH en solucion al 10% ; Solublidad en agua a 20c° (g/100ml) 32.82% ; Conductividad electrica(1:100)(ds/m) 12.8 ; Humedad maxima 0.20%;
N- BORON (Manni-Plex),III,Consumibles,Centimetros cúbicos,7172,,,,,Fertilizantes foliares,,true,0,0,0,0,;,Nitrógeno Total (N)4.5 % ; Boro (B)3.3 % ; Arsénico7 mg/kg ; Cadmio < 2 mg/kg ; Plomo 6 mg/kg ; Mercurio < 2 mg/kg ;
NATIVO SC,III,Consumibles,Centimetros cúbicos,429,,3,,,Fungicidas,,true,14,12,0,0,;,Tebuconazole:200 g/L de formulación a 20 °C;  Trifloxystrobin:100 g/L de formulación a 20 °C ;
NATURALEZA ESPECIAL YESO,,Consumibles,Gramos,,,,,,Enmiendas,,false,0,0,0,0,;,Yeso agricola CaSO;
NBX+Mo,IV,Consumibles,Gramos,11451,,,,,Fertilizantes foliares,,true,0,0,0,0,;,Boro; molibdeno ; pH en solucion al 10 % ; densidad a 20 °C ;
NITRABOR,,Consumibles,Gramos,2583,,,24B,,Fertilizantes edaficos,,false,0,0,0,0,;,N:[15%] P:[0%] K:[0%] Ca:[26%] B:[0.3%];
NITRATO P+K BEDIS,,Consumibles,Gramos,10405,,,,,Fertilizantes edaficos,,true,0,0,0,0,;,N-Total 13.0%; N-NO3 13.0%; P2O5 3%; K2O 46.0%; pH solución 10% 6.07; Solubilidad en agua 33 g/100 ml;  C.E. 1:100 (dS/m) 12.8; Multi-npK 13-3-43. por tener 3% de fósforo no debe mezclarse en soluciones concentradas con fertilizantes que contengan calcio y magnesio;
NITRO MAG 21-0-0-11,,Consumibles,Gramos,4383,,,,,Fertilizantes fertirrigacion,,true,0,0,0,0,;,NITROGENO; NITROGENO; AMONIACAL; CALCIO; MAGNESIO;
NORDOX 75WG,III,Consumibles,Gramos,2035,,,,,Fungicidas,,true,14,24,0,0,;,ÓXIDO CUPROSO;
NUCLEO 20-30-10,,Consumibles,Gramos,6449,,,,,Fertilizantes fertirrigacion,,false,0,0,0,0,;,Nitrógeno Amoniacal (N) 8.9; NTC 211 Nitrógeno Ureico;  (N) 11.1 NTC 370 ; Fósforo Asimilable (P2O5) 30.0; NTC 234 ; Potasio Soluble en Agua (K2O) 10.0; NTC 202 Calcio Soluble en Agua (CaO); 1369 ; Magnesio Soluble en Agua (MgO)* 0.6 NTC 1369; Azufre Total (S) 1.0 NTC 1154;  Boro Soluble en Agua (B) 0.2 NTC 1860 ; Cobalto Soluble en Agua (Co)* 0.05 NTC 1369 ; Cobre Soluble en Agua (Cu)* 0.06;  NTC 1369 Hierro Soluble en Agua (Fe)* 0.2 NTC 1369 ; Manganeso Soluble en Agua (Mn)* 0.1 NTC 1369; Zinc Soluble en Agua (Zn)* 0.4;
NUTRI PHITE P+K,,Consumibles,Centimetros cúbicos,,,,,,Fertilizantes foliares,,false,0,0,0,0,;,Fosforo asimilable;Potasio soluble en agua;ph en solucion al 10%.densidad a 20°c;
NUTRIFEED MENOR,,Consumibles,Gramos,1918,,,,,Fertilizantes edaficos,,true,0,0,0,0,;,Fósforo Asimilable (P2O5) 3.0 ; Magnesio (MgO) 13.2;  Azufre Total (S) 11.0 ; Boro (B) 0.06 ; Cobalto (Co) 0.02 ; Cobre (Cu) 0.04;  Hierro (Fe) 1.00 ; Manganeso (Mn) 0.5 ; Molibdeno (Mo) 0.02 ; Zinc (Zn) 0.04;
NUTRIMENOR COBRE 0-0-3,,Consumibles,Gramos,6669,,,,,Fertilizantes edaficos,,false,0,0,0,0,;,Potasio Soluble en Agua (K2O) 3.0 NTC 202; Azufre Total (S) 11.5 NTC 1154;  Cobre (Cu) 23.0;
NUTRIMENOR HIERRO 3-0-0,,Consumibles,Gramos,10436,,,,,Fertilizantes edaficos,,true,0,0,0,0,;,Nitrógeno Total (N) 3.0 ; SUMATORIA Nitrógeno Amoniacal (N) 3.0 NTC 211 ; Azufre Total (S) 13.0 NTC 1154;  Hierro Total (Fe) 17.0 NTC 1369;
NUTRIMENOR MAGNESIO 0-0-3,,Consumibles,Gramos,6692,,,24B,,Fertilizantes fertirrigacion,,false,0,0,0,0,;,Potasio soluble en agua (K2O)3.0%; Calcio Total (CaO) 16.0% ; Magnesio Total (MgO) 6.0%;  Azufre Total (S)4.0% ; Boro Total (B)1.0% ; Cobre Total (Cu) 0.05% . Hierro Total (Fe) 0.05% ; Manganeso Total (Mn)0.05%; Zinc Total (Zn) 2.50% ;
NUTRIMENOR MANGANESO 0-0-3,,Consumibles,Gramos,6566,,,,,Fertilizantes edaficos,,false,0,0,0,0,;,Potasio soluble en agua (K2O) 3.0%; Azufre Total (S) 19.0%;  manganeso total (Mn) 30.0%;
NUTRISORB L,IV,Consumibles,Centimetros cúbicos,5330,,,,,Acondicionadores de suelo,,true,0,0,0,0,;,Carbono organico:[135.4g/L];
ORTHENE SP 75%,II,Consumibles,Gramos,2333,,,1B,,Insecticidas,,true,14,72,0,0,;,Acephate 750g/Kg (RS) -N- [methoxy(methyltio)phosphinoyl]acetamide;
PATENTKALI,,Consumibles,Gramos,,,,,,Fertilizantes edaficos,,true,0,0,0,0,;,Potasio 30%; Magnesio 10%; Azufre 17%;
PEGAL PROTEC,III,Consumibles,Gramos,,,,24A,,Coadyuvantes,,true,0,0,0,0,;,Silicatos de aluminio;
PLAN-T  AMINOLOM ENZIMATICO 24%,,Consumibles,Centimetros cúbicos,11864,,,,,Fertilizantes foliares,,true,0,0,0,0,;,AA:[24%];
PLANT BORO,,Consumibles,Gramos,5959,,,,,Fertilizantes edaficos,,false,0,0,0,0,;,Potasio soluble en agua (K2O) 3.0 NTC 202;  Boro (B) 10.0 NTC 1860;
PLANT ZINC,,Consumibles,Gramos,,,,,,Fertilizantes edaficos,,false,0,0,0,0,;,Potasio soluble en agua (K2O)3.0% ; azufre total (s) 6.0% ; zinc total (zn) 22.0%;
POLIQUEL Ca,,Consumibles,Centimetros cúbicos,3511,,,,,Fertilizantes foliares,,true,0,0,0,0,;,N 70g/L; CaO187g/L; MgO 22g/L. B 6.7g/L;
POLYCAL,III,Consumibles,Centimetros cúbicos,,,,,,Fungicidas,,true,7,4,0,0,;,Polisulfuro de Calcio 200g/litro;
POTANEEM,,Consumibles,Centimetros cúbicos,,,,,,Fertilizantes foliares,,true,0,0,0,0,;,Oleato potasico 30% diluyente inerte 70% 0;
POTASA CAUSTICA,,Consumibles,Gramos,,,,,,Fertilizantes edaficos,,false,0,0,0,0,;,Hidroxido de potasio solución del 45 al 50% y en escamas con un 92 % de pureza;
POTENZOL,IV,Consumibles,Centimetros cúbicos,,,,,,Fungicidas,,true,0,0,0,0,;,Alcohol laurílico ; etoxilado; tensoactivo organosiliconado a una concentración de 150 y10 g/l;
PROAXIS 60 CS,II,Consumibles,Centimetros cúbicos,89,,,,,Insecticidas,,true,7,12,0,0,;,Gamma-cyhalotrina 60 g/l; (S)-a-cyano-3-phenoxybenzyl(Z)-(1R.3R)-3-(2-chloro-3.3.3-trifluoropropenyl-2.2-dimethylcyclopropanecarboxylate. de formulación a 20ºC;
PROGIBB 10SP,IV,Consumibles,Gramos,1352,,,,,Reguladores fisiologicos,,true,0,4,0,0,;,Ácido Giberélico 10 (100 g/kg);
PROMESOL CA+,,Consumibles,Centimetros cúbicos,7090,,,,,Fertilizantes foliares,,true,0,0,0,0,;,Cálcio (CaO 7.0 ; Nitrogênio (N) 1.5 ; Ácidos Carboxy 4.5;
PROMINERALES,,Consumibles,Gramos,,,,,,Fertilizantes edaficos,,false,0,0,0,0,;,1-9-18-15CaOMgO;
PROTEUS,II,Consumibles,Centimetros cúbicos,,,,4A,,Insecticidas,,true,0,0,0,0,;,Triacloprid;
PROXAM 200EC,II,Consumibles,Centimetros cúbicos,1705,,,4A,,Insecticidas,,true,14,4,0,0,;,Acetamiprid: 100 g/L; (E)-N1-[(6-chloro-3-pyridyl)methyl]-N2-cyano-N1-methylacetamidine. de formulación a 20 0C. Pyriproxifen: 100 g/L ; 4-phenoxyphenyl (RS)-2-(2-pyridyloxy)propyl ether. de formulación a 20 0C;
RADIGROW,IV,Consumibles,Centimetros cúbicos,6733,,7,,,Bioestimulantes,,true,0,0,0,0,;,Auxinas:[800ppm]+Citoquininas:[20ppm] + P:[1.5%];
RADIZINC,,Consumibles,Gramos,5403,,,,,Fertilizantes edaficos,,false,0,0,0,0,;,fosforo asimilable (P2O5) . azufre  (S) ; Zinc (Zn);
RAFOS,,Consumibles,Gramos,,,,,,Fertilizantes edaficos,,false,0,0,0,0,;,N ; P2O5 ; K2O ; MgO ; S ; B ; Zn;
REGALIA SC,IV,Consumibles,Centimetros cúbicos,9432,,,,,Bioinsumos de uso agricola,,true,0,0,0,0,;,EXTRATO DE  REYNOUTRIA SACHALINENSIS;
ROCA FOSFORICA,,Consumibles,Gramos,,,,,,Fertilizantes edaficos,,false,0,0,0,0,;,Fósforo total como P2O5 ; Calcio como CaO 28% ; 0.75 40% ; 4.62;
ROOT FEED,,Consumibles,Gramos,,,,,,Fertilizantes fertirrigacion,,false,0,0,0,0,;,Nitrogeno;Ntrogeno Ureico;Calcio;Magnesio;boro;
ROVRAL,III,Consumibles,Centimetros cúbicos,2398,,,,,FUNGICIDAS,,true,0,0,0,0,;,Iprodine ;
SAFERSOIL,III,Consumibles,Gramos,,,BM 02,,,Bioinsumos de uso agricola,,true,0,0,0,0,;,Trichoderma asperellum; t. atrovirid;paecilomyces;
SAFERTAC,,Consumibles,Centimetros cúbicos,,,,,,Cebos,,false,0,0,0,0,;,Dispersión de Poliisobutileno en un medio de aceite mineral y un plastificante;
SAM Estándar 21-0-0-24S,,Consumibles,Gramos,10302,,,,,Fertilizantes edaficos,,false,0,0,0,0,;,N21%; S 24.0%;
SELECTO,,Consumibles,Centimetros cúbicos,6791,,,,,Fertilizantes edaficos,,true,0,0,0,0,;,Esteres metílicos de aceite de soja (70%); Ingrediente activo 2 Trixilosanos (30%);
SERENADE,III,Consumibles,Centimetros cúbicos,5973,,,,,Bioinsumos de uso agricola,,true,0,0,0,0,;,BACILLUS AMYLOLIQUEFACIENS QST713;
SEROK,,Consumibles,Gramos,,,,4A,,Insecticidas,,true,0,0,0,0,;,acefato 450g/kg ; imidacloprid 250g/kg;
SILICATO DE MAGNESIO,,Consumibles,Gramos,,,,,,Enmiendas,,false,0,0,0,0,;,Magnesio soluble en acido;Silicio;
SILWET,IV,Consumibles,Centimetros cúbicos,,,,,,Coadyuvantes,,true,0,0,0,0,;,Copolimero de Polieter ; Silicona;
SINERGI,,Consumibles,Centimetros cúbicos,,,,,,Fertilizantes foliares,,true,0,0,0,0,;,;
SKUPER EC,III,Consumibles,Centimetros cúbicos,2519,,,,,Fungicidas,,true,0,4,0,0,;,Sulfato de Cobre Pentahidratado 213.6 g/litro;
SOAP-K,III,Consumibles,Centimetros cúbicos,,,,,,Insecticidas,,true,0,0,0,0,;,OLEATO POTÁSICO 30 % DILUYENTE E INERTE 70 %;
SOLUBILIZADORES,,Consumibles,Centimetros cúbicos,,,,,,Bioinsumos de uso agricola,,true,0,0,0,0,;,Suero; cal; melaza; soya ;
SOLUN  RADICULAR,,Consumibles,Gramos,9344,,,,,Fertilizantes edaficos,,false,0,0,0,0,;,Nitrógeno Total (N) 8.0 SUMATORIA; Nitrógeno Amoniacal (N) 6.0 NTC 211; Nitrógeno Nítrico (N) 2.0 NTC 208 ; Fósforo Asimilable (P2O5) 8.0; NTC 234 Potasio Soluble en Agua (K2O) 19.0 NTC 202; Calcio Soluble en Agua (CaO)* 3.5 NTC 1369; Magnesio Soluble en Agua (MgO)* 2.0 NTC 1369 ; Azufre Soluble en Agua (S) 7.0 NTC 1154; Boro Soluble en Agua (B) 0.1 NTC 1860; Cobre Soluble en Agua (Cu)* 0.03 NTC 1369; Hierro Soluble en Agua (Fe)* 0.2 NTC 1369; Manganeso Soluble en Agua (Mn)* 0.1 NTC 1369; Zinc Soluble en Agua (Zn)* 0.25;
SOLUTEC INICIO,,Consumibles,Gramos,10971,,,,,Fertilizantes fertirrigacion,,true,0,0,0,0,;,NITRÓGENO 13% ; FÓSFORO 36% ; POTASIO 12%. PS ; Composición: Nitrógeno 13% (N amoniacal 7.2%. N ureico 5.8%); fósforo 36%;
SPIDER,III,Consumibles,Centimetros cúbicos,1502,,,4A,,insecticidas,,true,0,0,0,0,;,imidacloprid ;  lambdacihalotrina en concentraciones 200 y 50 g/l respectivamente;
STIMPLEX,II,Consumibles,Centimetros cúbicos,290,,,,,Fertilizantes fertirrigacion,,true,0,0,0,0,;,Ascophyllum nodosum;
SULFAGRO DE MAGNESIO,,Consumibles,Centimetros cúbicos,10094,,,,,Fertilizantes edaficos,,false,0,0,0,0,;,Sulfato Magnésico( MgSO4 . 7 H2O );
SULFAGRO DE ZINC,,Consumibles,Gramos,10332,,,,,Fertilizantes edaficos,,false,0,0,0,0,;,;
SULFATO DE AMONIO,,Consumibles,Gramos,499,,,,,Fertilizantes fertirrigacion,,true,0,0,0,0,;,Nitrogeno; azufre;
SULFATO DE ZINC,,Consumibles,Gramos,,,,,,Fertilizantes edaficos,,true,0,0,0,0,;,Zinc (Zn) 21% ; Azufre (S) 10%-Sulfato de zinc heptahidratado;
SUNNY 5 SC,III,Consumibles,Centimetros cúbicos,2170,,,,,Reguladores fisiologicos,,true,0,0,0,0,;,Uniconazol-p;
SWITCH 62_5 WG,III,Consumibles,Gramos,,,9,,,Fungicidas,,true,0,0,0,0,;,250Fludioxonil ; 375Ciprodinil;
TACHIGAREN 30 SL,III,Consumibles,Centimetros cúbicos,290,,32,,,Fungicidas,,true,0,0,0,0,;,HYMEXAZOL;
TECNO VERDE,,Consumibles,Centimetros cúbicos,290,,,,,Fertilizantes foliares,,true,0,0,0,0,;,NITROGENO TOTAL;
TERRA-SORB RADICULAR,,Consumibles,Centimetros cúbicos,290,,,,,Fertilizantes edaficos,,true,0,0,0,0,;,Nirogeno Total 300g.  Nitrogeno Amoniacal 22.4g ; Nitrogeno Organico 9.60;
T-FOS,,Consumibles,Centimetros cúbicos,10094,,,,,Fertilizantes edaficos,,false,0,0,0,0,;,FÓSFORO 20% + CALCIO 28% + MAGNESIO 8.5%;
TIMOREX,III,Consumibles,Centimetros cúbicos,290,,,,,Fungicidas,,true,0,0,0,0,;,Terpinen-4-ol 6.676 a 10.678 % p/v (66.76 a 106.78 g/L) ; terpinen 2.225 a 6.227 % p/v (22.25 a 62.27 g/L);
TIMSEN,IV,Consumibles,Gramos,,,,,,Desinfectantes de suelo,,true,0,0,0,0,;,Dimetil Bencil Amonio Clorado;
TIOXAM 20WG,III,Consumibles,Gramos,2629,,,4A,,Insecticidas,,true,3,24,0,0,;,Thiametoxam 250 g/l;
TRADECORD FE,,Consumibles,Gramos,5318,,,,,Fertilizantes fertirrigacion,,true,0,0,0,0,;,Hierro;
TREDECORD CU,,Consumibles,Gramos,5582,,,,,Fertilizantes fertirrigacion,,true,0,0,0,0,;,COBRE;
TRIPE 30,,Consumibles,Gramos,,,,1B,,Enmiendas,,false,0,0,0,0,;,Fosforo; Calcio;Magnesio; Azufre.Silicio;Humedad maxima;
TROPICEL,,Consumibles,Gramos,,,,,,Fertilizantes foliares,,true,0,0,0,0,;,ZN10%; B10%; Molibdeno0.5%; Aminoacidos Libres 3.0%; Extracto Organico2%;
TROPIMEZCLA,,Consumibles,Gramos,,,,UNF,,Bioinsumos de uso agricola,,false,0,0,0,0,;,Beauveria bassiana;Metarhizium anisopliae; Paecilomyces lilacinus; Trichoderma (especies harzianum y koningii) ; Saccharomyces cerevisiae 25%; Cereal (Arroz);
VALKIRIA,,Consumibles,Centimetros cúbicos,552,,,,,Desinfectantes de suelo,,true,0,0,0,0,;,Mezcla de aceites y extractos vegetales con tenso activos;
VERCANI,IV,Consumibles,Centimetros cúbicos,290,,,,,Bioinsumos de uso agricola,,true,0,0,0,0,;,Conidias del hongo Lecanicillium lecanii;
VINILO,,Consumibles,Centimetros cúbicos,290,,,,,Pintura,,true,0,0,0,0,;,Vinilo;
VOLCAN S-90,,Consumibles,Gramos,7170,,,,,fertilizantes edaficos,,false,0,0,0,0,;,Azufre toltal 90.0%;
WEST BACTER,,Consumibles,Centimetros cúbicos,,,,,,Fertilizantes edaficos,,true,0,0,0,0,;,N. N''-bis(4-chlorophenyl)-3.12-diimino2.4.11.13 tetraazatetradecanediamidine;
WEST FRUIT PROTECT,,Consumibles,Gramos,,,,,,Acondicionadores de suelo,,true,0,0,0,0,;,;
WEST GRO COVER,,Consumibles,Centimetros cúbicos,290,,,,,Fertilizantes edaficos,,true,0,0,0,0,;,;
WEST TERRASAFE,II,Consumibles,Centimetros cúbicos,290,,,,,Fungicidas,,true,0,0,0,0,;,1.3DIFORMIL PROPANO FORMULACION A 20;
YODO SAFER,III,Consumibles,Centimetros cúbicos,290,,,,,Fungicidas,,true,0,0,0,0,;,Yodo polivinil pirrolidona 120g/litro. Equivalente a 2.1% de yodo activo;
ZINCFERT,,Consumibles,Gramos,5477,,,,,Fertilizantes edaficos,,true,0,0,0,0,;,S 12%; B 2% ; Cu1.%; SiO2 20%;  Zn 18%;
ZOSMA,III,Consumibles,Gramos,,,,4A,,Insecticidas,,true,0,0,0,0,;,Dinotefuran 500 g/Kg ; Nombre químico: 2-Methyl-1-nitro-3-(tetrahydrofuran-3-ylmethyl) guanidine de formulación a 20°C;
