﻿cid,fids,code,firstName,lastName,typeID,numberID,email,receiveEmail,onlineAccess,contractType,hireDate,contractTerminationDate,periodicity,salary,otherSalaryIncome,otherNonSalaryIncome,job,hours,vacationDays,transportationSubsidy,paymentMethods,bank,accountType,accountNumber,birthDate,homeAddress,cellphone,employeesProtections,roles
Altamira,ALMERIA;,0,ALBEIRO DE JESUS,ZAPATA LUJAN,Cedula,8464078,,No,NO,Contrato Fijo,18/01/2022,17/09/2022,Quincenal,1000000,0,0,OFICIOS VARIOS,48,0,Aplica,Transferencia,Bancolombia,Cuenta de ahorros,37619604262,31/03/1976,FREDONIA VR CHAMUSCADOS,3167598036,Salud: 4%; AFP: 4%;,;
Altamira,ALMERIA;,1,DIEGO DE JESUS,UPEGUI TAMAYO,Cedula,8464388,,No,NO,Contrato Fijo,01/10/2019,,Quincenal,1000000,0,0,OFICIOS VARIOS,48,6,Aplica,Transferencia,Bancolombia,Cuenta de ahorros,37602604170,14/02/1977,FREDONIA VR CHAMUSCADOS,,Salud: 4%; AFP: 4%;,;
Altamira,ALMERIA;,2,FRANCISCO JAVIER,ALVAREZ TAMAYO,Cedula,8464709,,No,NO,Contrato Indefinido,25/07/1978,,Quincenal,1000000,0,0,OFICIOS VARIOS,48,2,No Aplica,Transferencia,Bancolombia,Cuenta de ahorros,31604134971,25/07/1978,,3148374041,Salud: 4%; AFP: 4%;,;
Altamira,ALMERIA;,3,HECTOR DE JESUS,MARTINEZ CARDENAS,Cedula,8462442,,No,NO,Contrato Fijo,24/01/2022,,Quincenal,1000000,0,0,OFICIOS VARIOS,48,1,No Aplica,Transferencia,Bancolombia,Cuenta de ahorros,37600014642,19/02/1963,,,Salud: 4%; AFP: 4%;,;
Altamira,ALMERIA;,4,JUAN DIEGO,CASTAÑO ARROYABE,Cedula,1041148172,,No,NO,Contrato Indefinido,16/01/2021,,Quincenal,1000000,0,0,OFICIOS VARIOS,48,2,Aplica,Transferencia,Bancolombia,Cuenta de ahorros,37613801198,18/01/1990,FREDONIA VR CHAMUSCADOS,,Salud: 4%; AFP: 4%;,;
Altamira,ALMERIA;,5,LUIS FERNANDO,RESTREPO SANCHEZ,Cedula,70661549,,No,NO,Contrato Fijo,18/01/2022,17/09/2022,Quincenal,1000000,0,0,OFICIOS VARIOS,48,0,Aplica,Transferencia,Bancolombia,Cuenta de ahorros,37631856731,18/02/1966,FREDONIA VR CHAMUSCADOS,3128188874,Salud: 4%; AFP: 4%;,;
Altamira,ALMERIA;,6,MANUEL ALONSO,UPEGUI TAMAYO,Cedula,8465117,alonsoupegui7@gmail.com,Si,SI,Contrato Indefinido,20/09/2008,,Quincenal,1455957,0,250000,ADMINISTRADOR,48,44,No Aplica,Transferencia,Bancolombia,Cuenta de ahorros,37631856731,14/03/1980,FREDONIA FINCA ALMERIA,3146170293,Salud: 4%; AFP: 4%;,;
Altamira,ALMERIA;,7,OSCAR ADOLFO,BOHORQUEZ,Cedula,8464063,,No,NO,Contrato Fijo,04/04/2022,03/08/2022,Quincenal,1000000,0,0,OFICIOS VARIOS,48,0,Aplica,Transferencia,Davivienda,Cuenta de ahorros,3.972E+11,20/04/1976,,3128787207,Salud: 4%; AFP: 4%;,;
Altamira,ALMERIA;,8,VICTOR ALFONSO,BETANCUR VARGAS,Cedula,1041151812,,No,NO,Contrato Indefinido,16/01/2021,,Quincenal,1150000,0,0,MONITOR,48,2,Aplica,Transferencia,Bancolombia,Cuenta de ahorros,37665462634,16/10/1998,,3192786969,Salud: 4%; AFP: 4%;,;
Altamira,ALMERIA;,9,VICTOR ALFONSO,CARDONA CARDONA,Cedula,1042066070,,No,NO,Contrato Fijo,01/10/2019,,Quincenal,1000000,0,0,OFICIOS VARIOS,48,6,Aplica,Transferencia,Bancolombia,Cuenta de ahorros,37600012241,19/06/1996,,,Salud: 4%; AFP: 4%;,;
Altamira,GUADALQUIVIR;,10,BREILER RAFAEL,FRAGOSO CORONADO,Cedula,1120739447,,No,NO,Contrato Fijo,22/03/2022,21/07/2022,Quincenal,1000000,0,0,OFICIOS VARIOS,48,0,Aplica,Transferencia,Bancolombia,Cuenta de ahorros,3218849579,18/06/1984,VDA TACOMOCHO,3218849574,Salud: 4%; AFP: 4%;,;
Altamira,GUADALQUIVIR;,11,CELIMO ESNEIDER,SANCHEZ QUINTERO,Cedula,71384196,,No,NO,Contrato Fijo,07/02/2022,06/06/2022,Quincenal,1000000,0,0,OFICIOS VARIOS,48,0,Aplica,Transferencia,Bancolombia,Cuenta de ahorros,43670005462,21/11/1981,BARRIO FILOSECO,3175397695,Salud: 4%; AFP: 4%;,;
Altamira,GUADALQUIVIR;,12,GABRIEL JAIME,SALINAS TORO,Cedula,71782457,,No,NO,Contrato Fijo,01/03/2022,30/06/2022,Quincenal,1000000,0,0,OFICIOS VARIOS,48,0,Aplica,Transferencia,Bancolombia,Cuenta de ahorros,2974182508,15/09/1978,BARRIO FILOSECO,3224717004,Salud: 4%; AFP: 4%;,;
Altamira,GUADALQUIVIR;,13,JHON JANDER,CONTRERAS CARDONA,Cedula,1046933726,,No,NO,Contrato Fijo,21/07/2021,20/07/2022,Quincenal,1000000,0,0,OFICIOS VARIOS,48,9,Aplica,Transferencia,Bancolombia,Cuenta de ahorros,3115920699,29/01/1998,HACIENDA LA ISLA VEREDA CANAAN-TARSO,,Salud: 4%; AFP: 4%;,;
Altamira,GUADALQUIVIR;,14,JOSE ALDEMAR,RAMIREZ BEDOYA,Cedula,70855382,,No,NO,Contrato Fijo,24/08/2020,,Quincenal,1150000,0,0,MONITOR,48,8,Aplica,Transferencia,Bancolombia,Cuenta de ahorros,37632360941,14/09/1979,JERICO VDA LA CASCADA,3148126810,Salud: 4%; AFP: 4%;,;
Altamira,GUADALQUIVIR;,15,JOSE RODOLFO,MOLINA MEDINA,Cedula,1046933794,,No,NO,Contrato Fijo,21/07/2021,20/07/2022,Quincenal,1000000,0,0,OFICIOS VARIOS,48,9,Aplica,Transferencia,Bancolombia,Cuenta de ahorros,37610514333,15/11/1998,CRA 19 22-59 - TARSO,3217727973,Salud: 4%; AFP: 4%;,;
Altamira,GUADALQUIVIR;,16,LEON JAIRO,OCHOA USUGA,Cedula,8417342,,No,SI,Contrato Indefinido,23/11/2020,,Quincenal,1359151,0,0,ADMINISTRADOR,48,4,No Aplica,Transferencia,Bancolombia,Cuenta de ahorros,24033057829,05/06/1976,JERICO FINCA GUADALQUIVIR,3138970007,Salud: 4%; AFP: 4%;,;
Altamira,GUADALQUIVIR;,17,LUIS FERNANDO,SOTO ROJAS,Cedula,98454044,,No,NO,Contrato Fijo,16/09/2019,,Quincenal,1000000,0,0,OFICIOS VARIOS,48,7,Aplica,Transferencia,Bancolombia,Cuenta de ahorros,37641803210,10/07/1976,,3116090300,Salud: 4%; AFP: 4%;,;
Altamira,GUADALQUIVIR;,18,WILMAR DE JESUS,TORRES JARAMILLO,Cedula,1039023978,,No,NO,Contrato Indefinido,24/04/2017,,Quincenal,1000000,0,0,OFICIOS VARIOS,48,13,Aplica,Transferencia,Bancolombia,Cuenta de ahorros,52068828562,21/03/1994,LA ARMERIA,3168853410,Salud: 4%; AFP: 4%;,;
Altamira,GUADALQUIVIR;,19,YONY ALBERTO,RESTREPO MEJIA,Cedula,98454205,,No,NO,Contrato Indefinido,21/07/2021,20/07/2022,Quincenal,1000000,0,0,OFICIOS VARIOS,48,9,Aplica,Transferencia,Bancolombia,Cuenta de ahorros,2974213454,08/03/1979,,3116228408,Salud: 4%; AFP: 4%;,;
Altamira,CARMEN DE VIBORAL;,20,ANGEL MARIA,VASQUEZ GOMEZ,Cedula,70465941,,No,NO,Contrato Fijo,01/04/2021,28/08/2022,Quincenal,1000000,0,0,OFICIOS VARIOS,48,0,No Aplica,Transferencia,Bancolombia,Cuenta de ahorros,2481214796,30/01/1975,CARMEN DE VIBORAL FINCA SANTA LUCIA,3148559216,Salud: 4%; AFP: 4%;,;
Altamira,CARMEN DE VIBORAL;,21,CONRADO,ARIAS QUINTERO,Cedula,3450040,,No,NO,Contrato Fijo,03/09/2021,02/09/2022,Quincenal,1150000,0,0,MONITOR,48,7,No Aplica,Transferencia,Bancolombia,Cuenta de ahorros,2405658464,27/08/1972,CARMEN DE VIBORAL FINCA SANTA LUCIA,313 687 77 26,Salud: 4%; AFP: 4%;,;
Altamira,CARMEN DE VIBORAL;,22,DIEGO MAURICIO,RIOS LOPEZ,Cedula,1013556350,,No,NO,Contrato Fijo,17/01/2022,16/05/2022,Quincenal,1000000,0,0,OFICIOS VARIOS,48,0,No Aplica,Transferencia,Bancolombia,Cuenta de ahorros,51102493200,13/03/1987,CARMEN DE VIBORAL FINCA SANTA LUCIA,3152052590,Salud: 4%; AFP: 4%;,;
Altamira,CARMEN DE VIBORAL;,23,LUIS FERNANDO,RUA BERMUDEZ,Cedula,1041150866,,No,SI,Contrato Indefinido,09/09/2020,,Quincenal,1360016,0,0,ADMINISTRADOR,48,8,No Aplica,Transferencia,Bancolombia,Cuenta de ahorros,37648753129,09/05/1996,CARMEN DE VIBORAL FINCA SANTA LUCIA,3117122477,Salud: 4%; AFP: 4%;,;
Altamira,CARMEN DE VIBORAL;,24,NICOLAS ANTONIO,PEREZ MEDINA,Cedula,8151460,,No,NO,Contrato Fijo,08/11/2021,07/07/2022,Quincenal,1000000,0,0,OFICIOS VARIOS,48,5,Aplica,Transferencia,Bancolombia,Cuenta de ahorros,55628597544,24/09/1963,ALTO BONITO RIONEGRO,3106933583,Salud: 4%; AFP: 4%;,;
Altamira,CARMEN DE VIBORAL;,25,RICARDO,LOPEZ SANCHEZ,Cedula,6429374,,No,NO,Contrato Fijo,01/04/2022,30/07/2022,Quincenal,1000000,0,0,OFICIOS VARIOS,48,0,No Aplica,Transferencia,Bancolombia,Cuenta de ahorros,55634716601,05/09/1974,CARMEN DE VIBORAL FINCA SANTA LUCIA,3216069607,Salud: 4%; AFP: 4%;,;
