//--parte1
De 1 a 5 plagas por árbol
De 6 a 10 plagas por árbol
Más de 10 plagas por árbol


//---ejemplo
Blanco:#FFFFFF
Gris:#9c9c9c
Verde Claro:#00FF00
Verde Oscuro:   #008000}
Amarillo claro: #ffff00
Amarillo Oscuro:#e2ba1f
Naranja:#ff8000
Cafe:#7B3F32
Rojo:#ff0000 
Azul:#1a73e8



//--parte3
#Individuos X Arbol: #ffffff,
[1# - 5#]:#00FF00,
[6# - 10#]:#ff8000,
(>10#):#ff0000


//--parte4
#Individuos X Arbol: #ffffff,[1# - 5#]:#00FF00,[6# - 10#]:#ff8000,(>10#):#ff0000
