LOTE,CANTIDAD PRESUPUESTO,Mes,Anio,FINCA,ID FINCA
B-30A,281.87,6,2020,villanueva cacao casanare,5d26491264f5b87ffc809eba
B-30A,422.81,7,2020,villanueva cacao casanare,5d26491264f5b87ffc809eba
B-30A,1409.36,8,2020,villanueva cacao casanare,5d26491264f5b87ffc809eba
B-30A,1409.36,9,2020,villanueva cacao casanare,5d26491264f5b87ffc809eba
B-30A,2536.84,10,2020,villanueva cacao casanare,5d26491264f5b87ffc809eba
B-30A,2536.84,11,2020,villanueva cacao casanare,5d26491264f5b87ffc809eba
B-30A,2818.71,12,2020,villanueva cacao casanare,5d26491264f5b87ffc809eba
B-31,339.01,6,2020,villanueva cacao casanare,5d26491264f5b87ffc809eba
B-31,508.52,7,2020,villanueva cacao casanare,5d26491264f5b87ffc809eba
B-31,1695.07,8,2020,villanueva cacao casanare,5d26491264f5b87ffc809eba
B-31,1695.07,9,2020,villanueva cacao casanare,5d26491264f5b87ffc809eba
B-31,3051.12,10,2020,villanueva cacao casanare,5d26491264f5b87ffc809eba
B-31,3051.12,11,2020,villanueva cacao casanare,5d26491264f5b87ffc809eba
B-31,3390.13,12,2020,villanueva cacao casanare,5d26491264f5b87ffc809eba
B-32,247.25,6,2020,villanueva cacao casanare,5d26491264f5b87ffc809eba
B-32,370.87,7,2020,villanueva cacao casanare,5d26491264f5b87ffc809eba
B-32,1236.24,8,2020,villanueva cacao casanare,5d26491264f5b87ffc809eba
B-32,1236.24,9,2020,villanueva cacao casanare,5d26491264f5b87ffc809eba
B-32,2225.23,10,2020,villanueva cacao casanare,5d26491264f5b87ffc809eba
B-32,2225.23,11,2020,villanueva cacao casanare,5d26491264f5b87ffc809eba
B-32,2472.48,12,2020,villanueva cacao casanare,5d26491264f5b87ffc809eba
B-33,205.04,6,2020,villanueva cacao casanare,5d26491264f5b87ffc809eba
B-33,307.56,7,2020,villanueva cacao casanare,5d26491264f5b87ffc809eba
B-33,1025.19,8,2020,villanueva cacao casanare,5d26491264f5b87ffc809eba
B-33,1025.19,9,2020,villanueva cacao casanare,5d26491264f5b87ffc809eba
B-33,1845.34,10,2020,villanueva cacao casanare,5d26491264f5b87ffc809eba
B-33,1845.34,11,2020,villanueva cacao casanare,5d26491264f5b87ffc809eba
B-33,2050.37,12,2020,villanueva cacao casanare,5d26491264f5b87ffc809eba
B-34,0.00,6,2020,villanueva cacao casanare,5d26491264f5b87ffc809eba
B-34,0.00,7,2020,villanueva cacao casanare,5d26491264f5b87ffc809eba
B-34,0.00,8,2020,villanueva cacao casanare,5d26491264f5b87ffc809eba
B-34,0.00,9,2020,villanueva cacao casanare,5d26491264f5b87ffc809eba
B-34,0.00,10,2020,villanueva cacao casanare,5d26491264f5b87ffc809eba
B-34,0.00,11,2020,villanueva cacao casanare,5d26491264f5b87ffc809eba
B-34,0.00,12,2020,villanueva cacao casanare,5d26491264f5b87ffc809eba
C-28,299.22,6,2020,villanueva cacao casanare,5d26491264f5b87ffc809eba
C-28,448.83,7,2020,villanueva cacao casanare,5d26491264f5b87ffc809eba
C-28,1496.11,8,2020,villanueva cacao casanare,5d26491264f5b87ffc809eba
C-28,1496.11,9,2020,villanueva cacao casanare,5d26491264f5b87ffc809eba
C-28,2693.00,10,2020,villanueva cacao casanare,5d26491264f5b87ffc809eba
C-28,2693.00,11,2020,villanueva cacao casanare,5d26491264f5b87ffc809eba
C-28,2992.22,12,2020,villanueva cacao casanare,5d26491264f5b87ffc809eba
C-29,318.16,6,2020,villanueva cacao casanare,5d26491264f5b87ffc809eba
C-29,477.24,7,2020,villanueva cacao casanare,5d26491264f5b87ffc809eba
C-29,1590.81,8,2020,villanueva cacao casanare,5d26491264f5b87ffc809eba
C-29,1590.81,9,2020,villanueva cacao casanare,5d26491264f5b87ffc809eba
C-29,2863.45,10,2020,villanueva cacao casanare,5d26491264f5b87ffc809eba
C-29,2863.45,11,2020,villanueva cacao casanare,5d26491264f5b87ffc809eba
C-29,3181.61,12,2020,villanueva cacao casanare,5d26491264f5b87ffc809eba
C-30,168.59,6,2020,villanueva cacao casanare,5d26491264f5b87ffc809eba
C-30,252.89,7,2020,villanueva cacao casanare,5d26491264f5b87ffc809eba
C-30,842.96,8,2020,villanueva cacao casanare,5d26491264f5b87ffc809eba
C-30,842.96,9,2020,villanueva cacao casanare,5d26491264f5b87ffc809eba
C-30,1517.33,10,2020,villanueva cacao casanare,5d26491264f5b87ffc809eba
C-30,1517.33,11,2020,villanueva cacao casanare,5d26491264f5b87ffc809eba
C-30,1685.92,12,2020,villanueva cacao casanare,5d26491264f5b87ffc809eba
C-31,351.74,6,2020,villanueva cacao casanare,5d26491264f5b87ffc809eba
C-31,527.61,7,2020,villanueva cacao casanare,5d26491264f5b87ffc809eba
C-31,1758.72,8,2020,villanueva cacao casanare,5d26491264f5b87ffc809eba
C-31,1758.72,9,2020,villanueva cacao casanare,5d26491264f5b87ffc809eba
C-31,3165.69,10,2020,villanueva cacao casanare,5d26491264f5b87ffc809eba
C-31,3165.69,11,2020,villanueva cacao casanare,5d26491264f5b87ffc809eba
C-31,3517.43,12,2020,villanueva cacao casanare,5d26491264f5b87ffc809eba
C-32,196.59,6,2020,villanueva cacao casanare,5d26491264f5b87ffc809eba
C-32,294.88,7,2020,villanueva cacao casanare,5d26491264f5b87ffc809eba
C-32,982.93,8,2020,villanueva cacao casanare,5d26491264f5b87ffc809eba
C-32,982.93,9,2020,villanueva cacao casanare,5d26491264f5b87ffc809eba
C-32,1769.28,10,2020,villanueva cacao casanare,5d26491264f5b87ffc809eba
C-32,1769.28,11,2020,villanueva cacao casanare,5d26491264f5b87ffc809eba
C-32,1965.87,12,2020,villanueva cacao casanare,5d26491264f5b87ffc809eba
C-33,213.72,6,2020,villanueva cacao casanare,5d26491264f5b87ffc809eba
C-33,320.58,7,2020,villanueva cacao casanare,5d26491264f5b87ffc809eba
C-33,1068.61,8,2020,villanueva cacao casanare,5d26491264f5b87ffc809eba
C-33,1068.61,9,2020,villanueva cacao casanare,5d26491264f5b87ffc809eba
C-33,1923.50,10,2020,villanueva cacao casanare,5d26491264f5b87ffc809eba
C-33,1923.50,11,2020,villanueva cacao casanare,5d26491264f5b87ffc809eba
C-33,2137.22,12,2020,villanueva cacao casanare,5d26491264f5b87ffc809eba
C-34,304.34,6,2020,villanueva cacao casanare,5d26491264f5b87ffc809eba
C-34,456.51,7,2020,villanueva cacao casanare,5d26491264f5b87ffc809eba
C-34,1521.70,8,2020,villanueva cacao casanare,5d26491264f5b87ffc809eba
C-34,1521.70,9,2020,villanueva cacao casanare,5d26491264f5b87ffc809eba
C-34,2739.06,10,2020,villanueva cacao casanare,5d26491264f5b87ffc809eba
C-34,2739.06,11,2020,villanueva cacao casanare,5d26491264f5b87ffc809eba
C-34,3043.39,12,2020,villanueva cacao casanare,5d26491264f5b87ffc809eba
C-35,237.14,6,2020,villanueva cacao casanare,5d26491264f5b87ffc809eba
C-35,355.70,7,2020,villanueva cacao casanare,5d26491264f5b87ffc809eba
C-35,1185.68,8,2020,villanueva cacao casanare,5d26491264f5b87ffc809eba
C-35,1185.68,9,2020,villanueva cacao casanare,5d26491264f5b87ffc809eba
C-35,2134.22,10,2020,villanueva cacao casanare,5d26491264f5b87ffc809eba
C-35,2134.22,11,2020,villanueva cacao casanare,5d26491264f5b87ffc809eba
C-35,2371.35,12,2020,villanueva cacao casanare,5d26491264f5b87ffc809eba
D-25,272.33,6,2020,villanueva cacao casanare,5d26491264f5b87ffc809eba
D-25,408.50,7,2020,villanueva cacao casanare,5d26491264f5b87ffc809eba
D-25,1361.67,8,2020,villanueva cacao casanare,5d26491264f5b87ffc809eba
D-25,1361.67,9,2020,villanueva cacao casanare,5d26491264f5b87ffc809eba
D-25,2451.00,10,2020,villanueva cacao casanare,5d26491264f5b87ffc809eba
D-25,2451.00,11,2020,villanueva cacao casanare,5d26491264f5b87ffc809eba
D-25,2723.33,12,2020,villanueva cacao casanare,5d26491264f5b87ffc809eba
D-26,273.08,6,2020,villanueva cacao casanare,5d26491264f5b87ffc809eba
D-26,409.62,7,2020,villanueva cacao casanare,5d26491264f5b87ffc809eba
D-26,1365.40,8,2020,villanueva cacao casanare,5d26491264f5b87ffc809eba
D-26,1365.40,9,2020,villanueva cacao casanare,5d26491264f5b87ffc809eba
D-26,2457.73,10,2020,villanueva cacao casanare,5d26491264f5b87ffc809eba
D-26,2457.73,11,2020,villanueva cacao casanare,5d26491264f5b87ffc809eba
D-26,2730.81,12,2020,villanueva cacao casanare,5d26491264f5b87ffc809eba
D-27,274.18,6,2020,villanueva cacao casanare,5d26491264f5b87ffc809eba
D-27,411.27,7,2020,villanueva cacao casanare,5d26491264f5b87ffc809eba
D-27,1370.91,8,2020,villanueva cacao casanare,5d26491264f5b87ffc809eba
D-27,1370.91,9,2020,villanueva cacao casanare,5d26491264f5b87ffc809eba
D-27,2467.64,10,2020,villanueva cacao casanare,5d26491264f5b87ffc809eba
D-27,2467.64,11,2020,villanueva cacao casanare,5d26491264f5b87ffc809eba
D-27,2741.83,12,2020,villanueva cacao casanare,5d26491264f5b87ffc809eba
D-28,276.59,6,2020,villanueva cacao casanare,5d26491264f5b87ffc809eba
D-28,414.88,7,2020,villanueva cacao casanare,5d26491264f5b87ffc809eba
D-28,1382.95,8,2020,villanueva cacao casanare,5d26491264f5b87ffc809eba
D-28,1382.95,9,2020,villanueva cacao casanare,5d26491264f5b87ffc809eba
D-28,2489.30,10,2020,villanueva cacao casanare,5d26491264f5b87ffc809eba
D-28,2489.30,11,2020,villanueva cacao casanare,5d26491264f5b87ffc809eba
D-28,2765.89,12,2020,villanueva cacao casanare,5d26491264f5b87ffc809eba
D-29,262.29,6,2020,villanueva cacao casanare,5d26491264f5b87ffc809eba
D-29,393.43,7,2020,villanueva cacao casanare,5d26491264f5b87ffc809eba
D-29,1311.44,8,2020,villanueva cacao casanare,5d26491264f5b87ffc809eba
D-29,1311.44,9,2020,villanueva cacao casanare,5d26491264f5b87ffc809eba
D-29,2360.60,10,2020,villanueva cacao casanare,5d26491264f5b87ffc809eba
D-29,2360.60,11,2020,villanueva cacao casanare,5d26491264f5b87ffc809eba
D-29,2622.89,12,2020,villanueva cacao casanare,5d26491264f5b87ffc809eba
D-30,312.20,6,2020,villanueva cacao casanare,5d26491264f5b87ffc809eba
D-30,468.30,7,2020,villanueva cacao casanare,5d26491264f5b87ffc809eba
D-30,1561.00,8,2020,villanueva cacao casanare,5d26491264f5b87ffc809eba
D-30,1561.00,9,2020,villanueva cacao casanare,5d26491264f5b87ffc809eba
D-30,2809.80,10,2020,villanueva cacao casanare,5d26491264f5b87ffc809eba
D-30,2809.80,11,2020,villanueva cacao casanare,5d26491264f5b87ffc809eba
D-30,3121.99,12,2020,villanueva cacao casanare,5d26491264f5b87ffc809eba
D-31,360.96,6,2020,villanueva cacao casanare,5d26491264f5b87ffc809eba
D-31,541.44,7,2020,villanueva cacao casanare,5d26491264f5b87ffc809eba
D-31,1804.81,8,2020,villanueva cacao casanare,5d26491264f5b87ffc809eba
D-31,1804.81,9,2020,villanueva cacao casanare,5d26491264f5b87ffc809eba
D-31,3248.66,10,2020,villanueva cacao casanare,5d26491264f5b87ffc809eba
D-31,3248.66,11,2020,villanueva cacao casanare,5d26491264f5b87ffc809eba
D-31,3609.62,12,2020,villanueva cacao casanare,5d26491264f5b87ffc809eba
D-32,295.82,6,2020,villanueva cacao casanare,5d26491264f5b87ffc809eba
D-32,443.73,7,2020,villanueva cacao casanare,5d26491264f5b87ffc809eba
D-32,1479.11,8,2020,villanueva cacao casanare,5d26491264f5b87ffc809eba
D-32,1479.11,9,2020,villanueva cacao casanare,5d26491264f5b87ffc809eba
D-32,2662.40,10,2020,villanueva cacao casanare,5d26491264f5b87ffc809eba
D-32,2662.40,11,2020,villanueva cacao casanare,5d26491264f5b87ffc809eba
D-32,2958.22,12,2020,villanueva cacao casanare,5d26491264f5b87ffc809eba
D-33,0.00,6,2020,villanueva cacao casanare,5d26491264f5b87ffc809eba
D-33,0.00,7,2020,villanueva cacao casanare,5d26491264f5b87ffc809eba
D-33,0.00,8,2020,villanueva cacao casanare,5d26491264f5b87ffc809eba
D-33,0.00,9,2020,villanueva cacao casanare,5d26491264f5b87ffc809eba
D-33,0.00,10,2020,villanueva cacao casanare,5d26491264f5b87ffc809eba
D-33,0.00,11,2020,villanueva cacao casanare,5d26491264f5b87ffc809eba
D-33,0.00,12,2020,villanueva cacao casanare,5d26491264f5b87ffc809eba
D-34,358.00,6,2020,villanueva cacao casanare,5d26491264f5b87ffc809eba
D-34,537.00,7,2020,villanueva cacao casanare,5d26491264f5b87ffc809eba
D-34,1790.00,8,2020,villanueva cacao casanare,5d26491264f5b87ffc809eba
D-34,1790.00,9,2020,villanueva cacao casanare,5d26491264f5b87ffc809eba
D-34,3222.00,10,2020,villanueva cacao casanare,5d26491264f5b87ffc809eba
D-34,3222.00,11,2020,villanueva cacao casanare,5d26491264f5b87ffc809eba
D-34,3580.01,12,2020,villanueva cacao casanare,5d26491264f5b87ffc809eba
E-29,304.46,6,2020,villanueva cacao casanare,5d26491264f5b87ffc809eba
E-29,456.70,7,2020,villanueva cacao casanare,5d26491264f5b87ffc809eba
E-29,1522.32,8,2020,villanueva cacao casanare,5d26491264f5b87ffc809eba
E-29,1522.32,9,2020,villanueva cacao casanare,5d26491264f5b87ffc809eba
E-29,2740.17,10,2020,villanueva cacao casanare,5d26491264f5b87ffc809eba
E-29,2740.17,11,2020,villanueva cacao casanare,5d26491264f5b87ffc809eba
E-29,3044.64,12,2020,villanueva cacao casanare,5d26491264f5b87ffc809eba
E-30,358.48,6,2020,villanueva cacao casanare,5d26491264f5b87ffc809eba
E-30,537.72,7,2020,villanueva cacao casanare,5d26491264f5b87ffc809eba
E-30,1792.40,8,2020,villanueva cacao casanare,5d26491264f5b87ffc809eba
E-30,1792.40,9,2020,villanueva cacao casanare,5d26491264f5b87ffc809eba
E-30,3226.31,10,2020,villanueva cacao casanare,5d26491264f5b87ffc809eba
E-30,3226.31,11,2020,villanueva cacao casanare,5d26491264f5b87ffc809eba
E-30,3584.79,12,2020,villanueva cacao casanare,5d26491264f5b87ffc809eba
E-31,393.80,6,2020,villanueva cacao casanare,5d26491264f5b87ffc809eba
E-31,590.71,7,2020,villanueva cacao casanare,5d26491264f5b87ffc809eba
E-31,1969.02,8,2020,villanueva cacao casanare,5d26491264f5b87ffc809eba
E-31,1969.02,9,2020,villanueva cacao casanare,5d26491264f5b87ffc809eba
E-31,3544.24,10,2020,villanueva cacao casanare,5d26491264f5b87ffc809eba
E-31,3544.24,11,2020,villanueva cacao casanare,5d26491264f5b87ffc809eba
E-31,3938.04,12,2020,villanueva cacao casanare,5d26491264f5b87ffc809eba
E-32,330.25,6,2020,villanueva cacao casanare,5d26491264f5b87ffc809eba
E-32,495.37,7,2020,villanueva cacao casanare,5d26491264f5b87ffc809eba
E-32,1651.24,8,2020,villanueva cacao casanare,5d26491264f5b87ffc809eba
E-32,1651.24,9,2020,villanueva cacao casanare,5d26491264f5b87ffc809eba
E-32,2972.23,10,2020,villanueva cacao casanare,5d26491264f5b87ffc809eba
E-32,2972.23,11,2020,villanueva cacao casanare,5d26491264f5b87ffc809eba
E-32,3302.48,12,2020,villanueva cacao casanare,5d26491264f5b87ffc809eba
E-33,422.27,6,2020,villanueva cacao casanare,5d26491264f5b87ffc809eba
E-33,633.40,7,2020,villanueva cacao casanare,5d26491264f5b87ffc809eba
E-33,2111.33,8,2020,villanueva cacao casanare,5d26491264f5b87ffc809eba
E-33,2111.33,9,2020,villanueva cacao casanare,5d26491264f5b87ffc809eba
E-33,3800.40,10,2020,villanueva cacao casanare,5d26491264f5b87ffc809eba
E-33,3800.40,11,2020,villanueva cacao casanare,5d26491264f5b87ffc809eba
E-33,4222.66,12,2020,villanueva cacao casanare,5d26491264f5b87ffc809eba
