LOTE,CANTIDAD PRESUPUESTO,Mes,Anio,FINCA,ID FINCA
B-30A,986.5496667,1,2020,villanueva cacao casanare,5d26491264f5b87ffc809eba
B-30A,845.614,2,2020,villanueva cacao casanare,5d26491264f5b87ffc809eba
B-30A,281.8713333,3,2020,villanueva cacao casanare,5d26491264f5b87ffc809eba
B-30A,281.8713333,4,2020,villanueva cacao casanare,5d26491264f5b87ffc809eba
B-30A,281.8713333,5,2020,villanueva cacao casanare,5d26491264f5b87ffc809eba
B-31,1303.558667,1,2020,villanueva cacao casanare,5d26491264f5b87ffc809eba
B-31,1017.04,2,2020,villanueva cacao casanare,5d26491264f5b87ffc809eba
B-31,339.0133333,3,2020,villanueva cacao casanare,5d26491264f5b87ffc809eba
B-31,339.0133333,4,2020,villanueva cacao casanare,5d26491264f5b87ffc809eba
B-31,339.0133333,5,2020,villanueva cacao casanare,5d26491264f5b87ffc809eba
B-32,865.368,1,2020,villanueva cacao casanare,5d26491264f5b87ffc809eba
B-32,741.744,2,2020,villanueva cacao casanare,5d26491264f5b87ffc809eba
B-32,247.248,3,2020,villanueva cacao casanare,5d26491264f5b87ffc809eba
B-32,247.248,4,2020,villanueva cacao casanare,5d26491264f5b87ffc809eba
B-32,247.248,5,2020,villanueva cacao casanare,5d26491264f5b87ffc809eba
B-33,717.6306667,1,2020,villanueva cacao casanare,5d26491264f5b87ffc809eba
B-33,615.112,2,2020,villanueva cacao casanare,5d26491264f5b87ffc809eba
B-33,205.0373333,3,2020,villanueva cacao casanare,5d26491264f5b87ffc809eba
B-33,205.0373333,4,2020,villanueva cacao casanare,5d26491264f5b87ffc809eba
B-33,205.0373333,5,2020,villanueva cacao casanare,5d26491264f5b87ffc809eba
B-34,0,1,2020,villanueva cacao casanare,5d26491264f5b87ffc809eba
B-34,468.2132,2,2020,villanueva cacao casanare,5d26491264f5b87ffc809eba
B-34,0,3,2020,villanueva cacao casanare,5d26491264f5b87ffc809eba
B-34,0,4,2020,villanueva cacao casanare,5d26491264f5b87ffc809eba
B-34,0,5,2020,villanueva cacao casanare,5d26491264f5b87ffc809eba
C-28,1047.277467,1,2020,villanueva cacao casanare,5d26491264f5b87ffc809eba
C-28,897.6664,2,2020,villanueva cacao casanare,5d26491264f5b87ffc809eba
C-28,299.2221333,3,2020,villanueva cacao casanare,5d26491264f5b87ffc809eba
C-28,299.2221333,4,2020,villanueva cacao casanare,5d26491264f5b87ffc809eba
C-28,299.2221333,5,2020,villanueva cacao casanare,5d26491264f5b87ffc809eba
C-29,1113.564667,1,2020,villanueva cacao casanare,5d26491264f5b87ffc809eba
C-29,954.484,2,2020,villanueva cacao casanare,5d26491264f5b87ffc809eba
C-29,318.1613333,3,2020,villanueva cacao casanare,5d26491264f5b87ffc809eba
C-29,318.1613333,4,2020,villanueva cacao casanare,5d26491264f5b87ffc809eba
C-29,318.1613333,5,2020,villanueva cacao casanare,5d26491264f5b87ffc809eba
C-30,590.072,1,2020,villanueva cacao casanare,5d26491264f5b87ffc809eba
C-30,505.776,2,2020,villanueva cacao casanare,5d26491264f5b87ffc809eba
C-30,168.592,3,2020,villanueva cacao casanare,5d26491264f5b87ffc809eba
C-30,168.592,4,2020,villanueva cacao casanare,5d26491264f5b87ffc809eba
C-30,168.592,5,2020,villanueva cacao casanare,5d26491264f5b87ffc809eba
C-31,2266.4796,1,2020,villanueva cacao casanare,5d26491264f5b87ffc809eba
C-31,1055.2296,2,2020,villanueva cacao casanare,5d26491264f5b87ffc809eba
C-31,351.7432,3,2020,villanueva cacao casanare,5d26491264f5b87ffc809eba
C-31,351.7432,4,2020,villanueva cacao casanare,5d26491264f5b87ffc809eba
C-31,351.7432,5,2020,villanueva cacao casanare,5d26491264f5b87ffc809eba
C-32,0,1,2020,villanueva cacao casanare,5d26491264f5b87ffc809eba
C-32,589.76,2,2020,villanueva cacao casanare,5d26491264f5b87ffc809eba
C-32,196.5866667,3,2020,villanueva cacao casanare,5d26491264f5b87ffc809eba
C-32,196.5866667,4,2020,villanueva cacao casanare,5d26491264f5b87ffc809eba
C-32,196.5866667,5,2020,villanueva cacao casanare,5d26491264f5b87ffc809eba
C-33,0,1,2020,villanueva cacao casanare,5d26491264f5b87ffc809eba
C-33,641.1664,2,2020,villanueva cacao casanare,5d26491264f5b87ffc809eba
C-33,213.7221333,3,2020,villanueva cacao casanare,5d26491264f5b87ffc809eba
C-33,213.7221333,4,2020,villanueva cacao casanare,5d26491264f5b87ffc809eba
C-33,213.7221333,5,2020,villanueva cacao casanare,5d26491264f5b87ffc809eba
C-34,0,1,2020,villanueva cacao casanare,5d26491264f5b87ffc809eba
C-34,913.0184,2,2020,villanueva cacao casanare,5d26491264f5b87ffc809eba
C-34,304.3394667,3,2020,villanueva cacao casanare,5d26491264f5b87ffc809eba
C-34,304.3394667,4,2020,villanueva cacao casanare,5d26491264f5b87ffc809eba
C-34,304.3394667,5,2020,villanueva cacao casanare,5d26491264f5b87ffc809eba
C-35,0,1,2020,villanueva cacao casanare,5d26491264f5b87ffc809eba
C-35,711.4056,2,2020,villanueva cacao casanare,5d26491264f5b87ffc809eba
C-35,237.1352,3,2020,villanueva cacao casanare,5d26491264f5b87ffc809eba
C-35,237.1352,4,2020,villanueva cacao casanare,5d26491264f5b87ffc809eba
C-35,237.1352,5,2020,villanueva cacao casanare,5d26491264f5b87ffc809eba
D-25,953.1666667,1,2020,villanueva cacao casanare,5d26491264f5b87ffc809eba
D-25,817,2,2020,villanueva cacao casanare,5d26491264f5b87ffc809eba
D-25,272.3333333,3,2020,villanueva cacao casanare,5d26491264f5b87ffc809eba
D-25,272.3333333,4,2020,villanueva cacao casanare,5d26491264f5b87ffc809eba
D-25,272.3333333,5,2020,villanueva cacao casanare,5d26491264f5b87ffc809eba
D-26,955.7823333,1,2020,villanueva cacao casanare,5d26491264f5b87ffc809eba
D-26,819.242,2,2020,villanueva cacao casanare,5d26491264f5b87ffc809eba
D-26,273.0806667,3,2020,villanueva cacao casanare,5d26491264f5b87ffc809eba
D-26,273.0806667,4,2020,villanueva cacao casanare,5d26491264f5b87ffc809eba
D-26,273.0806667,5,2020,villanueva cacao casanare,5d26491264f5b87ffc809eba
D-27,0,1,2020,villanueva cacao casanare,5d26491264f5b87ffc809eba
D-27,822.548,2,2020,villanueva cacao casanare,5d26491264f5b87ffc809eba
D-27,274.1826667,3,2020,villanueva cacao casanare,5d26491264f5b87ffc809eba
D-27,274.1826667,4,2020,villanueva cacao casanare,5d26491264f5b87ffc809eba
D-27,274.1826667,5,2020,villanueva cacao casanare,5d26491264f5b87ffc809eba
D-28,0,1,2020,villanueva cacao casanare,5d26491264f5b87ffc809eba
D-28,829.768,2,2020,villanueva cacao casanare,5d26491264f5b87ffc809eba
D-28,276.5893333,3,2020,villanueva cacao casanare,5d26491264f5b87ffc809eba
D-28,276.5893333,4,2020,villanueva cacao casanare,5d26491264f5b87ffc809eba
D-28,276.5893333,5,2020,villanueva cacao casanare,5d26491264f5b87ffc809eba
D-29,0,1,2020,villanueva cacao casanare,5d26491264f5b87ffc809eba
D-29,786.866,2,2020,villanueva cacao casanare,5d26491264f5b87ffc809eba
D-29,262.2886667,3,2020,villanueva cacao casanare,5d26491264f5b87ffc809eba
D-29,262.2886667,4,2020,villanueva cacao casanare,5d26491264f5b87ffc809eba
D-29,262.2886667,5,2020,villanueva cacao casanare,5d26491264f5b87ffc809eba
D-30,1092.698133,1,2020,villanueva cacao casanare,5d26491264f5b87ffc809eba
D-30,936.5984,2,2020,villanueva cacao casanare,5d26491264f5b87ffc809eba
D-30,312.1994667,3,2020,villanueva cacao casanare,5d26491264f5b87ffc809eba
D-30,312.1994667,4,2020,villanueva cacao casanare,5d26491264f5b87ffc809eba
D-30,312.1994667,5,2020,villanueva cacao casanare,5d26491264f5b87ffc809eba
D-31,1263.367,1,2020,villanueva cacao casanare,5d26491264f5b87ffc809eba
D-31,1082.886,2,2020,villanueva cacao casanare,5d26491264f5b87ffc809eba
D-31,360.962,3,2020,villanueva cacao casanare,5d26491264f5b87ffc809eba
D-31,360.962,4,2020,villanueva cacao casanare,5d26491264f5b87ffc809eba
D-31,360.962,5,2020,villanueva cacao casanare,5d26491264f5b87ffc809eba
D-32,0,1,2020,villanueva cacao casanare,5d26491264f5b87ffc809eba
D-32,887.4672,2,2020,villanueva cacao casanare,5d26491264f5b87ffc809eba
D-32,295.8224,3,2020,villanueva cacao casanare,5d26491264f5b87ffc809eba
D-32,295.8224,4,2020,villanueva cacao casanare,5d26491264f5b87ffc809eba
D-32,295.8224,5,2020,villanueva cacao casanare,5d26491264f5b87ffc809eba
D-33,0,1,2020,villanueva cacao casanare,5d26491264f5b87ffc809eba
D-33,0,2,2020,villanueva cacao casanare,5d26491264f5b87ffc809eba
D-33,0,3,2020,villanueva cacao casanare,5d26491264f5b87ffc809eba
D-33,0,4,2020,villanueva cacao casanare,5d26491264f5b87ffc809eba
D-33,0,5,2020,villanueva cacao casanare,5d26491264f5b87ffc809eba
D-34,0,1,2020,villanueva cacao casanare,5d26491264f5b87ffc809eba
D-34,1074.0016,2,2020,villanueva cacao casanare,5d26491264f5b87ffc809eba
D-34,358.0005333,3,2020,villanueva cacao casanare,5d26491264f5b87ffc809eba
D-34,358.0005333,4,2020,villanueva cacao casanare,5d26491264f5b87ffc809eba
D-34,358.0005333,5,2020,villanueva cacao casanare,5d26491264f5b87ffc809eba
E-29,0,1,2020,villanueva cacao casanare,5d26491264f5b87ffc809eba
E-29,913.3908,2,2020,villanueva cacao casanare,5d26491264f5b87ffc809eba
E-29,304.4636,3,2020,villanueva cacao casanare,5d26491264f5b87ffc809eba
E-29,304.4636,4,2020,villanueva cacao casanare,5d26491264f5b87ffc809eba
E-29,304.4636,5,2020,villanueva cacao casanare,5d26491264f5b87ffc809eba
E-30,0,1,2020,villanueva cacao casanare,5d26491264f5b87ffc809eba
E-30,1075.438,2,2020,villanueva cacao casanare,5d26491264f5b87ffc809eba
E-30,358.4793333,3,2020,villanueva cacao casanare,5d26491264f5b87ffc809eba
E-30,358.4793333,4,2020,villanueva cacao casanare,5d26491264f5b87ffc809eba
E-30,358.4793333,5,2020,villanueva cacao casanare,5d26491264f5b87ffc809eba
E-31,1378.314467,1,2020,villanueva cacao casanare,5d26491264f5b87ffc809eba
E-31,1181.4124,2,2020,villanueva cacao casanare,5d26491264f5b87ffc809eba
E-31,393.8041333,3,2020,villanueva cacao casanare,5d26491264f5b87ffc809eba
E-31,393.8041333,4,2020,villanueva cacao casanare,5d26491264f5b87ffc809eba
E-31,393.8041333,5,2020,villanueva cacao casanare,5d26491264f5b87ffc809eba
E-32,1155.867533,1,2020,villanueva cacao casanare,5d26491264f5b87ffc809eba
E-32,990.7436,2,2020,villanueva cacao casanare,5d26491264f5b87ffc809eba
E-32,330.2478667,3,2020,villanueva cacao casanare,5d26491264f5b87ffc809eba
E-32,330.2478667,4,2020,villanueva cacao casanare,5d26491264f5b87ffc809eba
E-32,330.2478667,5,2020,villanueva cacao casanare,5d26491264f5b87ffc809eba
E-33,1477.931467,1,2020,villanueva cacao casanare,5d26491264f5b87ffc809eba
E-33,1266.7984,2,2020,villanueva cacao casanare,5d26491264f5b87ffc809eba
E-33,422.2661333,3,2020,villanueva cacao casanare,5d26491264f5b87ffc809eba
E-33,422.2661333,4,2020,villanueva cacao casanare,5d26491264f5b87ffc809eba
E-33,422.2661333,5,2020,villanueva cacao casanare,5d26491264f5b87ffc809eba
