LOTE,CANTIDAD PRESUPUESTO,Mes,Anio,FINCA,ID FINCA
1-1,1069.55,1,2020,necocli cacao antioquia,5d26499b64f5b87ffc809ebf
1-2,800.22,1,2020,necocli cacao antioquia,5d26499b64f5b87ffc809ebf
1-3,837.04,1,2020,necocli cacao antioquia,5d26499b64f5b87ffc809ebf
1-4,897.25,1,2020,necocli cacao antioquia,5d26499b64f5b87ffc809ebf
1-5,936.78,1,2020,necocli cacao antioquia,5d26499b64f5b87ffc809ebf
1-6,856.22,1,2020,necocli cacao antioquia,5d26499b64f5b87ffc809ebf
1-7,556.72,1,2020,necocli cacao antioquia,5d26499b64f5b87ffc809ebf
1-8,407.72,1,2020,necocli cacao antioquia,5d26499b64f5b87ffc809ebf
1-9,345.81,1,2020,necocli cacao antioquia,5d26499b64f5b87ffc809ebf
1-10,286.92,1,2020,necocli cacao antioquia,5d26499b64f5b87ffc809ebf
1-11,174.16,1,2020,necocli cacao antioquia,5d26499b64f5b87ffc809ebf
1-12,565.78,1,2020,necocli cacao antioquia,5d26499b64f5b87ffc809ebf
1-13,610.32,1,2020,necocli cacao antioquia,5d26499b64f5b87ffc809ebf
1-14,357.13,1,2020,necocli cacao antioquia,5d26499b64f5b87ffc809ebf
1-15,253.69,1,2020,necocli cacao antioquia,5d26499b64f5b87ffc809ebf
1-16,274.83,1,2020,necocli cacao antioquia,5d26499b64f5b87ffc809ebf
1-35,410.74,1,2020,necocli cacao antioquia,5d26499b64f5b87ffc809ebf
1-36,275.84,1,2020,necocli cacao antioquia,5d26499b64f5b87ffc809ebf
2-20,275.34,1,2020,necocli cacao antioquia,5d26499b64f5b87ffc809ebf
2-21,844.13,1,2020,necocli cacao antioquia,5d26499b64f5b87ffc809ebf
2-22,674.50,1,2020,necocli cacao antioquia,5d26499b64f5b87ffc809ebf
2-23,915.79,1,2020,necocli cacao antioquia,5d26499b64f5b87ffc809ebf
2-24,670.73,1,2020,necocli cacao antioquia,5d26499b64f5b87ffc809ebf
2-25,785.24,1,2020,necocli cacao antioquia,5d26499b64f5b87ffc809ebf
2-26,216.95,1,2020,necocli cacao antioquia,5d26499b64f5b87ffc809ebf
2-27,339.77,1,2020,necocli cacao antioquia,5d26499b64f5b87ffc809ebf
2-28,354.87,1,2020,necocli cacao antioquia,5d26499b64f5b87ffc809ebf
2-29,488.26,1,2020,necocli cacao antioquia,5d26499b64f5b87ffc809ebf
2-40,181.21,1,2020,necocli cacao antioquia,5d26499b64f5b87ffc809ebf
2-41,261.75,1,2020,necocli cacao antioquia,5d26499b64f5b87ffc809ebf
2-42,201.34,1,2020,necocli cacao antioquia,5d26499b64f5b87ffc809ebf
2-49,352.60,1,2020,necocli cacao antioquia,5d26499b64f5b87ffc809ebf
2-50,295.47,1,2020,necocli cacao antioquia,5d26499b64f5b87ffc809ebf
2-51,382.05,1,2020,necocli cacao antioquia,5d26499b64f5b87ffc809ebf
2-52,846.55,1,2020,necocli cacao antioquia,5d26499b64f5b87ffc809ebf
1-17,830.54,1,2020,necocli cacao antioquia,5d26499b64f5b87ffc809ebf
1-18,271.81,1,2020,necocli cacao antioquia,5d26499b64f5b87ffc809ebf
1-19,404.70,1,2020,necocli cacao antioquia,5d26499b64f5b87ffc809ebf
2-101,592.96,1,2020,necocli cacao antioquia,5d26499b64f5b87ffc809ebf
2-30,385.83,1,2020,necocli cacao antioquia,5d26499b64f5b87ffc809ebf
2-31,824.50,1,2020,necocli cacao antioquia,5d26499b64f5b87ffc809ebf
2-32,407.72,1,2020,necocli cacao antioquia,5d26499b64f5b87ffc809ebf
2-33,407.72,1,2020,necocli cacao antioquia,5d26499b64f5b87ffc809ebf
2-34,200.84,1,2020,necocli cacao antioquia,5d26499b64f5b87ffc809ebf
3-102,251.18,1,2020,necocli cacao antioquia,5d26499b64f5b87ffc809ebf
3-37,171.14,1,2020,necocli cacao antioquia,5d26499b64f5b87ffc809ebf
3-39,983.06,1,2020,necocli cacao antioquia,5d26499b64f5b87ffc809ebf
3-43,515.10,1,2020,necocli cacao antioquia,5d26499b64f5b87ffc809ebf
3-44,467.12,1,2020,necocli cacao antioquia,5d26499b64f5b87ffc809ebf
3-45,563.76,1,2020,necocli cacao antioquia,5d26499b64f5b87ffc809ebf
3-46,538.60,1,2020,necocli cacao antioquia,5d26499b64f5b87ffc809ebf
3-47,371.48,1,2020,necocli cacao antioquia,5d26499b64f5b87ffc809ebf
2-49,138.17,1,2020,necocli cacao antioquia,5d26499b64f5b87ffc809ebf
3-53,140.94,1,2020,necocli cacao antioquia,5d26499b64f5b87ffc809ebf
3-56,550.68,1,2020,necocli cacao antioquia,5d26499b64f5b87ffc809ebf
3-54,153.02,1,2020,necocli cacao antioquia,5d26499b64f5b87ffc809ebf
3-55,792.63,1,2020,necocli cacao antioquia,5d26499b64f5b87ffc809ebf
3-59,649.33,1,2020,necocli cacao antioquia,5d26499b64f5b87ffc809ebf
3-60,310.32,1,2020,necocli cacao antioquia,5d26499b64f5b87ffc809ebf
3-61,218.46,1,2020,necocli cacao antioquia,5d26499b64f5b87ffc809ebf
3-62,335.99,1,2020,necocli cacao antioquia,5d26499b64f5b87ffc809ebf
3-64,300.51,1,2020,necocli cacao antioquia,5d26499b64f5b87ffc809ebf
3-67,374.00,1,2020,necocli cacao antioquia,5d26499b64f5b87ffc809ebf
3-68,597.99,1,2020,necocli cacao antioquia,5d26499b64f5b87ffc809ebf
4-77,744.97,1,2020,necocli cacao antioquia,5d26499b64f5b87ffc809ebf
4-78,557.97,1,2020,necocli cacao antioquia,5d26499b64f5b87ffc809ebf
4-79,730.88,1,2020,necocli cacao antioquia,5d26499b64f5b87ffc809ebf
4-80,987.84,1,2020,necocli cacao antioquia,5d26499b64f5b87ffc809ebf
4-81,647.07,1,2020,necocli cacao antioquia,5d26499b64f5b87ffc809ebf
4-82,456.80,1,2020,necocli cacao antioquia,5d26499b64f5b87ffc809ebf
4-83,731.13,1,2020,necocli cacao antioquia,5d26499b64f5b87ffc809ebf
4-84,936.25,1,2020,necocli cacao antioquia,5d26499b64f5b87ffc809ebf
4-85,685.58,1,2020,necocli cacao antioquia,5d26499b64f5b87ffc809ebf
4-86,736.92,1,2020,necocli cacao antioquia,5d26499b64f5b87ffc809ebf
4-87,1923.00,1,2020,necocli cacao antioquia,5d26499b64f5b87ffc809ebf
4-88,652.35,1,2020,necocli cacao antioquia,5d26499b64f5b87ffc809ebf
4-89,691.89,1,2020,necocli cacao antioquia,5d26499b64f5b87ffc809ebf
4-90,398.66,1,2020,necocli cacao antioquia,5d26499b64f5b87ffc809ebf
4-91,1999.93,1,2020,necocli cacao antioquia,5d26499b64f5b87ffc809ebf
4-92,958.21,1,2020,necocli cacao antioquia,5d26499b64f5b87ffc809ebf
5-100,1076.61,1,2020,necocli cacao antioquia,5d26499b64f5b87ffc809ebf
5-104,1184.45,1,2020,necocli cacao antioquia,5d26499b64f5b87ffc809ebf
5-105,644.75,1,2020,necocli cacao antioquia,5d26499b64f5b87ffc809ebf
5-65,680.91,1,2020,necocli cacao antioquia,5d26499b64f5b87ffc809ebf
5-66,1342.89,1,2020,necocli cacao antioquia,5d26499b64f5b87ffc809ebf
5-69,864.86,1,2020,necocli cacao antioquia,5d26499b64f5b87ffc809ebf
5-70,419.25,1,2020,necocli cacao antioquia,5d26499b64f5b87ffc809ebf
5-71,987.04,1,2020,necocli cacao antioquia,5d26499b64f5b87ffc809ebf
5-72,387.68,1,2020,necocli cacao antioquia,5d26499b64f5b87ffc809ebf
5-73,371.21,1,2020,necocli cacao antioquia,5d26499b64f5b87ffc809ebf
5-74,1670.42,1,2020,necocli cacao antioquia,5d26499b64f5b87ffc809ebf
5-75,346.82,1,2020,necocli cacao antioquia,5d26499b64f5b87ffc809ebf
5-76,802.86,1,2020,necocli cacao antioquia,5d26499b64f5b87ffc809ebf
5-93,594.97,1,2020,necocli cacao antioquia,5d26499b64f5b87ffc809ebf
5-94,312.08,1,2020,necocli cacao antioquia,5d26499b64f5b87ffc809ebf
5-95,309.34,1,2020,necocli cacao antioquia,5d26499b64f5b87ffc809ebf
5-97,1392.02,1,2020,necocli cacao antioquia,5d26499b64f5b87ffc809ebf
5-98,315.29,1,2020,necocli cacao antioquia,5d26499b64f5b87ffc809ebf
5-99,729.87,1,2020,necocli cacao antioquia,5d26499b64f5b87ffc809ebf
1-1,935.85,2,2020,necocli cacao antioquia,5d26499b64f5b87ffc809ebf
1-2,700.19,2,2020,necocli cacao antioquia,5d26499b64f5b87ffc809ebf
1-3,732.41,2,2020,necocli cacao antioquia,5d26499b64f5b87ffc809ebf
1-4,785.09,2,2020,necocli cacao antioquia,5d26499b64f5b87ffc809ebf
1-5,819.68,2,2020,necocli cacao antioquia,5d26499b64f5b87ffc809ebf
1-6,749.19,2,2020,necocli cacao antioquia,5d26499b64f5b87ffc809ebf
1-7,487.13,2,2020,necocli cacao antioquia,5d26499b64f5b87ffc809ebf
1-8,356.76,2,2020,necocli cacao antioquia,5d26499b64f5b87ffc809ebf
1-9,302.58,2,2020,necocli cacao antioquia,5d26499b64f5b87ffc809ebf
1-10,251.05,2,2020,necocli cacao antioquia,5d26499b64f5b87ffc809ebf
1-11,152.39,2,2020,necocli cacao antioquia,5d26499b64f5b87ffc809ebf
1-12,495.05,2,2020,necocli cacao antioquia,5d26499b64f5b87ffc809ebf
1-13,534.03,2,2020,necocli cacao antioquia,5d26499b64f5b87ffc809ebf
1-14,312.49,2,2020,necocli cacao antioquia,5d26499b64f5b87ffc809ebf
1-15,221.98,2,2020,necocli cacao antioquia,5d26499b64f5b87ffc809ebf
1-16,240.48,2,2020,necocli cacao antioquia,5d26499b64f5b87ffc809ebf
1-35,359.40,2,2020,necocli cacao antioquia,5d26499b64f5b87ffc809ebf
1-36,241.36,2,2020,necocli cacao antioquia,5d26499b64f5b87ffc809ebf
2-20,240.92,2,2020,necocli cacao antioquia,5d26499b64f5b87ffc809ebf
2-21,738.62,2,2020,necocli cacao antioquia,5d26499b64f5b87ffc809ebf
2-22,590.19,2,2020,necocli cacao antioquia,5d26499b64f5b87ffc809ebf
2-23,801.31,2,2020,necocli cacao antioquia,5d26499b64f5b87ffc809ebf
2-24,586.89,2,2020,necocli cacao antioquia,5d26499b64f5b87ffc809ebf
2-25,687.09,2,2020,necocli cacao antioquia,5d26499b64f5b87ffc809ebf
2-26,189.83,2,2020,necocli cacao antioquia,5d26499b64f5b87ffc809ebf
2-27,297.30,2,2020,necocli cacao antioquia,5d26499b64f5b87ffc809ebf
2-28,310.51,2,2020,necocli cacao antioquia,5d26499b64f5b87ffc809ebf
2-29,427.23,2,2020,necocli cacao antioquia,5d26499b64f5b87ffc809ebf
2-40,158.56,2,2020,necocli cacao antioquia,5d26499b64f5b87ffc809ebf
2-41,229.03,2,2020,necocli cacao antioquia,5d26499b64f5b87ffc809ebf
2-42,176.18,2,2020,necocli cacao antioquia,5d26499b64f5b87ffc809ebf
2-49,308.53,2,2020,necocli cacao antioquia,5d26499b64f5b87ffc809ebf
2-50,258.54,2,2020,necocli cacao antioquia,5d26499b64f5b87ffc809ebf
2-51,334.29,2,2020,necocli cacao antioquia,5d26499b64f5b87ffc809ebf
2-52,740.73,2,2020,necocli cacao antioquia,5d26499b64f5b87ffc809ebf
1-17,726.73,2,2020,necocli cacao antioquia,5d26499b64f5b87ffc809ebf
1-18,237.84,2,2020,necocli cacao antioquia,5d26499b64f5b87ffc809ebf
1-19,354.11,2,2020,necocli cacao antioquia,5d26499b64f5b87ffc809ebf
2-101,518.84,2,2020,necocli cacao antioquia,5d26499b64f5b87ffc809ebf
2-30,337.60,2,2020,necocli cacao antioquia,5d26499b64f5b87ffc809ebf
2-31,721.44,2,2020,necocli cacao antioquia,5d26499b64f5b87ffc809ebf
2-32,356.76,2,2020,necocli cacao antioquia,5d26499b64f5b87ffc809ebf
2-33,356.76,2,2020,necocli cacao antioquia,5d26499b64f5b87ffc809ebf
2-34,175.74,2,2020,necocli cacao antioquia,5d26499b64f5b87ffc809ebf
3-102,219.78,2,2020,necocli cacao antioquia,5d26499b64f5b87ffc809ebf
3-37,149.75,2,2020,necocli cacao antioquia,5d26499b64f5b87ffc809ebf
3-39,860.18,2,2020,necocli cacao antioquia,5d26499b64f5b87ffc809ebf
3-43,450.72,2,2020,necocli cacao antioquia,5d26499b64f5b87ffc809ebf
3-44,408.73,2,2020,necocli cacao antioquia,5d26499b64f5b87ffc809ebf
3-45,493.29,2,2020,necocli cacao antioquia,5d26499b64f5b87ffc809ebf
3-46,471.27,2,2020,necocli cacao antioquia,5d26499b64f5b87ffc809ebf
3-47,325.04,2,2020,necocli cacao antioquia,5d26499b64f5b87ffc809ebf
2-49,120.90,2,2020,necocli cacao antioquia,5d26499b64f5b87ffc809ebf
3-53,123.32,2,2020,necocli cacao antioquia,5d26499b64f5b87ffc809ebf
3-56,481.84,2,2020,necocli cacao antioquia,5d26499b64f5b87ffc809ebf
3-54,133.89,2,2020,necocli cacao antioquia,5d26499b64f5b87ffc809ebf
3-55,693.55,2,2020,necocli cacao antioquia,5d26499b64f5b87ffc809ebf
3-59,568.17,2,2020,necocli cacao antioquia,5d26499b64f5b87ffc809ebf
3-60,271.53,2,2020,necocli cacao antioquia,5d26499b64f5b87ffc809ebf
3-61,191.15,2,2020,necocli cacao antioquia,5d26499b64f5b87ffc809ebf
3-62,293.99,2,2020,necocli cacao antioquia,5d26499b64f5b87ffc809ebf
3-64,262.94,2,2020,necocli cacao antioquia,5d26499b64f5b87ffc809ebf
3-67,327.25,2,2020,necocli cacao antioquia,5d26499b64f5b87ffc809ebf
3-68,523.24,2,2020,necocli cacao antioquia,5d26499b64f5b87ffc809ebf
4-77,651.85,2,2020,necocli cacao antioquia,5d26499b64f5b87ffc809ebf
4-78,488.23,2,2020,necocli cacao antioquia,5d26499b64f5b87ffc809ebf
4-79,639.52,2,2020,necocli cacao antioquia,5d26499b64f5b87ffc809ebf
4-80,864.36,2,2020,necocli cacao antioquia,5d26499b64f5b87ffc809ebf
4-81,566.19,2,2020,necocli cacao antioquia,5d26499b64f5b87ffc809ebf
4-82,399.70,2,2020,necocli cacao antioquia,5d26499b64f5b87ffc809ebf
4-83,639.74,2,2020,necocli cacao antioquia,5d26499b64f5b87ffc809ebf
4-84,819.22,2,2020,necocli cacao antioquia,5d26499b64f5b87ffc809ebf
4-85,599.88,2,2020,necocli cacao antioquia,5d26499b64f5b87ffc809ebf
4-86,644.80,2,2020,necocli cacao antioquia,5d26499b64f5b87ffc809ebf
4-87,1682.63,2,2020,necocli cacao antioquia,5d26499b64f5b87ffc809ebf
4-88,570.81,2,2020,necocli cacao antioquia,5d26499b64f5b87ffc809ebf
4-89,605.40,2,2020,necocli cacao antioquia,5d26499b64f5b87ffc809ebf
4-90,348.83,2,2020,necocli cacao antioquia,5d26499b64f5b87ffc809ebf
4-91,1749.93,2,2020,necocli cacao antioquia,5d26499b64f5b87ffc809ebf
4-92,838.44,2,2020,necocli cacao antioquia,5d26499b64f5b87ffc809ebf
5-100,942.03,2,2020,necocli cacao antioquia,5d26499b64f5b87ffc809ebf
5-104,1036.40,2,2020,necocli cacao antioquia,5d26499b64f5b87ffc809ebf
5-105,564.16,2,2020,necocli cacao antioquia,5d26499b64f5b87ffc809ebf
5-65,595.80,2,2020,necocli cacao antioquia,5d26499b64f5b87ffc809ebf
5-66,1175.03,2,2020,necocli cacao antioquia,5d26499b64f5b87ffc809ebf
5-69,756.76,2,2020,necocli cacao antioquia,5d26499b64f5b87ffc809ebf
5-70,366.85,2,2020,necocli cacao antioquia,5d26499b64f5b87ffc809ebf
5-71,863.66,2,2020,necocli cacao antioquia,5d26499b64f5b87ffc809ebf
5-72,339.22,2,2020,necocli cacao antioquia,5d26499b64f5b87ffc809ebf
5-73,324.80,2,2020,necocli cacao antioquia,5d26499b64f5b87ffc809ebf
5-74,1461.62,2,2020,necocli cacao antioquia,5d26499b64f5b87ffc809ebf
5-75,303.46,2,2020,necocli cacao antioquia,5d26499b64f5b87ffc809ebf
5-76,702.50,2,2020,necocli cacao antioquia,5d26499b64f5b87ffc809ebf
5-93,520.60,2,2020,necocli cacao antioquia,5d26499b64f5b87ffc809ebf
5-94,273.07,2,2020,necocli cacao antioquia,5d26499b64f5b87ffc809ebf
5-95,270.67,2,2020,necocli cacao antioquia,5d26499b64f5b87ffc809ebf
5-97,1218.02,2,2020,necocli cacao antioquia,5d26499b64f5b87ffc809ebf
5-98,275.88,2,2020,necocli cacao antioquia,5d26499b64f5b87ffc809ebf
5-99,638.64,2,2020,necocli cacao antioquia,5d26499b64f5b87ffc809ebf
1-1,802.16,3,2020,necocli cacao antioquia,5d26499b64f5b87ffc809ebf
1-2,600.16,3,2020,necocli cacao antioquia,5d26499b64f5b87ffc809ebf
1-3,627.78,3,2020,necocli cacao antioquia,5d26499b64f5b87ffc809ebf
1-4,672.93,3,2020,necocli cacao antioquia,5d26499b64f5b87ffc809ebf
1-5,702.58,3,2020,necocli cacao antioquia,5d26499b64f5b87ffc809ebf
1-6,642.16,3,2020,necocli cacao antioquia,5d26499b64f5b87ffc809ebf
1-7,417.54,3,2020,necocli cacao antioquia,5d26499b64f5b87ffc809ebf
1-8,305.79,3,2020,necocli cacao antioquia,5d26499b64f5b87ffc809ebf
1-9,259.36,3,2020,necocli cacao antioquia,5d26499b64f5b87ffc809ebf
1-10,215.19,3,2020,necocli cacao antioquia,5d26499b64f5b87ffc809ebf
1-11,130.62,3,2020,necocli cacao antioquia,5d26499b64f5b87ffc809ebf
1-12,424.33,3,2020,necocli cacao antioquia,5d26499b64f5b87ffc809ebf
1-13,457.74,3,2020,necocli cacao antioquia,5d26499b64f5b87ffc809ebf
1-14,267.85,3,2020,necocli cacao antioquia,5d26499b64f5b87ffc809ebf
1-15,190.27,3,2020,necocli cacao antioquia,5d26499b64f5b87ffc809ebf
1-16,206.13,3,2020,necocli cacao antioquia,5d26499b64f5b87ffc809ebf
1-35,308.06,3,2020,necocli cacao antioquia,5d26499b64f5b87ffc809ebf
1-36,206.88,3,2020,necocli cacao antioquia,5d26499b64f5b87ffc809ebf
2-20,206.50,3,2020,necocli cacao antioquia,5d26499b64f5b87ffc809ebf
2-21,633.10,3,2020,necocli cacao antioquia,5d26499b64f5b87ffc809ebf
2-22,505.88,3,2020,necocli cacao antioquia,5d26499b64f5b87ffc809ebf
2-23,686.84,3,2020,necocli cacao antioquia,5d26499b64f5b87ffc809ebf
2-24,503.05,3,2020,necocli cacao antioquia,5d26499b64f5b87ffc809ebf
2-25,588.93,3,2020,necocli cacao antioquia,5d26499b64f5b87ffc809ebf
2-26,162.71,3,2020,necocli cacao antioquia,5d26499b64f5b87ffc809ebf
2-27,254.83,3,2020,necocli cacao antioquia,5d26499b64f5b87ffc809ebf
2-28,266.15,3,2020,necocli cacao antioquia,5d26499b64f5b87ffc809ebf
2-29,366.19,3,2020,necocli cacao antioquia,5d26499b64f5b87ffc809ebf
2-40,135.91,3,2020,necocli cacao antioquia,5d26499b64f5b87ffc809ebf
2-41,196.31,3,2020,necocli cacao antioquia,5d26499b64f5b87ffc809ebf
2-42,151.01,3,2020,necocli cacao antioquia,5d26499b64f5b87ffc809ebf
2-49,264.45,3,2020,necocli cacao antioquia,5d26499b64f5b87ffc809ebf
2-50,221.60,3,2020,necocli cacao antioquia,5d26499b64f5b87ffc809ebf
2-51,286.54,3,2020,necocli cacao antioquia,5d26499b64f5b87ffc809ebf
2-52,634.92,3,2020,necocli cacao antioquia,5d26499b64f5b87ffc809ebf
1-17,622.91,3,2020,necocli cacao antioquia,5d26499b64f5b87ffc809ebf
1-18,203.86,3,2020,necocli cacao antioquia,5d26499b64f5b87ffc809ebf
1-19,303.53,3,2020,necocli cacao antioquia,5d26499b64f5b87ffc809ebf
2-101,444.72,3,2020,necocli cacao antioquia,5d26499b64f5b87ffc809ebf
2-30,289.37,3,2020,necocli cacao antioquia,5d26499b64f5b87ffc809ebf
2-31,618.38,3,2020,necocli cacao antioquia,5d26499b64f5b87ffc809ebf
2-32,305.79,3,2020,necocli cacao antioquia,5d26499b64f5b87ffc809ebf
2-33,305.79,3,2020,necocli cacao antioquia,5d26499b64f5b87ffc809ebf
2-34,150.63,3,2020,necocli cacao antioquia,5d26499b64f5b87ffc809ebf
3-102,188.38,3,2020,necocli cacao antioquia,5d26499b64f5b87ffc809ebf
3-37,128.36,3,2020,necocli cacao antioquia,5d26499b64f5b87ffc809ebf
3-39,737.30,3,2020,necocli cacao antioquia,5d26499b64f5b87ffc809ebf
3-43,386.33,3,2020,necocli cacao antioquia,5d26499b64f5b87ffc809ebf
3-44,350.34,3,2020,necocli cacao antioquia,5d26499b64f5b87ffc809ebf
3-45,422.82,3,2020,necocli cacao antioquia,5d26499b64f5b87ffc809ebf
3-46,403.95,3,2020,necocli cacao antioquia,5d26499b64f5b87ffc809ebf
3-47,278.61,3,2020,necocli cacao antioquia,5d26499b64f5b87ffc809ebf
2-49,103.63,3,2020,necocli cacao antioquia,5d26499b64f5b87ffc809ebf
3-53,105.71,3,2020,necocli cacao antioquia,5d26499b64f5b87ffc809ebf
3-56,413.01,3,2020,necocli cacao antioquia,5d26499b64f5b87ffc809ebf
3-54,114.77,3,2020,necocli cacao antioquia,5d26499b64f5b87ffc809ebf
3-55,594.47,3,2020,necocli cacao antioquia,5d26499b64f5b87ffc809ebf
3-59,487.00,3,2020,necocli cacao antioquia,5d26499b64f5b87ffc809ebf
3-60,232.74,3,2020,necocli cacao antioquia,5d26499b64f5b87ffc809ebf
3-61,163.84,3,2020,necocli cacao antioquia,5d26499b64f5b87ffc809ebf
3-62,251.99,3,2020,necocli cacao antioquia,5d26499b64f5b87ffc809ebf
3-64,225.38,3,2020,necocli cacao antioquia,5d26499b64f5b87ffc809ebf
3-67,280.50,3,2020,necocli cacao antioquia,5d26499b64f5b87ffc809ebf
3-68,448.49,3,2020,necocli cacao antioquia,5d26499b64f5b87ffc809ebf
4-77,558.73,3,2020,necocli cacao antioquia,5d26499b64f5b87ffc809ebf
4-78,418.48,3,2020,necocli cacao antioquia,5d26499b64f5b87ffc809ebf
4-79,548.16,3,2020,necocli cacao antioquia,5d26499b64f5b87ffc809ebf
4-80,740.88,3,2020,necocli cacao antioquia,5d26499b64f5b87ffc809ebf
4-81,485.30,3,2020,necocli cacao antioquia,5d26499b64f5b87ffc809ebf
4-82,342.60,3,2020,necocli cacao antioquia,5d26499b64f5b87ffc809ebf
4-83,548.35,3,2020,necocli cacao antioquia,5d26499b64f5b87ffc809ebf
4-84,702.19,3,2020,necocli cacao antioquia,5d26499b64f5b87ffc809ebf
4-85,514.18,3,2020,necocli cacao antioquia,5d26499b64f5b87ffc809ebf
4-86,552.69,3,2020,necocli cacao antioquia,5d26499b64f5b87ffc809ebf
4-87,1442.25,3,2020,necocli cacao antioquia,5d26499b64f5b87ffc809ebf
4-88,489.27,3,2020,necocli cacao antioquia,5d26499b64f5b87ffc809ebf
4-89,518.92,3,2020,necocli cacao antioquia,5d26499b64f5b87ffc809ebf
4-90,299.00,3,2020,necocli cacao antioquia,5d26499b64f5b87ffc809ebf
4-91,1499.94,3,2020,necocli cacao antioquia,5d26499b64f5b87ffc809ebf
4-92,718.66,3,2020,necocli cacao antioquia,5d26499b64f5b87ffc809ebf
5-100,807.46,3,2020,necocli cacao antioquia,5d26499b64f5b87ffc809ebf
5-104,888.34,3,2020,necocli cacao antioquia,5d26499b64f5b87ffc809ebf
5-105,483.57,3,2020,necocli cacao antioquia,5d26499b64f5b87ffc809ebf
5-65,510.68,3,2020,necocli cacao antioquia,5d26499b64f5b87ffc809ebf
5-66,1007.17,3,2020,necocli cacao antioquia,5d26499b64f5b87ffc809ebf
5-69,648.65,3,2020,necocli cacao antioquia,5d26499b64f5b87ffc809ebf
5-70,314.44,3,2020,necocli cacao antioquia,5d26499b64f5b87ffc809ebf
5-71,740.28,3,2020,necocli cacao antioquia,5d26499b64f5b87ffc809ebf
5-72,290.76,3,2020,necocli cacao antioquia,5d26499b64f5b87ffc809ebf
5-73,278.40,3,2020,necocli cacao antioquia,5d26499b64f5b87ffc809ebf
5-74,1252.82,3,2020,necocli cacao antioquia,5d26499b64f5b87ffc809ebf
5-75,260.11,3,2020,necocli cacao antioquia,5d26499b64f5b87ffc809ebf
5-76,602.14,3,2020,necocli cacao antioquia,5d26499b64f5b87ffc809ebf
5-93,446.23,3,2020,necocli cacao antioquia,5d26499b64f5b87ffc809ebf
5-94,234.06,3,2020,necocli cacao antioquia,5d26499b64f5b87ffc809ebf
5-95,232.00,3,2020,necocli cacao antioquia,5d26499b64f5b87ffc809ebf
5-97,1044.01,3,2020,necocli cacao antioquia,5d26499b64f5b87ffc809ebf
5-98,236.46,3,2020,necocli cacao antioquia,5d26499b64f5b87ffc809ebf
5-99,547.40,3,2020,necocli cacao antioquia,5d26499b64f5b87ffc809ebf
1-1,668.47,4,2020,necocli cacao antioquia,5d26499b64f5b87ffc809ebf
1-2,500.14,4,2020,necocli cacao antioquia,5d26499b64f5b87ffc809ebf
1-3,523.15,4,2020,necocli cacao antioquia,5d26499b64f5b87ffc809ebf
1-4,560.78,4,2020,necocli cacao antioquia,5d26499b64f5b87ffc809ebf
1-5,585.49,4,2020,necocli cacao antioquia,5d26499b64f5b87ffc809ebf
1-6,535.13,4,2020,necocli cacao antioquia,5d26499b64f5b87ffc809ebf
1-7,347.95,4,2020,necocli cacao antioquia,5d26499b64f5b87ffc809ebf
1-8,254.83,4,2020,necocli cacao antioquia,5d26499b64f5b87ffc809ebf
1-9,216.13,4,2020,necocli cacao antioquia,5d26499b64f5b87ffc809ebf
1-10,179.32,4,2020,necocli cacao antioquia,5d26499b64f5b87ffc809ebf
1-11,108.85,4,2020,necocli cacao antioquia,5d26499b64f5b87ffc809ebf
1-12,353.61,4,2020,necocli cacao antioquia,5d26499b64f5b87ffc809ebf
1-13,381.45,4,2020,necocli cacao antioquia,5d26499b64f5b87ffc809ebf
1-14,223.21,4,2020,necocli cacao antioquia,5d26499b64f5b87ffc809ebf
1-15,158.56,4,2020,necocli cacao antioquia,5d26499b64f5b87ffc809ebf
1-16,171.77,4,2020,necocli cacao antioquia,5d26499b64f5b87ffc809ebf
1-35,256.71,4,2020,necocli cacao antioquia,5d26499b64f5b87ffc809ebf
1-36,172.40,4,2020,necocli cacao antioquia,5d26499b64f5b87ffc809ebf
2-20,172.09,4,2020,necocli cacao antioquia,5d26499b64f5b87ffc809ebf
2-21,527.58,4,2020,necocli cacao antioquia,5d26499b64f5b87ffc809ebf
2-22,421.56,4,2020,necocli cacao antioquia,5d26499b64f5b87ffc809ebf
2-23,572.37,4,2020,necocli cacao antioquia,5d26499b64f5b87ffc809ebf
2-24,419.20,4,2020,necocli cacao antioquia,5d26499b64f5b87ffc809ebf
2-25,490.78,4,2020,necocli cacao antioquia,5d26499b64f5b87ffc809ebf
2-26,135.59,4,2020,necocli cacao antioquia,5d26499b64f5b87ffc809ebf
2-27,212.36,4,2020,necocli cacao antioquia,5d26499b64f5b87ffc809ebf
2-28,221.79,4,2020,necocli cacao antioquia,5d26499b64f5b87ffc809ebf
2-29,305.16,4,2020,necocli cacao antioquia,5d26499b64f5b87ffc809ebf
2-40,113.26,4,2020,necocli cacao antioquia,5d26499b64f5b87ffc809ebf
2-41,163.59,4,2020,necocli cacao antioquia,5d26499b64f5b87ffc809ebf
2-42,125.84,4,2020,necocli cacao antioquia,5d26499b64f5b87ffc809ebf
2-49,220.38,4,2020,necocli cacao antioquia,5d26499b64f5b87ffc809ebf
2-50,184.67,4,2020,necocli cacao antioquia,5d26499b64f5b87ffc809ebf
2-51,238.78,4,2020,necocli cacao antioquia,5d26499b64f5b87ffc809ebf
2-52,529.10,4,2020,necocli cacao antioquia,5d26499b64f5b87ffc809ebf
1-17,519.09,4,2020,necocli cacao antioquia,5d26499b64f5b87ffc809ebf
1-18,169.88,4,2020,necocli cacao antioquia,5d26499b64f5b87ffc809ebf
1-19,252.94,4,2020,necocli cacao antioquia,5d26499b64f5b87ffc809ebf
2-101,370.60,4,2020,necocli cacao antioquia,5d26499b64f5b87ffc809ebf
2-30,241.14,4,2020,necocli cacao antioquia,5d26499b64f5b87ffc809ebf
2-31,515.31,4,2020,necocli cacao antioquia,5d26499b64f5b87ffc809ebf
2-32,254.83,4,2020,necocli cacao antioquia,5d26499b64f5b87ffc809ebf
2-33,254.83,4,2020,necocli cacao antioquia,5d26499b64f5b87ffc809ebf
2-34,125.53,4,2020,necocli cacao antioquia,5d26499b64f5b87ffc809ebf
3-102,156.99,4,2020,necocli cacao antioquia,5d26499b64f5b87ffc809ebf
3-37,106.96,4,2020,necocli cacao antioquia,5d26499b64f5b87ffc809ebf
3-39,614.41,4,2020,necocli cacao antioquia,5d26499b64f5b87ffc809ebf
3-43,321.94,4,2020,necocli cacao antioquia,5d26499b64f5b87ffc809ebf
3-44,291.95,4,2020,necocli cacao antioquia,5d26499b64f5b87ffc809ebf
3-45,352.35,4,2020,necocli cacao antioquia,5d26499b64f5b87ffc809ebf
3-46,336.62,4,2020,necocli cacao antioquia,5d26499b64f5b87ffc809ebf
3-47,232.17,4,2020,necocli cacao antioquia,5d26499b64f5b87ffc809ebf
2-49,86.36,4,2020,necocli cacao antioquia,5d26499b64f5b87ffc809ebf
3-53,88.09,4,2020,necocli cacao antioquia,5d26499b64f5b87ffc809ebf
3-56,344.17,4,2020,necocli cacao antioquia,5d26499b64f5b87ffc809ebf
3-54,95.64,4,2020,necocli cacao antioquia,5d26499b64f5b87ffc809ebf
3-55,495.40,4,2020,necocli cacao antioquia,5d26499b64f5b87ffc809ebf
3-59,405.83,4,2020,necocli cacao antioquia,5d26499b64f5b87ffc809ebf
3-60,193.95,4,2020,necocli cacao antioquia,5d26499b64f5b87ffc809ebf
3-61,136.54,4,2020,necocli cacao antioquia,5d26499b64f5b87ffc809ebf
3-62,210.00,4,2020,necocli cacao antioquia,5d26499b64f5b87ffc809ebf
3-64,187.82,4,2020,necocli cacao antioquia,5d26499b64f5b87ffc809ebf
3-67,233.75,4,2020,necocli cacao antioquia,5d26499b64f5b87ffc809ebf
3-68,373.74,4,2020,necocli cacao antioquia,5d26499b64f5b87ffc809ebf
4-77,465.61,4,2020,necocli cacao antioquia,5d26499b64f5b87ffc809ebf
4-78,348.73,4,2020,necocli cacao antioquia,5d26499b64f5b87ffc809ebf
4-79,456.80,4,2020,necocli cacao antioquia,5d26499b64f5b87ffc809ebf
4-80,617.40,4,2020,necocli cacao antioquia,5d26499b64f5b87ffc809ebf
4-81,404.42,4,2020,necocli cacao antioquia,5d26499b64f5b87ffc809ebf
4-82,285.50,4,2020,necocli cacao antioquia,5d26499b64f5b87ffc809ebf
4-83,456.96,4,2020,necocli cacao antioquia,5d26499b64f5b87ffc809ebf
4-84,585.16,4,2020,necocli cacao antioquia,5d26499b64f5b87ffc809ebf
4-85,428.49,4,2020,necocli cacao antioquia,5d26499b64f5b87ffc809ebf
4-86,460.57,4,2020,necocli cacao antioquia,5d26499b64f5b87ffc809ebf
4-87,1201.88,4,2020,necocli cacao antioquia,5d26499b64f5b87ffc809ebf
4-88,407.72,4,2020,necocli cacao antioquia,5d26499b64f5b87ffc809ebf
4-89,432.43,4,2020,necocli cacao antioquia,5d26499b64f5b87ffc809ebf
4-90,249.16,4,2020,necocli cacao antioquia,5d26499b64f5b87ffc809ebf
4-91,1249.95,4,2020,necocli cacao antioquia,5d26499b64f5b87ffc809ebf
4-92,598.88,4,2020,necocli cacao antioquia,5d26499b64f5b87ffc809ebf
5-100,672.88,4,2020,necocli cacao antioquia,5d26499b64f5b87ffc809ebf
5-104,740.28,4,2020,necocli cacao antioquia,5d26499b64f5b87ffc809ebf
5-105,402.97,4,2020,necocli cacao antioquia,5d26499b64f5b87ffc809ebf
5-65,425.57,4,2020,necocli cacao antioquia,5d26499b64f5b87ffc809ebf
5-66,839.31,4,2020,necocli cacao antioquia,5d26499b64f5b87ffc809ebf
5-69,540.54,4,2020,necocli cacao antioquia,5d26499b64f5b87ffc809ebf
5-70,262.03,4,2020,necocli cacao antioquia,5d26499b64f5b87ffc809ebf
5-71,616.90,4,2020,necocli cacao antioquia,5d26499b64f5b87ffc809ebf
5-72,242.30,4,2020,necocli cacao antioquia,5d26499b64f5b87ffc809ebf
5-73,232.00,4,2020,necocli cacao antioquia,5d26499b64f5b87ffc809ebf
5-74,1044.01,4,2020,necocli cacao antioquia,5d26499b64f5b87ffc809ebf
5-75,216.76,4,2020,necocli cacao antioquia,5d26499b64f5b87ffc809ebf
5-76,501.79,4,2020,necocli cacao antioquia,5d26499b64f5b87ffc809ebf
5-93,371.86,4,2020,necocli cacao antioquia,5d26499b64f5b87ffc809ebf
5-94,195.05,4,2020,necocli cacao antioquia,5d26499b64f5b87ffc809ebf
5-95,193.34,4,2020,necocli cacao antioquia,5d26499b64f5b87ffc809ebf
5-97,870.01,4,2020,necocli cacao antioquia,5d26499b64f5b87ffc809ebf
5-98,197.05,4,2020,necocli cacao antioquia,5d26499b64f5b87ffc809ebf
5-99,456.17,4,2020,necocli cacao antioquia,5d26499b64f5b87ffc809ebf
1-1,534.77,5,2020,necocli cacao antioquia,5d26499b64f5b87ffc809ebf
1-2,400.11,5,2020,necocli cacao antioquia,5d26499b64f5b87ffc809ebf
1-3,418.52,5,2020,necocli cacao antioquia,5d26499b64f5b87ffc809ebf
1-4,448.62,5,2020,necocli cacao antioquia,5d26499b64f5b87ffc809ebf
1-5,468.39,5,2020,necocli cacao antioquia,5d26499b64f5b87ffc809ebf
1-6,428.11,5,2020,necocli cacao antioquia,5d26499b64f5b87ffc809ebf
1-7,278.36,5,2020,necocli cacao antioquia,5d26499b64f5b87ffc809ebf
1-8,203.86,5,2020,necocli cacao antioquia,5d26499b64f5b87ffc809ebf
1-9,172.90,5,2020,necocli cacao antioquia,5d26499b64f5b87ffc809ebf
1-10,143.46,5,2020,necocli cacao antioquia,5d26499b64f5b87ffc809ebf
1-11,87.08,5,2020,necocli cacao antioquia,5d26499b64f5b87ffc809ebf
1-12,282.89,5,2020,necocli cacao antioquia,5d26499b64f5b87ffc809ebf
1-13,305.16,5,2020,necocli cacao antioquia,5d26499b64f5b87ffc809ebf
1-14,178.57,5,2020,necocli cacao antioquia,5d26499b64f5b87ffc809ebf
1-15,126.85,5,2020,necocli cacao antioquia,5d26499b64f5b87ffc809ebf
1-16,137.42,5,2020,necocli cacao antioquia,5d26499b64f5b87ffc809ebf
1-35,205.37,5,2020,necocli cacao antioquia,5d26499b64f5b87ffc809ebf
1-36,137.92,5,2020,necocli cacao antioquia,5d26499b64f5b87ffc809ebf
2-20,137.67,5,2020,necocli cacao antioquia,5d26499b64f5b87ffc809ebf
2-21,422.07,5,2020,necocli cacao antioquia,5d26499b64f5b87ffc809ebf
2-22,337.25,5,2020,necocli cacao antioquia,5d26499b64f5b87ffc809ebf
2-23,457.89,5,2020,necocli cacao antioquia,5d26499b64f5b87ffc809ebf
2-24,335.36,5,2020,necocli cacao antioquia,5d26499b64f5b87ffc809ebf
2-25,392.62,5,2020,necocli cacao antioquia,5d26499b64f5b87ffc809ebf
2-26,108.47,5,2020,necocli cacao antioquia,5d26499b64f5b87ffc809ebf
2-27,169.88,5,2020,necocli cacao antioquia,5d26499b64f5b87ffc809ebf
2-28,177.43,5,2020,necocli cacao antioquia,5d26499b64f5b87ffc809ebf
2-29,244.13,5,2020,necocli cacao antioquia,5d26499b64f5b87ffc809ebf
2-40,90.60,5,2020,necocli cacao antioquia,5d26499b64f5b87ffc809ebf
2-41,130.87,5,2020,necocli cacao antioquia,5d26499b64f5b87ffc809ebf
2-42,100.67,5,2020,necocli cacao antioquia,5d26499b64f5b87ffc809ebf
2-49,176.30,5,2020,necocli cacao antioquia,5d26499b64f5b87ffc809ebf
2-50,147.74,5,2020,necocli cacao antioquia,5d26499b64f5b87ffc809ebf
2-51,191.03,5,2020,necocli cacao antioquia,5d26499b64f5b87ffc809ebf
2-52,423.28,5,2020,necocli cacao antioquia,5d26499b64f5b87ffc809ebf
1-17,415.27,5,2020,necocli cacao antioquia,5d26499b64f5b87ffc809ebf
1-18,135.91,5,2020,necocli cacao antioquia,5d26499b64f5b87ffc809ebf
1-19,202.35,5,2020,necocli cacao antioquia,5d26499b64f5b87ffc809ebf
2-101,296.48,5,2020,necocli cacao antioquia,5d26499b64f5b87ffc809ebf
2-30,192.91,5,2020,necocli cacao antioquia,5d26499b64f5b87ffc809ebf
2-31,412.25,5,2020,necocli cacao antioquia,5d26499b64f5b87ffc809ebf
2-32,203.86,5,2020,necocli cacao antioquia,5d26499b64f5b87ffc809ebf
2-33,203.86,5,2020,necocli cacao antioquia,5d26499b64f5b87ffc809ebf
2-34,100.42,5,2020,necocli cacao antioquia,5d26499b64f5b87ffc809ebf
3-102,125.59,5,2020,necocli cacao antioquia,5d26499b64f5b87ffc809ebf
3-37,85.57,5,2020,necocli cacao antioquia,5d26499b64f5b87ffc809ebf
3-39,491.53,5,2020,necocli cacao antioquia,5d26499b64f5b87ffc809ebf
3-43,257.55,5,2020,necocli cacao antioquia,5d26499b64f5b87ffc809ebf
3-44,233.56,5,2020,necocli cacao antioquia,5d26499b64f5b87ffc809ebf
3-45,281.88,5,2020,necocli cacao antioquia,5d26499b64f5b87ffc809ebf
3-46,269.30,5,2020,necocli cacao antioquia,5d26499b64f5b87ffc809ebf
3-47,185.74,5,2020,necocli cacao antioquia,5d26499b64f5b87ffc809ebf
2-49,69.09,5,2020,necocli cacao antioquia,5d26499b64f5b87ffc809ebf
3-53,70.47,5,2020,necocli cacao antioquia,5d26499b64f5b87ffc809ebf
3-56,275.34,5,2020,necocli cacao antioquia,5d26499b64f5b87ffc809ebf
3-54,76.51,5,2020,necocli cacao antioquia,5d26499b64f5b87ffc809ebf
3-55,396.32,5,2020,necocli cacao antioquia,5d26499b64f5b87ffc809ebf
3-59,324.67,5,2020,necocli cacao antioquia,5d26499b64f5b87ffc809ebf
3-60,155.16,5,2020,necocli cacao antioquia,5d26499b64f5b87ffc809ebf
3-61,109.23,5,2020,necocli cacao antioquia,5d26499b64f5b87ffc809ebf
3-62,168.00,5,2020,necocli cacao antioquia,5d26499b64f5b87ffc809ebf
3-64,150.25,5,2020,necocli cacao antioquia,5d26499b64f5b87ffc809ebf
3-67,187.00,5,2020,necocli cacao antioquia,5d26499b64f5b87ffc809ebf
3-68,299.00,5,2020,necocli cacao antioquia,5d26499b64f5b87ffc809ebf
4-77,372.49,5,2020,necocli cacao antioquia,5d26499b64f5b87ffc809ebf
4-78,278.99,5,2020,necocli cacao antioquia,5d26499b64f5b87ffc809ebf
4-79,365.44,5,2020,necocli cacao antioquia,5d26499b64f5b87ffc809ebf
4-80,493.92,5,2020,necocli cacao antioquia,5d26499b64f5b87ffc809ebf
4-81,323.53,5,2020,necocli cacao antioquia,5d26499b64f5b87ffc809ebf
4-82,228.40,5,2020,necocli cacao antioquia,5d26499b64f5b87ffc809ebf
4-83,365.57,5,2020,necocli cacao antioquia,5d26499b64f5b87ffc809ebf
4-84,468.12,5,2020,necocli cacao antioquia,5d26499b64f5b87ffc809ebf
4-85,342.79,5,2020,necocli cacao antioquia,5d26499b64f5b87ffc809ebf
4-86,368.46,5,2020,necocli cacao antioquia,5d26499b64f5b87ffc809ebf
4-87,961.50,5,2020,necocli cacao antioquia,5d26499b64f5b87ffc809ebf
4-88,326.18,5,2020,necocli cacao antioquia,5d26499b64f5b87ffc809ebf
4-89,345.95,5,2020,necocli cacao antioquia,5d26499b64f5b87ffc809ebf
4-90,199.33,5,2020,necocli cacao antioquia,5d26499b64f5b87ffc809ebf
4-91,999.96,5,2020,necocli cacao antioquia,5d26499b64f5b87ffc809ebf
4-92,479.11,5,2020,necocli cacao antioquia,5d26499b64f5b87ffc809ebf
5-100,538.31,5,2020,necocli cacao antioquia,5d26499b64f5b87ffc809ebf
5-104,592.23,5,2020,necocli cacao antioquia,5d26499b64f5b87ffc809ebf
5-105,322.38,5,2020,necocli cacao antioquia,5d26499b64f5b87ffc809ebf
5-65,340.45,5,2020,necocli cacao antioquia,5d26499b64f5b87ffc809ebf
5-66,671.44,5,2020,necocli cacao antioquia,5d26499b64f5b87ffc809ebf
5-69,432.43,5,2020,necocli cacao antioquia,5d26499b64f5b87ffc809ebf
5-70,209.63,5,2020,necocli cacao antioquia,5d26499b64f5b87ffc809ebf
5-71,493.52,5,2020,necocli cacao antioquia,5d26499b64f5b87ffc809ebf
5-72,193.84,5,2020,necocli cacao antioquia,5d26499b64f5b87ffc809ebf
5-73,185.60,5,2020,necocli cacao antioquia,5d26499b64f5b87ffc809ebf
5-74,835.21,5,2020,necocli cacao antioquia,5d26499b64f5b87ffc809ebf
5-75,173.41,5,2020,necocli cacao antioquia,5d26499b64f5b87ffc809ebf
5-76,401.43,5,2020,necocli cacao antioquia,5d26499b64f5b87ffc809ebf
5-93,297.49,5,2020,necocli cacao antioquia,5d26499b64f5b87ffc809ebf
5-94,156.04,5,2020,necocli cacao antioquia,5d26499b64f5b87ffc809ebf
5-95,154.67,5,2020,necocli cacao antioquia,5d26499b64f5b87ffc809ebf
5-97,696.01,5,2020,necocli cacao antioquia,5d26499b64f5b87ffc809ebf
5-98,157.64,5,2020,necocli cacao antioquia,5d26499b64f5b87ffc809ebf
5-99,364.94,5,2020,necocli cacao antioquia,5d26499b64f5b87ffc809ebf
1-1,267.39,6,2020,necocli cacao antioquia,5d26499b64f5b87ffc809ebf
1-2,200.05,6,2020,necocli cacao antioquia,5d26499b64f5b87ffc809ebf
1-3,209.26,6,2020,necocli cacao antioquia,5d26499b64f5b87ffc809ebf
1-4,224.31,6,2020,necocli cacao antioquia,5d26499b64f5b87ffc809ebf
1-5,234.19,6,2020,necocli cacao antioquia,5d26499b64f5b87ffc809ebf
1-6,214.05,6,2020,necocli cacao antioquia,5d26499b64f5b87ffc809ebf
1-7,139.18,6,2020,necocli cacao antioquia,5d26499b64f5b87ffc809ebf
1-8,101.93,6,2020,necocli cacao antioquia,5d26499b64f5b87ffc809ebf
1-9,86.45,6,2020,necocli cacao antioquia,5d26499b64f5b87ffc809ebf
1-10,71.73,6,2020,necocli cacao antioquia,5d26499b64f5b87ffc809ebf
1-11,43.54,6,2020,necocli cacao antioquia,5d26499b64f5b87ffc809ebf
1-12,141.44,6,2020,necocli cacao antioquia,5d26499b64f5b87ffc809ebf
1-13,152.58,6,2020,necocli cacao antioquia,5d26499b64f5b87ffc809ebf
1-14,89.28,6,2020,necocli cacao antioquia,5d26499b64f5b87ffc809ebf
1-15,63.42,6,2020,necocli cacao antioquia,5d26499b64f5b87ffc809ebf
1-16,68.71,6,2020,necocli cacao antioquia,5d26499b64f5b87ffc809ebf
1-35,102.69,6,2020,necocli cacao antioquia,5d26499b64f5b87ffc809ebf
1-36,68.96,6,2020,necocli cacao antioquia,5d26499b64f5b87ffc809ebf
2-20,68.83,6,2020,necocli cacao antioquia,5d26499b64f5b87ffc809ebf
2-21,211.03,6,2020,necocli cacao antioquia,5d26499b64f5b87ffc809ebf
2-22,168.63,6,2020,necocli cacao antioquia,5d26499b64f5b87ffc809ebf
2-23,228.95,6,2020,necocli cacao antioquia,5d26499b64f5b87ffc809ebf
2-24,167.68,6,2020,necocli cacao antioquia,5d26499b64f5b87ffc809ebf
2-25,196.31,6,2020,necocli cacao antioquia,5d26499b64f5b87ffc809ebf
2-26,54.24,6,2020,necocli cacao antioquia,5d26499b64f5b87ffc809ebf
2-27,84.94,6,2020,necocli cacao antioquia,5d26499b64f5b87ffc809ebf
2-28,88.72,6,2020,necocli cacao antioquia,5d26499b64f5b87ffc809ebf
2-29,122.06,6,2020,necocli cacao antioquia,5d26499b64f5b87ffc809ebf
2-40,45.30,6,2020,necocli cacao antioquia,5d26499b64f5b87ffc809ebf
2-41,65.44,6,2020,necocli cacao antioquia,5d26499b64f5b87ffc809ebf
2-42,50.34,6,2020,necocli cacao antioquia,5d26499b64f5b87ffc809ebf
2-49,88.15,6,2020,necocli cacao antioquia,5d26499b64f5b87ffc809ebf
2-50,73.87,6,2020,necocli cacao antioquia,5d26499b64f5b87ffc809ebf
2-51,95.51,6,2020,necocli cacao antioquia,5d26499b64f5b87ffc809ebf
2-52,211.64,6,2020,necocli cacao antioquia,5d26499b64f5b87ffc809ebf
1-17,207.64,6,2020,necocli cacao antioquia,5d26499b64f5b87ffc809ebf
1-18,67.95,6,2020,necocli cacao antioquia,5d26499b64f5b87ffc809ebf
1-19,101.18,6,2020,necocli cacao antioquia,5d26499b64f5b87ffc809ebf
2-101,148.24,6,2020,necocli cacao antioquia,5d26499b64f5b87ffc809ebf
2-30,96.46,6,2020,necocli cacao antioquia,5d26499b64f5b87ffc809ebf
2-31,206.13,6,2020,necocli cacao antioquia,5d26499b64f5b87ffc809ebf
2-32,101.93,6,2020,necocli cacao antioquia,5d26499b64f5b87ffc809ebf
2-33,101.93,6,2020,necocli cacao antioquia,5d26499b64f5b87ffc809ebf
2-34,50.21,6,2020,necocli cacao antioquia,5d26499b64f5b87ffc809ebf
3-102,62.79,6,2020,necocli cacao antioquia,5d26499b64f5b87ffc809ebf
3-37,42.79,6,2020,necocli cacao antioquia,5d26499b64f5b87ffc809ebf
3-39,245.77,6,2020,necocli cacao antioquia,5d26499b64f5b87ffc809ebf
3-43,128.78,6,2020,necocli cacao antioquia,5d26499b64f5b87ffc809ebf
3-44,116.78,6,2020,necocli cacao antioquia,5d26499b64f5b87ffc809ebf
3-45,140.94,6,2020,necocli cacao antioquia,5d26499b64f5b87ffc809ebf
3-46,134.65,6,2020,necocli cacao antioquia,5d26499b64f5b87ffc809ebf
3-47,92.87,6,2020,necocli cacao antioquia,5d26499b64f5b87ffc809ebf
2-49,34.54,6,2020,necocli cacao antioquia,5d26499b64f5b87ffc809ebf
3-53,35.24,6,2020,necocli cacao antioquia,5d26499b64f5b87ffc809ebf
3-56,137.67,6,2020,necocli cacao antioquia,5d26499b64f5b87ffc809ebf
3-54,38.26,6,2020,necocli cacao antioquia,5d26499b64f5b87ffc809ebf
3-55,198.16,6,2020,necocli cacao antioquia,5d26499b64f5b87ffc809ebf
3-59,162.33,6,2020,necocli cacao antioquia,5d26499b64f5b87ffc809ebf
3-60,77.58,6,2020,necocli cacao antioquia,5d26499b64f5b87ffc809ebf
3-61,54.61,6,2020,necocli cacao antioquia,5d26499b64f5b87ffc809ebf
3-62,84.00,6,2020,necocli cacao antioquia,5d26499b64f5b87ffc809ebf
3-64,75.13,6,2020,necocli cacao antioquia,5d26499b64f5b87ffc809ebf
3-67,93.50,6,2020,necocli cacao antioquia,5d26499b64f5b87ffc809ebf
3-68,149.50,6,2020,necocli cacao antioquia,5d26499b64f5b87ffc809ebf
4-77,186.24,6,2020,necocli cacao antioquia,5d26499b64f5b87ffc809ebf
4-78,139.49,6,2020,necocli cacao antioquia,5d26499b64f5b87ffc809ebf
4-79,182.72,6,2020,necocli cacao antioquia,5d26499b64f5b87ffc809ebf
4-80,246.96,6,2020,necocli cacao antioquia,5d26499b64f5b87ffc809ebf
4-81,161.77,6,2020,necocli cacao antioquia,5d26499b64f5b87ffc809ebf
4-82,114.20,6,2020,necocli cacao antioquia,5d26499b64f5b87ffc809ebf
4-83,182.78,6,2020,necocli cacao antioquia,5d26499b64f5b87ffc809ebf
4-84,234.06,6,2020,necocli cacao antioquia,5d26499b64f5b87ffc809ebf
4-85,171.39,6,2020,necocli cacao antioquia,5d26499b64f5b87ffc809ebf
4-86,184.23,6,2020,necocli cacao antioquia,5d26499b64f5b87ffc809ebf
4-87,480.75,6,2020,necocli cacao antioquia,5d26499b64f5b87ffc809ebf
4-88,163.09,6,2020,necocli cacao antioquia,5d26499b64f5b87ffc809ebf
4-89,172.97,6,2020,necocli cacao antioquia,5d26499b64f5b87ffc809ebf
4-90,99.67,6,2020,necocli cacao antioquia,5d26499b64f5b87ffc809ebf
4-91,499.98,6,2020,necocli cacao antioquia,5d26499b64f5b87ffc809ebf
4-92,239.55,6,2020,necocli cacao antioquia,5d26499b64f5b87ffc809ebf
5-100,269.15,6,2020,necocli cacao antioquia,5d26499b64f5b87ffc809ebf
5-104,296.11,6,2020,necocli cacao antioquia,5d26499b64f5b87ffc809ebf
5-105,161.19,6,2020,necocli cacao antioquia,5d26499b64f5b87ffc809ebf
5-65,170.23,6,2020,necocli cacao antioquia,5d26499b64f5b87ffc809ebf
5-66,335.72,6,2020,necocli cacao antioquia,5d26499b64f5b87ffc809ebf
5-69,216.22,6,2020,necocli cacao antioquia,5d26499b64f5b87ffc809ebf
5-70,104.81,6,2020,necocli cacao antioquia,5d26499b64f5b87ffc809ebf
5-71,246.76,6,2020,necocli cacao antioquia,5d26499b64f5b87ffc809ebf
5-72,96.92,6,2020,necocli cacao antioquia,5d26499b64f5b87ffc809ebf
5-73,92.80,6,2020,necocli cacao antioquia,5d26499b64f5b87ffc809ebf
5-74,417.61,6,2020,necocli cacao antioquia,5d26499b64f5b87ffc809ebf
5-75,86.70,6,2020,necocli cacao antioquia,5d26499b64f5b87ffc809ebf
5-76,200.71,6,2020,necocli cacao antioquia,5d26499b64f5b87ffc809ebf
5-93,148.74,6,2020,necocli cacao antioquia,5d26499b64f5b87ffc809ebf
5-94,78.02,6,2020,necocli cacao antioquia,5d26499b64f5b87ffc809ebf
5-95,77.33,6,2020,necocli cacao antioquia,5d26499b64f5b87ffc809ebf
5-97,348.00,6,2020,necocli cacao antioquia,5d26499b64f5b87ffc809ebf
5-98,78.82,6,2020,necocli cacao antioquia,5d26499b64f5b87ffc809ebf
5-99,182.47,6,2020,necocli cacao antioquia,5d26499b64f5b87ffc809ebf
1-1,267.39,7,2020,necocli cacao antioquia,5d26499b64f5b87ffc809ebf
1-2,200.05,7,2020,necocli cacao antioquia,5d26499b64f5b87ffc809ebf
1-3,209.26,7,2020,necocli cacao antioquia,5d26499b64f5b87ffc809ebf
1-4,224.31,7,2020,necocli cacao antioquia,5d26499b64f5b87ffc809ebf
1-5,234.19,7,2020,necocli cacao antioquia,5d26499b64f5b87ffc809ebf
1-6,214.05,7,2020,necocli cacao antioquia,5d26499b64f5b87ffc809ebf
1-7,139.18,7,2020,necocli cacao antioquia,5d26499b64f5b87ffc809ebf
1-8,101.93,7,2020,necocli cacao antioquia,5d26499b64f5b87ffc809ebf
1-9,86.45,7,2020,necocli cacao antioquia,5d26499b64f5b87ffc809ebf
1-10,71.73,7,2020,necocli cacao antioquia,5d26499b64f5b87ffc809ebf
1-11,43.54,7,2020,necocli cacao antioquia,5d26499b64f5b87ffc809ebf
1-12,141.44,7,2020,necocli cacao antioquia,5d26499b64f5b87ffc809ebf
1-13,152.58,7,2020,necocli cacao antioquia,5d26499b64f5b87ffc809ebf
1-14,89.28,7,2020,necocli cacao antioquia,5d26499b64f5b87ffc809ebf
1-15,63.42,7,2020,necocli cacao antioquia,5d26499b64f5b87ffc809ebf
1-16,68.71,7,2020,necocli cacao antioquia,5d26499b64f5b87ffc809ebf
1-35,102.69,7,2020,necocli cacao antioquia,5d26499b64f5b87ffc809ebf
1-36,68.96,7,2020,necocli cacao antioquia,5d26499b64f5b87ffc809ebf
2-20,68.83,7,2020,necocli cacao antioquia,5d26499b64f5b87ffc809ebf
2-21,211.03,7,2020,necocli cacao antioquia,5d26499b64f5b87ffc809ebf
2-22,168.63,7,2020,necocli cacao antioquia,5d26499b64f5b87ffc809ebf
2-23,228.95,7,2020,necocli cacao antioquia,5d26499b64f5b87ffc809ebf
2-24,167.68,7,2020,necocli cacao antioquia,5d26499b64f5b87ffc809ebf
2-25,196.31,7,2020,necocli cacao antioquia,5d26499b64f5b87ffc809ebf
2-26,54.24,7,2020,necocli cacao antioquia,5d26499b64f5b87ffc809ebf
2-27,84.94,7,2020,necocli cacao antioquia,5d26499b64f5b87ffc809ebf
2-28,88.72,7,2020,necocli cacao antioquia,5d26499b64f5b87ffc809ebf
2-29,122.06,7,2020,necocli cacao antioquia,5d26499b64f5b87ffc809ebf
2-40,45.30,7,2020,necocli cacao antioquia,5d26499b64f5b87ffc809ebf
2-41,65.44,7,2020,necocli cacao antioquia,5d26499b64f5b87ffc809ebf
2-42,50.34,7,2020,necocli cacao antioquia,5d26499b64f5b87ffc809ebf
2-49,88.15,7,2020,necocli cacao antioquia,5d26499b64f5b87ffc809ebf
2-50,73.87,7,2020,necocli cacao antioquia,5d26499b64f5b87ffc809ebf
2-51,95.51,7,2020,necocli cacao antioquia,5d26499b64f5b87ffc809ebf
2-52,211.64,7,2020,necocli cacao antioquia,5d26499b64f5b87ffc809ebf
1-17,207.64,7,2020,necocli cacao antioquia,5d26499b64f5b87ffc809ebf
1-18,67.95,7,2020,necocli cacao antioquia,5d26499b64f5b87ffc809ebf
1-19,101.18,7,2020,necocli cacao antioquia,5d26499b64f5b87ffc809ebf
2-101,148.24,7,2020,necocli cacao antioquia,5d26499b64f5b87ffc809ebf
2-30,96.46,7,2020,necocli cacao antioquia,5d26499b64f5b87ffc809ebf
2-31,206.13,7,2020,necocli cacao antioquia,5d26499b64f5b87ffc809ebf
2-32,101.93,7,2020,necocli cacao antioquia,5d26499b64f5b87ffc809ebf
2-33,101.93,7,2020,necocli cacao antioquia,5d26499b64f5b87ffc809ebf
2-34,50.21,7,2020,necocli cacao antioquia,5d26499b64f5b87ffc809ebf
3-102,62.79,7,2020,necocli cacao antioquia,5d26499b64f5b87ffc809ebf
3-37,42.79,7,2020,necocli cacao antioquia,5d26499b64f5b87ffc809ebf
3-39,245.77,7,2020,necocli cacao antioquia,5d26499b64f5b87ffc809ebf
3-43,128.78,7,2020,necocli cacao antioquia,5d26499b64f5b87ffc809ebf
3-44,116.78,7,2020,necocli cacao antioquia,5d26499b64f5b87ffc809ebf
3-45,140.94,7,2020,necocli cacao antioquia,5d26499b64f5b87ffc809ebf
3-46,134.65,7,2020,necocli cacao antioquia,5d26499b64f5b87ffc809ebf
3-47,92.87,7,2020,necocli cacao antioquia,5d26499b64f5b87ffc809ebf
2-49,34.54,7,2020,necocli cacao antioquia,5d26499b64f5b87ffc809ebf
3-53,35.24,7,2020,necocli cacao antioquia,5d26499b64f5b87ffc809ebf
3-56,137.67,7,2020,necocli cacao antioquia,5d26499b64f5b87ffc809ebf
3-54,38.26,7,2020,necocli cacao antioquia,5d26499b64f5b87ffc809ebf
3-55,198.16,7,2020,necocli cacao antioquia,5d26499b64f5b87ffc809ebf
3-59,162.33,7,2020,necocli cacao antioquia,5d26499b64f5b87ffc809ebf
3-60,77.58,7,2020,necocli cacao antioquia,5d26499b64f5b87ffc809ebf
3-61,54.61,7,2020,necocli cacao antioquia,5d26499b64f5b87ffc809ebf
3-62,84.00,7,2020,necocli cacao antioquia,5d26499b64f5b87ffc809ebf
3-64,75.13,7,2020,necocli cacao antioquia,5d26499b64f5b87ffc809ebf
3-67,93.50,7,2020,necocli cacao antioquia,5d26499b64f5b87ffc809ebf
3-68,149.50,7,2020,necocli cacao antioquia,5d26499b64f5b87ffc809ebf
4-77,186.24,7,2020,necocli cacao antioquia,5d26499b64f5b87ffc809ebf
4-78,139.49,7,2020,necocli cacao antioquia,5d26499b64f5b87ffc809ebf
4-79,182.72,7,2020,necocli cacao antioquia,5d26499b64f5b87ffc809ebf
4-80,246.96,7,2020,necocli cacao antioquia,5d26499b64f5b87ffc809ebf
4-81,161.77,7,2020,necocli cacao antioquia,5d26499b64f5b87ffc809ebf
4-82,114.20,7,2020,necocli cacao antioquia,5d26499b64f5b87ffc809ebf
4-83,182.78,7,2020,necocli cacao antioquia,5d26499b64f5b87ffc809ebf
4-84,234.06,7,2020,necocli cacao antioquia,5d26499b64f5b87ffc809ebf
4-85,171.39,7,2020,necocli cacao antioquia,5d26499b64f5b87ffc809ebf
4-86,184.23,7,2020,necocli cacao antioquia,5d26499b64f5b87ffc809ebf
4-87,480.75,7,2020,necocli cacao antioquia,5d26499b64f5b87ffc809ebf
4-88,163.09,7,2020,necocli cacao antioquia,5d26499b64f5b87ffc809ebf
4-89,172.97,7,2020,necocli cacao antioquia,5d26499b64f5b87ffc809ebf
4-90,99.67,7,2020,necocli cacao antioquia,5d26499b64f5b87ffc809ebf
4-91,499.98,7,2020,necocli cacao antioquia,5d26499b64f5b87ffc809ebf
4-92,239.55,7,2020,necocli cacao antioquia,5d26499b64f5b87ffc809ebf
5-100,269.15,7,2020,necocli cacao antioquia,5d26499b64f5b87ffc809ebf
5-104,296.11,7,2020,necocli cacao antioquia,5d26499b64f5b87ffc809ebf
5-105,161.19,7,2020,necocli cacao antioquia,5d26499b64f5b87ffc809ebf
5-65,170.23,7,2020,necocli cacao antioquia,5d26499b64f5b87ffc809ebf
5-66,335.72,7,2020,necocli cacao antioquia,5d26499b64f5b87ffc809ebf
5-69,216.22,7,2020,necocli cacao antioquia,5d26499b64f5b87ffc809ebf
5-70,104.81,7,2020,necocli cacao antioquia,5d26499b64f5b87ffc809ebf
5-71,246.76,7,2020,necocli cacao antioquia,5d26499b64f5b87ffc809ebf
5-72,96.92,7,2020,necocli cacao antioquia,5d26499b64f5b87ffc809ebf
5-73,92.80,7,2020,necocli cacao antioquia,5d26499b64f5b87ffc809ebf
5-74,417.61,7,2020,necocli cacao antioquia,5d26499b64f5b87ffc809ebf
5-75,86.70,7,2020,necocli cacao antioquia,5d26499b64f5b87ffc809ebf
5-76,200.71,7,2020,necocli cacao antioquia,5d26499b64f5b87ffc809ebf
5-93,148.74,7,2020,necocli cacao antioquia,5d26499b64f5b87ffc809ebf
5-94,78.02,7,2020,necocli cacao antioquia,5d26499b64f5b87ffc809ebf
5-95,77.33,7,2020,necocli cacao antioquia,5d26499b64f5b87ffc809ebf
5-97,348.00,7,2020,necocli cacao antioquia,5d26499b64f5b87ffc809ebf
5-98,78.82,7,2020,necocli cacao antioquia,5d26499b64f5b87ffc809ebf
5-99,182.47,7,2020,necocli cacao antioquia,5d26499b64f5b87ffc809ebf
1-1,267.39,8,2020,necocli cacao antioquia,5d26499b64f5b87ffc809ebf
1-2,200.05,8,2020,necocli cacao antioquia,5d26499b64f5b87ffc809ebf
1-3,209.26,8,2020,necocli cacao antioquia,5d26499b64f5b87ffc809ebf
1-4,224.31,8,2020,necocli cacao antioquia,5d26499b64f5b87ffc809ebf
1-5,234.19,8,2020,necocli cacao antioquia,5d26499b64f5b87ffc809ebf
1-6,214.05,8,2020,necocli cacao antioquia,5d26499b64f5b87ffc809ebf
1-7,139.18,8,2020,necocli cacao antioquia,5d26499b64f5b87ffc809ebf
1-8,101.93,8,2020,necocli cacao antioquia,5d26499b64f5b87ffc809ebf
1-9,86.45,8,2020,necocli cacao antioquia,5d26499b64f5b87ffc809ebf
1-10,71.73,8,2020,necocli cacao antioquia,5d26499b64f5b87ffc809ebf
1-11,43.54,8,2020,necocli cacao antioquia,5d26499b64f5b87ffc809ebf
1-12,141.44,8,2020,necocli cacao antioquia,5d26499b64f5b87ffc809ebf
1-13,152.58,8,2020,necocli cacao antioquia,5d26499b64f5b87ffc809ebf
1-14,89.28,8,2020,necocli cacao antioquia,5d26499b64f5b87ffc809ebf
1-15,63.42,8,2020,necocli cacao antioquia,5d26499b64f5b87ffc809ebf
1-16,68.71,8,2020,necocli cacao antioquia,5d26499b64f5b87ffc809ebf
1-35,102.69,8,2020,necocli cacao antioquia,5d26499b64f5b87ffc809ebf
1-36,68.96,8,2020,necocli cacao antioquia,5d26499b64f5b87ffc809ebf
2-20,68.83,8,2020,necocli cacao antioquia,5d26499b64f5b87ffc809ebf
2-21,211.03,8,2020,necocli cacao antioquia,5d26499b64f5b87ffc809ebf
2-22,168.63,8,2020,necocli cacao antioquia,5d26499b64f5b87ffc809ebf
2-23,228.95,8,2020,necocli cacao antioquia,5d26499b64f5b87ffc809ebf
2-24,167.68,8,2020,necocli cacao antioquia,5d26499b64f5b87ffc809ebf
2-25,196.31,8,2020,necocli cacao antioquia,5d26499b64f5b87ffc809ebf
2-26,54.24,8,2020,necocli cacao antioquia,5d26499b64f5b87ffc809ebf
2-27,84.94,8,2020,necocli cacao antioquia,5d26499b64f5b87ffc809ebf
2-28,88.72,8,2020,necocli cacao antioquia,5d26499b64f5b87ffc809ebf
2-29,122.06,8,2020,necocli cacao antioquia,5d26499b64f5b87ffc809ebf
2-40,45.30,8,2020,necocli cacao antioquia,5d26499b64f5b87ffc809ebf
2-41,65.44,8,2020,necocli cacao antioquia,5d26499b64f5b87ffc809ebf
2-42,50.34,8,2020,necocli cacao antioquia,5d26499b64f5b87ffc809ebf
2-49,88.15,8,2020,necocli cacao antioquia,5d26499b64f5b87ffc809ebf
2-50,73.87,8,2020,necocli cacao antioquia,5d26499b64f5b87ffc809ebf
2-51,95.51,8,2020,necocli cacao antioquia,5d26499b64f5b87ffc809ebf
2-52,211.64,8,2020,necocli cacao antioquia,5d26499b64f5b87ffc809ebf
1-17,207.64,8,2020,necocli cacao antioquia,5d26499b64f5b87ffc809ebf
1-18,67.95,8,2020,necocli cacao antioquia,5d26499b64f5b87ffc809ebf
1-19,101.18,8,2020,necocli cacao antioquia,5d26499b64f5b87ffc809ebf
2-101,148.24,8,2020,necocli cacao antioquia,5d26499b64f5b87ffc809ebf
2-30,96.46,8,2020,necocli cacao antioquia,5d26499b64f5b87ffc809ebf
2-31,206.13,8,2020,necocli cacao antioquia,5d26499b64f5b87ffc809ebf
2-32,101.93,8,2020,necocli cacao antioquia,5d26499b64f5b87ffc809ebf
2-33,101.93,8,2020,necocli cacao antioquia,5d26499b64f5b87ffc809ebf
2-34,50.21,8,2020,necocli cacao antioquia,5d26499b64f5b87ffc809ebf
3-102,62.79,8,2020,necocli cacao antioquia,5d26499b64f5b87ffc809ebf
3-37,42.79,8,2020,necocli cacao antioquia,5d26499b64f5b87ffc809ebf
3-39,245.77,8,2020,necocli cacao antioquia,5d26499b64f5b87ffc809ebf
3-43,128.78,8,2020,necocli cacao antioquia,5d26499b64f5b87ffc809ebf
3-44,116.78,8,2020,necocli cacao antioquia,5d26499b64f5b87ffc809ebf
3-45,140.94,8,2020,necocli cacao antioquia,5d26499b64f5b87ffc809ebf
3-46,134.65,8,2020,necocli cacao antioquia,5d26499b64f5b87ffc809ebf
3-47,92.87,8,2020,necocli cacao antioquia,5d26499b64f5b87ffc809ebf
2-49,34.54,8,2020,necocli cacao antioquia,5d26499b64f5b87ffc809ebf
3-53,35.24,8,2020,necocli cacao antioquia,5d26499b64f5b87ffc809ebf
3-56,137.67,8,2020,necocli cacao antioquia,5d26499b64f5b87ffc809ebf
3-54,38.26,8,2020,necocli cacao antioquia,5d26499b64f5b87ffc809ebf
3-55,198.16,8,2020,necocli cacao antioquia,5d26499b64f5b87ffc809ebf
3-59,162.33,8,2020,necocli cacao antioquia,5d26499b64f5b87ffc809ebf
3-60,77.58,8,2020,necocli cacao antioquia,5d26499b64f5b87ffc809ebf
3-61,54.61,8,2020,necocli cacao antioquia,5d26499b64f5b87ffc809ebf
3-62,84.00,8,2020,necocli cacao antioquia,5d26499b64f5b87ffc809ebf
3-64,75.13,8,2020,necocli cacao antioquia,5d26499b64f5b87ffc809ebf
3-67,93.50,8,2020,necocli cacao antioquia,5d26499b64f5b87ffc809ebf
3-68,149.50,8,2020,necocli cacao antioquia,5d26499b64f5b87ffc809ebf
4-77,186.24,8,2020,necocli cacao antioquia,5d26499b64f5b87ffc809ebf
4-78,139.49,8,2020,necocli cacao antioquia,5d26499b64f5b87ffc809ebf
4-79,182.72,8,2020,necocli cacao antioquia,5d26499b64f5b87ffc809ebf
4-80,246.96,8,2020,necocli cacao antioquia,5d26499b64f5b87ffc809ebf
4-81,161.77,8,2020,necocli cacao antioquia,5d26499b64f5b87ffc809ebf
4-82,114.20,8,2020,necocli cacao antioquia,5d26499b64f5b87ffc809ebf
4-83,182.78,8,2020,necocli cacao antioquia,5d26499b64f5b87ffc809ebf
4-84,234.06,8,2020,necocli cacao antioquia,5d26499b64f5b87ffc809ebf
4-85,171.39,8,2020,necocli cacao antioquia,5d26499b64f5b87ffc809ebf
4-86,184.23,8,2020,necocli cacao antioquia,5d26499b64f5b87ffc809ebf
4-87,480.75,8,2020,necocli cacao antioquia,5d26499b64f5b87ffc809ebf
4-88,163.09,8,2020,necocli cacao antioquia,5d26499b64f5b87ffc809ebf
4-89,172.97,8,2020,necocli cacao antioquia,5d26499b64f5b87ffc809ebf
4-90,99.67,8,2020,necocli cacao antioquia,5d26499b64f5b87ffc809ebf
4-91,499.98,8,2020,necocli cacao antioquia,5d26499b64f5b87ffc809ebf
4-92,239.55,8,2020,necocli cacao antioquia,5d26499b64f5b87ffc809ebf
5-100,269.15,8,2020,necocli cacao antioquia,5d26499b64f5b87ffc809ebf
5-104,296.11,8,2020,necocli cacao antioquia,5d26499b64f5b87ffc809ebf
5-105,161.19,8,2020,necocli cacao antioquia,5d26499b64f5b87ffc809ebf
5-65,170.23,8,2020,necocli cacao antioquia,5d26499b64f5b87ffc809ebf
5-66,335.72,8,2020,necocli cacao antioquia,5d26499b64f5b87ffc809ebf
5-69,216.22,8,2020,necocli cacao antioquia,5d26499b64f5b87ffc809ebf
5-70,104.81,8,2020,necocli cacao antioquia,5d26499b64f5b87ffc809ebf
5-71,246.76,8,2020,necocli cacao antioquia,5d26499b64f5b87ffc809ebf
5-72,96.92,8,2020,necocli cacao antioquia,5d26499b64f5b87ffc809ebf
5-73,92.80,8,2020,necocli cacao antioquia,5d26499b64f5b87ffc809ebf
5-74,417.61,8,2020,necocli cacao antioquia,5d26499b64f5b87ffc809ebf
5-75,86.70,8,2020,necocli cacao antioquia,5d26499b64f5b87ffc809ebf
5-76,200.71,8,2020,necocli cacao antioquia,5d26499b64f5b87ffc809ebf
5-93,148.74,8,2020,necocli cacao antioquia,5d26499b64f5b87ffc809ebf
5-94,78.02,8,2020,necocli cacao antioquia,5d26499b64f5b87ffc809ebf
5-95,77.33,8,2020,necocli cacao antioquia,5d26499b64f5b87ffc809ebf
5-97,348.00,8,2020,necocli cacao antioquia,5d26499b64f5b87ffc809ebf
5-98,78.82,8,2020,necocli cacao antioquia,5d26499b64f5b87ffc809ebf
5-99,182.47,8,2020,necocli cacao antioquia,5d26499b64f5b87ffc809ebf
1-1,267.39,9,2020,necocli cacao antioquia,5d26499b64f5b87ffc809ebf
1-2,200.05,9,2020,necocli cacao antioquia,5d26499b64f5b87ffc809ebf
1-3,209.26,9,2020,necocli cacao antioquia,5d26499b64f5b87ffc809ebf
1-4,224.31,9,2020,necocli cacao antioquia,5d26499b64f5b87ffc809ebf
1-5,234.19,9,2020,necocli cacao antioquia,5d26499b64f5b87ffc809ebf
1-6,214.05,9,2020,necocli cacao antioquia,5d26499b64f5b87ffc809ebf
1-7,139.18,9,2020,necocli cacao antioquia,5d26499b64f5b87ffc809ebf
1-8,101.93,9,2020,necocli cacao antioquia,5d26499b64f5b87ffc809ebf
1-9,86.45,9,2020,necocli cacao antioquia,5d26499b64f5b87ffc809ebf
1-10,71.73,9,2020,necocli cacao antioquia,5d26499b64f5b87ffc809ebf
1-11,43.54,9,2020,necocli cacao antioquia,5d26499b64f5b87ffc809ebf
1-12,141.44,9,2020,necocli cacao antioquia,5d26499b64f5b87ffc809ebf
1-13,152.58,9,2020,necocli cacao antioquia,5d26499b64f5b87ffc809ebf
1-14,89.28,9,2020,necocli cacao antioquia,5d26499b64f5b87ffc809ebf
1-15,63.42,9,2020,necocli cacao antioquia,5d26499b64f5b87ffc809ebf
1-16,68.71,9,2020,necocli cacao antioquia,5d26499b64f5b87ffc809ebf
1-35,102.69,9,2020,necocli cacao antioquia,5d26499b64f5b87ffc809ebf
1-36,68.96,9,2020,necocli cacao antioquia,5d26499b64f5b87ffc809ebf
2-20,68.83,9,2020,necocli cacao antioquia,5d26499b64f5b87ffc809ebf
2-21,211.03,9,2020,necocli cacao antioquia,5d26499b64f5b87ffc809ebf
2-22,168.63,9,2020,necocli cacao antioquia,5d26499b64f5b87ffc809ebf
2-23,228.95,9,2020,necocli cacao antioquia,5d26499b64f5b87ffc809ebf
2-24,167.68,9,2020,necocli cacao antioquia,5d26499b64f5b87ffc809ebf
2-25,196.31,9,2020,necocli cacao antioquia,5d26499b64f5b87ffc809ebf
2-26,54.24,9,2020,necocli cacao antioquia,5d26499b64f5b87ffc809ebf
2-27,84.94,9,2020,necocli cacao antioquia,5d26499b64f5b87ffc809ebf
2-28,88.72,9,2020,necocli cacao antioquia,5d26499b64f5b87ffc809ebf
2-29,122.06,9,2020,necocli cacao antioquia,5d26499b64f5b87ffc809ebf
2-40,45.30,9,2020,necocli cacao antioquia,5d26499b64f5b87ffc809ebf
2-41,65.44,9,2020,necocli cacao antioquia,5d26499b64f5b87ffc809ebf
2-42,50.34,9,2020,necocli cacao antioquia,5d26499b64f5b87ffc809ebf
2-49,88.15,9,2020,necocli cacao antioquia,5d26499b64f5b87ffc809ebf
2-50,73.87,9,2020,necocli cacao antioquia,5d26499b64f5b87ffc809ebf
2-51,95.51,9,2020,necocli cacao antioquia,5d26499b64f5b87ffc809ebf
2-52,211.64,9,2020,necocli cacao antioquia,5d26499b64f5b87ffc809ebf
1-17,207.64,9,2020,necocli cacao antioquia,5d26499b64f5b87ffc809ebf
1-18,67.95,9,2020,necocli cacao antioquia,5d26499b64f5b87ffc809ebf
1-19,101.18,9,2020,necocli cacao antioquia,5d26499b64f5b87ffc809ebf
2-101,148.24,9,2020,necocli cacao antioquia,5d26499b64f5b87ffc809ebf
2-30,96.46,9,2020,necocli cacao antioquia,5d26499b64f5b87ffc809ebf
2-31,206.13,9,2020,necocli cacao antioquia,5d26499b64f5b87ffc809ebf
2-32,101.93,9,2020,necocli cacao antioquia,5d26499b64f5b87ffc809ebf
2-33,101.93,9,2020,necocli cacao antioquia,5d26499b64f5b87ffc809ebf
2-34,50.21,9,2020,necocli cacao antioquia,5d26499b64f5b87ffc809ebf
3-102,62.79,9,2020,necocli cacao antioquia,5d26499b64f5b87ffc809ebf
3-37,42.79,9,2020,necocli cacao antioquia,5d26499b64f5b87ffc809ebf
3-39,245.77,9,2020,necocli cacao antioquia,5d26499b64f5b87ffc809ebf
3-43,128.78,9,2020,necocli cacao antioquia,5d26499b64f5b87ffc809ebf
3-44,116.78,9,2020,necocli cacao antioquia,5d26499b64f5b87ffc809ebf
3-45,140.94,9,2020,necocli cacao antioquia,5d26499b64f5b87ffc809ebf
3-46,134.65,9,2020,necocli cacao antioquia,5d26499b64f5b87ffc809ebf
3-47,92.87,9,2020,necocli cacao antioquia,5d26499b64f5b87ffc809ebf
2-49,34.54,9,2020,necocli cacao antioquia,5d26499b64f5b87ffc809ebf
3-53,35.24,9,2020,necocli cacao antioquia,5d26499b64f5b87ffc809ebf
3-56,137.67,9,2020,necocli cacao antioquia,5d26499b64f5b87ffc809ebf
3-54,38.26,9,2020,necocli cacao antioquia,5d26499b64f5b87ffc809ebf
3-55,198.16,9,2020,necocli cacao antioquia,5d26499b64f5b87ffc809ebf
3-59,162.33,9,2020,necocli cacao antioquia,5d26499b64f5b87ffc809ebf
3-60,77.58,9,2020,necocli cacao antioquia,5d26499b64f5b87ffc809ebf
3-61,54.61,9,2020,necocli cacao antioquia,5d26499b64f5b87ffc809ebf
3-62,84.00,9,2020,necocli cacao antioquia,5d26499b64f5b87ffc809ebf
3-64,75.13,9,2020,necocli cacao antioquia,5d26499b64f5b87ffc809ebf
3-67,93.50,9,2020,necocli cacao antioquia,5d26499b64f5b87ffc809ebf
3-68,149.50,9,2020,necocli cacao antioquia,5d26499b64f5b87ffc809ebf
4-77,186.24,9,2020,necocli cacao antioquia,5d26499b64f5b87ffc809ebf
4-78,139.49,9,2020,necocli cacao antioquia,5d26499b64f5b87ffc809ebf
4-79,182.72,9,2020,necocli cacao antioquia,5d26499b64f5b87ffc809ebf
4-80,246.96,9,2020,necocli cacao antioquia,5d26499b64f5b87ffc809ebf
4-81,161.77,9,2020,necocli cacao antioquia,5d26499b64f5b87ffc809ebf
4-82,114.20,9,2020,necocli cacao antioquia,5d26499b64f5b87ffc809ebf
4-83,182.78,9,2020,necocli cacao antioquia,5d26499b64f5b87ffc809ebf
4-84,234.06,9,2020,necocli cacao antioquia,5d26499b64f5b87ffc809ebf
4-85,171.39,9,2020,necocli cacao antioquia,5d26499b64f5b87ffc809ebf
4-86,184.23,9,2020,necocli cacao antioquia,5d26499b64f5b87ffc809ebf
4-87,480.75,9,2020,necocli cacao antioquia,5d26499b64f5b87ffc809ebf
4-88,163.09,9,2020,necocli cacao antioquia,5d26499b64f5b87ffc809ebf
4-89,172.97,9,2020,necocli cacao antioquia,5d26499b64f5b87ffc809ebf
4-90,99.67,9,2020,necocli cacao antioquia,5d26499b64f5b87ffc809ebf
4-91,499.98,9,2020,necocli cacao antioquia,5d26499b64f5b87ffc809ebf
4-92,239.55,9,2020,necocli cacao antioquia,5d26499b64f5b87ffc809ebf
5-100,269.15,9,2020,necocli cacao antioquia,5d26499b64f5b87ffc809ebf
5-104,296.11,9,2020,necocli cacao antioquia,5d26499b64f5b87ffc809ebf
5-105,161.19,9,2020,necocli cacao antioquia,5d26499b64f5b87ffc809ebf
5-65,170.23,9,2020,necocli cacao antioquia,5d26499b64f5b87ffc809ebf
5-66,335.72,9,2020,necocli cacao antioquia,5d26499b64f5b87ffc809ebf
5-69,216.22,9,2020,necocli cacao antioquia,5d26499b64f5b87ffc809ebf
5-70,104.81,9,2020,necocli cacao antioquia,5d26499b64f5b87ffc809ebf
5-71,246.76,9,2020,necocli cacao antioquia,5d26499b64f5b87ffc809ebf
5-72,96.92,9,2020,necocli cacao antioquia,5d26499b64f5b87ffc809ebf
5-73,92.80,9,2020,necocli cacao antioquia,5d26499b64f5b87ffc809ebf
5-74,417.61,9,2020,necocli cacao antioquia,5d26499b64f5b87ffc809ebf
5-75,86.70,9,2020,necocli cacao antioquia,5d26499b64f5b87ffc809ebf
5-76,200.71,9,2020,necocli cacao antioquia,5d26499b64f5b87ffc809ebf
5-93,148.74,9,2020,necocli cacao antioquia,5d26499b64f5b87ffc809ebf
5-94,78.02,9,2020,necocli cacao antioquia,5d26499b64f5b87ffc809ebf
5-95,77.33,9,2020,necocli cacao antioquia,5d26499b64f5b87ffc809ebf
5-97,348.00,9,2020,necocli cacao antioquia,5d26499b64f5b87ffc809ebf
5-98,78.82,9,2020,necocli cacao antioquia,5d26499b64f5b87ffc809ebf
5-99,182.47,9,2020,necocli cacao antioquia,5d26499b64f5b87ffc809ebf
1-1,2673.87,10,2020,necocli cacao antioquia,5d26499b64f5b87ffc809ebf
1-2,2000.55,10,2020,necocli cacao antioquia,5d26499b64f5b87ffc809ebf
1-3,2092.60,10,2020,necocli cacao antioquia,5d26499b64f5b87ffc809ebf
1-4,2243.11,10,2020,necocli cacao antioquia,5d26499b64f5b87ffc809ebf
1-5,2341.95,10,2020,necocli cacao antioquia,5d26499b64f5b87ffc809ebf
1-6,2140.54,10,2020,necocli cacao antioquia,5d26499b64f5b87ffc809ebf
1-7,1391.79,10,2020,necocli cacao antioquia,5d26499b64f5b87ffc809ebf
1-8,1019.30,10,2020,necocli cacao antioquia,5d26499b64f5b87ffc809ebf
1-9,864.52,10,2020,necocli cacao antioquia,5d26499b64f5b87ffc809ebf
1-10,717.29,10,2020,necocli cacao antioquia,5d26499b64f5b87ffc809ebf
1-11,435.41,10,2020,necocli cacao antioquia,5d26499b64f5b87ffc809ebf
1-12,1414.44,10,2020,necocli cacao antioquia,5d26499b64f5b87ffc809ebf
1-13,1525.81,10,2020,necocli cacao antioquia,5d26499b64f5b87ffc809ebf
1-14,892.83,10,2020,necocli cacao antioquia,5d26499b64f5b87ffc809ebf
1-15,634.23,10,2020,necocli cacao antioquia,5d26499b64f5b87ffc809ebf
1-16,687.09,10,2020,necocli cacao antioquia,5d26499b64f5b87ffc809ebf
1-35,1026.85,10,2020,necocli cacao antioquia,5d26499b64f5b87ffc809ebf
1-36,689.60,10,2020,necocli cacao antioquia,5d26499b64f5b87ffc809ebf
2-20,688.34,10,2020,necocli cacao antioquia,5d26499b64f5b87ffc809ebf
2-21,2110.34,10,2020,necocli cacao antioquia,5d26499b64f5b87ffc809ebf
2-22,1686.26,10,2020,necocli cacao antioquia,5d26499b64f5b87ffc809ebf
2-23,2289.47,10,2020,necocli cacao antioquia,5d26499b64f5b87ffc809ebf
2-24,1676.82,10,2020,necocli cacao antioquia,5d26499b64f5b87ffc809ebf
2-25,1963.10,10,2020,necocli cacao antioquia,5d26499b64f5b87ffc809ebf
2-26,542.37,10,2020,necocli cacao antioquia,5d26499b64f5b87ffc809ebf
2-27,849.42,10,2020,necocli cacao antioquia,5d26499b64f5b87ffc809ebf
2-28,887.17,10,2020,necocli cacao antioquia,5d26499b64f5b87ffc809ebf
2-29,1220.65,10,2020,necocli cacao antioquia,5d26499b64f5b87ffc809ebf
2-40,453.02,10,2020,necocli cacao antioquia,5d26499b64f5b87ffc809ebf
2-41,654.37,10,2020,necocli cacao antioquia,5d26499b64f5b87ffc809ebf
2-42,503.36,10,2020,necocli cacao antioquia,5d26499b64f5b87ffc809ebf
2-49,881.51,10,2020,necocli cacao antioquia,5d26499b64f5b87ffc809ebf
2-50,738.68,10,2020,necocli cacao antioquia,5d26499b64f5b87ffc809ebf
2-51,955.13,10,2020,necocli cacao antioquia,5d26499b64f5b87ffc809ebf
2-52,2116.38,10,2020,necocli cacao antioquia,5d26499b64f5b87ffc809ebf
1-17,2076.36,10,2020,necocli cacao antioquia,5d26499b64f5b87ffc809ebf
1-18,679.54,10,2020,necocli cacao antioquia,5d26499b64f5b87ffc809ebf
1-19,1011.75,10,2020,necocli cacao antioquia,5d26499b64f5b87ffc809ebf
2-101,1482.40,10,2020,necocli cacao antioquia,5d26499b64f5b87ffc809ebf
2-30,964.56,10,2020,necocli cacao antioquia,5d26499b64f5b87ffc809ebf
2-31,2061.26,10,2020,necocli cacao antioquia,5d26499b64f5b87ffc809ebf
2-32,1019.30,10,2020,necocli cacao antioquia,5d26499b64f5b87ffc809ebf
2-33,1019.30,10,2020,necocli cacao antioquia,5d26499b64f5b87ffc809ebf
2-34,502.10,10,2020,necocli cacao antioquia,5d26499b64f5b87ffc809ebf
3-102,627.94,10,2020,necocli cacao antioquia,5d26499b64f5b87ffc809ebf
3-37,427.86,10,2020,necocli cacao antioquia,5d26499b64f5b87ffc809ebf
3-39,2457.66,10,2020,necocli cacao antioquia,5d26499b64f5b87ffc809ebf
3-43,1287.76,10,2020,necocli cacao antioquia,5d26499b64f5b87ffc809ebf
3-44,1167.80,10,2020,necocli cacao antioquia,5d26499b64f5b87ffc809ebf
3-45,1409.41,10,2020,necocli cacao antioquia,5d26499b64f5b87ffc809ebf
3-46,1346.49,10,2020,necocli cacao antioquia,5d26499b64f5b87ffc809ebf
3-47,928.70,10,2020,necocli cacao antioquia,5d26499b64f5b87ffc809ebf
2-49,345.43,10,2020,necocli cacao antioquia,5d26499b64f5b87ffc809ebf
3-53,352.35,10,2020,necocli cacao antioquia,5d26499b64f5b87ffc809ebf
3-56,1376.69,10,2020,necocli cacao antioquia,5d26499b64f5b87ffc809ebf
3-54,382.55,10,2020,necocli cacao antioquia,5d26499b64f5b87ffc809ebf
3-55,1981.58,10,2020,necocli cacao antioquia,5d26499b64f5b87ffc809ebf
3-59,1623.34,10,2020,necocli cacao antioquia,5d26499b64f5b87ffc809ebf
3-60,775.80,10,2020,necocli cacao antioquia,5d26499b64f5b87ffc809ebf
3-61,546.15,10,2020,necocli cacao antioquia,5d26499b64f5b87ffc809ebf
3-62,839.98,10,2020,necocli cacao antioquia,5d26499b64f5b87ffc809ebf
3-64,751.26,10,2020,necocli cacao antioquia,5d26499b64f5b87ffc809ebf
3-67,934.99,10,2020,necocli cacao antioquia,5d26499b64f5b87ffc809ebf
3-68,1494.98,10,2020,necocli cacao antioquia,5d26499b64f5b87ffc809ebf
4-77,1862.43,10,2020,necocli cacao antioquia,5d26499b64f5b87ffc809ebf
4-78,1394.94,10,2020,necocli cacao antioquia,5d26499b64f5b87ffc809ebf
4-79,1827.20,10,2020,necocli cacao antioquia,5d26499b64f5b87ffc809ebf
4-80,2469.61,10,2020,necocli cacao antioquia,5d26499b64f5b87ffc809ebf
4-81,1617.67,10,2020,necocli cacao antioquia,5d26499b64f5b87ffc809ebf
4-82,1142.00,10,2020,necocli cacao antioquia,5d26499b64f5b87ffc809ebf
4-83,1827.83,10,2020,necocli cacao antioquia,5d26499b64f5b87ffc809ebf
4-84,2340.62,10,2020,necocli cacao antioquia,5d26499b64f5b87ffc809ebf
4-85,1713.94,10,2020,necocli cacao antioquia,5d26499b64f5b87ffc809ebf
4-86,1842.30,10,2020,necocli cacao antioquia,5d26499b64f5b87ffc809ebf
4-87,4807.51,10,2020,necocli cacao antioquia,5d26499b64f5b87ffc809ebf
4-88,1630.89,10,2020,necocli cacao antioquia,5d26499b64f5b87ffc809ebf
4-89,1729.73,10,2020,necocli cacao antioquia,5d26499b64f5b87ffc809ebf
4-90,996.65,10,2020,necocli cacao antioquia,5d26499b64f5b87ffc809ebf
4-91,4999.81,10,2020,necocli cacao antioquia,5d26499b64f5b87ffc809ebf
4-92,2395.54,10,2020,necocli cacao antioquia,5d26499b64f5b87ffc809ebf
5-100,2691.53,10,2020,necocli cacao antioquia,5d26499b64f5b87ffc809ebf
5-104,2961.13,10,2020,necocli cacao antioquia,5d26499b64f5b87ffc809ebf
5-105,1611.88,10,2020,necocli cacao antioquia,5d26499b64f5b87ffc809ebf
5-65,1702.27,10,2020,necocli cacao antioquia,5d26499b64f5b87ffc809ebf
5-66,3357.22,10,2020,necocli cacao antioquia,5d26499b64f5b87ffc809ebf
5-69,2162.16,10,2020,necocli cacao antioquia,5d26499b64f5b87ffc809ebf
5-70,1048.13,10,2020,necocli cacao antioquia,5d26499b64f5b87ffc809ebf
5-71,2467.61,10,2020,necocli cacao antioquia,5d26499b64f5b87ffc809ebf
5-72,969.20,10,2020,necocli cacao antioquia,5d26499b64f5b87ffc809ebf
5-73,928.01,10,2020,necocli cacao antioquia,5d26499b64f5b87ffc809ebf
5-74,4176.06,10,2020,necocli cacao antioquia,5d26499b64f5b87ffc809ebf
5-75,867.04,10,2020,necocli cacao antioquia,5d26499b64f5b87ffc809ebf
5-76,2007.15,10,2020,necocli cacao antioquia,5d26499b64f5b87ffc809ebf
5-93,1487.43,10,2020,necocli cacao antioquia,5d26499b64f5b87ffc809ebf
5-94,780.21,10,2020,necocli cacao antioquia,5d26499b64f5b87ffc809ebf
5-95,773.34,10,2020,necocli cacao antioquia,5d26499b64f5b87ffc809ebf
5-97,3480.05,10,2020,necocli cacao antioquia,5d26499b64f5b87ffc809ebf
5-98,788.22,10,2020,necocli cacao antioquia,5d26499b64f5b87ffc809ebf
5-99,1824.68,10,2020,necocli cacao antioquia,5d26499b64f5b87ffc809ebf
1-1,4010.80,11,2020,necocli cacao antioquia,5d26499b64f5b87ffc809ebf
1-2,3000.82,11,2020,necocli cacao antioquia,5d26499b64f5b87ffc809ebf
1-3,3138.90,11,2020,necocli cacao antioquia,5d26499b64f5b87ffc809ebf
1-4,3364.67,11,2020,necocli cacao antioquia,5d26499b64f5b87ffc809ebf
1-5,3512.92,11,2020,necocli cacao antioquia,5d26499b64f5b87ffc809ebf
1-6,3210.81,11,2020,necocli cacao antioquia,5d26499b64f5b87ffc809ebf
1-7,2087.69,11,2020,necocli cacao antioquia,5d26499b64f5b87ffc809ebf
1-8,1528.96,11,2020,necocli cacao antioquia,5d26499b64f5b87ffc809ebf
1-9,1296.78,11,2020,necocli cacao antioquia,5d26499b64f5b87ffc809ebf
1-10,1075.93,11,2020,necocli cacao antioquia,5d26499b64f5b87ffc809ebf
1-11,653.11,11,2020,necocli cacao antioquia,5d26499b64f5b87ffc809ebf
1-12,2121.66,11,2020,necocli cacao antioquia,5d26499b64f5b87ffc809ebf
1-13,2288.72,11,2020,necocli cacao antioquia,5d26499b64f5b87ffc809ebf
1-14,1339.25,11,2020,necocli cacao antioquia,5d26499b64f5b87ffc809ebf
1-15,951.35,11,2020,necocli cacao antioquia,5d26499b64f5b87ffc809ebf
1-16,1030.63,11,2020,necocli cacao antioquia,5d26499b64f5b87ffc809ebf
1-35,1540.28,11,2020,necocli cacao antioquia,5d26499b64f5b87ffc809ebf
1-36,1034.40,11,2020,necocli cacao antioquia,5d26499b64f5b87ffc809ebf
2-20,1032.52,11,2020,necocli cacao antioquia,5d26499b64f5b87ffc809ebf
2-21,3165.51,11,2020,necocli cacao antioquia,5d26499b64f5b87ffc809ebf
2-22,2529.38,11,2020,necocli cacao antioquia,5d26499b64f5b87ffc809ebf
2-23,3434.21,11,2020,necocli cacao antioquia,5d26499b64f5b87ffc809ebf
2-24,2515.23,11,2020,necocli cacao antioquia,5d26499b64f5b87ffc809ebf
2-25,2944.66,11,2020,necocli cacao antioquia,5d26499b64f5b87ffc809ebf
2-26,813.56,11,2020,necocli cacao antioquia,5d26499b64f5b87ffc809ebf
2-27,1274.13,11,2020,necocli cacao antioquia,5d26499b64f5b87ffc809ebf
2-28,1330.76,11,2020,necocli cacao antioquia,5d26499b64f5b87ffc809ebf
2-29,1830.97,11,2020,necocli cacao antioquia,5d26499b64f5b87ffc809ebf
2-40,679.54,11,2020,necocli cacao antioquia,5d26499b64f5b87ffc809ebf
2-41,981.55,11,2020,necocli cacao antioquia,5d26499b64f5b87ffc809ebf
2-42,755.04,11,2020,necocli cacao antioquia,5d26499b64f5b87ffc809ebf
2-49,1322.26,11,2020,necocli cacao antioquia,5d26499b64f5b87ffc809ebf
2-50,1108.02,11,2020,necocli cacao antioquia,5d26499b64f5b87ffc809ebf
2-51,1432.69,11,2020,necocli cacao antioquia,5d26499b64f5b87ffc809ebf
2-52,3174.58,11,2020,necocli cacao antioquia,5d26499b64f5b87ffc809ebf
1-17,3114.54,11,2020,necocli cacao antioquia,5d26499b64f5b87ffc809ebf
1-18,1019.30,11,2020,necocli cacao antioquia,5d26499b64f5b87ffc809ebf
1-19,1517.63,11,2020,necocli cacao antioquia,5d26499b64f5b87ffc809ebf
2-101,2223.59,11,2020,necocli cacao antioquia,5d26499b64f5b87ffc809ebf
2-30,1446.85,11,2020,necocli cacao antioquia,5d26499b64f5b87ffc809ebf
2-31,3091.89,11,2020,necocli cacao antioquia,5d26499b64f5b87ffc809ebf
2-32,1528.96,11,2020,necocli cacao antioquia,5d26499b64f5b87ffc809ebf
2-33,1528.96,11,2020,necocli cacao antioquia,5d26499b64f5b87ffc809ebf
2-34,753.15,11,2020,necocli cacao antioquia,5d26499b64f5b87ffc809ebf
3-102,941.91,11,2020,necocli cacao antioquia,5d26499b64f5b87ffc809ebf
3-37,641.78,11,2020,necocli cacao antioquia,5d26499b64f5b87ffc809ebf
3-39,3686.48,11,2020,necocli cacao antioquia,5d26499b64f5b87ffc809ebf
3-43,1931.64,11,2020,necocli cacao antioquia,5d26499b64f5b87ffc809ebf
3-44,1751.69,11,2020,necocli cacao antioquia,5d26499b64f5b87ffc809ebf
3-45,2114.11,11,2020,necocli cacao antioquia,5d26499b64f5b87ffc809ebf
3-46,2019.73,11,2020,necocli cacao antioquia,5d26499b64f5b87ffc809ebf
3-47,1393.05,11,2020,necocli cacao antioquia,5d26499b64f5b87ffc809ebf
2-49,518.15,11,2020,necocli cacao antioquia,5d26499b64f5b87ffc809ebf
3-53,528.53,11,2020,necocli cacao antioquia,5d26499b64f5b87ffc809ebf
3-56,2065.03,11,2020,necocli cacao antioquia,5d26499b64f5b87ffc809ebf
3-54,573.83,11,2020,necocli cacao antioquia,5d26499b64f5b87ffc809ebf
3-55,2972.37,11,2020,necocli cacao antioquia,5d26499b64f5b87ffc809ebf
3-59,2435.00,11,2020,necocli cacao antioquia,5d26499b64f5b87ffc809ebf
3-60,1163.71,11,2020,necocli cacao antioquia,5d26499b64f5b87ffc809ebf
3-61,819.22,11,2020,necocli cacao antioquia,5d26499b64f5b87ffc809ebf
3-62,1259.97,11,2020,necocli cacao antioquia,5d26499b64f5b87ffc809ebf
3-64,1126.90,11,2020,necocli cacao antioquia,5d26499b64f5b87ffc809ebf
3-67,1402.49,11,2020,necocli cacao antioquia,5d26499b64f5b87ffc809ebf
3-68,2242.47,11,2020,necocli cacao antioquia,5d26499b64f5b87ffc809ebf
4-77,2793.65,11,2020,necocli cacao antioquia,5d26499b64f5b87ffc809ebf
4-78,2092.40,11,2020,necocli cacao antioquia,5d26499b64f5b87ffc809ebf
4-79,2740.80,11,2020,necocli cacao antioquia,5d26499b64f5b87ffc809ebf
4-80,3704.42,11,2020,necocli cacao antioquia,5d26499b64f5b87ffc809ebf
4-81,2426.51,11,2020,necocli cacao antioquia,5d26499b64f5b87ffc809ebf
4-82,1713.00,11,2020,necocli cacao antioquia,5d26499b64f5b87ffc809ebf
4-83,2741.74,11,2020,necocli cacao antioquia,5d26499b64f5b87ffc809ebf
4-84,3510.94,11,2020,necocli cacao antioquia,5d26499b64f5b87ffc809ebf
4-85,2570.91,11,2020,necocli cacao antioquia,5d26499b64f5b87ffc809ebf
4-86,2763.45,11,2020,necocli cacao antioquia,5d26499b64f5b87ffc809ebf
4-87,7211.26,11,2020,necocli cacao antioquia,5d26499b64f5b87ffc809ebf
4-88,2446.33,11,2020,necocli cacao antioquia,5d26499b64f5b87ffc809ebf
4-89,2594.59,11,2020,necocli cacao antioquia,5d26499b64f5b87ffc809ebf
4-90,1494.98,11,2020,necocli cacao antioquia,5d26499b64f5b87ffc809ebf
4-91,7499.72,11,2020,necocli cacao antioquia,5d26499b64f5b87ffc809ebf
4-92,3593.30,11,2020,necocli cacao antioquia,5d26499b64f5b87ffc809ebf
5-100,4037.29,11,2020,necocli cacao antioquia,5d26499b64f5b87ffc809ebf
5-104,4441.69,11,2020,necocli cacao antioquia,5d26499b64f5b87ffc809ebf
5-105,2417.83,11,2020,necocli cacao antioquia,5d26499b64f5b87ffc809ebf
5-65,2553.41,11,2020,necocli cacao antioquia,5d26499b64f5b87ffc809ebf
5-66,5035.83,11,2020,necocli cacao antioquia,5d26499b64f5b87ffc809ebf
5-69,3243.24,11,2020,necocli cacao antioquia,5d26499b64f5b87ffc809ebf
5-70,1572.20,11,2020,necocli cacao antioquia,5d26499b64f5b87ffc809ebf
5-71,3701.41,11,2020,necocli cacao antioquia,5d26499b64f5b87ffc809ebf
5-72,1453.80,11,2020,necocli cacao antioquia,5d26499b64f5b87ffc809ebf
5-73,1392.02,11,2020,necocli cacao antioquia,5d26499b64f5b87ffc809ebf
5-74,6264.09,11,2020,necocli cacao antioquia,5d26499b64f5b87ffc809ebf
5-75,1300.56,11,2020,necocli cacao antioquia,5d26499b64f5b87ffc809ebf
5-76,3010.72,11,2020,necocli cacao antioquia,5d26499b64f5b87ffc809ebf
5-93,2231.14,11,2020,necocli cacao antioquia,5d26499b64f5b87ffc809ebf
5-94,1170.31,11,2020,necocli cacao antioquia,5d26499b64f5b87ffc809ebf
5-95,1160.02,11,2020,necocli cacao antioquia,5d26499b64f5b87ffc809ebf
5-97,5220.07,11,2020,necocli cacao antioquia,5d26499b64f5b87ffc809ebf
5-98,1182.32,11,2020,necocli cacao antioquia,5d26499b64f5b87ffc809ebf
5-99,2737.02,11,2020,necocli cacao antioquia,5d26499b64f5b87ffc809ebf
1-1,1604.32,12,2020,necocli cacao antioquia,5d26499b64f5b87ffc809ebf
1-2,1200.33,12,2020,necocli cacao antioquia,5d26499b64f5b87ffc809ebf
1-3,1255.56,12,2020,necocli cacao antioquia,5d26499b64f5b87ffc809ebf
1-4,1345.87,12,2020,necocli cacao antioquia,5d26499b64f5b87ffc809ebf
1-5,1405.17,12,2020,necocli cacao antioquia,5d26499b64f5b87ffc809ebf
1-6,1284.32,12,2020,necocli cacao antioquia,5d26499b64f5b87ffc809ebf
1-7,835.07,12,2020,necocli cacao antioquia,5d26499b64f5b87ffc809ebf
1-8,611.58,12,2020,necocli cacao antioquia,5d26499b64f5b87ffc809ebf
1-9,518.71,12,2020,necocli cacao antioquia,5d26499b64f5b87ffc809ebf
1-10,430.37,12,2020,necocli cacao antioquia,5d26499b64f5b87ffc809ebf
1-11,261.24,12,2020,necocli cacao antioquia,5d26499b64f5b87ffc809ebf
1-12,848.66,12,2020,necocli cacao antioquia,5d26499b64f5b87ffc809ebf
1-13,915.49,12,2020,necocli cacao antioquia,5d26499b64f5b87ffc809ebf
1-14,535.70,12,2020,necocli cacao antioquia,5d26499b64f5b87ffc809ebf
1-15,380.54,12,2020,necocli cacao antioquia,5d26499b64f5b87ffc809ebf
1-16,412.25,12,2020,necocli cacao antioquia,5d26499b64f5b87ffc809ebf
1-35,616.11,12,2020,necocli cacao antioquia,5d26499b64f5b87ffc809ebf
1-36,413.76,12,2020,necocli cacao antioquia,5d26499b64f5b87ffc809ebf
2-20,413.01,12,2020,necocli cacao antioquia,5d26499b64f5b87ffc809ebf
2-21,1266.20,12,2020,necocli cacao antioquia,5d26499b64f5b87ffc809ebf
2-22,1011.75,12,2020,necocli cacao antioquia,5d26499b64f5b87ffc809ebf
2-23,1373.68,12,2020,necocli cacao antioquia,5d26499b64f5b87ffc809ebf
2-24,1006.09,12,2020,necocli cacao antioquia,5d26499b64f5b87ffc809ebf
2-25,1177.86,12,2020,necocli cacao antioquia,5d26499b64f5b87ffc809ebf
2-26,325.42,12,2020,necocli cacao antioquia,5d26499b64f5b87ffc809ebf
2-27,509.65,12,2020,necocli cacao antioquia,5d26499b64f5b87ffc809ebf
2-28,532.30,12,2020,necocli cacao antioquia,5d26499b64f5b87ffc809ebf
2-29,732.39,12,2020,necocli cacao antioquia,5d26499b64f5b87ffc809ebf
2-40,271.81,12,2020,necocli cacao antioquia,5d26499b64f5b87ffc809ebf
2-41,392.62,12,2020,necocli cacao antioquia,5d26499b64f5b87ffc809ebf
2-42,302.02,12,2020,necocli cacao antioquia,5d26499b64f5b87ffc809ebf
2-49,528.91,12,2020,necocli cacao antioquia,5d26499b64f5b87ffc809ebf
2-50,443.21,12,2020,necocli cacao antioquia,5d26499b64f5b87ffc809ebf
2-51,573.08,12,2020,necocli cacao antioquia,5d26499b64f5b87ffc809ebf
2-52,1269.83,12,2020,necocli cacao antioquia,5d26499b64f5b87ffc809ebf
1-17,1245.82,12,2020,necocli cacao antioquia,5d26499b64f5b87ffc809ebf
1-18,407.72,12,2020,necocli cacao antioquia,5d26499b64f5b87ffc809ebf
1-19,607.05,12,2020,necocli cacao antioquia,5d26499b64f5b87ffc809ebf
2-101,889.44,12,2020,necocli cacao antioquia,5d26499b64f5b87ffc809ebf
2-30,578.74,12,2020,necocli cacao antioquia,5d26499b64f5b87ffc809ebf
2-31,1236.76,12,2020,necocli cacao antioquia,5d26499b64f5b87ffc809ebf
2-32,611.58,12,2020,necocli cacao antioquia,5d26499b64f5b87ffc809ebf
2-33,611.58,12,2020,necocli cacao antioquia,5d26499b64f5b87ffc809ebf
2-34,301.26,12,2020,necocli cacao antioquia,5d26499b64f5b87ffc809ebf
3-102,376.76,12,2020,necocli cacao antioquia,5d26499b64f5b87ffc809ebf
3-37,256.71,12,2020,necocli cacao antioquia,5d26499b64f5b87ffc809ebf
3-39,1474.59,12,2020,necocli cacao antioquia,5d26499b64f5b87ffc809ebf
3-43,772.66,12,2020,necocli cacao antioquia,5d26499b64f5b87ffc809ebf
3-44,700.68,12,2020,necocli cacao antioquia,5d26499b64f5b87ffc809ebf
3-45,845.64,12,2020,necocli cacao antioquia,5d26499b64f5b87ffc809ebf
3-46,807.89,12,2020,necocli cacao antioquia,5d26499b64f5b87ffc809ebf
3-47,557.22,12,2020,necocli cacao antioquia,5d26499b64f5b87ffc809ebf
2-49,207.26,12,2020,necocli cacao antioquia,5d26499b64f5b87ffc809ebf
3-53,211.41,12,2020,necocli cacao antioquia,5d26499b64f5b87ffc809ebf
3-56,826.01,12,2020,necocli cacao antioquia,5d26499b64f5b87ffc809ebf
3-54,229.53,12,2020,necocli cacao antioquia,5d26499b64f5b87ffc809ebf
3-55,1188.95,12,2020,necocli cacao antioquia,5d26499b64f5b87ffc809ebf
3-59,974.00,12,2020,necocli cacao antioquia,5d26499b64f5b87ffc809ebf
3-60,465.48,12,2020,necocli cacao antioquia,5d26499b64f5b87ffc809ebf
3-61,327.69,12,2020,necocli cacao antioquia,5d26499b64f5b87ffc809ebf
3-62,503.99,12,2020,necocli cacao antioquia,5d26499b64f5b87ffc809ebf
3-64,450.76,12,2020,necocli cacao antioquia,5d26499b64f5b87ffc809ebf
3-67,560.99,12,2020,necocli cacao antioquia,5d26499b64f5b87ffc809ebf
3-68,896.99,12,2020,necocli cacao antioquia,5d26499b64f5b87ffc809ebf
4-77,1117.46,12,2020,necocli cacao antioquia,5d26499b64f5b87ffc809ebf
4-78,836.96,12,2020,necocli cacao antioquia,5d26499b64f5b87ffc809ebf
4-79,1096.32,12,2020,necocli cacao antioquia,5d26499b64f5b87ffc809ebf
4-80,1481.77,12,2020,necocli cacao antioquia,5d26499b64f5b87ffc809ebf
4-81,970.60,12,2020,necocli cacao antioquia,5d26499b64f5b87ffc809ebf
4-82,685.20,12,2020,necocli cacao antioquia,5d26499b64f5b87ffc809ebf
4-83,1096.70,12,2020,necocli cacao antioquia,5d26499b64f5b87ffc809ebf
4-84,1404.37,12,2020,necocli cacao antioquia,5d26499b64f5b87ffc809ebf
4-85,1028.36,12,2020,necocli cacao antioquia,5d26499b64f5b87ffc809ebf
4-86,1105.38,12,2020,necocli cacao antioquia,5d26499b64f5b87ffc809ebf
4-87,2884.50,12,2020,necocli cacao antioquia,5d26499b64f5b87ffc809ebf
4-88,978.53,12,2020,necocli cacao antioquia,5d26499b64f5b87ffc809ebf
4-89,1037.84,12,2020,necocli cacao antioquia,5d26499b64f5b87ffc809ebf
4-90,597.99,12,2020,necocli cacao antioquia,5d26499b64f5b87ffc809ebf
4-91,2999.89,12,2020,necocli cacao antioquia,5d26499b64f5b87ffc809ebf
4-92,1437.32,12,2020,necocli cacao antioquia,5d26499b64f5b87ffc809ebf
5-100,1614.92,12,2020,necocli cacao antioquia,5d26499b64f5b87ffc809ebf
5-104,1776.68,12,2020,necocli cacao antioquia,5d26499b64f5b87ffc809ebf
5-105,967.13,12,2020,necocli cacao antioquia,5d26499b64f5b87ffc809ebf
5-65,1021.36,12,2020,necocli cacao antioquia,5d26499b64f5b87ffc809ebf
5-66,2014.33,12,2020,necocli cacao antioquia,5d26499b64f5b87ffc809ebf
5-69,1297.30,12,2020,necocli cacao antioquia,5d26499b64f5b87ffc809ebf
5-70,628.88,12,2020,necocli cacao antioquia,5d26499b64f5b87ffc809ebf
5-71,1480.56,12,2020,necocli cacao antioquia,5d26499b64f5b87ffc809ebf
5-72,581.52,12,2020,necocli cacao antioquia,5d26499b64f5b87ffc809ebf
5-73,556.81,12,2020,necocli cacao antioquia,5d26499b64f5b87ffc809ebf
5-74,2505.63,12,2020,necocli cacao antioquia,5d26499b64f5b87ffc809ebf
5-75,520.22,12,2020,necocli cacao antioquia,5d26499b64f5b87ffc809ebf
5-76,1204.29,12,2020,necocli cacao antioquia,5d26499b64f5b87ffc809ebf
5-93,892.46,12,2020,necocli cacao antioquia,5d26499b64f5b87ffc809ebf
5-94,468.12,12,2020,necocli cacao antioquia,5d26499b64f5b87ffc809ebf
5-95,464.01,12,2020,necocli cacao antioquia,5d26499b64f5b87ffc809ebf
5-97,2088.03,12,2020,necocli cacao antioquia,5d26499b64f5b87ffc809ebf
5-98,472.93,12,2020,necocli cacao antioquia,5d26499b64f5b87ffc809ebf
5-99,1094.81,12,2020,necocli cacao antioquia,5d26499b64f5b87ffc809ebf
