LOTE,FECHA DE COSECHA,HECTAREAS,BABA KILO
D-30,2020-01-03,5.00,199.10
E-29,2020-01-03,19.43,188.80
E-30,2020-01-03,23.90,197.00
E-31,2020-01-03,26.43,181.80
D-25,2020-01-04,23.30,246.50
D-30,2020-01-04,18.98,256.00
D-31,2020-01-04,20.00,255.50
D-31,2020-01-07,6.64,115.50
D-32,2020-01-07,21.76,171.60
E-32,2020-01-07,21.87,120.50
E-33,2020-01-07,15.00,195.20
D-28,2020-01-08,22.44,126.30
D-29,2020-01-08,24.14,112.60
D-34,2020-01-08,22.35,118.50
E-33,2020-01-08,11.56,130.40
C-28,2020-01-09,15.00,195.10
D-26,2020-01-09,21.99,118.30
D-27,2020-01-09,23.42,108.10
B-30A,2020-01-10,21.68,144.80
B-31,2020-01-10,28.96,126.90
C-28,2020-01-10,8.22,143.60
C-29,2020-01-10,21.84,155.10
C-30,2020-01-11,23.52,107.50
C-31,2020-01-11,27.16,107.50
C-32,2020-01-11,21.75,115.00
C-33,2020-01-11,26.14,130.72
B-34,2020-01-13,10.76,92.95
B-33,2020-01-13,15.60,78.05
B-32,2020-01-13,17.80,77.35
C-34,2020-01-13,23.91,72.15
C-35,2020-01-13,18.60,72.15
E-31,2020-01-14,26.43,91.15
E-32,2020-01-14,21.87,78.65
E-29,2020-01-14,19.43,93.65
E-30,2020-01-14,23.90,90.65
E-33,2020-01-15,20.00,148.45
D-30,2020-01-15,15.00,214.85
E-33,2020-01-16,6.56,21.90
D-32,2020-01-16,21.76,35.40
D-31,2020-01-16,15.00,121.40
D-30,2020-01-16,8.98,25.90
C-28,2020-01-17,18.00,84.00
D-31,2020-01-17,11.64,92.00
D-26,2020-01-17,21.99,5.00
D-27,2020-01-17,23.42,5.00
C-28,2020-01-18,5.22,16.00
C-29,2020-01-18,21.84,63.50
D-25,2020-01-18,23.30,94.00
D-28,2020-01-18,22.44,34.00
D-29,2020-01-18,24.14,11.00
C-30,2020-01-20,23.52,4.90
C-31,2020-01-20,27.16,21.20
C-32,2020-01-20,21.75,4.90
C-33,2020-01-20,26.14,1.00
B-30A,2020-01-20,21.68,72.06
B-31,2020-01-20,5.00,3.20
B-31,2020-01-21,23.96,32.20
B-32,2020-01-21,17.80,6.90
E-32,2020-01-21,21.87,15.50
E-33,2020-01-21,26.56,58.70
E-30,2020-01-22,23.90,22.30
E-31,2020-01-22,26.43,34.70
D-30,2020-01-22,23.98,96.80
D-31,2020-01-22,26.64,138.50
E-29,2020-01-23,10.90,83.10
D-34,2020-01-24,19.43,14.80
D-32,2020-01-24,22.35,10.60
D-28,2020-01-24,21.76,32.60
D-29,2020-01-24,22.44,3.00
C-28,2020-01-24,7.00,40.10
C-29,2020-01-25,7.00,40.50
D-25,2020-01-25,21.84,30.80
D-26,2020-01-25,23.30,6.00
D-27,2020-01-25,21.99,6.50
D-29,2020-01-25,23.42,5.70
B-30A,2020-01-25,24.14,46.00
B-31,2020-01-27,21.68,16.20
B-32,2020-01-27,28.96,12.70
B-33,2020-01-27,17.80,8.30
C-28,2020-01-27,15.60,71.00
C-30,2020-01-27,23.22,0.40
C-31,2020-01-27,7.00,6.20
C-32,2020-01-28,27.16,2.50
C-33,2020-01-28,21.75,3.00
C-35,2020-01-28,26.14,5.20
B-34,2020-01-28,18.60,5.20
C-30,2020-01-28,10.76,8.30
C-32,2020-01-29,16.52,10.00
C-34,2020-01-29,21.75,3.20
D-33,2020-01-29,23.91,25.50
E-33,2020-01-29,26.34,116.90
E-29,2020-01-29,26.56,34.10
E-30,2020-01-30,19.43,17.90
E-31,2020-01-30,23.90,12.90
E-32,2020-01-30,26.43,21.70
D-30,2020-01-30,21.87,61.40
B-30A,2020-02-01,21.68,39.70
C-28,2020-02-01,23.22,68.50
D-25,2020-02-01,23.30,27.80
B-31,2020-02-03,28.96,29.00
C-29,2020-02-03,21.84,31.50
C-30,2020-02-03,23.52,4.00
C-32,2020-02-03,21.75,1.00
C-33,2020-02-03,26.14,1.50
C-31,2020-02-04,27.16,5.90
C-35,2020-02-04,18.60,0.00
B-34,2020-02-04,10.76,5.20
D-33,2020-02-05,26.34,3.00
D-34,2020-02-05,22.35,6.50
B-32,2020-02-05,17.80,11.00
B-33,2020-02-05,15.60,14.00
D-29,2020-02-06,24.14,5.40
D-30,2020-02-06,23.98,49.30
D-31,2020-02-06,18.00,20.30
D-32,2020-02-06,21.76,5.90
D-25,2020-02-07,23.30,46.00
D-26,2020-02-07,21.99,9.50
D-27,2020-02-07,23.42,0.40
D-28,2020-02-07,22.44,18.50
D-31,2020-02-07,8.64,19.10
E-33,2020-02-08,26.56,77.70
E-30,2020-02-08,23.90,22.20
E-29,2020-02-08,19.43,45.30
C-28,2020-02-10,23.22,89.60
C-29,2020-02-10,21.84,20.00
E-31,2020-02-10,26.43,23.50
E-32,2020-02-10,21.87,7.60
B-30A,2020-02-11,21.68,54.80
B-31,2020-02-11,28.96,19.80
C-29,2020-02-11,3.00,10.50
C-30,2020-02-11,23.52,3.60
C-31,2020-02-11,27.16,3.20
B-31,2020-02-12,25.96,13.50
B-32,2020-02-12,17.80,11.50
B-33,2020-02-12,15.60,5.00
C-33,2020-02-12,26.14,1.00
C-32,2020-02-12,21.75,1.10
D-29,2020-02-13,24.14,5.10
D-30,2020-02-13,23.98,34.20
D-31,2020-02-13,26.64,20.70
D-32,2020-02-13,21.76,5.20
D-25,2020-02-14,23.30,28.50
D-26,2020-02-14,21.99,4.80
D-27,2020-02-14,23.42,0.80
D-28,2020-02-14,22.44,14.40
E-29,2020-02-15,19.43,22.00
E-30,2020-02-15,23.90,4.40
E-31,2020-02-15,26.43,13.70
E-32,2020-02-15,21.87,2.40
C-28,2020-02-17,23.22,60.30
C-29,2020-02-17,21.84,28.00
E-33,2020-02-17,26.56,61.20
C-31,2020-02-18,27.16,4.00
C-30,2020-02-18,23.52,4.60
B-31,2020-02-18,28.96,17.60
B-30A,2020-02-18,21.68,30.80
C-32,2020-02-19,21.75,0.40
C-33,2020-02-19,26.14,0.40
B-32,2020-02-19,17.80,5.40
B-33,2020-02-19,15.60,11.80
B-34,2020-02-19,10.76,1.90
C-34,2020-02-20,23.91,2.10
C-35,2020-02-20,18.60,2.20
D-33,2020-02-20,26.34,7.00
D-34,2020-02-20,22.35,4.20
D-25,2020-02-21,23.30,4.30
D-26,2020-02-21,21.99,18.00
D-27,2020-02-21,23.42,0.10
D-28,2020-02-21,22.44,12.80
D-30,2020-02-21,3.00,3.50
D-31,2020-02-21,3.00,6.50
D-29,2020-02-22,24.14,5.60
D-30,2020-02-22,20.98,56.60
D-31,2020-02-22,23.64,46.90
D-32,2020-02-22,21.76,2.80
E-29,2020-02-24,19.43,35.40
E-30,2020-02-24,23.90,7.60
E-31,2020-02-24,26.43,23.10
E-32,2020-02-24,21.87,2.20
C-28,2020-02-25,23.22,102.80
C-29,2020-02-25,21.84,34.50
D-33,2020-02-25,26.34,72.30
B-30A,2020-02-26,21.68,81.00
B-31,2020-02-26,28.96,9.50
C-30,2020-02-26,23.52,12.20
C-31,2020-02-26,27.16,0.50
B-32,2020-02-27,17.80,16.50
B-33,2020-02-27,15.60,20.30
C-32,2020-02-27,21.75,0.70
C-33,2020-02-27,26.14,0.00
D-29,2020-02-28,24.14,1.70
D-30,2020-02-28,23.98,33.10
D-31,2020-02-28,26.64,47.00
D-32,2020-02-28,21.76,3.20
D-25,2020-02-29,23.30,19.60
D-26,2020-02-29,21.99,1.10
D-27,2020-02-29,23.42,0.10
D-28,2020-02-29,22.44,17.50
E-29,2020-03-02,19.43,24.70
E-30,2020-03-02,23.90,2.80
E-31,2020-03-02,26.43,40.90
E-32,2020-03-02,21.87,4.90
C-28,2020-03-03,23.22,94.70
C-29,2020-03-03,21.84,38.90
E-33,2020-03-03,26.56,136.00
C-30,2020-03-04,23.52,12.50
C-31,2020-03-04,27.16,1.60
B-30A,2020-03-04,21.68,42.20
B-31,2020-03-04,28.96,23.60
B-32,2020-03-05,17.80,20.10
B-33,2020-03-05,15.60,10.50
B-34,2020-03-05,10.76,0.50
C-32,2020-03-05,21.75,1.00
C-33,2020-03-05,26.14,1.00
C-34,2020-03-06,23.91,16.20
C-35,2020-03-06,18.60,7.50
D-33,2020-03-06,26.34,6.60
D-34,2020-03-06,22.35,4.00
D-29,2020-03-07,24.14,2.70
D-30,2020-03-07,23.98,52.80
D-31,2020-03-07,26.64,56.60
D-32,2020-03-07,21.76,1.80
D-25,2020-03-09,23.30,29.50
D-26,2020-03-09,21.99,4.60
D-27,2020-03-09,23.42,2.20
D-28,2020-03-09,22.44,14.00
E-29,2020-03-10,19.43,51.60
E-30,2020-03-10,23.90,6.70
E-31,2020-03-10,26.43,68.00
E-32,2020-03-10,21.87,4.80
E-33,2020-03-11,12.00,235.40
C-28,2020-03-11,23.22,234.10
E-33,2020-03-12,14.56,168.70
C-29,2020-03-12,21.84,142.50
B-30A,2020-03-13,21.68,185.40
C-30,2020-03-13,23.52,15.10
C-31,2020-03-13,27.16,4.30
B-31,2020-03-14,28.96,119.70
B-32,2020-03-14,17.80,76.10
B-33,2020-03-14,15.60,51.30
C-32,2020-03-16,21.75,0.30
C-33,2020-03-16,26.14,0.00
D-31,2020-03-16,26.64,17.80
D-32,2020-03-16,21.76,85.90
D-27,2020-03-17,23.42,0.40
D-28,2020-03-17,22.44,19.20
D-30,2020-03-17,23.98,168.50
D-25,2020-03-18,23.30,33.00
D-26,2020-03-18,21.99,5.30
D-29,2020-03-18,24.14,3.60
E-29,2020-03-18,19.43,60.10
E-30,2020-03-18,23.90,7.70
E-31,2020-03-19,26.43,185.40
E-33,2020-03-19,12.00,245.00
E-32,2020-03-20,21.87,22.70
E-33,2020-03-20,14.56,168.60
B-30A,2020-03-21,21.68,142.00
C-28,2020-03-21,23.22,179.70
B-31,2020-03-24,28.96,90.80
C-29,2020-03-24,21.84,98.30
C-31,2020-03-24,27.16,4.80
B-32,2020-03-25,17.80,64.10
B-33,2020-03-25,15.60,45.20
B-34,2020-03-25,10.76,0.00
C-30,2020-03-25,23.52,46.30
C-32,2020-03-25,21.75,2.80
C-33,2020-03-25,26.14,0.00
C-34,2020-03-26,23.91,66.90
C-35,2020-03-26,18.60,30.90
D-33,2020-03-26,26.34,7.70
D-34,2020-03-26,22.35,14.30
D-29,2020-04-01,24.14,11.00
D-30,2020-04-01,23.98,159.20
D-31,2020-04-01,26.64,166.70
D-32,2020-04-02,21.76,5.40
D-25,2020-04-02,23.30,118.80
D-26,2020-04-02,21.99,26.40
E-29,2020-04-02,19.43,37.90
E-30,2020-04-02,23.90,17.40
D-27,2020-04-03,23.42,3.70
D-28,2020-04-03,22.44,61.60
E-31,2020-04-03,26.43,308.90
E-33,2020-04-04,8.90,678.20
E-33,2020-04-06,17.66,733.00
E-32,2020-04-07,21.87,53.10
B-20,2020-04-07,6.33,0.80
B-21,2020-04-07,9.59,25.90
A-19A,2020-04-07,10.77,8.00
A-20,2020-04-07,20.03,2.00
A-21A,2020-04-07,14.79,4.30
A-22A,2020-04-08,3.99,0.00
B-22,2020-04-08,9.45,25.70
B-23A,2020-04-08,9.49,1.80
B-30A,2020-04-08,10.84,130.40
C-28,2020-04-08,11.61,73.00
B-30A,2020-04-11,5.04,207.70
C-28,2020-04-11,5.04,126.70
B-30A,2020-04-13,6.57,232.00
C-28,2020-04-13,5.80,52.00
C-29,2020-04-13,10.92,43.70
B-31,2020-04-14,20.32,158.20
C-29,2020-04-14,10.92,90.00
C-30,2020-04-14,16.32,97.60
B-31,2020-04-15,28.96,129.70
B-32,2020-04-15,5.76,47.30
C-30,2020-04-15,23.52,30.90
C-31,2020-04-15,27.16,32.40
C-32,2020-04-15,21.75,32.10
B-32,2020-04-16,12.04,169.10
C-34,2020-04-16,23.91,145.70
C-33,2020-04-16,26.14,1.10
B-33,2020-04-17,7.80,129.70
C-35,2020-04-17,18.60,76.00
D-32,2020-04-17,21.76,65.90
B-33,2020-04-18,15.60,119.80
B-34,2020-04-18,10.76,1.60
D-31,2020-04-18,19.44,159.80
D-31,2020-04-20,3.60,64.30
D-33,2020-04-20,26.34,13.90
D-34,2020-04-20,22.35,89.60
D-25,2020-04-21,23.30,208.30
D-26,2020-04-21,10.99,11.10
D-30,2020-04-21,16.78,177.80
D-31,2020-04-21,3.60,13.50
