﻿name,type,inputmeasure,description,puc,category,sku,pc,pr,water,activeIngredients,pr2,pc2
12-24-12,Consumibles,Kilogramos,,,FERTILIZANTE EDAFICO,,0,0,false,(N)12-(P)24-(K)12;,0,0
MEZCLA FISICA8N-7P-23K-2_9Ca-1_4Mg-5S-0,Consumibles,Kilogramos,,,FERTILIZANTE EDAFICO,,0,0,false,8-7-23;EM;,0,0
ABAMECTINA DEL MONTE  1_8 EC,Consumibles,Litros,,,INSECTICIDA,,21,0,false,Abamectin;,0,0
SANTIMEC,Consumibles,Litros,,,INSECTICIDA,,7,0,false,Abamectin - Pyridaben;,0,0
OBERON SPEED,Consumibles,Litros,,,INSECTICIDA,,0,0,false,Abamectin;Spiromesifen;,0,0
ABAFED 18 EC,Consumibles,Litros,,,INSECTICIDA,,0,0,false,ABAMECTINA;,0,0
CANDONGA 1_8 EC,Consumibles,Litros,,,INSECTICIDA,,14,0,false,ABAMECTINA;,0,0
CARRIER,Consumibles,Litros,,,COADYUVANTE ,,0,0,false,Aceite de soya: ácidos carboxílicos insaturados y glicéridos saturados;,0,0
CITROEMULSION 800 EC,Consumibles,Litros,,,INSECTICIDA,,0,0,false,ACEITE MINERAL;,0,0
ACEITE BIOGRIN ,Consumibles,Litros,,,INSECTICIDA,,0,0,false,ACEITE VEGETAL;,0,0
COSMO OIL,Consumibles,Litros,,,COADYUVANTE,,0,0,false,ACEITES PARAFINICOS Y CICLOPARAFINICOS;,0,0
LOCKED,Consumibles,Litros,,,INSECTICIDA,,14,0,false,Acetamiprid - Pyriproxifen;,0,0
PROXAM 200 EC,Consumibles,Litros,,,FUNGICIDA,,14,0,false,Acetamiprid - Pyriproxyfen;,0,0
AQUAFULL,Consumibles,Kilogramos,,,COADYUVANTE,,0,0,false,ACIDO ETILENDIAMINOTETRACETICO (EDTA);ACIDO 3-HIDROXI 1-3-5;PENTANOTRICARBOXILICO;,0,0
HUMUS H85 * 10 KG,Consumibles,Bultos,,,FERTILIZANTE FOLIAR,,0,0,false,ACIFOS HUMICOS 65%; ACIDOS FULVICOS 20%;,0,0
TERRABIOSA,Consumibles,Galones estadounidenses,,,,,0,0,false,Agua; melaza ; sacarosa; fructuosa; dextrosa; hierbas y cultivos de bacterias lácticas y levaduras;,0,0
FLUYEX,Consumibles,Litros,,,COADYUVANTE,,0,0,false,ALCOHOL ETOXILADO MODIFICADO;,0,0
Pegal PH                                ,Consumibles,Litros,,,COADYUVANTE,,0,0,false,ALCOHOL ETOXILADO;ÁCIDOS ORGÁNICOS;COLORANTES;,0,0
POTENZOL 3000 SL 20 LITROS ,Consumibles,Por cantidad,,,COADYUVANTE,,0,0,false,alcohol laurílico etoxilado y tensoactivo organosiliconado;,0,0
SURFARE AC,Consumibles,Litros,,,COADYUVANTE,,0,0,false,Alcohol polioxietilenicoy polieter gicol;,0,0
COSMO FLUX ,Consumibles,Litros,,,COADYUVANTE,,0,0,false,ALCOHOLES LINEALES ETOXILADOS;ARIL ETOXILADO;,0,0
AGROFAST,Consumibles,Litros,,,FERTILIZANTE FOLIAR,,0,0,false,ALGAS MARINAS;AMINOACIDOS;ELEMENTOS MINERALES;,0,0
POTENZOL 900 SL,Consumibles,Litros,,,COADYUVANTE,,0,0,false,Alkyl Aryl Polieter Alcohol;,0,0
ACTIPHYL ENERGY ,Consumibles,Litros,,,FERTILIZANTE FOLIAR,,0,0,false,Aminoácidos; Extractos de algas; Antioxidantes y Bioestimulantes;,0,0
AMISTAR TOP,Consumibles,Litros,,,FUNGICIDA,,21,0,false,Azoxistrobin - Difenoconazol;,0,0
FURTIVO 250 SC              ,Consumibles,Litros,,,FUNGICIDA,,0,0,false,Azoxystrobin - Flutriafol;,0,0
XSTRATA GOLD 240 SC,Consumibles,Litros,,,FUNGICIDA,,7,0,false,Azoxystrobin;Tebuconazole;,0,0
KUMULUS WG,Consumibles,Kilogramos,,,FUNGICIDA,,5,0,false,AZUFRE;,0,0
CRONOX WP,Consumibles,Kilogramos,,,INSECTICIDA,,0,0,false,BACILLUS POPILIAE;,0,0
BACILMIX POR LITRO ,Consumibles,Litros,,,FERTILIZANTE FOLIAR,,0,0,false,BACILLUS SUBTILLIS;,0,0
DIPEL WG,Consumibles,Kilogramos,,,INSECTICIDA,,0,0,false,Bacillus thuringiensis;,0,0
TENE BRIONIX SL,Consumibles,Litros,,,BIOINSUMO,,0,0,false,Bacillus thuringiensis;,0,0
BT-BIOX,Consumibles,Kilogramos,,,BIOINSUMO,,0,0,false,bacillus thuringiensis var. Kurstaki;,0,0
BT-BIOX LT,Consumibles,Litros,,,INSECTICIDA,,0,0,false,bacillus thuringiensis var. Kurstaki;,0,0
BOVETROPICO WP,Consumibles,Kilogramos,,,BIOINSUMO,,0,0,false,Beauveria bassiana;,0,0
MUSCARDIN  WP,Consumibles,Kilogramos,,,BIOINSUMO,,0,0,false,Beauveria bassiana;,0,0
SAFER MIX WP,Consumibles,Kilogramos,,,BIOINSUMO,,0,0,false,BEAUVERIA BASSIANA; METARHIZIIUM ANISOPLIAE LECANICILLIUM LECANII BACILLUS THURINGIENSIS;,0,0
BENOMYL 50 WP,Consumibles,Kilogramos,,,FUNGICIDA,,0,0,false,Benomyl;,0,0
DeGradex                                ,Consumibles,Litros,,,INOCULANTE BIOLOGICO,,0,0,false,BIOESTIMULANTE HUMICO;,0,0
MERISTEM,Consumibles,Kilogramos,,,FERTILIZANTE FOLIAR,,0,0,false,BORO;,0,0
MOLIBOR,Consumibles,Kilogramos,,,FERTILIZANTE EDAFICO,,0,0,false,BORO;MOLIBOLENO;,0,0
CANTUS WG,Consumibles,Kilogramos,,,FUNGICIDA,,0,0,false,BOSCALID;,0,0
GLUKOPLANT CA-BZN,Consumibles,Litros,,,FERTILIZANTE FOLIAR,,0,0,false,Ca;B;Zn;,0,0
PROMICAL * 10 KG,Consumibles,Bultos,,,DESINFECTANTE,,0,0,false,CaCO3;,0,0
CALBIT C,Consumibles,Litros,,,FERTILIZANTE EDAFICO,,0,0,false,CALCIO;,0,0
MAINSTAY CALCIO * 20LT,Consumibles,Por cantidad,,,FERTILIZANTE FOLIAR,,0,0,false,CALCIO;,0,0
BARRIER,Consumibles,Litros,,,FERTILIZANTE FOLIAR,,0,0,false,CALCIO (Ca);SILICIO (SiO2);,0,0
BASFOLIAR CA SL,Consumibles,Litros,,,FERTILIZANTE FOLIAR,,0,0,false,CaO;,0,0
COSMOQUEL CALCIO,Consumibles,Kilogramos,,,FERTILIZANTE EDAFICO,,0,0,false,CaO;,0,0
CAL AGRICOLA,Consumibles,Kilogramos,,,DESINFECTANTE,,0,0,false,CaO;HIDROXIDO DE CALCIO Ca(OH)2;MgO;,0,0
ENMIENDA Ca + Mg ,Consumibles,Kilogramos,,,DESINFECTANTE,,0,0,false,CARBONATO DE CALCIO;CARBONATO DE MAGNESIO;,0,0
TRANSFER IONIC,Consumibles,Litros,,,COADYUVANTE,,0,0,false,CARBONO ORGANICO OXIDABLE;,0,0
VITAVAX 300 WP,Consumibles,Kilogramos,,,FUNGICIDA,,0,0,false,Carboxin;Captan;,0,0
ATP-UP,Consumibles,Litros,,,FERTILIZANTE FOLIAR,,0,0,false,CARBOXY;NITROGENO;FOSFORO;,0,0
APACHE 20 EC,Consumibles,Litros,,,INSECTICIDA,,0,0,false,CIPERMETRINA;,0,0
CIPERMETRINA 20 EC,Consumibles,Litros,,,INSECTICIDA,,0,0,false,Cipermetrina;,0,0
COSMO-AGUAS,Consumibles,Kilogramos,,,COADYUVANTE,,0,0,false,CITRATO REGULADORES DE PH;,0,0
AQUAFLEX ,Consumibles,Kilogramos,,,COADYUVANTE,,0,0,false,CITRATOS REGULADORES DE PH;EDETATOS QUELATANTES;,0,0
LORSBAN  2_5% DP,Consumibles,Kilogramos,,,INSECTICIDA,,0,0,false,Clorpirifos;,0,0
LORSBAN 4 EC                          ,Consumibles,Litros,,,INSECTICIDA,,0,0,false,Clorpirifos;,0,0
RAFAGA 2_5 DP,Consumibles,Kilogramos,,,INSECTICIDA,,0,0,false,Clorpirifos;,0,0
RAFAGA 4 EC                             ,Consumibles,Litros,,,INSECTICIDA,,0,0,false,Clorpirifos;,0,0
SILICONEX ,Consumibles,Litros,,,COADYUVANTE,,0,0,false,Copolimero de polieter y silicona;,0,0
DANISARABA 20 SC,Consumibles,Centimetros cúbicos,,,INSECTICIDA,,0,0,false,CYFLUMETOFEN;,0,0
BASAMID ,Consumibles,Kilogramos,,,DESINFECTANTE,,0,0,false,DAZOMET;,0,0
IMPERIUS,Consumibles,Litros,,,INSECTICIDA,,0,0,false,DIAFENTHIURON ;TETRADIFON;,0,0
KURDO 250 EC,Consumibles,Litros,,,FUNGICIDA,,16,0,false,DIFECONAZOLE;,0,0
AJO-AJI  ,Consumibles,Litros,,,INSECTICIDA,,0,0,false,EXTRACTO DE AJI - AJO;,0,0
CAPSIALIL ,Consumibles,Litros,,,INSECTICIDA,,0,0,false,EXTRACTO DE AJI-AJO;,0,0
EXXODO-0-03,Consumibles,Litros,,,BIOINSUMO,,0,0,false,EXTRACTO DE RUDA; PAICO Y ACEITES VEGETALES SAPONIFICADOS;,0,0
VIVAFIT NPR,Consumibles,Litros,,,INSECTICIDA,,0,0,false,extractos vegetales de neem; paico; ruda;,0,0
BIOZYME  TF,Consumibles,Litros,,,FERTILIZANTE FOLIAR,,0,0,false,EXTRACTOS VEGETALES Y MICRONUTRIENTES (manganeso;zinc;magnesio;hierro;boro y azufre);,0,0
FIPRONIL  200 SC,Consumibles,Litros,,,INSECTICIDA,,0,0,false,FIPRONIL;,0,0
SWITCH 62_5 WG,Consumibles,Gramos,,,FUNGICIDA,,0,0,false,Fludioxonil;cyprodinil;,0,0
PREVALOR SL 840,Consumibles,Litros,,,FUNGICIDA,,0,0,false,Fosetyl - Propamocarb;,0,0
ALIETTE  80 WG,Consumibles,Kilogramos,,,FUNGICIDA,,0,0,false,FOSETYL DE ALUMINIO;,0,0
FOSETYL - AL 80 WP,Consumibles,Kilogramos,,,FUNGICIDA,,0,0,false,FOSETYL DE ALUMINIO;,0,0
INDUPLANT,Consumibles,Litros,,,BIOESTIMULANTE,,0,0,false,FOSFITO DE POTASIO;ACIDO SALICILICO;,0,0
AGRIFOS 400 SL ,Consumibles,Litros,,,FUNGICIDA,,0,0,false,FOSFITO MONOPOTASICO Y DIPOTASICO;,0,0
CAMPOFOS G1 X 50 KG,Consumibles,Kilogramos,,,FERTILIZANTE EDAFICO,,0,0,false,FOSFORO TOTAL; CALCIO TOTAL; SILICIO TOTAL; CARBONO ORGANICO OXIDABLE;,0,0
PROAXIS 60 CS,Consumibles,Litros,,,INSECTICIDA,,12,0,false,Gamma Cyhalothrina;,0,0
CALDER 460 ZC,Consumibles,Litros,,,INSECTICIDA,,21,0,false,Gammacihalotrina - Imidacloprid;,0,0
GLIFOSATO 480 SL,Consumibles,Litros,,,HERBICIDA,,0,0,false,GLIFOSATO;,0,0
GLIFOSOL,Consumibles,Litros,,,HERBICIDA,,0,0,false,GLIFOSATO;,0,0
ROUNDUP ,Consumibles,Litros,,,HERBICIDA,,0,0,false,glifosato;,0,0
Destierro,Consumibles,Litros,,,HERBICIDA,,0,0,false,GLUFOSINATO DE AMINIO;,0,0
SILWET L-77,Consumibles,Litros,,,COADYUVANTE,,0,0,false,Heptametiltrisiloxano polialquil-enoxido modificado con éter metil aliloxipolietilenglicol;,0,0
CTA-HUMUS,Consumibles,Litros,,,FERTILIZANTE FOLIAR,,0,0,false,HUMATO POTASICO;,0,0
TACHIGAREN 30SL,Consumibles,Litros,,,FUNGICIDA,,7,0,false,Hymexazol;,0,0
INVEPRID 350 SC,Consumibles,Litros,,,INSECTICIDA,,7,0,false,Imidacloprid;,0,0
NILO 300 SC,Consumibles,Litros,,,INSECTICIDA,,0,0,false,Imidacloprid;Bifenthrin;,0,0
POTABON K,Consumibles,Litros,,,INSECTICIDA,,0,0,false,JABON POTASICO;,0,0
STIMPLEX,Consumibles,Litros,,,FERTILIZANTE FOLIAR,,0,0,false,k2o 39%;CARBONO ORGANICO OXIDABLE 45.10%;EXTRACTO DE ALGAS MARINAS;,0,0
CAMPOFERT BORO,Consumibles,Kilogramos,,,FERTILIZANTE EDAFICO,,0,0,false,K2O;BORO;,0,0
KAZUGAL 20 SL,Consumibles,Litros,,,FUNGICIDA,,0,0,false,Kasugamycin;,0,0
ATHRIN BRIO 100 EC,Consumibles,Litros,,,INSECTICIDA,,0,0,false,Lambda Cyhalotrina;,0,0
CASTA 310 SC ,Consumibles,Litros,,,INSECTICIDA,,0,0,false,LAMBDACIHALOTRINA;,0,0
ACUAFIN 440 EW,Consumibles,Litros,,,INSECTICIDA,,7,0,false,Malathion;,0,0
REVUS 250 SC,Consumibles,Litros,,,FUNGICIDA,,0,0,false,MANDIPROPAMID;,0,0
ORONDIS ULTRA 28 SC ,Consumibles,Litros,,,FUNGICIDA,,0,0,false,MANDIPROPAMID- OXATHIAPIPROLIN;,0,0
MC CREAM,Consumibles,Litros,,,FERTILIZANTE FOLIAR,,0,0,false,MANGANESO 1.49%;ZINC 0.54%;,0,0
Ridomyl Gold x 375 Gramo,Consumibles,Kilogramos,,,FUNGICIDA,,30,0,false,METALAXIL - MANCOZEB;,0,0
ALTAIR  WP,Consumibles,Kilogramos,,,FUNGICIDA,,30,0,false,METALAXIL;OXICLORURO DE COBRE;,0,0
DILIGENT 720 WP ,Consumibles,Gramos,,,FUNGICIDA,,0,0,false,Metalaxyl;Mancozeb;,0,0
PREDOSTAR WP,Consumibles,Gramos,,,FUNGICIDA,,0,0,false,METALAXYL;PROPAMOCARB;,0,0
LANNATE SL,Consumibles,Litros,,,INSECTICIDA,,0,0,false,METHOMYL;,0,0
INTREPID SC,Consumibles,Litros,,,INSECTICIDA,,2,0,false,METHOXYFENOZIDE;,0,0
METSULFURON ,Consumibles,Kilogramos,,,HERBICIDA,,0,0,false,Metsulfuron Metil;,0,0
HUMUS ALFA 15,Consumibles,Litros,,,FERTILIZANTE ORGANICO,,0,0,false,MO; ácidos húmicos; ácidos fúlvicos; Nitrógeno;Potasio y Carbono;,0,0
BIONUTRIENT ,Consumibles,Litros,,,BIOINSUMO,,0,0,false,Mortierella sp;,0,0
COSMO-FOLIAR 18-45-0,Consumibles,Kilogramos,,,FERTILIZANTE FOLIAR,,0,0,false,N;P;,0,0
CLORURO DE POTASIO KCL 0-0-60,Consumibles,Kilogramos,,,FERTILIZANTE EDAFICO,,0,0,false,N;P;K;,0,0
10-20-20,Consumibles,Bultos,,,FERTILIZANTE EDAFICO,,0,0,false,N;P;K;,0,0
12-34-12,Consumibles,Kilogramos,,,FERTILIZANTE EDAFICO,,0,0,false,N;P;K;,0,0
AZUTEK,Consumibles,Kilogramos,,,FERTILIZANTE EDAFICO,,0,0,false,N;P;K;,0,0
TRANSFER ADHEX ,Consumibles,Litros,,,FERTILIZANTE FOLIAR,,0,0,false,N;P2O5;CO;,0,0
COSMO - R,Consumibles,Kilogramos,,,FERTILIZANTE EDAFICO,,0,0,false,N;P2O5;K2O;CaO;MgO;S;B;Cu;Fe;Mn;Zn;,0,0
BIOCEL FOLIAR ,Consumibles,Litros,,,BIOESTIMULANTE,,0,0,false,N;PO5;K2O;CaO;MgO;Cu;Fe;Mn;Zn;CEHT;CAF;,0,0
ABOTEK * 50KG,Consumibles,Bultos,,,FERTILIZANTE EDAFICO,,0,0,false,Nitrógeno 15%; fósforo 4%; potasio 23%; azufre 2%; magnesio 4%; boro 0.1%; zinc 0.1%;,0,0
IRRIPLANT RAIZFOS,Consumibles,Litros,,,FERTILIZANTE FOLIAR,,0,0,false,NITROGENO 5.47%;FOSFORO 19.53%;POTASIO 2.34%;,0,0
NITRATO DE MAGNESIO,Consumibles,Kilogramos,,,FERTILIZANTE FOLIAR,,0,0,false,NITROGENO TOTAL- NITROGENO NITRICO -MAGNESIO SOLUBLE;,0,0
ZINC TRAC MGB,Consumibles,Litros,,,FERTILIZANTE EDAFICO,,0,0,false,NITROGENO; MAGNESIO;BORO;ZINC;,0,0
FORGE,Consumibles,Litros,,,FERTILIZANTE FOLIAR,,0,0,false,NITROGENO; POTASIO;,0,0
CABTRAC,Consumibles,Litros,,,FERTILIZANTE EDAFICO,,0,0,false,NITROGENO;CALCIO;ZINC;BORO;,0,0
BENEFIT,Consumibles,Litros,,,FERTILIZANTE EDAFICO,,0,0,false,NITROGENO;CARBONO;,0,0
TRIADAMIN,Consumibles,Litros,,,FERTILIZANTE EDAFICO,,0,0,false,NITROGENO;CARBONO;FOSFORO;POTASIO;CALCIO;BORO;,0,0
BIOCEL POR 5LT,Consumibles,Por cantidad,,,FERTILIZANTE FOLIAR,,0,0,false,NITROGENO;FOSFORO;POTASIO;CALCIO;MAGNESIO;COBRE;HIERRO;ZINC;,0,0
ROOTEX,Consumibles,Kilogramos,,,FERTILIZANTE EDAFICO,,0,0,false,NITROGENO;FOSFORO;POTASIO;CARBONO;,0,0
ZORVEC ENCANTIA,Consumibles,Litros,,,FUNGICIDA,,0,0,false,OXATHIAPIPROLIN-FAMOXADONE;,0,0
Oxicloruro de cobre agrociencias 58_8% WP,Consumibles,Kilogramos,,,FUNGICIDA,,14,0,false,OXICLORURO DE COBRE;,0,0
NORDOX 75 WG,Consumibles,Kilogramos,,,FUNGICIDA,,0,0,false,OXIDO CUPROSO;,0,0
AMBOX,Consumibles,Litros,,,HERBICIDA,,0,0,false,Oxifluorfen;,0,0
ALFOSITOL PK,Consumibles,Litros,,,FUNGICIDA,,0,0,false,P2O5;K2O;Cu-EDTA;,0,0
DIATOMEC,Consumibles,Por cantidad,,,INSECTICIDA,,0,0,false,PLANCTON FOSIL;,0,0
SYS COMET,Consumibles,Litros,,,COADYUVANTE,,0,0,false,Polyoxyethylene(6) lineal alcohol(9-11);,0,0
ACADIAN LSC,Consumibles,Litros,,,FERTILIZANTE FOLIAR,,0,0,false,Potasio soluble en agua (K2O);Carbono Orgánico Oxidable Total;,0,0
MIRAGE,Consumibles,Litros,,,FUNGICIDA,,7,0,false,PROCHIORAZ;,0,0
ZAFIRO 425 ME,Consumibles,Litros,,,FUNGICIDA,,0,0,false,Propamocarb;,0,0
INFINITO,Consumibles,Litros,,,FUNGICIDA,,0,0,false,PROPAMOCARB - FLUOPICOLIDE;,0,0
PROPICAL,Consumibles,Litros,,,FUNGICIDA,,0,0,false,Propiconazole;,0,0
TRIVIA WP 72_7,Consumibles,Kilogramos,,,FUNGICIDA,,0,0,false,PROPINEB - FLOPICOLIDE;,0,0
EXALT 60SC,Consumibles,Litros,,,INSECTICIDA,,1,0,false,SPINETORAM;,0,0
CHOQUE 240 SC ,Consumibles,Litros,,,INSECTICIDA,,7,0,false,Spirodiclofen;,0,0
FUNGIMIX,Consumibles,Kilogramos,,,FUNGICIDA,,0,0,false,SULFATO DE COBRE PENTAHIDRATADO;,0,0
MASTERCOP,Consumibles,Litros,,,FUNGICIDA,,0,0,false,SULFATO DE COBRE PENTAHIDRATADO;,0,0
POTASICO SANAVITE,Consumibles,Kilogramos,,,FERTILIZANTE,,0,0,false,Sulfato k; Hidroxido k; aceites vegetales;,0,0
CLOSER 240 SC,Consumibles,Litros,,,INSECTICIDA,,0,0,false,Sulfoxaflor;,0,0
SUPREME 400 EW,Consumibles,Litros,,,FUNGICIDA,,21,0,false,Tebuconazole- Prochloraz;,0,0
NATIVO,Consumibles,Litros,,,FUNGICIDA,,35,0,false,Tebuconazole- Trifloxystrobin;,0,0
TIMOREX GOLD ,Consumibles,Litros,,,FUNGICIDA,,0,0,false,Terpinen-4-ol y γ-terpineno;,0,0
PROTEUS,Consumibles,Litros,,,INSECTICIDA,,50,0,false,Thiacloprid - Deltametrina;,0,0
ENGEO 247 SC,Consumibles,Litros,,,INSECTICIDA,,0,0,false,Thiamethoxam;Lambda-Cyhalothrin;,0,0
EVISECT  S,Consumibles,Kilogramos,,,INSECTICIDA,,0,0,false,THIOCYCLAM;HIDROGENOXALATO;,0,0
HELMTIOFAN 50 SC,Consumibles,Litros,,,FUNGICIDA,,0,0,false,Thiophanate methyl;,0,0
MERTEC 20SL,Consumibles,Litros,,,FUNGICIDA,,0,0,false,Tiabendazol;,0,0
MERTECT 500 SC ,Consumibles,Litros,,,FUNGICIDA,,0,0,false,Tiabendazol;,0,0
SAFER SOIL WP,Consumibles,Kilogramos,,,BIOINSUMO,,0,0,false,TRICHODERMA ; PAECILOMYCES;,0,0
SUNNY 5 SC,Consumibles,Litros,,,COADYUVANTE,,0,0,false,UNICONAZOL-P;COFORMULANTES;,0,0
YODO AGRICOLA,Consumibles,Litros,,,DESINFECTANTE,,0,0,false,YODO;,0,0
AGRODYNE SL,Consumibles,Litros,,,DESINFECTANTE,,0,0,false,YODO POLAXAMER;,0,0
KELLUS ZN,Consumibles,Kilogramos,,,FERTILIZANTE EDAFICO,,0,0,false,ZINC;,0,0
ZINTRAC,Consumibles,Litros,,,FERTILIZANTE EDAFICO,,0,0,false,ZINC;,0,0
REZIST ,Consumibles,Litros,,,FERTILIZANTE FOLIAR,,0,0,false,ZINC (Zn);COBRE (Cu);MANGANESO (Mn);,0,0
ABONO ORGANICO LIQUIDO,Consumibles,Litros,,,FERTILIZANTE EDAFICO,,0,0,false,;,0,0
ABRAZADERA  1/4,Consumibles,Por cantidad,,,REPUESTOS E INSUMOS,,0,0,false,;,0,0
ABRAZADERA DE 1/2pulg,Consumibles,Por cantidad,,,REPUESTOS E INSUMOS,,0,0,false,;,0,0
ACEITE HIDRAHULICO,Consumibles,Galones estadounidenses,,,COMBUSTIBLES Y LUBRICANTES,,0,0,false,;,0,0
ACEITE REFRIGERANTE,Consumibles,Galones estadounidenses,,,COMBUSTIBLES Y LUBRICANTES,,0,0,false,;,0,0
ACEITE STIHLL 2 T,Consumibles,Galones estadounidenses,,,COMBUSTIBLES Y LUBRICANTES,,0,0,false,;,0,0
ACPM LT,Consumibles,Litros,,,COMBUSTIBLES Y LUBRICANTES,,0,0,false,;,0,0
AFILADOR DELGADO 4pulg,Consumibles,Por cantidad,,,HERRAMIENTAS-CANASTILLAS Y ESTIBAS,,0,0,false,;,0,0
AHUMADOR PARA APIARIO EN ACERO INOXIDABL,Consumibles,Por cantidad,,,HERRAMIENTAS-CANASTILLAS Y ESTIBAS,,0,0,false,;,0,0
ALAMBRE DE PUAS                         ,Consumibles,Metros,,,REPUESTOS E INSUMOS,,0,0,false,;,0,0
ALAMBRE QUEMADO,Consumibles,Kilogramos,,,REPUESTOS E INSUMOS,,0,0,false,;,0,0
ALFA 3 * 250 GR,Consumibles,Gramos,,,REPUESTOS E INSUMOS,,0,0,false,;,0,0
ALICATE,Consumibles,Por cantidad,,,HERRAMIENTAS-CANASTILLAS Y ESTIBAS,,0,0,false,;,0,0
ALICATE DIABLO,Consumibles,Por cantidad,,,HERRAMIENTAS-CANASTILLAS Y ESTIBAS,,0,0,false,;,0,0
AMIGO 14-30-15,Consumibles,Kilogramos,,,FERTILIZANTE EDAFICO,,0,0,false,;,0,0
ARANDELA 1/4,Consumibles,Por cantidad,,,HERRAMIENTAS-CANASTILLAS Y ESTIBAS,,0,0,false,;,0,0
ARANDELA 3/16,Consumibles,Por cantidad,,,HERRAMIENTAS-CANASTILLAS Y ESTIBAS,,0,0,false,;,0,0
ARANDELA 3/8,Consumibles,Por cantidad,,,REPUESTOS E INSUMOS,,0,0,false,;,0,0
ATOMIZADORES,Consumibles,Por cantidad,,,HERRAMIENTAS-CANASTILLAS Y ESTIBAS,,0,0,false,;,0,0
AZADONES,Consumibles,Por cantidad,,,HERRAMIENTAS-CANASTILLAS Y ESTIBAS,,0,0,false,;,0,0
Azadoneta,Consumibles,Por cantidad,,,HERRAMIENTAS-CANASTILLAS Y ESTIBAS,,0,0,false,;,0,0
BALDES 12 LITROS,Consumibles,Por cantidad,,,REPUESTOS E INSUMOS,,0,0,false,;,0,0
BALDES MEZCLEROS,Consumibles,Por cantidad,,,HERRAMIENTAS-CANASTILLAS Y ESTIBAS,,0,0,false,;,0,0
BARRA BELLOTA 16 LB,Consumibles,Por cantidad,,,HERRAMIENTAS-CANASTILLAS Y ESTIBAS,,0,0,false,;,0,0
BARRENO,Consumibles,Por cantidad,,,HERRAMIENTAS-CANASTILLAS Y ESTIBAS,,0,0,false,;,0,0
BASCULA DIGITAL PLATAFORMA              ,Consumibles,Por cantidad,,,HERRAMIENTAS-CANASTILLAS Y ESTIBAS,,0,0,false,;,0,0
BASE APIARIO ,Consumibles,Por cantidad,,,HERRAMIENTAS-CANASTILLAS Y ESTIBAS,,0,0,false,;,0,0
BEAKER PLASTICO 250 ML,Consumibles,Por cantidad,,,REPUESTOS E INSUMOS,,0,0,false,;,0,0
BEAKER PLASTICO 50 ML,Consumibles,Por cantidad,,,REPUESTOS E INSUMOS,,0,0,false,;,0,0
BIDON 20 LITROS,Consumibles,Por cantidad,,,HERRAMIENTAS-CANASTILLAS Y ESTIBAS,,0,0,false,;,0,0
BOMBA DE ABSORCION DE COMBUSTIBLE,Consumibles,Por cantidad,,,HERRAMIENTAS-CANASTILLAS Y ESTIBAS,,0,0,false,;,0,0
Bombas de espalda,Consumibles,Por cantidad,,,HERRAMIENTAS-CANASTILLAS Y ESTIBAS,,0,0,false,;,0,0
Bombillo                                ,Consumibles,Por cantidad,,,HERRAMIENTAS-CANASTILLAS Y ESTIBAS,,0,0,false,;,0,0
BOQUILLA 110015,Consumibles,Por cantidad,,,REPUESTOS E INSUMOS,,0,0,false,;,0,0
BOQUILLA CONO,Consumibles,Por cantidad,,,REPUESTOS E INSUMOS,,0,0,false,;,0,0
BOQUILLA DOBLE MEDIA,Consumibles,Por cantidad,,,REPUESTOS E INSUMOS,,0,0,false,;,0,0
BOQUILLA TAREA,Consumibles,Por cantidad,,,REPUESTOS E INSUMOS,,0,0,false,;,0,0
Boquillas de cortina                    ,Consumibles,Por cantidad,,,REPUESTOS E INSUMOS,,0,0,false,;,0,0
BOTA  HOMBRE TALLA 37,Consumibles,Por cantidad,,,DOTACION,,0,0,false,;,0,0
BOTA  HOMBRE TALLA 38,Consumibles,Por cantidad,,,DOTACION,,0,0,false,;,0,0
BOTA  HOMBRE TALLA 39,Consumibles,Por cantidad,,,DOTACION,,0,0,false,;,0,0
BOTA  HOMBRE TALLA 40,Consumibles,Por cantidad,,,DOTACION,,0,0,false,;,0,0
BOTA  HOMBRE TALLA 41,Consumibles,Por cantidad,,,DOTACION,,0,0,false,;,0,0
BOTA  HOMBRE TALLA 42,Consumibles,Por cantidad,,,DOTACION,,0,0,false,;,0,0
BOTA  HOMBRE TALLA 43,Consumibles,Por cantidad,,,DOTACION,,0,0,false,;,0,0
BOTA  MUJER TALLA 36,Consumibles,Por cantidad,,,DOTACION,,0,0,false,;,0,0
Bota caucho con puntera # 36            ,Consumibles,Por cantidad,,,ELEMENTOS DE PROTECCION PERSONAL,,0,0,false,;,0,0
Bota caucho con puntera # 37            ,Consumibles,Por cantidad,,,ELEMENTOS DE PROTECCION PERSONAL,,0,0,false,;,0,0
Bota caucho con puntera # 38            ,Consumibles,Por cantidad,,,ELEMENTOS DE PROTECCION PERSONAL,,0,0,false,;,0,0
Bota caucho con puntera # 39            ,Consumibles,Por cantidad,,,ELEMENTOS DE PROTECCION PERSONAL,,0,0,false,;,0,0
Bota caucho con puntera # 40            ,Consumibles,Por cantidad,,,ELEMENTOS DE PROTECCION PERSONAL,,0,0,false,;,0,0
Bota caucho con puntera # 41            ,Consumibles,Por cantidad,,,ELEMENTOS DE PROTECCION PERSONAL,,0,0,false,;,0,0
Bota caucho con puntera # 42            ,Consumibles,Por cantidad,,,ELEMENTOS DE PROTECCION PERSONAL,,0,0,false,;,0,0
Bota caucho con puntera # 43            ,Consumibles,Por cantidad,,,ELEMENTOS DE PROTECCION PERSONAL,,0,0,false,;,0,0
Bota caucho con puntera # 44            ,Consumibles,Por cantidad,,,ELEMENTOS DE PROTECCION PERSONAL,,0,0,false,;,0,0
BOTA CUERO 35,Consumibles,Por cantidad,,,DOTACION,,0,0,false,;,0,0
BOTA CUERO 36,Consumibles,Por cantidad,,,DOTACION,,0,0,false,;,0,0
BOTA CUERO 37,Consumibles,Por cantidad,,,DOTACION,,0,0,false,;,0,0
BOTA CUERO 38,Consumibles,Por cantidad,,,DOTACION,,0,0,false,;,0,0
BOTA CUERO 39,Consumibles,Por cantidad,,,DOTACION,,0,0,false,;,0,0
BOTA CUERO 40,Consumibles,Por cantidad,,,DOTACION,,0,0,false,;,0,0
BOTA CUERO 41,Consumibles,Por cantidad,,,DOTACION,,0,0,false,;,0,0
BOTA CUERO 42,Consumibles,Por cantidad,,,DOTACION,,0,0,false,;,0,0
BOTA CUERO 43,Consumibles,Por cantidad,,,DOTACION,,0,0,false,;,0,0
BOTA CUERO 44,Consumibles,Por cantidad,,,DOTACION,,0,0,false,;,0,0
BOTA HOMBRE TALLA 44,Consumibles,Por cantidad,,,DOTACION,,0,0,false,;,0,0
BOTA MUJER  TALLA 37,Consumibles,Por cantidad,,,DOTACION,,0,0,false,;,0,0
BOTA TALLA 35,Consumibles,Por cantidad,,,DOTACION,,0,0,false,;,0,0
BOTA VENUS LLANERA,Consumibles,Por cantidad,,,ELEMENTOS DE PROTECCION PERSONAL,,0,0,false,;,0,0
Brachiaria                              ,Consumibles,Kilogramos,,,REPUESTOS E INSUMOS,,0,0,false,;,0,0
Brea liquida (Vareta),Consumibles,Galones estadounidenses,,,IMPERMEABILIZANTE,,0,0,false,;,0,0
BROCA DE MURO 1/8,Consumibles,Por cantidad,,,HERRAMIENTAS-CANASTILLAS Y ESTIBAS,,0,0,false,;,0,0
BROCA HIERRO 5/18,Consumibles,Por cantidad,,,REPUESTOS E INSUMOS,,0,0,false,;,0,0
BROCA HIERRO DE 1/2,Consumibles,Por cantidad,,,HERRAMIENTAS-CANASTILLAS Y ESTIBAS,,0,0,false,;,0,0
Broca taladro 15/64                     ,Consumibles,Por cantidad,,,REPUESTOS E INSUMOS,,0,0,false,;,0,0
Broca taladro 3/8                       ,Consumibles,Por cantidad,,,REPUESTOS E INSUMOS,,0,0,false,;,0,0
Broca taladro 5/16,Consumibles,Por cantidad,,,REPUESTOS E INSUMOS,,0,0,false,;,0,0
BROCHA 5pulg,Consumibles,Por cantidad,,,REPUESTOS E INSUMOS,,0,0,false,;,0,0
BROCHA DE 1 1/2,Consumibles,Por cantidad,,,HERRAMIENTAS-CANASTILLAS Y ESTIBAS,,0,0,false,;,0,0
Brocha de 2pulg                            ,Consumibles,Por cantidad,,,HERRAMIENTAS-CANASTILLAS Y ESTIBAS,,0,0,false,;,0,0
Brocha de 3pulg                            ,Consumibles,Por cantidad,,,HERRAMIENTAS-CANASTILLAS Y ESTIBAS,,0,0,false,;,0,0
BROCHA DE 4pulg,Consumibles,Por cantidad,,,HERRAMIENTAS-CANASTILLAS Y ESTIBAS,,0,0,false,;,0,0
BUJE 1X1/2 PRESION,Consumibles,Por cantidad,,,REPUESTOS E INSUMOS,,0,0,false,;,0,0
BUJE 3X2 PRESION,Consumibles,Por cantidad,,,REPUESTOS E INSUMOS,,0,0,false,;,0,0
BUJE TUERCA 1/2 X 3/8,Consumibles,Por cantidad,,,REPUESTOS E INSUMOS,,0,0,false,;,0,0
BYOCLEAN,Consumibles,Litros,,,DESINFECTANTE,,0,0,false,;,0,0
CAB * LITRO,Consumibles,Litros,,,FERTILIZANTE FOLIAR,,0,0,false,;,0,0
Cable Matizado                          ,Consumibles,Por cantidad,,,HERRAMIENTAS-CANASTILLAS Y ESTIBAS,,0,0,false,;,0,0
CABO MADERA  AZADONETA,Consumibles,Por cantidad,,,HERRAMIENTAS-CANASTILLAS Y ESTIBAS,,0,0,false,;,0,0
Cabo pala                               ,Consumibles,Por cantidad,,,HERRAMIENTAS-CANASTILLAS Y ESTIBAS,,0,0,false,;,0,0
Cabo paladraga                          ,Consumibles,Por cantidad,,,HERRAMIENTAS-CANASTILLAS Y ESTIBAS,,0,0,false,;,0,0
CABO PARA RASTRILLO,Consumibles,Por cantidad,,,HERRAMIENTAS-CANASTILLAS Y ESTIBAS,,0,0,false,;,0,0
Cabo picas                              ,Consumibles,Por cantidad,,,HERRAMIENTAS-CANASTILLAS Y ESTIBAS,,0,0,false,;,0,0
Cabos azadon,Consumibles,Por cantidad,,,HERRAMIENTAS-CANASTILLAS Y ESTIBAS,,0,0,false,;,0,0
CABOS AZADONETA,Consumibles,Por cantidad,,,HERRAMIENTAS-CANASTILLAS Y ESTIBAS,,0,0,false,;,0,0
Cabos metalicos                         ,Consumibles,Por cantidad,,,HERRAMIENTAS-CANASTILLAS Y ESTIBAS,,0,0,false,;,0,0
CADENA DE HIERRO,Consumibles,Por cantidad,,,REPUESTOS E INSUMOS,,0,0,false,;,0,0
CADENA MOTOSIERRA CALIBRE 75,Consumibles,Por cantidad,,,HERRAMIENTAS-CANASTILLAS Y ESTIBAS,,0,0,false,;,0,0
CAJA CARTON 10KG NECESARIAS,Consumibles,Por cantidad,,,CARTON,,0,0,false,;,0,0
CAJA CARTON 4KG CONVENCIONAL,Consumibles,Por cantidad,,,CARTON,,0,0,false,;,0,0
CAJA CARTON 4KG ESPECIALES NECESARIAS,Consumibles,Por cantidad,,,CARTON,,0,0,false,;,0,0
CAJA XPO D7,Consumibles,Por cantidad,,,CARTON,,0,0,false,;,0,0
CAL DOLOMITA,Consumibles,Kilogramos,,,ENMIENDA,,0,0,false,;,0,0
CAL HIDRATADA,Consumibles,Kilogramos,,,ENMIENDA,,0,0,false,;,0,0
CAMARA DE CRIA CON 10 MARCOS ENCERADOS,Consumibles,Por cantidad,,,HERRAMIENTAS-CANASTILLAS Y ESTIBAS,,0,0,false,;,0,0
CAMARA DE MIEL  CON 9 MARCOS ENCERADOS,Consumibles,Por cantidad,,,HERRAMIENTAS-CANASTILLAS Y ESTIBAS,,0,0,false,;,0,0
CAMISA DAMA 10,Consumibles,Por cantidad,,,DOTACION,,0,0,false,;,0,0
CAMISA DAMA 14,Consumibles,Por cantidad,,,DOTACION,,0,0,false,;,0,0
Camisa Dama 8                           ,Consumibles,Por cantidad,,,DOTACION,,0,0,false,;,0,0
CAMISA DAMA TALLA 6,Consumibles,Por cantidad,,,DOTACION,,0,0,false,;,0,0
CAMISA HOMBRE 36,Consumibles,Por cantidad,,,DOTACION,,0,0,false,;,0,0
CAMISA HOMBRE 38,Consumibles,Por cantidad,,,DOTACION,,0,0,false,;,0,0
CAMISA HOMBRE 40,Consumibles,Por cantidad,,,DOTACION,,0,0,false,;,0,0
CAMISA HOMBRE 42,Consumibles,Por cantidad,,,DOTACION,,0,0,false,;,0,0
Campana Royal condor                    ,Consumibles,Por cantidad,,,REPUESTOS E INSUMOS,,0,0,false,;,0,0
CANASTILLAS,Consumibles,Por cantidad,,,HERRAMIENTAS-CANASTILLAS Y ESTIBAS,,0,0,false,;,0,0
CANDADO,Consumibles,Por cantidad,,,REPUESTOS E INSUMOS,,0,0,false,;,0,0
Canecas de 200 Lt                       ,Consumibles,Por cantidad,,,HERRAMIENTAS-CANASTILLAS Y ESTIBAS,,0,0,false,;,0,0
CANECON 100,Consumibles,Por cantidad,,,REPUESTOS E INSUMOS,,0,0,false,;,0,0
CANECON PINAGRO,Consumibles,Por cantidad,,,HERRAMIENTAS-CANASTILLAS Y ESTIBAS,,0,0,false,;,0,0
CANILLERAS CORTAS,Consumibles,Por cantidad,,,ELEMENTOS DE PROTECCION PERSONAL,,0,0,false,;,0,0
CANILLERAS LARGAS,Consumibles,Por cantidad,,,ELEMENTOS DE PROTECCION PERSONAL,,0,0,false,;,0,0
CAPUCHA TIPO FARAON ,Consumibles,Por cantidad,,,ELEMENTOS DE PROTECCION PERSONAL,,0,0,false,;,0,0
Caretas de visor repuesto               ,Consumibles,Por cantidad,,,REPUESTOS E INSUMOS,,0,0,false,;,0,0
CARTUCHO CONTRA VAPORES,Consumibles,Por cantidad,,,ELEMENTOS DE PROTECCION PERSONAL,,0,0,false,;,0,0
Cartuchos 3M                            ,Consumibles,Por cantidad,,,ELEMENTOS DE PROTECCION PERSONAL,,0,0,false,;,0,0
CASCO INTEGRADO,Consumibles,Por cantidad,,,ELEMENTOS DE PROTECCION PERSONAL,,0,0,false,;,0,0
Cascos integrados STHILL                ,Consumibles,Por cantidad,,,ELEMENTOS DE PROTECCION PERSONAL,,0,0,false,;,0,0
Cautil                                  ,Consumibles,Por cantidad,,,HERRAMIENTAS-CANASTILLAS Y ESTIBAS,,0,0,false,;,0,0
CEMENTO                                 ,Consumibles,Bultos,,,REPUESTOS E INSUMOS,,0,0,false,;,0,0
CEMENTO EXPANSIVO,Consumibles,Bultos,,,REPUESTOS E INSUMOS,,0,0,false,;,0,0
CHAPA,Consumibles,Por cantidad,,,HERRAMIENTAS-CANASTILLAS Y ESTIBAS,,0,0,false,;,0,0
Chapeta de golpe                        ,Consumibles,Por cantidad,,,REPUESTOS E INSUMOS,,0,0,false,;,0,0
Cinta adhesiva                          ,Consumibles,Por cantidad,,,REPUESTOS E INSUMOS,,0,0,false,;,0,0
Cinta amarilla marcacion                ,Consumibles,Por cantidad,,,REPUESTOS E INSUMOS,,0,0,false,;,0,0
Cinta invernadero                       ,Consumibles,Por cantidad,,,REPUESTOS E INSUMOS,,0,0,false,;,0,0
Cinta marcacion Roja                    ,Consumibles,Por cantidad,,,REPUESTOS E INSUMOS,,0,0,false,;,0,0
Cinta para senalizacion                 ,Consumibles,Por cantidad,,,REPUESTOS E INSUMOS,,0,0,false,;,0,0
CINTURON HERRAMIENTERO CARNAZA,Consumibles,Por cantidad,,,HERRAMIENTAS-CANASTILLAS Y ESTIBAS,,0,0,false,;,0,0
Clavo 3pulgp                               ,Consumibles,Kilogramos,,,REPUESTOS E INSUMOS,,0,0,false,;,0,0
Clavo 4pulg p                              ,Consumibles,Kilogramos,,,REPUESTOS E INSUMOS,,0,0,false,;,0,0
Clavo de 1pulg                             ,Consumibles,Kilogramos,,,REPUESTOS E INSUMOS,,0,0,false,;,0,0
Clavo de 3pulg1/2                          ,Consumibles,Kilogramos,,,REPUESTOS E INSUMOS,,0,0,false,;,0,0
Clavo de 4pulg                             ,Consumibles,Kilogramos,,,REPUESTOS E INSUMOS,,0,0,false,;,0,0
Clavo puma 2pulg 1/2 de 400 Gramo          ,Consumibles,Libras,,,REPUESTOS E INSUMOS,,0,0,false,;,0,0
Clavos 2pulg                               ,Consumibles,Kilogramos,,,REPUESTOS E INSUMOS,,0,0,false,;,0,0
Clavos 3/4pulg x 17                        ,Consumibles,Kilogramos,,,REPUESTOS E INSUMOS,,0,0,false,;,0,0
Clavos acero 3 1/2pulg                     ,Consumibles,Kilogramos,,,REPUESTOS E INSUMOS,,0,0,false,;,0,0
CLAVOS PARA HERRAR                      ,Consumibles,Kilogramos,,,HERRAMIENTAS-CANASTILLAS Y ESTIBAS,,0,0,false,;,0,0
Cocos cafeteros                         ,Consumibles,Por cantidad,,,HERRAMIENTAS-CANASTILLAS Y ESTIBAS,,0,0,false,;,0,0
Codo 1/2                                ,Consumibles,Por cantidad,,,REPUESTOS E INSUMOS,,0,0,false,;,0,0
CODO 2pulg,Consumibles,Por cantidad,,,REPUESTOS E INSUMOS,,0,0,false,;,0,0
CODO 3/4 PRESION,Consumibles,Por cantidad,,,REPUESTOS E INSUMOS,,0,0,false,;,0,0
Codo de 3pulgpresion                       ,Consumibles,Por cantidad,,,REPUESTOS E INSUMOS,,0,0,false,;,0,0
CODO PARA LANZA,Consumibles,Por cantidad,,,REPUESTOS E INSUMOS,,0,0,false,;,0,0
CODO PRESION 1/2,Consumibles,Por cantidad,,,REPUESTOS E INSUMOS,,0,0,false,;,0,0
CONECTOR MANGUERA RAPIDO 8_5,Consumibles,Por cantidad,,,REPUESTOS E INSUMOS,,0,0,false,;,0,0
CONECTOR SIMPLE MANGUERA 8_5MM,Consumibles,Por cantidad,,,REPUESTOS E INSUMOS,,0,0,false,;,0,0
Conectores Cruz                         ,Consumibles,Por cantidad,,,REPUESTOS E INSUMOS,,0,0,false,;,0,0
Conectores giratorios                   ,Consumibles,Por cantidad,,,REPUESTOS E INSUMOS,,0,0,false,;,0,0
CORREA ALCOCHADO,Consumibles,Por cantidad,,,REPUESTOS E INSUMOS,,0,0,false,;,0,0
COSMOQUEL MAGNESIO ,Consumibles,Kilogramos,,,FERTILIZANTE EDAFICO,,0,0,false,;,0,0
CREDIT 747 * 10KG,Consumibles,Por cantidad,,,HERBICIDA,,0,0,false,;,0,0
CRENTO EQUILIBRIO CA,Consumibles,Kilogramos,,,ENMIENDA,,0,0,false,;,0,0
CRENTO EQUILIBRIO MG,Consumibles,Kilogramos,,,ENMIENDA,,0,0,false,;,0,0
CUBIERTAS PARA MACHETE,Consumibles,Por cantidad,,,HERRAMIENTAS-CANASTILLAS Y ESTIBAS,,0,0,false,;,0,0
Cubo Zinc x 20Kg,Consumibles,Kilogramos,,,FERTILIZANTE EDAFICO,,0,0,false,;,0,0
Cuchillas Guadana,Consumibles,Por cantidad,,,HERRAMIENTAS-CANASTILLAS Y ESTIBAS,,0,0,false,;,0,0
DECAMETRO,Consumibles,Por cantidad,,,HERRAMIENTAS-CANASTILLAS Y ESTIBAS,,0,0,false,;,0,0
Delantal antifluidos                    ,Consumibles,Por cantidad,,,ELEMENTOS DE PROTECCION PERSONAL,,0,0,false,;,0,0
DELANTAL INDUSTRIAL PVC,Consumibles,Por cantidad,,,ELEMENTOS DE PROTECCION PERSONAL,,0,0,false,;,0,0
Destornillador T 27x120x70,Consumibles,Por cantidad,,,HERRAMIENTAS-CANASTILLAS Y ESTIBAS,,0,0,false,;,0,0
DISCOS SEGMENTADOS 7/4,Consumibles,Por cantidad,,,REPUESTOS E INSUMOS,,0,0,false,;,0,0
DOMESTICO BLANCO,Consumibles,Galones estadounidenses,,,REPUESTOS E INSUMOS,,0,0,false,;,0,0
DOMESTICO NARANJA,Consumibles,Galones estadounidenses,,,REPUESTOS E INSUMOS,,0,0,false,;,0,0
ENCERADO PARA ENJALMA,Consumibles,Por cantidad,,,REPUESTOS E INSUMOS,,0,0,false,;,0,0
ENJALMA,Consumibles,Por cantidad,,,HERRAMIENTAS-CANASTILLAS Y ESTIBAS,,0,0,false,;,0,0
ENMIENDA FORMULA ESPECIAL ,Consumibles,Kilogramos,,,ENMIENDA,,0,0,false,;,0,0
ENMIENDA HASS * 50 KG,Consumibles,Bultos,,,ENMIENDA,,0,0,false,;,0,0
ENMIENDA LOTE 85,Consumibles,Bultos,,,ENMIENDA,,0,0,false,;,0,0
ENMIENDA TRIPLE 16 X 50 KG,Consumibles,Kilogramos,,,FERTILIZANTE EDAFICO,,0,0,false,;,0,0
ENMIENDA TRIPLE 30,Consumibles,Bultos,,,ENMIENDA,,0,0,false,;,0,0
ENTRETAPA APIARIO,Consumibles,Por cantidad,,,HERRAMIENTAS-CANASTILLAS Y ESTIBAS,,0,0,false,;,0,0
ENZIMAX,Consumibles,Gramos,,,COADYUVANTE,,0,0,false,;,0,0
Esmeril                                 ,Consumibles,Por cantidad,,,HERRAMIENTAS-CANASTILLAS Y ESTIBAS,,0,0,false,;,0,0
Esparrago 5/16                          ,Consumibles,Por cantidad,,,REPUESTOS E INSUMOS,,0,0,false,;,0,0
Esparrago de 3/8                        ,Consumibles,Por cantidad,,,REPUESTOS E INSUMOS,,0,0,false,;,0,0
ESPATULA PARA MANIPULACION ABEJAS,Consumibles,Por cantidad,,,HERRAMIENTAS-CANASTILLAS Y ESTIBAS,,0,0,false,;,0,0
ESPUMA ABSORVENTE                       ,Consumibles,Por cantidad,,,HERRAMIENTAS-CANASTILLAS Y ESTIBAS,,0,0,false,;,0,0
ESTIBAS PLASTICAS 120,Consumibles,Por cantidad,,,HERRAMIENTAS-CANASTILLAS Y ESTIBAS,,0,0,false,;,0,0
ESTUCOR,Consumibles,Bultos,,,HERRAMIENTAS-CANASTILLAS Y ESTIBAS,,0,0,false,;,0,0
Extension                               ,Consumibles,Por cantidad,,,HERRAMIENTAS-CANASTILLAS Y ESTIBAS,,0,0,false,;,0,0
FERTICH,Consumibles,Kilogramos,,,FERTILIZANTE EDAFICO,,0,0,false,;,0,0
FERTIGRO 8-24,Consumibles,Litros,,,FERTILIZANTE EDAFICO,,0,0,false,;,0,0
FIBRA AMARILLA DE 5 KG,Consumibles,Kilogramos,,,REPUESTOS E INSUMOS,,0,0,false,;,0,0
FILTRO BOQUILLA,Consumibles,Por cantidad,,,REPUESTOS E INSUMOS,,0,0,false,;,0,0
FILTRO DE PARTICULAS,Consumibles,Por cantidad,,,ELEMENTOS DE PROTECCION PERSONAL,,0,0,false,;,0,0
FILTRO DELTAPLUS,Consumibles,Por cantidad,,,ELEMENTOS DE PROTECCION PERSONAL,,0,0,false,;,0,0
FILTRO FS-512,Consumibles,Por cantidad,,,REPUESTOS E INSUMOS,,0,0,false,;,0,0
FILTRO MANGUERA ESTACIONARIA FS 512,Consumibles,Por cantidad,,,REPUESTOS E INSUMOS,,0,0,false,;,0,0
Filtro para partiulas N95,Consumibles,Por cantidad,,,ELEMENTOS DE PROTECCION PERSONAL,,0,0,false,;,0,0
FINALE SL,Consumibles,Litros,,,HERBICIDA,,0,0,false,;,0,0
Flexometro                              ,Consumibles,Por cantidad,,,HERRAMIENTAS-CANASTILLAS Y ESTIBAS,,0,0,false,;,0,0
FOSCROP PK,Consumibles,Litros,,,FERTILIZANTE EDAFICO,,0,0,false,;,0,0
FOSFATO MONOPOTASICO,Consumibles,Kilogramos,,,FERTILIZANTE EDAFICO,,0,0,false,;,0,0
FUNDA TIJERA BELLOTA,Consumibles,Por cantidad,,,REPUESTOS E INSUMOS,,0,0,false,;,0,0
GAFAS OSCURAS,Consumibles,Por cantidad,,,ELEMENTOS DE PROTECCION PERSONAL,,0,0,false,;,0,0
GAFAS TRANSPARENTES,Consumibles,Por cantidad,,,ELEMENTOS DE PROTECCION PERSONAL,,0,0,false,;,0,0
GASOLINA LT,Consumibles,Litros,,,COMBUSTIBLES Y LUBRICANTES,,0,0,false,;,0,0
GENESIS,Consumibles,Kilogramos,,,COADYUVANTE,,0,0,false,;,0,0
GLOBAFOL,Consumibles,Litros,,,FERTILIZANTE EDAFICO,,0,0,false,;,0,0
GRAMERA DE BOLSILLO,Consumibles,Por cantidad,,,HERRAMIENTAS-CANASTILLAS Y ESTIBAS,,0,0,false,;,0,0
GRAMERA DE KILO,Consumibles,Por cantidad,,,HERRAMIENTAS-CANASTILLAS Y ESTIBAS,,0,0,false,;,0,0
GRAMERA DIGITAL,Consumibles,Por cantidad,,,HERRAMIENTAS-CANASTILLAS Y ESTIBAS,,0,0,false,;,0,0
GRAMERA DIGITAL HOPEX,Consumibles,Por cantidad,,,HERRAMIENTAS-CANASTILLAS Y ESTIBAS,,0,0,false,;,0,0
GRAPA STANLEY,Consumibles,Por cantidad,,,REPUESTOS E INSUMOS,,0,0,false,;,0,0
Grapadora de Invernadero                ,Consumibles,Por cantidad,,,HERRAMIENTAS-CANASTILLAS Y ESTIBAS,,0,0,false,;,0,0
GRAPAS PARA CERCO                       ,Consumibles,Kilogramos,,,REPUESTOS E INSUMOS,,0,0,false,;,0,0
GRASA AUTOMOTRIZ,Consumibles,Kilogramos,,,REPUESTOS E INSUMOS,,0,0,false,;,0,0
GRASERA,Consumibles,Por cantidad,,,HERRAMIENTAS-CANASTILLAS Y ESTIBAS,,0,0,false,;,0,0
GRATA CIRCULAR 6pulg,Consumibles,Por cantidad,,,REPUESTOS E INSUMOS,,0,0,false,;,0,0
GUANTE DE HILAZA,Consumibles,Por cantidad,,,ELEMENTOS DE PROTECCION PERSONAL,,0,0,false,;,0,0
GUANTE SOSEGA N1511,Consumibles,Por cantidad,,,ELEMENTOS DE PROTECCION PERSONAL,,0,0,false,;,0,0
Guantes industriales,Consumibles,Por cantidad,,,ELEMENTOS DE PROTECCION PERSONAL,,0,0,false,;,0,0
Guantes multiflex,Consumibles,Por cantidad,,,ELEMENTOS DE PROTECCION PERSONAL,,0,0,false,;,0,0
GUANTES MULTILEX LATEX,Consumibles,Por cantidad,,,ELEMENTOS DE PROTECCION PERSONAL,,0,0,false,;,0,0
GUANTES NITRILO,Consumibles,Por cantidad,,,ELEMENTOS DE PROTECCION PERSONAL,,0,0,false,;,0,0
Guantes Scropio                         ,Consumibles,Por cantidad,,,ELEMENTOS DE PROTECCION PERSONAL,,0,0,false,;,0,0
GUANTES TIPO INGENIERO,Consumibles,Por cantidad,,,ELEMENTOS DE PROTECCION PERSONAL,,0,0,false,;,0,0
Guantes Vaqueta                         ,Consumibles,Por cantidad,,,ELEMENTOS DE PROTECCION PERSONAL,,0,0,false,;,0,0
GUANTES WOKSEG M35,Consumibles,Por cantidad,,,ELEMENTOS DE PROTECCION PERSONAL,,0,0,false,;,0,0
H-85,Consumibles,Kilogramos,,,FERTILIZANTE EDAFICO,,0,0,false,;,0,0
HAIFA N -CAL * 25 KG,Consumibles,Bultos,,,FERTILIZANTE EDAFICO,,0,0,false,;,0,0
HARINA DE MAIZA AMARILLA X 40 KG,Consumibles,Kilogramos,,,REPUESTOS E INSUMOS,,0,0,false,;,0,0
HEMBRA 1/2,Consumibles,Por cantidad,,,REPUESTOS E INSUMOS,,0,0,false,;,0,0
HEMBRA 2pulg,Consumibles,Por cantidad,,,REPUESTOS E INSUMOS,,0,0,false,;,0,0
HEMBRA 3/4,Consumibles,Por cantidad,,,REPUESTOS E INSUMOS,,0,0,false,;,0,0
HERRADURA                               ,Consumibles,Por cantidad,,,HERRAMIENTAS-CANASTILLAS Y ESTIBAS,,0,0,false,;,0,0
HIDROCOMPLEX * 50 KG,Consumibles,Bultos,,,FERTILIZANTE EDAFICO,,0,0,false,;,0,0
HIDROTANQUE 1000LT,Consumibles,Por cantidad,,,REPUESTOS E INSUMOS,,0,0,false,;,0,0
Hojas de Sierra                         ,Consumibles,Por cantidad,,,REPUESTOS E INSUMOS,,0,0,false,;,0,0
Hombreras (sufridores)                  ,Consumibles,Por cantidad,,,ELEMENTOS DE PROTECCION PERSONAL,,0,0,false,;,0,0
Hombresolo                              ,Consumibles,Por cantidad,,,HERRAMIENTAS-CANASTILLAS Y ESTIBAS,,0,0,false,;,0,0
HORMONAGRO ANA,Consumibles,Litros,,,FERTILIZANTE EDAFICO,,0,0,false,;,0,0
INTEGRADOR YARA,Consumibles,Kilogramos,,,FERTILIZANTE EDAFICO,,0,0,false,;,0,0
JEAN DAMA 10,Consumibles,Por cantidad,,,DOTACION,,0,0,false,;,0,0
JEAN DAMA 12,Consumibles,Por cantidad,,,DOTACION,,0,0,false,;,0,0
JEAN DAMA 14,Consumibles,Por cantidad,,,DOTACION,,0,0,false,;,0,0
JEAN DAMA 6,Consumibles,Por cantidad,,,DOTACION,,0,0,false,;,0,0
JEAN DAMA 8,Consumibles,Por cantidad,,,DOTACION,,0,0,false,;,0,0
Juego rache stanley                     ,Consumibles,Por cantidad,,,HERRAMIENTAS-CANASTILLAS Y ESTIBAS,,0,0,false,;,0,0
KCL * 50 KG ,Consumibles,Bultos,,,FERTILIZANTE EDAFICO,,0,0,false,;,0,0
KIESERITA POTASICA,Consumibles,Kilogramos,,,FERTILIZANTE EDAFICO,,0,0,false,;,0,0
KIESULMAG FOSFORO,Consumibles,Kilogramos,,,FERTILIZANTE EDAFICO,,0,0,false,;,0,0
KIT 2 FILTROS A2 DELTAPLUSS,Consumibles,Por cantidad,,,ELEMENTOS DE PROTECCION PERSONAL,,0,0,false,;,0,0
Kit embolo Royal condor                 ,Consumibles,Por cantidad,,,REPUESTOS E INSUMOS,,0,0,false,;,0,0
Kit empaques Royal                      ,Consumibles,Por cantidad,,,REPUESTOS E INSUMOS,,0,0,false,;,0,0
Kit general Royal Condor,Consumibles,Por cantidad,,,REPUESTOS E INSUMOS,,0,0,false,;,0,0
KIT HERRERIA,Consumibles,Por cantidad,,,HERRAMIENTAS-CANASTILLAS Y ESTIBAS,,0,0,false,;,0,0
K-MAG,Consumibles,Kilogramos,,,FERTILIZANTE EDAFICO,,0,0,false,;,0,0
KORN KALI,Consumibles,Kilogramos,,,FERTILIZANTE EDAFICO,,0,0,false,;,0,0
LANZA PARA FUMIGADORA,Consumibles,Por cantidad,,,REPUESTOS E INSUMOS,,0,0,false,;,0,0
Lanzas para drench                      ,Consumibles,Por cantidad,,,HERRAMIENTAS-CANASTILLAS Y ESTIBAS,,0,0,false,;,0,0
Lanzas para estacionaria                ,Consumibles,Por cantidad,,,HERRAMIENTAS-CANASTILLAS Y ESTIBAS,,0,0,false,;,0,0
LARGUERO DE MADERA,Consumibles,Por cantidad,,,REPUESTOS E INSUMOS,,0,0,false,;,0,0
Lianza 50 mts                           ,Consumibles,Por cantidad,,,HERRAMIENTAS-CANASTILLAS Y ESTIBAS,,0,0,false,;,0,0
Lima Nicholson                          ,Consumibles,Por cantidad,,,REPUESTOS E INSUMOS,,0,0,false,;,0,0
Lima para Herrar                        ,Consumibles,Por cantidad,,,HERRAMIENTAS-CANASTILLAS Y ESTIBAS,,0,0,false,;,0,0
Lima redonda 4_8 mm                     ,Consumibles,Por cantidad,,,REPUESTOS E INSUMOS,,0,0,false,;,0,0
Lima redonda 5_2 mm                     ,Consumibles,Por cantidad,,,REPUESTOS E INSUMOS,,0,0,false,;,0,0
Lima ton para motosierra                ,Consumibles,Por cantidad,,,REPUESTOS E INSUMOS,,0,0,false,;,0,0
LIMA TRIANGULAR                         ,Consumibles,Por cantidad,,,HERRAMIENTAS-CANASTILLAS Y ESTIBAS,,0,0,false,;,0,0
Limpiador PVC                           ,Consumibles,Litros,,,REPUESTOS E INSUMOS,,0,0,false,;,0,0
LLANA LISA,Consumibles,Por cantidad,,,HERRAMIENTAS-CANASTILLAS Y ESTIBAS,,0,0,false,;,0,0
LLAVE DE 1/4,Consumibles,Por cantidad,,,REPUESTOS E INSUMOS,,0,0,false,;,0,0
LLAVE DE EXPANSION # 6,Consumibles,Por cantidad,,,HERRAMIENTAS-CANASTILLAS Y ESTIBAS,,0,0,false,;,0,0
LLAVE DE EXPANSION 10pulg,Consumibles,Por cantidad,,,HERRAMIENTAS-CANASTILLAS Y ESTIBAS,,0,0,false,;,0,0
LLAVE DE PASO,Consumibles,Por cantidad,,,REPUESTOS E INSUMOS,,0,0,false,;,0,0
Llave de paso hembra de 3/8             ,Consumibles,Por cantidad,,,REPUESTOS E INSUMOS,,0,0,false,;,0,0
Llave de paso Royal condor              ,Consumibles,Por cantidad,,,HERRAMIENTAS-CANASTILLAS Y ESTIBAS,,0,0,false,;,0,0
Llave de presion 1/2                    ,Consumibles,Por cantidad,,,HERRAMIENTAS-CANASTILLAS Y ESTIBAS,,0,0,false,;,0,0
Llave de presion PVC de 2pulg              ,Consumibles,Por cantidad,,,REPUESTOS E INSUMOS,,0,0,false,;,0,0
LLAVE LAVAMANOS,Consumibles,Por cantidad,,,REPUESTOS E INSUMOS,,0,0,false,;,0,0
Machetes,Consumibles,Por cantidad,,,HERRAMIENTAS-CANASTILLAS Y ESTIBAS,,0,0,false,;,0,0
MACHO 3pulg PRESION,Consumibles,Por cantidad,,,REPUESTOS E INSUMOS,,0,0,false,;,0,0
MACHO RAPIDO 1/2pulg,Consumibles,Por cantidad,,,REPUESTOS E INSUMOS,,0,0,false,;,0,0
Macho rapido 3/4                        ,Consumibles,Por cantidad,,,REPUESTOS E INSUMOS,,0,0,false,;,0,0
MACSIL,Consumibles,Bultos,,,FERTILIZANTE EDAFICO,,0,0,false,;,0,0
MAGISTER 200 SC,Consumibles,Litros,,,REPUESTOS E INSUMOS,,0,0,false,;,0,0
MALLA ELECTROSOLDADA,Consumibles,Por cantidad,,,REPUESTOS E INSUMOS,,0,0,false,;,0,0
Mangosierra                             ,Consumibles,Por cantidad,,,HERRAMIENTAS-CANASTILLAS Y ESTIBAS,,0,0,false,;,0,0
Manguera de 3/4                         ,Consumibles,Metros,,,HERRAMIENTAS-CANASTILLAS Y ESTIBAS,,0,0,false,;,0,0
Manguera de estacionaria                ,Consumibles,Metros,,,HERRAMIENTAS-CANASTILLAS Y ESTIBAS,,0,0,false,;,0,0
Manguera jardinera                      ,Consumibles,Metros,,,HERRAMIENTAS-CANASTILLAS Y ESTIBAS,,0,0,false,;,0,0
MANGUERA PARA BOMBA DE ESPALDA,Consumibles,Por cantidad,,,HERRAMIENTAS-CANASTILLAS Y ESTIBAS,,0,0,false,;,0,0
MANILA # 6 X 500 MT,Consumibles,Por cantidad,,,HERRAMIENTAS-CANASTILLAS Y ESTIBAS,,0,0,false,;,0,0
MANOMETRO PARA BOMBA ESTACIONARIA,Consumibles,Por cantidad,,,REPUESTOS E INSUMOS,,0,0,false,;,0,0
MAP,Consumibles,Kilogramos,,,FERTILIZANTE EDAFICO,,0,0,false,;,0,0
MAP x 50 kg,Consumibles,Bultos,,,FERTILIZANTE EDAFICO,,0,0,false,;,0,0
Martillo # 29                           ,Consumibles,Por cantidad,,,HERRAMIENTAS-CANASTILLAS Y ESTIBAS,,0,0,false,;,0,0
MASTERPHOS Zn,Consumibles,Bultos,,,FERTILIZANTE EDAFICO,,0,0,false,;,0,0
MATERIA ORGANICA,Consumibles,Bultos,,,MATERIA ORGANICA,,0,0,false,;,0,0
MATERIAL VEGETAL - AGUACATE HASS,Consumibles,Por cantidad,,,INGRESO - VENTA DE MATERIAL VEGETAL,,0,0,false,;,0,0
Maya facial                             ,Consumibles,Por cantidad,,,ELEMENTOS DE PROTECCION PERSONAL,,0,0,false,;,0,0
Media mascara 3M                        ,Consumibles,Por cantidad,,,ELEMENTOS DE PROTECCION PERSONAL,,0,0,false,;,0,0
MELASA,Consumibles,Kilogramos,,,REPUESTOS E INSUMOS,,0,0,false,;,0,0
Melaza                                  ,Consumibles,Kilogramos,,,REPUESTOS E INSUMOS,,0,0,false,;,0,0
MEZCLA 12-24-12 X 50KG,Consumibles,Bultos,,,FERTILIZANTE EDAFICO,,0,0,false,;,0,0
MEZCLA QUIMICA 27-6-6,Consumibles,Kilogramos,,,FERTILIZANTE EDAFICO,,0,0,false,;,0,0
MICORRIZA,Consumibles,Bultos,,,FERTILIZANTE EDAFICO,,0,0,false,;,0,0
NATIVO * 5 LITROS,Consumibles,Por cantidad,,,FUNGICIDA,,0,0,false,;,0,0
NATUR L OIL,Consumibles,Litros,,,HERBICIDA,,0,0,false,;,0,0
NITRABOR,Consumibles,Kilogramos,,,FERTILIZANTE EDAFICO,,0,0,false,;,0,0
NITRASAM                                ,Consumibles,Kilogramos,,,FERTILIZANTE EDAFICO,,0,0,false,;,0,0
NITRATO DE CALCIO,Consumibles,Kilogramos,,,FERTILIZANTE EDAFICO,,0,0,false,;,0,0
NITRATO DE POTASIO,Consumibles,Bultos,,,FERTILIZANTE EDAFICO,,0,0,false,;,0,0
NITROMAG X 50 KG,Consumibles,Bultos,,,FERTILIZANTE EDAFICO,,0,0,false,;,0,0
NITROXTEND,Consumibles,Kilogramos,,,FERTILIZANTE EDAFICO,,0,0,false,;,0,0
Nivel de mano                           ,Consumibles,Por cantidad,,,HERRAMIENTAS-CANASTILLAS Y ESTIBAS,,0,0,false,;,0,0
NUTRIFEED INICIO,Consumibles,Kilogramos,,,FERTILIZANTE EDAFICO,,0,0,false,;,0,0
NUTRISORB L,Consumibles,Litros,,,FERTILIZANTE RADICULAR,,0,0,false,;,0,0
OASIS,Consumibles,Litros,,,REPUESTOS E INSUMOS,,0,0,false,;,0,0
OVEROL CON CARETA_ GUANTES Y SOMBRERO PA,Consumibles,Por cantidad,,,ELEMENTOS DE PROTECCION PERSONAL,,0,0,false,;,0,0
OXICAL MG,Consumibles,Kilogramos,,,FERTILIZANTE EDAFICO,,0,0,false,;,0,0
PACA DE HENO,Consumibles,Por cantidad,,,HERRAMIENTAS-CANASTILLAS Y ESTIBAS,,0,0,false,;,0,0
PALA JARDINERA,Consumibles,Por cantidad,,,HERRAMIENTAS-CANASTILLAS Y ESTIBAS,,0,0,false,;,0,0
Paladraga                               ,Consumibles,Por cantidad,,,HERRAMIENTAS-CANASTILLAS Y ESTIBAS,,0,0,false,;,0,0
PALANCA MANGO NEGRO,Consumibles,Por cantidad,,,HERRAMIENTAS-CANASTILLAS Y ESTIBAS,,0,0,false,;,0,0
Palas,Consumibles,Por cantidad,,,HERRAMIENTAS-CANASTILLAS Y ESTIBAS,,0,0,false,;,0,0
Palas antichispa                        ,Consumibles,Por cantidad,,,HERRAMIENTAS-CANASTILLAS Y ESTIBAS,,0,0,false,;,0,0
Palines,Consumibles,Por cantidad,,,HERRAMIENTAS-CANASTILLAS Y ESTIBAS,,0,0,false,;,0,0
Palustre N 7                            ,Consumibles,Por cantidad,,,HERRAMIENTAS-CANASTILLAS Y ESTIBAS,,0,0,false,;,0,0
PANTALLA PARA HERBICIDA,Consumibles,Por cantidad,,,HERRAMIENTAS-CANASTILLAS Y ESTIBAS,,0,0,false,;,0,0
PANTALON HOMBRE 28,Consumibles,Por cantidad,,,DOTACION,,0,0,false,;,0,0
PANTALON HOMBRE 30,Consumibles,Por cantidad,,,DOTACION,,0,0,false,;,0,0
PANTALON HOMBRE 32,Consumibles,Por cantidad,,,DOTACION,,0,0,false,;,0,0
PANTALON HOMBRE 34,Consumibles,Por cantidad,,,DOTACION,,0,0,false,;,0,0
PANTALON HOMBRE 36,Consumibles,Por cantidad,,,DOTACION,,0,0,false,;,0,0
PANTALON HOMBRE 38,Consumibles,Por cantidad,,,DOTACION,,0,0,false,;,0,0
PANTALON HOMBRE TALLA 40,Consumibles,Por cantidad,,,DOTACION,,0,0,false,;,0,0
PANZER,Consumibles,Litros,,,HERBICIDA,,0,0,false,;,0,0
PANZER GRANULADO,Consumibles,Kilogramos,,,HERBICIDA,,0,0,false,;,0,0
PARAQUAT,Consumibles,Litros,,,HERBICIDA,,0,0,false,;,0,0
PATENKALI ,Consumibles,Kilogramos,,,FERTILIZANTE EDAFICO,,0,0,false,;,0,0
PATENKALI X 50KG,Consumibles,Bultos,,,FERTILIZANTE EDAFICO,,0,0,false,;,0,0
Pega PUC                                ,Consumibles,Por cantidad,,,HERRAMIENTAS-CANASTILLAS Y ESTIBAS,,0,0,false,;,0,0
PEGACOR,Consumibles,Bultos,,,HERRAMIENTAS-CANASTILLAS Y ESTIBAS,,0,0,false,;,0,0
Pesas romanas                           ,Consumibles,Por cantidad,,,HERRAMIENTAS-CANASTILLAS Y ESTIBAS,,0,0,false,;,0,0
PHYLLUM MAX,Consumibles,Litros,,,FERTILIZANTE EDAFICO,,0,0,false,;,0,0
Picas                                   ,Consumibles,Por cantidad,,,HERRAMIENTAS-CANASTILLAS Y ESTIBAS,,0,0,false,;,0,0
PIE DE REY CALIBRADOR,Consumibles,Por cantidad,,,HERRAMIENTAS-CANASTILLAS Y ESTIBAS,,0,0,false,;,0,0
Piernera                                ,Consumibles,Por cantidad,,,ELEMENTOS DE PROTECCION PERSONAL,,0,0,false,;,0,0
PIJAMA DE ASPERSION TALLA L,Consumibles,Por cantidad,,,ELEMENTOS DE PROTECCION PERSONAL,,0,0,false,;,0,0
PINTURA BLANCA ,Consumibles,Litros,,,REPUESTOS E INSUMOS,,0,0,false,;,0,0
PINTURA NARANJADA,Consumibles,Galones estadounidenses,,,REPUESTOS E INSUMOS,,0,0,false,;,0,0
PINZA PARA MANIPULACION DE MARCOS ABEJAS,Consumibles,Por cantidad,,,HERRAMIENTAS-CANASTILLAS Y ESTIBAS,,0,0,false,;,0,0
PISTOLA CALAFATEO,Consumibles,Por cantidad,,,HERRAMIENTAS-CANASTILLAS Y ESTIBAS,,0,0,false,;,0,0
PISTOLA MANGUERA,Consumibles,Por cantidad,,,REPUESTOS E INSUMOS,,0,0,false,;,0,0
Plafon loza                             ,Consumibles,Por cantidad,,,HERRAMIENTAS-CANASTILLAS Y ESTIBAS,,0,0,false,;,0,0
PLASTICO AGROBLACK,Consumibles,Metros,,,REPUESTOS E INSUMOS,,0,0,false,;,0,0
POLYFEED 10 10 43 BULTO * 25 KG,Consumibles,Bultos,,,FERTILIZANTE EDAFICO,,0,0,false,;,0,0
Porta boquillas                         ,Consumibles,Por cantidad,,,REPUESTOS E INSUMOS,,0,0,false,;,0,0
PORTADOR,Consumibles,Litros,,,FERTILIZANTE EDAFICO,,0,0,false,;,0,0
POTENZOL,Consumibles,Litros,,,COADYUVANTE,,0,0,false,;,0,0
PREDOSTAR BOLSA * 300 GR,Consumibles,Bultos,,,FUNGICIDA,,0,0,false,;,0,0
Proaxis (Kunfu)                         ,Consumibles,Litros,,,INSECTICIDA,,0,0,false,;,0,0
Proaxis (Spider),Consumibles,Litros,,,INSECTICIDA,,0,0,false,;,0,0
PROBETA DE VIDRIO                       ,Consumibles,Por cantidad,,,HERRAMIENTAS-CANASTILLAS Y ESTIBAS,,0,0,false,;,0,0
PROBETA PLASTICA                        ,Consumibles,Por cantidad,,,HERRAMIENTAS-CANASTILLAS Y ESTIBAS,,0,0,false,;,0,0
PRODUSEM,Consumibles,Kilogramos,,,FERTILIZANTE EDAFICO,,0,0,false,;,0,0
PROGRIBB,Consumibles,Gramos,,,REGULADOR FISIOLOGICO,,0,0,false,;,0,0
Protectores auditivos  diadema,Consumibles,Por cantidad,,,ELEMENTOS DE PROTECCION PERSONAL,,0,0,false,;,0,0
Protectores auditivos insercion         ,Consumibles,Por cantidad,,,ELEMENTOS DE PROTECCION PERSONAL,,0,0,false,;,0,0
PULIDORA 7pulg STANLEY,Consumibles,Por cantidad,,,HERRAMIENTAS-CANASTILLAS Y ESTIBAS,,0,0,false,;,0,0
QROP KS,Consumibles,Kilogramos,,,FERTILIZANTE EDAFICO,,0,0,false,;,0,0
RADIFARM,Consumibles,Litros,,,FERTILIZANTE EDAFICO,,0,0,false,;,0,0
RADIGROW,Consumibles,Litros,,,FERTILIZANTE EDAFICO,,0,0,false,;,0,0
RADISEM,Consumibles,Kilogramos,,,FERTILIZANTE EDAFICO,,0,0,false,;,0,0
RAFOS 12-24-12-2,Consumibles,Kilogramos,,,FERTILIZANTE EDAFICO,,0,0,false,;,0,0
RASTRILLO,Consumibles,Por cantidad,,,HERRAMIENTAS-CANASTILLAS Y ESTIBAS,,0,0,false,;,0,0
REDUCCION 2 X 3/4 PRESION,Consumibles,Por cantidad,,,REPUESTOS E INSUMOS,,0,0,false,;,0,0
REDUCCION 3/4 X 1/2,Consumibles,Por cantidad,,,REPUESTOS E INSUMOS,,0,0,false,;,0,0
REDUCCION 3/8 X 1/4,Consumibles,Por cantidad,,,REPUESTOS E INSUMOS,,0,0,false,;,0,0
REJILLA EXCLUIDORA MALLA PLAST_ MARCO MA,Consumibles,Por cantidad,,,HERRAMIENTAS-CANASTILLAS Y ESTIBAS,,0,0,false,;,0,0
RESPIRADOR DELTAPLUSS,Consumibles,Por cantidad,,,ELEMENTOS DE PROTECCION PERSONAL,,0,0,false,;,0,0
Respirador para particulas,Consumibles,Por cantidad,,,ELEMENTOS DE PROTECCION PERSONAL,,0,0,false,;,0,0
Retenedor de filtro                     ,Consumibles,Por cantidad,,,ELEMENTOS DE PROTECCION PERSONAL,,0,0,false,;,0,0
RETRANCO                                ,Consumibles,Por cantidad,,,HERRAMIENTAS-CANASTILLAS Y ESTIBAS,,0,0,false,;,0,0
RIEL EXPANCIVO 40 CM,Consumibles,Por cantidad,,,REPUESTOS E INSUMOS,,0,0,false,;,0,0
ROBUSTO,Consumibles,Litros,,,FERTILIZANTE EDAFICO,,0,0,false,;,0,0
RODILLERA,Consumibles,Por cantidad,,,ELEMENTOS DE PROTECCION PERSONAL,,0,0,false,;,0,0
ROOT FEED SP,Consumibles,Kilogramos,,,FERTILIZANTE EDAFICO,,0,0,false,;,0,0
Rula                                    ,Consumibles,Por cantidad,,,HERRAMIENTAS-CANASTILLAS Y ESTIBAS,,0,0,false,;,0,0
Sal mineralizada                        ,Consumibles,Kilogramos,,,REPUESTOS E INSUMOS,,0,0,false,;,0,0
SELECTO,Consumibles,Litros,,,FERTILIZANTE EDAFICO,,0,0,false,;,0,0
SELECTOR ARVENSES,Consumibles,Por cantidad,,,HERRAMIENTAS-CANASTILLAS Y ESTIBAS,,0,0,false,;,0,0
Serrucho                                ,Consumibles,Por cantidad,,,HERRAMIENTAS-CANASTILLAS Y ESTIBAS,,0,0,false,;,0,0
SERRUCHO DE PODA CURVO TRUPER,Consumibles,Por cantidad,,,HERRAMIENTAS-CANASTILLAS Y ESTIBAS,,0,0,false,;,0,0
Silicona 5699 Gramois                   ,Consumibles,Por cantidad,,,REPUESTOS E INSUMOS,,0,0,false,;,0,0
SILIZEO K,Consumibles,Kilogramos,,,FERTILIZANTE EDAFICO,,0,0,false,;,0,0
SOLDADURA LIQUIDA 1/4,Consumibles,Galones estadounidenses,,,REPUESTOS E INSUMOS,,0,0,false,;,0,0
SOLUFOS,Consumibles,Kilogramos,,,FERTILIZANTE EDAFICO,,0,0,false,;,0,0
SOLUFOS 44 * 25 KG,Consumibles,Bultos,,,FERTILIZANTE EDAFICO,,0,0,false,;,0,0
STIMULATE,Consumibles,Litros,,,FERTILIZANTE EDAFICO,,0,0,false,;,0,0
Sulfato de amonio Granulado (SAM),Consumibles,Kilogramos,,,FERTILIZANTE EDAFICO,,0,0,false,;,0,0
Sulfato de amonio polvo (SAM)           ,Consumibles,Kilogramos,,,FERTILIZANTE EDAFICO,,0,0,false,;,0,0
Sulfato de maganesio hepta,Consumibles,Kilogramos,,,FERTILIZANTE EDAFICO,,0,0,false,;,0,0
Sulfato de magnesio,Consumibles,Kilogramos,,,FERTILIZANTE EDAFICO,,0,0,false,;,0,0
SULFATO DE POTASIO,Consumibles,Kilogramos,,,FERTILIZANTE EDAFICO,,0,0,false,;,0,0
Sulfato de Zinc                         ,Consumibles,Kilogramos,,,FERTILIZANTE EDAFICO,,0,0,false,;,0,0
SUSTRATO ,Consumibles,Kilogramos,,,MICORRIZA,,0,0,false,;,0,0
T 1pulg                                    ,Consumibles,Por cantidad,,,REPUESTOS E INSUMOS,,0,0,false,;,0,0
T 1/2                                   ,Consumibles,Por cantidad,,,REPUESTOS E INSUMOS,,0,0,false,;,0,0
T FOS,Consumibles,Kilogramos,,,FERTILIZANTE EDAFICO,,0,0,false,;,0,0
Taladro inalambrico                     ,Consumibles,Por cantidad,,,HERRAMIENTAS-CANASTILLAS Y ESTIBAS,,0,0,false,;,0,0
Taladro percutor                        ,Consumibles,Por cantidad,,,HERRAMIENTAS-CANASTILLAS Y ESTIBAS,,0,0,false,;,0,0
TAPA FUMIGADORA 20 LT,Consumibles,Por cantidad,,,REPUESTOS E INSUMOS,,0,0,false,;,0,0
TAPA HUECOS,Consumibles,Por cantidad,,,HERRAMIENTAS-CANASTILLAS Y ESTIBAS,,0,0,false,;,0,0
TAPABOCAS,Consumibles,Por cantidad,,,ELEMENTOS DE PROTECCION PERSONAL,,0,0,false,;,0,0
TAPON 1pulg PRESION,Consumibles,Por cantidad,,,REPUESTOS E INSUMOS,,0,0,false,;,0,0
TAPON LISO 1/2,Consumibles,Por cantidad,,,REPUESTOS E INSUMOS,,0,0,false,;,0,0
TAPON ROSCADO 3pulg PRESION,Consumibles,Por cantidad,,,REPUESTOS E INSUMOS,,0,0,false,;,0,0
Tapones 3/4pulg                            ,Consumibles,Por cantidad,,,REPUESTOS E INSUMOS,,0,0,false,;,0,0
Tapones PVC de 2pulg                       ,Consumibles,Por cantidad,,,REPUESTOS E INSUMOS,,0,0,false,;,0,0
TARROS DE SALSA                         ,Consumibles,Por cantidad,,,HERRAMIENTAS-CANASTILLAS Y ESTIBAS,,0,0,false,;,0,0
TECHO APIARIO,Consumibles,Por cantidad,,,HERRAMIENTAS-CANASTILLAS Y ESTIBAS,,0,0,false,;,0,0
TEE PRESION 1/2,Consumibles,Por cantidad,,,REPUESTOS E INSUMOS,,0,0,false,;,0,0
TEE RAPIDA 2pulg,Consumibles,Por cantidad,,,REPUESTOS E INSUMOS,,0,0,false,;,0,0
TEFLON,Consumibles,Por cantidad,,,REPUESTOS E INSUMOS,,0,0,false,;,0,0
Tejas Polietileno                       ,Consumibles,Por cantidad,,,REPUESTOS E INSUMOS,,0,0,false,;,0,0
TERRA SORB,Consumibles,Litros,,,FERTILIZANTE EDAFICO,,0,0,false,;,0,0
THINER,Consumibles,Galones estadounidenses,,,HERRAMIENTAS-CANASTILLAS Y ESTIBAS,,0,0,false,;,0,0
Tijeras de poda,Consumibles,Por cantidad,,,HERRAMIENTAS-CANASTILLAS Y ESTIBAS,,0,0,false,;,0,0
Tornillo 5/16 2pulg                        ,Consumibles,Por cantidad,,,REPUESTOS E INSUMOS,,0,0,false,;,0,0
TORNILLO DE ENSAMBLE DE 1 1/2,Consumibles,Por cantidad,,,REPUESTOS E INSUMOS,,0,0,false,;,0,0
TRABADOR PARA SERRUCHO DE PODA TRUPER,Consumibles,Por cantidad,,,HERRAMIENTAS-CANASTILLAS Y ESTIBAS,,0,0,false,;,0,0
TRAJE ANTIFLUIDO,Consumibles,Por cantidad,,,ELEMENTOS DE PROTECCION PERSONAL,,0,0,false,;,0,0
TRIPLE 16-16-16,Consumibles,Kilogramos,,,FERTILIZANTE EDAFICO,,0,0,false,;,0,0
TUBERIA DE PRESION 1/2,Consumibles,Por cantidad,,,REPUESTOS E INSUMOS,,0,0,false,;,0,0
TUBERIA NOVARIEGO 18pulg,Consumibles,Por cantidad,,,REPUESTOS E INSUMOS,,0,0,false,;,0,0
TUBERIA NOVARIEGO 315 MM,Consumibles,Por cantidad,,,REPUESTOS E INSUMOS,,0,0,false,;,0,0
TUBO 1/2 500 LB,Consumibles,Por cantidad,,,REPUESTOS E INSUMOS,,0,0,false,;,0,0
TUBO 1/2pulg PRESION,Consumibles,Por cantidad,,,REPUESTOS E INSUMOS,,0,0,false,;,0,0
TUBO 4pulg SANITARIA,Consumibles,Por cantidad,,,REPUESTOS E INSUMOS,,0,0,false,;,0,0
TUBO EMBOLO COMPLETO RC 100EX,Consumibles,Por cantidad,,,REPUESTOS E INSUMOS,,0,0,false,;,0,0
TUBO INDUSTRIAL 1/14,Consumibles,Por cantidad,,,REPUESTOS E INSUMOS,,0,0,false,;,0,0
Tubo PVC de 1pulg                          ,Consumibles,Por cantidad,,,REPUESTOS E INSUMOS,,0,0,false,;,0,0
Tubo PVC de 2pulg                          ,Consumibles,Por cantidad,,,REPUESTOS E INSUMOS,,0,0,false,;,0,0
Tubo PVC de 3pulg                          ,Consumibles,Por cantidad,,,REPUESTOS E INSUMOS,,0,0,false,;,0,0
TUBOS DE SILICONA,Consumibles,Por cantidad,,,HERRAMIENTAS-CANASTILLAS Y ESTIBAS,,0,0,false,;,0,0
Tuercas 5/16                            ,Consumibles,Por cantidad,,,REPUESTOS E INSUMOS,,0,0,false,;,0,0
Tuercas de 3/8                          ,Consumibles,Por cantidad,,,REPUESTOS E INSUMOS,,0,0,false,;,0,0
UNION GALVANIZADA 3/8,Consumibles,Por cantidad,,,REPUESTOS E INSUMOS,,0,0,false,;,0,0
Union hembra 3/4                        ,Consumibles,Por cantidad,,,REPUESTOS E INSUMOS,,0,0,false,;,0,0
Union hembra de 2pulg                      ,Consumibles,Por cantidad,,,REPUESTOS E INSUMOS,,0,0,false,;,0,0
UNION PRESION 1/2,Consumibles,Por cantidad,,,REPUESTOS E INSUMOS,,0,0,false,;,0,0
UNION RAPIDA 2pulg,Consumibles,Por cantidad,,,REPUESTOS E INSUMOS,,0,0,false,;,0,0
Union rapida de 1/2 pulgada             ,Consumibles,Por cantidad,,,REPUESTOS E INSUMOS,,0,0,false,;,0,0
Union rapida de 3/4                     ,Consumibles,Por cantidad,,,REPUESTOS E INSUMOS,,0,0,false,;,0,0
Uniones de 1pulgp                          ,Consumibles,Por cantidad,,,REPUESTOS E INSUMOS,,0,0,false,;,0,0
VACOL,Consumibles,Gramos,,,REPUESTOS E INSUMOS,,0,0,false,;,0,0
VALVULINA RACOR DE 620 CC 3,Consumibles,Litros,,,COMBUSTIBLES Y LUBRICANTES,,0,0,false,;,0,0
VARETA,Consumibles,Galones estadounidenses,,,REPUESTOS E INSUMOS,,0,0,false,;,0,0
VARILLA ROSCADA DE 3/8 GALVANIZADA,Consumibles,Por cantidad,,,REPUESTOS E INSUMOS,,0,0,false,;,0,0
VASO DOSIFICADOR DE 250 CC,Consumibles,Por cantidad,,,HERRAMIENTAS-CANASTILLAS Y ESTIBAS,,0,0,false,;,0,0
VINILO BLANCO,Consumibles,Litros,,,CICATRIZANTE,,0,0,false,;,0,0
VINILO BLANCO N 1                       ,Consumibles,Galones estadounidenses,,,CICATRIZANTE,,0,0,false,;,0,0
Vinilo domestico rojo                   ,Consumibles,Litros,,,REPUESTOS E INSUMOS,,0,0,false,;,0,0
Viniltex blanco                         ,Consumibles,Litros,,,REPUESTOS E INSUMOS,,0,0,false,;,0,0
VIVABELM,Consumibles,Litros,,,FERTILIZANTE EDAFICO,,0,0,false,;,0,0
YARAMILA HIDROCOMPLEX,Consumibles,Kilogramos,,,FERTILIZANTE EDAFICO,,0,0,false,;,0,0
YARAMILA HYDRAN,Consumibles,Kilogramos,,,FERTILIZANTE EDAFICO,,0,0,false,;,0,0
YE ROSCADA ,Consumibles,Por cantidad,,,REPUESTOS E INSUMOS,,0,0,false,;,0,0
Yoyo para guadana                       ,Consumibles,Por cantidad,,,HERRAMIENTAS-CANASTILLAS Y ESTIBAS,,0,0,false,;,0,0
ZINCOFERTIL GRANULADO X 20 KG,Consumibles,Kilogramos,,,FERTILIZANTE EDAFICO,,0,0,false,;,0,0
Zuncho                                  ,Consumibles,Metros,,,REPUESTOS E INSUMOS,,0,0,false,;,0,0
