Evaluacion,Criterio,Afecta calificacion
Palma - Polinizacion asistida,(6-2) Flores sin Polinizar Doble. Polinizadas,Si
Palma - Polinizacion asistida,(6-3) Flores Sin Polinizar Ayudadas,Si
Palma - Polinizacion asistida,(6D) Flores sin Polinizar Por Detras,Si
Palma - Polinizacion asistida,(6P) Flor Quedada Pendiente,Si
Palma - Polinizacion asistida,(6R) Flores Sin Trabajar Rayita,Si
Otros - Comparendo ambiental,Acciones inadeacudas de separación de residuo,Si
Cacao - Hormiga arriera,Activo,Si
Palma - Hormiga arriera,Activo,Si
Otros - Comportamientos inseguros,Adoptar posicion inadecuada,No
SST-COMPORTAMIENTOS INSEGUROS,Adoptar posicion inadecuada,No
CACAO-TUMBA DE GUARUMOS Y PLATANO,AEREA SIN PELOTAS DE MONTE.,No
CACAO-RIEGO,Aforo bien realizado,No
CACAO-RIEGO,Aforo mal realizado,Si
CACAO-RIEGO,Aforo sin realizar,Si
Otros - Comparendo ambiental,Agresión verbal/física al personal ambiental,Si
Otros - Lectura freatimetros,Agua,No
Palma - Strategus,Agujeros bien tratados,No
Palma - Strategus,Agujeros mal tratados,Si
Palma - Strategus,Agujeros sin revisar,Si
Laboratorio biologico,Almacenamiento de insumos 100 %,No
Laboratorio biologico,Almacenamiento de insumos no cumple,Si
Palma - Laboratorio polen,Almacenamiento de polen 100%,No
Palma - Laboratorio polen,Almacenamiento de polen no cumple,Si
Palma - Fertilizacion oficios varios,Almacenimiento lonas cumple,No
Palma - Fertilizacion oficios varios,Almacenimiento lonas no cumple,Si
CACAO-PODA,Altura mal realizada,Si
MELINA-MADERA,Arbol en buen estado cacao,No
MELINA-MADERA,Arbol parcialmente dañado cacao,Si
MELINA-MADERA,Arbol totalmente dañado cacao,Si
Cacao - Roceria,arboles en canales,No
Palma - Roceria,Arboles en canales,Si
Cacao - Roceria,Arboles en la via,Si
Control mecanico terraplen,Arboles en la via,Si
Palma - Roceria,Arboles en la Via,Si
Control mecanico terraplen,Arboles en los canales,Si
Cacao - Roceria,Arboles en platos,Si
Palma - Roceria,Arboles en Platos,Si
Palma - Limpieza canales,Area bien realizada,No
Cacao - Roceria,Area bien tratada,No
Control mecanico terraplen,Area bien tratada,No
Palma - Limpieza canales,Area Bien Tratada,No
Palma - Roceria,Area bien tratada,No
CACAO-TUMBA DE GUARUMOS Y PLATANO,AREA CON DE PELOTAS DE MONTE,Si
CACAO-TUMBA DE GUARUMOS Y PLATANO,AREA CON GUARUMOS,Si
CACAO-CASETA DE BOMBEO,AREA DE TRABAJO LIMPIA,No
CACAO-CASETA DE BOMBEO,AREA DE TRABAJO SUCIA,Si
Palma - Limpieza canales,Area inundada,No
CACAO-RIEGO,Area por valvula bien regada,No
CACAO-RIEGO,Area por valvula mal regada,Si
CACAO-RIEGO,Area por valvula sin regar,Si
CACAO-TUMBA DE GUARUMOS Y PLATANO,AREA SIN GUARUMOS,No
Cacao - Roceria,Area sin tratar,Si
Control mecanico terraplen,Area sin tratar,Si
Palma - Roceria,Area sin tratar,Si
Cacao - Poda,Arquitectura mal realizada,Si
CACAO-PODA,Arquitectura mal realizada,Si
MELINA-MADERA,Arreglos bien realizados cacao,No
Vivero dehierbo,Bolsa bien deshiervada,No
Vivero llenado bolsa vivero,Bolsa bien llena,No
Vivero llenado bolsa vivero,Bolsa con llenado incompleto,Si
Vivero llenado bolsa vivero,Bolsa mal encarrada,Si
Vivero dehierbo,Bolsa sin deshierbar,Si
Palma - Limpieza canales,Borde incompleto,Si
Otros - Inspecciones EPP,Calzado de seguridad,Si
CACAO-CASETA DE BOMBEO,CANECAS SIN RESIDUO DE FERTILIZANTES,No
Otros - Inspecciones EPP,Canilleras - guadañadores,Si
Otros - Inspecciones EPP,Careta esmerilar,Si
Otros - Comportamientos inseguros,Carga de manera incorrecta,No
Otros - Inspecciones EPP,Casco de seguridad - campo,Si
Otros - Inspecciones EPP,Casco moto,Si
Otros - Comparendo ambiental,"Caza, captura, matar fauna silvestre o pesca",Si
MELINA-MADERA,Cero arreglos cacao,Si
Vivero Cacao,Cinta bien retirada,No
Vivero Cacao,Cinta mal retirada,Si
CACAO-SANIDAD VEGETAL,cirugia bien realizada,No
CACAO-SANIDAD VEGETAL,cirugia mal realizada,Si
Vivero Cacao,Clon bien marcado,No
Vivero Cacao,Clon sin marcar,Si
Palma - Control nido abejas,Controlada,No
Polinizacion Guineensis,Corona bien polinizada,No
Polinizacion Guineensis,CORONA MAL POLINIZADA,Si
Polinizacion Guineensis,CORONA SIN POLINIZAR,Si
Cacao - Poda,Corte muy alto,Si
CACAO-DESCHUPONE,Corte muy alto,Si
CACAO-PODA,Corte muy alto,Si
MELINA-MADERA,Cortes sin cicatrizar cacao,Si
CACAO-SANIDAD VEGETAL,corteza bien retirada,No
CACAO-SANIDAD VEGETAL,corteza mal retirada,Si
Otros - Condiciones inseguras,Covertura de la palma,No
CACAO-CASETA DE BOMBEO,CUMPLIMIENTO CON PROGRAMACION,No
Otros - Lectura freatimetros,Dañado,No
Otros - Comparendo ambiental,Daño o Tala de arboles,Si
MELINA-MADERA,daños de manguera,Si
CACAO-CASETA DE BOMBEO,DATOS BIEN TOMADOS,No
Control calidad,Datos correcto,No
CACAO-CASETA DE BOMBEO,DATOS ERRONEOS,Si
Control calidad,Datos incorrectos,Si
Otros - Inspecciones EPP,Delantal de caucho - quimicos,Si
Otros - Comportamientos inseguros,Derrame agroquimico,No
Palma -Taller agricola,Derrame de aceite,Si
Otros - Comportamientos inseguros,Derrame de Agroquimicos,No
Otros - Comportamientos inseguros,Derrame de Agroquimicos,No
Otros - Comportamientos inseguros,Derrame de agroquimicos,No
Otros - Comportamientos inseguros,Derrame de agroquimicos,No
SST-COMPORTAMIENTOS INSEGUROS,Derrame de Agroquimicos,No
CACAO-PLATEO QUIMICO RECIEMBRA,Diamettro de Plateo no Cumple,Si
Laboratorio biologico,Digitacion diaria al 100 %,No
Palma - Laboratorio polen,Digitacion diaria al 100 %,No
Palma - Laboratorio polen,Digitacion diaria incompleta,Si
Laboratorio biologico,Digitacion diaria no cumple,Si
Control calidad,Dispositivo no Sincronizado,Si
Control calidad,Dispositivo Sincronizado,No
CACAO-CASETA DE BOMBEO,DOSIFICACION BIEN REALIZADA,No
CACAO-CASETA DE BOMBEO,DOSIFICACION MAL REALIZADA,Si
CACAO-FERTI-RIEGO,Dosis correcta,No
Palma - Plateo quimico,Dosis correcta,No
Vivero fertilizacion edafica,"Dosis correcta ""micorriza""",No
Palma - Cirugias PC,Dosis correcta de Agroquimico,No
Palma - Fumigacion palmas PC,Dosis correcta de agroquimico,No
Palma - Fertilizacion,Dosis Incorrecta,Si
Palma - Plateo quimico,Dosis Incorrecta,Si
CACAO-FERTILIZACIÓN EDAFICA,Dosis incorrecta,Si
CACAO-FERTI-RIEGO,Dosis incorrecta,Si
Vivero fertilizacion edafica,"Dosis incorrecta "" micorriza""",Si
Palma - Cirugias PC,Dosis Incorrecta de Agroquimico,Si
Palma - Fumigacion palmas PC,Dosis incorrecta de agroquimico,Si
Otros - Comportamientos inseguros,Eliminar guardas de seguridad,No
CACAO-CASETA DE BOMBEO,EMPAQUES DE FERTILIZANTES BIEN ORGANIZADOS,No
CACAO-CASETA DE BOMBEO,EMPAQUES DE FERTILIZANTES MAL ORGANIZADOS,Si
Otros - Comparendo ambiental,Encender fuego dentro de la plantación,Si
CACAO-SIEMBRA Y RESIEMBRA,Enmienda bien aplicada,No
CACAO-SIEMBRA Y RESIEMBRA,Enmienda mal distribuida,Si
CACAO-SIEMBRA Y RESIEMBRA,Enmienda sin aplicar,Si
Otros - Inspecciones EPP,EPP cumple,No
Otros - Inspecciones EPP,EPP cumple,No
SST-INSPECCIONES EPP,EPP cumple,No
Otros - Inspecciones EPP,EPP no cumple,Si
Otros - Inspecciones EPP,EPP no cumple,Si
SST-INSPECCIONES EPP,EPP no cumple,No
Otros - Insumos y equipos,Equipo calibrado cumple,No
Otros - Insumos y equipos,Equipo calibrado cumple,No
Otros - Insumos y equipos,Equipo calibrado no cumple,No
Otros - Insumos y equipos,Equipo calibrado no cumple,No
Palma -Taller agricola,Equipo con fugas,Si
Otros - Insumos y equipos,Equipo en buen Estado,No
Otros - Insumos y equipos,Equipo en buen estado,No
Otros - Insumos y equipos,Equipo en buen estado,No
Otros - Insumos y equipos,Equipo en mal Estado,No
Otros - Insumos y equipos,Equipo en mal estado,No
Otros - Insumos y equipos,Equipo en mal estado,No
Otros - Condiciones inseguras,Espacios limitados,No
SST-CONDICIONES INSEGURAS,Espacios limitados,No
Palma - Sanidad vegetal,Evaluacion correcta,No
Palma - Sanidad vegetal,Evaluacion incorrecta,Si
Otros - Comportamientos inseguros,Exceder limites de velocidad,No
SST-COMPORTAMIENTOS INSEGUROS,Exceder limites de velocidad,No
Otros - Orden y aseo,Fertilizante en el zorrillo,Si
Palma - Fertilizacion,Fertilizante mal aplicado,Si
Palma-Limpieza PC,Flechas y Hojas Bien Tratada,No
Palma - Cirugias PC,Flechas y hojas bien tratadas,No
Palma - Cirugias PC,Flechas y hojas bien ubicada,No
Palma-Limpieza PC,Flechas y Hojas Bien Ubicadas,Si
Palma - Cirugias PC,Flechas y hojas en el plato,Si
Palma - Cirugias PC,Flechas y hojas mal tratadas,Si
Palma-Limpieza PC,Flechas y Hojas Mal Tratadas,Si
Palma - Cirugias PC,Flechas y hojas mal ubicada,Si
Palma-Limpieza PC,Flechas y Hojas Mal Ubicadas,Si
Palma - Cirugias PC,Flechas y hojas sin tratar,Si
Palma-Limpieza PC,Flechas y Hojas Sin Tratar,Si
Palma - Aplicación Inductores,Flor Quedada Pendiente,Si
Palma - Polinizacion asistida,Flores Ayudadas,No
Palma - Polinizacion asistida,Flores bien polinizadas,No
Palma - Aplicación Inductores,Flores con inductor bien aplicado,No
Palma - Polinizacion asistida,Flores Doblemente Polinizadas,No
Palma - Aplicación Inductores,Flores Mal Destape,Si
Palma - Polinizacion asistida,Flores Mal Destape,Si
Palma - Aplicación Inductores,Flores mal marcadas,Si
Palma - Polinizacion asistida,Flores Mal Marcadas,Si
Palma - Aplicación Inductores,Flores no aptas para aplicación,Si
Palma - Polinizacion asistida,Flores Quemadas,Si
Palma - Aplicación Inductores,Flores sin aplicar inductor,Si
Palma - Aplicación Inductores,Flores sin marcar,Si
Palma - Polinizacion asistida,Flores sin Marcar,Si
Palma - Polinizacion asistida,Flores Sin Polinizar,Si
Otros - Comparendo ambiental,Fomentar negligentemente el desaseo y desorde,Si
CACAO-RIEGO,Fugas en manguera,Si
Otros - Inspecciones EPP,Funda hachuela,Si
Otros - Inspecciones EPP,Funda macheta,Si
Otros - Inspecciones EPP,Funda malayo,Si
Palma - Sanidad vegetal,GPS activado,No
Control calidad,GPS activo,No
Palma - Sanidad vegetal,GPS inactivado,Si
Control calidad,GPS inactivo,Si
CACAO-COSECHA,Granos en cacota,Si
Otros - Inspecciones EPP,Guantes de carnaza,Si
Otros - Inspecciones EPP,Guantes de nitrilo - quimicos,Si
Otros - Inspecciones EPP,Guantes de vaqueta,Si
Otros - Comportamientos inseguros,Hacer bromas,No
SST-COMPORTAMIENTOS INSEGUROS,Hacer bromas,No
Otros - Comportamientos inseguros,Hacer bromas pesadas,No
Otros - Condiciones inseguras,Hoja Calle Cosecha,No
Otros - Condiciones inseguras,Hoja en Plato,No
Palma - Poda,Hoja mal encallada,Si
Palma - Cirugias PC,Hojas Colapsadas,Si
Palma - Poda,Hojas en canales,Si
Palma - Poda,Hojas sin encallar,Si
Cacao - Hormiga arriera,Hormiguero bien tratado,Si
Palma - Hormiga arriera,Hormiguero bien tratado,No
CACAO-DESTRUCTOR DE HORMIGAS,Hormiguero bien tratado,No
Cacao - Hormiga arriera,Hormiguero bien ubicado,No
Palma - Hormiga arriera,Hormiguero bien ubicado,No
Cacao - Hormiga arriera,Hormiguero mal ubicado,Si
Palma - Hormiga arriera,Hormiguero mal ubicado,Si
CACAO-DESTRUCTOR DE HORMIGAS,Hormiguero sin tratar,Si
CACAO-DESTRUCTOR DE HORMIGAS,Hormiguero vivo,Si
Cacao - Siembra,Hueco bien realizado,No
CACAO-SIEMBRA Y RESIEMBRA,Hueco bien realizado,No
Cacao - Siembra,Hueco mal realizado,Si
CACAO-SIEMBRA Y RESIEMBRA,Hueco mal realizado,Si
Cacao - Siembra,Hueco sin realizar,Si
CACAO-SIEMBRA Y RESIEMBRA,Hueco sin realizar,Si
Otros - Comportamientos inseguros,Ignorar procedimiento seguro,No
SST-COMPORTAMIENTOS INSEGUROS,Ignorar procedimiento seguro,No
CACAO-CASETA DE BOMBEO,INCUMPLIMIENTO DE PROGRAMACION,Si
Palma - Aplicación Inductores,Inductor Mal Distribuido,Si
Palma - Poda,Inflorescencia dejada,Si
Palma - Poda,Inflorescencia dejada,Si
CACAO-INJERTO VIVERO,Injerto muerto,Si
CACAO-RE-INJERTACION CAMPO,Injerto muerto,Si
Vivero - injertacion,Injerto muerto,Si
Cacao - Injertación,Injerto sin soltar,Si
CACAO-INJERTO VIVERO,Injerto sin soltar,Si
CACAO-RE-INJERTACION CAMPO,Injerto sin soltar,Si
Vivero - injertacion,Injerto sin soltar,Si
Cacao - Injertación,Injerto soltado,No
CACAO-INJERTO VIVERO,Injerto soltado,No
CACAO-RE-INJERTACION CAMPO,Injerto soltado,No
Vivero - injertacion,Injerto soltado,No
Cacao - Injertación,Injerto Vivo (prendimiento),Si
CACAO-INJERTO VIVERO,Injerto vivo (prendimiento),No
CACAO-RE-INJERTACION CAMPO,Injerto vivo (prendimiento),No
Vivero - injertacion,Injerto Vivo (prendimiento),No
Cacao - Injertación,Injertos muerto,No
Otros - Lectura freatimetros,Inundados,No
Cacao - control gramineas,Labor bien realizada,No
Laboratorio biologico,Labor bien realizada,No
Palma - Control gramineas,Labor bien realizada,No
Palma - Control quimico terraplen,Labor bien realizada,No
Palma - Laboratorio polen,Labor bien realizada,No
Palma - Riego - auxiliar,Labor bien realizada,No
Palma - Servicios generales,Labor bien realizada,No
Palma - Spalangias,Labor bien realizada,No
Palma-Control quimico canales,Labor bien realizada,No
CACAO-CONTROL QUIMICO,Labor bien realizada,No
Cacao - control gramineas,labor mal realizada,Si
Laboratorio biologico,Labor mal realizada,Si
Palma - Control gramineas,Labor mal realizada,Si
Palma - Control quimico terraplen,Labor mal realizada,Si
Palma - Laboratorio polen,Labor mal realizada,Si
Palma - Riego - auxiliar,Labor mal realizada,Si
Palma - Servicios generales,Labor mal realizada,Si
Palma - Spalangias,Labor mal realizada,Si
Palma-Control quimico canales,Labor mal realizada,Si
Cacao - control gramineas,Labor sin realizar,Si
CACAO-CONTROL QUIMICO,Labor sin realizar,Si
Laboratorio biologico,Labor sin realizar,Si
Palma - Laboratorio polen,Labor sin realizar,Si
Palma - Riego - auxiliar,Labor sin realizar,Si
Palma - Servicios generales,Labor sin realizar,Si
Palma - Spalangias,Labor sin realizar,Si
Otros - Comparendo ambiental,Lavar vehiculos dentro de la plantación,Si
Otros - Comportamientos inseguros,Levantar objetos de forma incorrecta,No
SST-COMPORTAMIENTOS INSEGUROS,Levantar objetos de forma incorrecta,No
Cacao - Aplicacion foliar,Linea sana,No
Cacao - Censo plantas,Linea Sana,No
Cacao - Despatronaje,Linea sana,No
Cacao - Injertación,Linea sana,No
Cacao - Plateo manual,Linea sana,No
Cacao - Roceria guadaña,Linea sana,No
Cacao - Siembra,Linea sana,No
Palma - Cirugias PC,Linea sana,No
Palma - Sanidad vegetal,Linea sana,No
Palma-Limpieza PC,Linea Sana,No
Vivero - injertacion,Linea sana,No
Palma - Strategus,Linea sin casos,No
Palma - Aplicación Inductores,Lineas sin flor para reportar,No
Palma - Polinizacion asistida,Lineas sin flor para reportar,No
Palma -Taller agricola,Llantas despinchadas,No
Palma -Taller agricola,Llantas pinchadas,Si
Palma - Riego plantacion,Lote Parcialmente Regado,Si
Palma - Riego plantacion,Lote Totalmente Regado,No
MELINA-MADERA,madera en campo sin recoger melina,Si
Palma - Limpieza canales,Maleza sin cortar,Si
Palma - Limpieza canales,Maleza Sin Retirar,Si
Palma - Limpieza canales,Maleza sin retirar,Si
Otros - Inspecciones EPP,Malla de seguridad- guadañador,Si
Palma - Riego plantacion,Manejo Adecuado del Agua,No
Palma - Riego plantacion,Manejo Inadecuado del Agua,Si
CACAO-RIEGO,Manguera arreglada,No
CACAO-ROCERIA CON GUADAÑA,Manguera cortada,Si
CACAO-PLATEO,Manguera cortada,Si
CACAO-RIEGO,Manguera sin ubicar,Si
CACAO-RIEGO,Manguera ubicada correctamente,No
Palma - Servicios generales,Mantenimiento locaciones cumple,No
Palma - Servicios generales,Mantenimiento locaciones no cumple,Si
CACAO-COSECHA,Marzoca verde cosechada,Si
Cacao - Cosecha,MAZORCA BIEN COSECHADA,No
Cacao - Cosecha,MAZORCA CON GRANOS EN CACOTA,Si
CACAO-PHYTOPHTHORA,MAZORCA CON NECROSIS,Si
Cacao - Cosecha,MAZORCA DAÑADA POR ROEDORES,No
CACAO-COSECHA,Mazorca dañada por roeedores,Si
Cacao - Cosecha,MAZORCA MADURA SIN COSECHAR,Si
CACAO-COSECHA,Mazorca madura sin cosechar,Si
Cacao - Cosecha,MAZORCA SOBREMADURA SIN COSECHAR,Si
CACAO-COSECHA,Mazorca sobremadura sin cosechar,Si
Cacao - Cosecha,MAZORCA VERDE COSECHADA,Si
Cacao - Hormiga arriera,Medicion incorrecta,Si
Palma - Hormiga arriera,Medicion Incorrecta,Si
MELINA-MADERA,medida exacta melina,No
MELINA-MADERA,medida incorrecta melina,Si
CACAO-CASETA DE BOMBEO,MEZCLA BIEN REALIZADA,No
CACAO-CASETA DE BOMBEO,MEZCLA MAL REALIZADA,Si
Palma -Taller agricola,Mto equipos 100%,No
Palma -Taller agricola,Mto equipos no cumple,Si
Palma - Riego - auxiliar,Mto freatimetros cumple,No
Palma - Riego - auxiliar,Mto freatimetros no cumple,Si
Palma - Servicios generales,Mtto zonas verdes cumple,No
Palma - Servicios generales,Mtto zonas verdes no cumple,Si
Palma - Laboratorio polen,Muestra de laboratorio al 100%,No
Palma - Laboratorio polen,Muestra de laboratorio no cumple,Si
Laboratorio biologico,Muestras de polen 100 %,No
Laboratorio biologico,Muestras de polen no cumple,Si
Palma - Limpieza canales,Nivel de Area Alto,Si
Cacao - Roceria,Nivel de roceria alta,Si
Control mecanico terraplen,Nivel de roceria alta,Si
Palma - Roceria,Nivel de Roceria Alta,Si
Otros - Comparendo ambiental,No atender charlas/capacitaciones Ambientales,Si
Palma - Control nido abejas,No controlado,No
Palma - Control nido abejas,No existe,No
Otros - Comparendo ambiental,No hacer uso del punto ecológico,Si
Otros - Comparendo ambiental,No hacer uso eficiente y ahorro de papel,Si
Otros - Comparendo ambiental,No hacer uso eficiente y racional de energia,Si
Otros - Comparendo ambiental,No hacer uso eficiente y racional del agua,Si
Otros - Comportamientos inseguros,No observar area de trabajo,No
SST-COMPORTAMIENTOS INSEGUROS,No observar area de trabajo,No
Otros - Comportamientos inseguros,No Realizo Calistenia,Si
SST-COMPORTAMIENTOS INSEGUROS,No Realizó Calistenia,No
Vivero aplicacion foliar,Numero de bombas por dia,No
Vivero encanastillados plantas,Numero de canastillas por dia,No
Palma - Limpieza canales,Obstruccion en canal,No
Otros - Comportamientos inseguros,Operar sin autorizacion,No
SST-COMPORTAMIENTOS INSEGUROS,Operar sin autorizacion,No
Otros - Orden y aseo,Orden y aseo 100%,No
Otros - Orden y aseo,Orden y aseo cumple,No
Otros - Orden y aseo,Orden y aseo cumple,No
Otros - Orden y aseo,Orden y aseo cumple,No
Otros - Orden y aseo,Orden y aseo cumple,No
Otros - Orden y aseo,Orden y aseo en zorrillo,No
Otros - Orden y aseo,Orden y aseo no cumple,Si
Otros - Orden y aseo,Orden y aseo no cumple,Si
Otros - Orden y aseo,Orden y aseo no cumple,Si
Otros - Orden y aseo,Orden y aseo no cumple,Si
Otros - Orden y aseo,Orden y aseo no cumple,Si
Otros - Condiciones inseguras,Orden y limpieza deficiente,No
SST-CONDICIONES INSEGURAS,Orden y limpieza deficiente,No
Otros - Comportamientos inseguros,Otros,No
Otros - Condiciones inseguras,Otros,No
Otros - Inspecciones EPP,Overol antifluido,Si
Palma - Erradicacion palmas,Palma bien erradicada,No
Cacao - Desbejucada,Palma Bien Tratada,No
Palma - Cirugias PC,Palma bien tratada,No
Palma - Desbejucada,Palma Bien Tratada,Si
Palma - Fumigacion palmas PC,Palma bien tratada,No
Palma - Plateo mecanico,Palma Bien Tratada,No
Palma - Plateo quimico,Palma bien tratada,No
Palma-Limpieza PC,Palma Bien Tratada,No
Palma - Sanidad vegetal,Palma bien ubicada,No
Palma - Sanidad vegetal,Palma con plaga reportada,No
Palma - Sanidad vegetal,Palma con plaga sin reportar,Si
Palma - Cirugias PC,Palma con producto mal aplicado,Si
Palma - Fumigacion palmas PC,Palma enferma fumigada,No
Palma - Sanidad vegetal,Palma enferma mal reportada,Si
Palma - Fumigacion palmas PC,Palma enferma no fumigada,Si
Palma - Sanidad vegetal,Palma enferma reportada,No
Palma - Sanidad vegetal,Palma enferma reportadas sin marcar,Si
Palma - Sanidad vegetal,Palma enferma sin reportar,Si
Palma - Fumigacion palmas PC,Palma fumigada,No
Palma - Cirugias PC,Palma incorrecta,Si
Palma - Fumigacion palmas PC,Palma incorrecta,Si
Palma-Limpieza PC,Palma Incorrecta,Si
Palma - Erradicacion palmas,Palma mal erradicada,Si
Palma - Plateo mecanico,Palma mal plateada,Si
Palma - Plateo quimico,Palma mal plateada,Si
Palma - Plateo mecanico,Palma Mal Plateada por Altura,Si
Cacao - Desbejucada,Palma Mal Tratada,Si
Palma - Cirugias PC,Palma mal tratada,Si
Palma - Desbejucada,Palma Mal Tratada,Si
Palma-Limpieza PC,Palma Mal Tratada,Si
Palma - Sanidad vegetal,Palma mal ubicada,Si
Palma - Poda,Palma no encallada,Si
Palma - Fumigacion palmas PC,Palma no fumigada,Si
Palma - Strategus,Palma Reportada Sin Daño Reciente,No
Palma - Fumigacion palmas PC,Palma sana fumigada,No
Palma - Fumigacion palmas PC,Palma sana no fumigada,Si
Palma - Erradicacion palmas,Palma sin erradicar reportada,Si
Palma - Plateo mecanico,Palma Sin Platear,Si
Palma - Plateo quimico,Palma sin Platear,Si
Palma - Plateo mecanico,Palma Sin Platear por Abejas,No
Palma - Strategus,Palma sin revisar con agujeros,No
Cacao - Desbejucada,Palma Sin Tratar,Si
Palma - Cirugias PC,Palma sin Tratar,Si
Palma - Desbejucada,Palma Sin Tratar,Si
Palma - Fumigacion palmas PC,Palma sin tratar,Si
Palma - Poda,Palmas altas,No
Palma - Poda,Palmas bien encalladas,No
Palma - Fertilizacion,Palmas bien fertilizadas,No
Palma - Poda,Palmas bien podadas,No
Palma - Poda,Palmas con exceso de poda,Si
Palma - Poda,Palmas con tacos altos,Si
Palma - Poda,Palmas para recuperar,No
Palma - Fumigacion palmas PC,Palmas reportadas sin tratar,No
Palma - Aplicación Inductores,Palmas revisadas,No
Palma - Polinizacion asistida,Palmas revisadas,No
Palma - Strategus,Palmas revisadas,No
Polinizacion Guineensis,PALMAS REVISADAS,No
Palma - Fertilizacion,Palmas Sin Fertilizar,Si
Palma - Poda,Palmas sin podar,Si
Palma - Poda,Palmas sin podar por avispas,No
Palma-Limpieza PC,Palmas Sin Tratar,Si
Palma - Spalangias,Parasitismo 100%,No
Palma - Spalangias,Parasitismo no cumple,Si
Vivero despatronaje,Patron bien cortado,No
Vivero despatronaje,Patron sin cortar,Si
CACAO-FERTI-RIEGO,pH- conductividad electrica cumple,No
CACAO-FERTI-RIEGO,pH- conductividad electrica no cumple,No
CACAO-FERTILIZACION FOLIAR,Planta bien aplicada,No
Cacao - Censo plantas,Planta bien censada,No
CACAO-COSECHA,Planta bien cosechada,No
CACAO-DESCHUPONE,Planta bien deschuponada,No
Vivero oficios varios,Planta bien deschuponada,No
Cacao - Aplicacion edafica,Planta bien fertilizada,No
Cacao - Plato tusa,Planta bien fertilizada,No
CACAO-FERTILIZACIÓN EDAFICA,Planta bien fertilizada,No
CACAO-PLATEO QUIMICO RECIEMBRA,Planta bien palteada,No
Cacao - Poda,Planta bien podada,No
CACAO-PODA,Planta bien podada,No
Vivero oficios varios,Planta bien revisada,No
CACAO-PODA,Planta con chupones,Si
CACAO-MONILIA,Planta con monilia esporuladas,Si
CACAO-MONILIA,Planta con monilia estadios tempranos,Si
Cacao - Poda,Planta con plumillas,Si
CACAO-DESCHUPONE,Planta con plumillas,Si
CACAO-PODA,Planta con plumillas,Si
Cacao - Plateo manual,Planta cortada,No
Cacao - Roceria guadaña,Planta cortada,Si
CACAO-PLATEO,Planta cortada,Si
CACAO-ROCERIA CON GUADAÑA,Planta cortada,Si
CACAO-TUMBA DE GUARUMOS Y PLATANO,PLANTA DE PLATANO ERRADICADA,No
CACAO-TUMBA DE GUARUMOS Y PLATANO,PLANTA DE PLATANO SIN ERRADICAR,Si
Vivero oficios varios,Planta descapuchonada,No
Cacao - Injertación,Planta injertada,No
CACAO-INJERTO VIVERO,Planta injertada,No
CACAO-RE-INJERTACION CAMPO,Planta injertada,No
Cacao - Censo plantas,Planta mal censada,Si
Cacao - Poda,Planta mal cicatrizada,Si
CACAO-DESCHUPONE,Planta mal cicatrizada,Si
CACAO-PODA,Planta mal cicatrizada,Si
Vivero oficios varios,Planta mal deschuponada,Si
Cacao - Aplicacion edafica,Planta mal fertilizada,Si
Cacao - Plato tusa,Planta mal fertilizada,Si
Vivero oficios varios,Planta mal revisada,Si
Vivero siembra semilla,Planta mal revisada,Si
CACAO-CONTROL QUIMICO,Planta muerta con producto,Si
CACAO-PLATEO QUIMICO RECIEMBRA,Planta Muerta por Químico,Si
Cacao - Injertación,Planta no aptas,No
CACAO-PLATEO QUIMICO RECIEMBRA,Planta no Plateada,Si
CACAO-CONTROL QUIMICO,Planta quemada con producto,Si
CACAO-FERTILIZACIÓN EDAFICA,Planta quemada con producto,Si
Cacao - Cosecha,Planta revisada,No
CACAO-FERTILIZACION FOLIAR,Planta sin aplicar,Si
Cacao - Poda,Planta sin cicatrizante,Si
CACAO-DESCHUPONE,Planta sin cicatrizante,Si
CACAO-PODA,Planta sin cicatrizante,Si
Vivero oficios varios,Planta sin descapuchonar,Si
CACAO-DESCHUPONE,Planta sin deschuponar,Si
Cacao - Despatronaje,Planta sin despatronar,Si
CACAO-DESPATRONAJE,Planta sin despatronar,Si
CACAO-DESCHUPONE,Planta sin desplumillar,Si
CACAO-FERTILIZACIÓN EDAFICA,Planta sin fertilizar,Si
Cacao - Injertación,Planta sin injertar apta,Si
Cacao - Plateo manual,Planta sin platear,Si
Cacao - Poda,Planta sin podar,Si
CACAO-PODA,Planta sin podar,Si
Cacao - Poda,Planta sin podar por avispas,No
CACAO-MONILIA,Planta sin presencia de Monilia,No
CACAO-CONTROL DE TERMITAS,planta sin tratar,Si
CACAO-CONTROL DE TERMITAS,planta tratada,No
Cacao - Despatronaje,Plantas despatronadas,No
CACAO-DESPATRONAJE,Plantas despatronadas,No
CACAO-INJERTO VIVERO,Plantas sin injertar apta,Si
CACAO-RE-INJERTACION CAMPO,Plantas sin injertar apta,Si
Vivero encanastillados plantas,Plántula apta,No
Vivero fertilizacion edafica,Plantula bien fertilizada,No
Cacao - Siembra,Plantula bien sembrada,No
CACAO-SIEMBRA Y RESIEMBRA,Plantula bien sembrada,No
Vivero Palma,Plántula bien sembrada,No
Cacao - Siembra,Plantula dañada,Si
CACAO-SIEMBRA Y RESIEMBRA,Plantula dañada,Si
Vivero - injertacion,Plántula injertada,No
Cacao - Siembra,Plantula ladeada,Si
Vivero fertilizacion edafica,Plantula mal fertilizada,Si
Cacao - Siembra,Plantula mal sembrada,Si
Vivero Palma,Plántula mal sembrada,Si
CACAO-SIEMBRA Y RESIEMBRA,Plantula mal sembrada,Si
Cacao - Censo plantulas,Plantula muerta,No
Cacao - Siembra,Plantula muerta,Si
Vivero - injertacion,Plántula no apta,No
Vivero encanastillados plantas,Plántula no apta,Si
Vivero aplicacion foliar,Plántula no tratada,Si
Cacao - Aplicacion edafica,Plantula quemada por quimico,Si
Cacao - Aplicacion foliar,Plantula quemada por quimico,Si
Cacao - Plato tusa,Plantula quemada por quimico,Si
Cacao - Aplicacion edafica,Plantula sin fertilizar,Si
Cacao - Plato tusa,Plantula sin fertilizar,Si
Vivero fertilizacion edafica,Plantula sin fertilizar,Si
Vivero - injertacion,Plántula sin injertar apta,Si
Cacao - Siembra,Plantula sin Sembrar,Si
Vivero aplicacion foliar,Plántula tratada,No
Cacao - Censo plantulas,Plantula viva,No
Palma - Tusa tapada,Plastico bien clasificado,No
Palma - Tusa tapada,Plastico bien doblados,No
Palma - Tusa tapada,Plastico mal clasificado,Si
Palma - Tusa tapada,Plastico mal doblados,No
Cacao - Plateo manual,Plato bien realizado,No
CACAO-PLATEO,Plato bien realizado,No
Cacao - Plateo manual,Plato mal realizado,Si
CACAO-PLATEO,Plato mal realizado por diametro,Si
CACAO-PLATEO,Plato mal realizado por maleza,Si
CACAO-PLATEO,Plato sin realizar,Si
Palma - Polinizacion asistida,Polen Mal Distribuido,Si
Otros - Condiciones inseguras,Presen. animales (bufalas cria-abejas-avisp),No
SST-CONDICIONES INSEGURAS,Presen. animales (bufalas cria-abejas-avisp),No
Palma - Spalangias,Produccion de spalangia 5k,No
Palma - Spalangias,Produccion de spalangia no cumple,Si
Palma - Spalangias,Produccion larvas-mosca cumple,No
Palma - Spalangias,Produccion larvas-mosca no cumple,Si
Cacao - Aplicacion foliar,Producto bien aplicado,No
CACAO-TOCONEO MELINA,PRODUCTO BIEN APLICADO,No
Palma - Erradicacion palmas,Producto bien aplicado,Si
CACAO-CONTROL DE TERMITAS,producto bien aplicado,No
CACAO-SANIDAD VEGETAL,producto bien aplicado,No
Cacao - Aplicacion foliar,Producto mal aplicado,Si
CACAO-CONTROL DE TERMITAS,producto mal aplicado,Si
CACAO-FERTILIZACIÓN EDAFICA,Producto mal aplicado,Si
CACAO-FERTILIZACION FOLIAR,Producto mal aplicado,Si
CACAO-SANIDAD VEGETAL,producto mal aplicado,Si
CACAO-TOCONEO MELINA,PRODUCTO MAL APLICADO,Si
Palma - Erradicacion palmas,Producto mal aplicado,Si
Palma - Fumigacion palmas PC,Producto mal aplicado,Si
CACAO-CONTROL QUIMICO,Producto mal aplicado,Si
CACAO-RIEGO,Programación Valvula correcta,No
CACAO-RIEGO,Programación Valvula incorrecta,Si
Otros - Inspecciones EPP,Protector auditivo tipo copa,Si
Vivero siembra semilla,Radicula desarrollada,No
Otros - Comportamientos inseguros,Rapidez en realizar labor,No
SST-COMPORTAMIENTOS INSEGUROS,Rapidez en realizar labor,No
Laboratorio biologico,Recepcion de biologico 100 %,No
Laboratorio biologico,Recepcion de biologico no cumple,Si
Palma - Laboratorio polen,Recepcion de polen cumple,No
Palma - Laboratorio polen,Recepcion de polen no cumple,Si
CACAO-CASETA DE BOMBEO,RESIDUOS DE FERTILIZANTE EN CANECAS,Si
Cacao - Siembra,Residuos de siembra en campo,Si
Otros - Inspecciones EPP,Respirador quimico,Si
Palma - Riego des-alistamiento,Retirada de carpa cumple,No
Palma - Riego des-alistamiento,Retirada de carpa no cumple,Si
Palma - Riego des-alistamiento,Retirado tablas de pontones cumple,No
Palma - Riego des-alistamiento,Retirado tablas de pontones no cumple,Si
CACAO-ROCERIA CON GUADAÑA,Roceria bien realizada,No
Cacao - Roceria guadaña,Rocería bien realizada,No
Cacao - Roceria guadaña,Roceria mal realizada,Si
CACAO-ROCERIA CON GUADAÑA,Roceria mal realizada,Si
CACAO-ROCERIA CON GUADAÑA,Roceria mal realizada por altura,Si
Cacao - Roceria guadaña,Roceria sin realizar,Si
CACAO-ROCERIA CON GUADAÑA,Roceria sin realizar,Si
Otros - Lectura freatimetros,Seco,No
Vivero siembra semilla,Semilla bien seleccionada,No
Vivero siembra semilla,Semilla bien sembrada,No
Vivero siembra semilla,Semilla centrada en la bolsa,No
Vivero siembra semilla,Semilla mal seleccionada,Si
Vivero siembra semilla,Semilla mal sembrada,Si
Vivero siembra semilla,Semilla sin radicula,Si
Vivero siembra guandul,Siembra Guandul cumple,No
Vivero siembra guandul,Siembra Guandul no Cumple,Si
Otros - Inspecciones EPP,Sin EPP,Si
CACAO-PHYTOPHTHORA,Sin presencia de Phytophthora,No
Cacao - Hormiga arriera,Sin trabajar,Si
Palma - Hormiga arriera,Sin Trabajar,Si
CACAO-SIEMBRA Y RESIEMBRA,Sitio sin resembrar,Si
Vivero Cacao,Suelo inestabla,No
Vivero llenado bolsa vivero,Suministro sustrato 100%,Si
Vivero llenado bolsa vivero,Suministro sustrato no cumple,Si
MELINA-MADERA,Surco bien arreglado melina,No
MELINA-MADERA,Surco mal arreglado melina,Si
Palma - Fumigacion palmas PC,Tarea mal realizada,No
MELINA-DESTRUCTOR DE TERMITAS,Termitas bien tratadas,No
MELINA-DESTRUCTOR DE TERMITAS,Termitas sin tratar,Si
MELINA-DESTRUCTOR DE TERMITAS,Termitas vivas,Si
Otros - Condiciones inseguras,Terreno irregular no visible,No
SST-CONDICIONES INSEGURAS,Terreno irregular no visible,No
Otros - test,test1,No
Otros - test,Test2,No
Laboratorio biologico,Tiempo labor 100 %,No
Palma - Fertilizacion,Tiempo labor cumple,No
Palma - Laboratorio polen,Tiempo labor cumple,No
Palma - Riego - auxiliar,Tiempo labor cumple,No
Palma - Sanidad vegetal,Tiempo labor cumple,No
Palma - Servicios generales,Tiempo labor cumple,No
Laboratorio biologico,Tiempo labor no cumple,Si
Palma - Fertilizacion,Tiempo labor no cumple,Si
Palma - Laboratorio polen,Tiempo labor no cumple,Si
Palma - Riego - auxiliar,Tiempo labor no cumple,Si
Palma - Sanidad vegetal,Tiempo labor no cumple,Si
Palma - Servicios generales,Tiempo labor no cumple,Si
CACAO-TOCONEO MELINA,TOCON BIEN ARREGLADO,No
CACAO-TOCONEO MELINA,TOCON MAL ARREGLADO,Si
CACAO-TOCONEO MELINA,TOCON SIN ARREGLAR,Si
CACAO-TOCONEO MELINA,TOCON SIN TRATAR,Si
Otros - Comportamientos inseguros,Trabajar bajo efecto del alcohol y/o otra,No
SST-COMPORTAMIENTOS INSEGUROS,Trabajar bajo efecto del alcohol y/o otra,No
Palma - Rhynchophorus,Trampa Bien Revisada,No
Palma - Trampas mosca,Trampa Bien revisada,No
Palma - Trampas mosca,Trampa Caida,No
Palma - Rhynchophorus,Trampa Sin Cambio de Caña,Si
Palma - Rhynchophorus,Trampa Sin Feromonas,Si
Palma - Rhynchophorus,Trampa Sin Feromonas,Si
Palma - Trampas mosca,Trampa Sin Revisar,Si
Palma - Trampas mosca,Trampa Sin Revisar,Si
Palma - Trampas mosca,Trampa Sin Revisar,Si
Palma - Rhynchophorus,Trampa Sin Revizar,Si
Palma - Riego des-alistamiento,Trincho Bien Instalado,No
Palma - Riego des-alistamiento,Trincho Mal Instalado,Si
Palma - Erradicacion palmas,Troncos en la via,Si
Cacao - Plateo manual,Tubo cortado,No
Cacao - Roceria guadaña,Tubo cortado,No
Cacao - Tusa,Tusa bien distribuida,No
Palma - Tusa,Tusa bien distribuida,No
Palma - Tusa tapada,Tusa Bien Tapada,No
Cacao - Tusa,Tusa mal distribuida,Si
Palma - Tusa,Tusa mal distribuida,Si
Palma - Tusa tapada,Tusa Mal Tapada,Si
Palma - Tusa tapada,Tusa Sin Marcacion,Si
Palma - Poda,Tusas e inflorescencias sin retirar plato,Si
Otros - Comportamientos inseguros,Ubicacion inadecuada de herramientas,No
SST-COMPORTAMIENTOS INSEGUROS,Ubicacion inadecuada de herramientas,No
Otros - Comportamientos inseguros,Uso equipo defectuoso o de inadecuado,No
SST-COMPORTAMIENTOS INSEGUROS,Uso equipo defectuoso o inadecuado,No
Otros - Comportamientos inseguros,Uso herramienta defectuosa o de inadecuada,No
SST-COMPORTAMIENTOS INSEGUROS,Uso herramienta defectuosa o inadecuada,No
Otros - Condiciones inseguras,Vegetacion alta,No
SST-CONDICIONES INSEGURAS,Vegetacion alta,No
Otros - Comparendo ambiental,Vertir sustancias tóxicas/pelig. a suelo/agua,Si
Palma - Control gramineas,Volumen mezcla correcto,No
Palma - Control quimico terraplen,Volumen mezcla correcto,No
Palma-Control quimico canales,Volumen mezcla correcto,No
Palma - Control gramineas,Volumen mezcla incorrecto,Si
Palma - Control quimico terraplen,Volumen mezcla incorrecto,Si
Palma-Control quimico canales,Volumen mezcla incorrecto,Si
