﻿ccid,name,cuc,productivity_measure,productivity_price,productivity_expected,causes
SIEMBRA 2021 PALMERAS;,Poda Super Alta Ganchero,0,Arbol,48.53,78,Clima; Recurso Humano; Recurso Mecanico; Falta de Insumos; Otros;
SIEMBRA 2021 PALMERAS;,Poda Super Alta Recolector,0,Arbol,46.45,78,Clima; Recurso Humano; Recurso Mecanico; Falta de Insumos; Otros;
SIEMBRA 2021 PALMERAS;,Poda  Alta Ganchero,0,Arbol,47.45,86,Clima; Recurso Humano; Recurso Mecanico; Falta de Insumos; Otros;
SIEMBRA 2021 PALMERAS;,Poda  Alta Recolector,0,Arbol,48.53,86,Clima; Recurso Humano; Recurso Mecanico; Falta de Insumos; Otros;
SIEMBRA 2021 PALMERAS;,Poda Mediana Ganchero,0,Arbol,46.45,110,Clima; Recurso Humano; Recurso Mecanico; Falta de Insumos; Otros;
SIEMBRA 2021 PALMERAS;,Poda Mediana Recolector,0,Arbol,47.45,110,Clima; Recurso Humano; Recurso Mecanico; Falta de Insumos; Otros;
SIEMBRA 2021 PALMERAS;,Poda Palin,0,Arbol,48.53,100,Clima; Recurso Humano; Recurso Mecanico; Falta de Insumos; Otros;
SIEMBRA 2021 PALMERAS;,Poda Super Alta Ganchero,0,Arbol,46.45,78,Clima; Recurso Humano; Recurso Mecanico; Falta de Insumos; Otros;
SIEMBRA 2021 PALMERAS;,Poda Super Alta Recolector,0,Arbol,47.45,78,Clima; Recurso Humano; Recurso Mecanico; Falta de Insumos; Otros;
SIEMBRA 2021 PALMERAS;,Poda  Alta Ganchero,0,Arbol,48.53,86,Clima; Recurso Humano; Recurso Mecanico; Falta de Insumos; Otros;
SIEMBRA 2021 PALMERAS;,Poda  Alta Recolector,0,Arbol,46.45,86,Clima; Recurso Humano; Recurso Mecanico; Falta de Insumos; Otros;
SIEMBRA 2021 PALMERAS;,Poda Mediana Ganchero,0,Arbol,47.45,110,Clima; Recurso Humano; Recurso Mecanico; Falta de Insumos; Otros;
SIEMBRA 2021 PALMERAS;,Poda Mediana Recolector,0,Arbol,48.53,110,Clima; Recurso Humano; Recurso Mecanico; Falta de Insumos; Otros;
SIEMBRA 2021 PALMERAS;,Poda Palin,0,Arbol,46.45,100,Clima; Recurso Humano; Recurso Mecanico; Falta de Insumos; Otros;
SIEMBRA 2021 PALMERAS;,Plateo Sin R35,0,Arbol,46.45,327.5,Clima; Recurso Humano; Recurso Mecanico; Falta de Insumos; Otros;
SIEMBRA 2021 PALMERAS;,Plateo Con R35,0,Arbol,47.45,246,Clima; Recurso Humano; Recurso Mecanico; Falta de Insumos; Otros;
SIEMBRA 2021 PALMERAS;,Plateo Quimico Con Herbis,0,Arbol,48.53,900,Clima; Recurso Humano; Recurso Mecanico; Falta de Insumos; Otros;
SIEMBRA 2021 PALMERAS;,Fertilización Manual De 1900 - 2199 Gr/Palm ,0,Arbol,46.45,900,Clima; Recurso Humano; Recurso Mecanico; Falta de Insumos; Otros;
SIEMBRA 2021 PALMERAS;,Fertilización Manual De 2200 - 2499 Gr/Palm ,0,Arbol,47.45,850,Clima; Recurso Humano; Recurso Mecanico; Falta de Insumos; Otros;
SIEMBRA 2021 PALMERAS;,Fertilización Manual De 2500 - 2799 Gr/Palm ,0,Arbol,48.53,800,Clima; Recurso Humano; Recurso Mecanico; Falta de Insumos; Otros;
SIEMBRA 2021 PALMERAS;,Fertilización Manual De 2800 - 3099 Gr/Palm ,0,Arbol,46.45,750,Clima; Recurso Humano; Recurso Mecanico; Falta de Insumos; Otros;
SIEMBRA 2021 PALMERAS;,Plateo Con Azadon ,0,Arbol,47.45,103.24,Clima; Recurso Humano; Recurso Mecanico; Falta de Insumos; Otros;
SIEMBRA 2021 PALMERAS;,Fertilizacion Manual 1601-1899 Gr/Palm,0,Arbol,47.45,1000,Clima; Recurso Humano; Recurso Mecanico; Falta de Insumos; Otros;
SIEMBRA 2021 PALMERAS;,Aplicacion De Enmiendas Manual De 1900 - 2199 Gr/Palm       ,0,Arbol,46.45,900,Clima; Recurso Humano; Recurso Mecanico; Falta de Insumos; Otros;
SIEMBRA 2021 PALMERAS;,Poda Con Cargador Telescopico                               ,0,Arbol,47.45,0,Clima; Recurso Humano; Recurso Mecanico; Falta de Insumos; Otros;
SIEMBRA 2021 PALMERAS;,Plateo Quimico Con Bomba De Espalda                         ,0,Arbol,48.53,450,Clima; Recurso Humano; Recurso Mecanico; Falta de Insumos; Otros;
SIEMBRA 2021 PALMERAS;,Cortamaleza 3X2 Lotes Siembras Mayores De 8 Años ,0,Hectáreas,48.53,9.5,Clima; Recurso Humano; Recurso Mecanico; Falta de Insumos; Otros;
SIEMBRA 2021 PALMERAS;,Cortamaleza 3X3 Lotes Siembras Mayores De 3 Años Menores De 8 Años,0,Hectáreas,46.45,6.1,Clima; Recurso Humano; Recurso Mecanico; Falta de Insumos; Otros;
SIEMBRA 2021 PALMERAS;,Cortamaleza  3 X 3    Lotes Siembras Menores De 3 Años   ,0,Hectáreas,47.45,6.9,Clima; Recurso Humano; Recurso Mecanico; Falta de Insumos; Otros;
SIEMBRA 2021 PALMERAS;,Cortamaleza En Lotes De Ganaderia,0,Hectáreas,48.53,11,Clima; Recurso Humano; Recurso Mecanico; Falta de Insumos; Otros;
SIEMBRA 2021 PALMERAS;,Pase Arado Cinceles X Ha                             ,0,Hectáreas,46.45,4.5,Clima; Recurso Humano; Recurso Mecanico; Falta de Insumos; Otros;
SIEMBRA 2021 PALMERAS;,Pase Pulidor X Ha,0,Hectáreas,47.45,10.5,Clima; Recurso Humano; Recurso Mecanico; Falta de Insumos; Otros;
SIEMBRA 2021 PALMERAS;,Pase Cortamaleza  3X3 Y 3X2  En Lotes Con Zanjado ,0,Hectáreas,48.53,5.3,Clima; Recurso Humano; Recurso Mecanico; Falta de Insumos; Otros;
SIEMBRA 2021 PALMERAS;,Pase Rastra X Ha,0,Hectáreas,46.45,8.5,Clima; Recurso Humano; Recurso Mecanico; Falta de Insumos; Otros;
SIEMBRA 2021 PALMERAS;,Pase Cortamalezas 3 X 3 Y 3 X 2 En Lotes Con Zanjas Camelias,0,Hectáreas,47.45,4.8,Clima; Recurso Humano; Recurso Mecanico; Falta de Insumos; Otros;
SIEMBRA 2021 PALMERAS;,Pase Arado De Cincel Con Dos Ganchos Y 4 Pases Por Calles,0,Hectáreas,48.53,3.7,Clima; Recurso Humano; Recurso Mecanico; Falta de Insumos; Otros;
SIEMBRA 2021 PALMERAS;,Apertura De Zanjas Para Riego En Siembras Mayores A Dos Años,0,Hectáreas,46.45,15,Clima; Recurso Humano; Recurso Mecanico; Falta de Insumos; Otros;
SIEMBRA 2021 PALMERAS;,Apertura De Zanjas Para Riego En Siembras   Menores A Dos Años,0,Hectáreas,47.45,17,Clima; Recurso Humano; Recurso Mecanico; Falta de Insumos; Otros;
SIEMBRA 2021 PALMERAS;,Pase De Desbrozadora Para Apertura De Zanjas De Riego,0,Hectáreas,48.53,15,Clima; Recurso Humano; Recurso Mecanico; Falta de Insumos; Otros;
SIEMBRA 2021 PALMERAS;,Fertilizacion Mecanizada De 1 punto 5 A 1 punto 99 Ton/Ha,0,Hectáreas,46.45,9.1,Clima; Recurso Humano; Recurso Mecanico; Falta de Insumos; Otros;
SIEMBRA 2021 PALMERAS;,Cortamaleza 3X2 Ensayo Siembras Mayores De 8 Año ,0,Hectáreas,48.53,7,Clima; Recurso Humano; Recurso Mecanico; Falta de Insumos; Otros;
SIEMBRA 2021 PALMERAS;,Fertilizacion Mecanizada De 0 punto 5 A 0 punto 99 Ton/Ha,0,Hectáreas,48.53,13,Clima; Recurso Humano; Recurso Mecanico; Falta de Insumos; Otros;
SIEMBRA 2021 PALMERAS;,Pase Arado De Cincel Con Dos Ganchos Y 2 Pases Por Calle ,0,Hectáreas,46.45,3.95,Clima; Recurso Humano; Recurso Mecanico; Falta de Insumos; Otros;
SIEMBRA 2021 PALMERAS;,Fertilizacion Mecanizada Con Boleadora Tolva Pequeña,0,Hectáreas,46.45,12,Clima; Recurso Humano; Recurso Mecanico; Falta de Insumos; Otros;
SIEMBRA 2021 PALMERAS;,Fertilizacion Mecanizada 0 punto 1 A 0 punto 49 Ton/Ha ,0,Hectáreas,48.53,17.7669851,Clima; Recurso Humano; Recurso Mecanico; Falta de Insumos; Otros;
SIEMBRA 2021 PALMERAS;,Fertilizacion Mecanizada 1 A 1 punto 49 Ton/Ha,0,Hectáreas,46.45,10.7,Clima; Recurso Humano; Recurso Mecanico; Falta de Insumos; Otros;
SIEMBRA 2021 PALMERAS;,Fertilizacion Mecanizada 2 A 2 punto 49 Ton/Ha,0,Hectáreas,47.45,7.9,Clima; Recurso Humano; Recurso Mecanico; Falta de Insumos; Otros;
SIEMBRA 2021 PALMERAS;,Fertilizacion Mecanizada 2 punto 5 A 2 punto 99 Ton/Ha,0,Hectáreas,48.53,7,Clima; Recurso Humano; Recurso Mecanico; Falta de Insumos; Otros;
SIEMBRA 2021 PALMERAS;,Fertilizacion Mecanizada 3 A 3 punto 49 Ton/Ha ,0,Hectáreas,46.45,6.2,Clima; Recurso Humano; Recurso Mecanico; Falta de Insumos; Otros;
SIEMBRA 2021 PALMERAS;,Fertilizacion Mecanizada 3 punto 5 A 3 punto 99 Ton/Ha ,0,Hectáreas,47.45,6,Clima; Recurso Humano; Recurso Mecanico; Falta de Insumos; Otros;
SIEMBRA 2021 PALMERAS;,Fertilizacion Mecanizada 4 A 4 punto 49 Ton/Ha,0,Hectáreas,48.53,5.1,Clima; Recurso Humano; Recurso Mecanico; Falta de Insumos; Otros;
SIEMBRA 2021 PALMERAS;,Fertilizacion Mecanizada Con Boleadora Tolva Grande,0,Hectáreas,47.45,40,Clima; Recurso Humano; Recurso Mecanico; Falta de Insumos; Otros;
SIEMBRA 2021 PALMERAS;,Cortamaleza 3 Pases,0,Hectáreas,46.45,0,Clima; Recurso Humano; Recurso Mecanico; Falta de Insumos; Otros;
SIEMBRA 2021 PALMERAS;,cortamaleza 3 pases en lotes con zanjas,0,Hectáreas,47.45,0,Clima; Recurso Humano; Recurso Mecanico; Falta de Insumos; Otros;
SIEMBRA 2021 PALMERAS;,Cortamaleza 3X1 Lotes Siembras Mayores De 3 Años Menores De 8 Años,0,Hectáreas,48.53,18.3,Clima; Recurso Humano; Recurso Mecanico; Falta de Insumos; Otros;
SIEMBRA 2021 PALMERAS;,Cortamaleza  3 X 1   Lotes Siembras Menores De 3 Años  ,0,Hectáreas,46.45,20.7,Clima; Recurso Humano; Recurso Mecanico; Falta de Insumos; Otros;
SIEMBRA 2021 PALMERAS;,Cortamaleza 3X1 Siembras Mayores De 8 Año ,0,Hectáreas,47.45,14,Clima; Recurso Humano; Recurso Mecanico; Falta de Insumos; Otros;
SIEMBRA 2021 PALMERAS;,Pase Cortamaleza  3X1  En Lotes Con Zanjado,0,Hectáreas,48.53,10.6,Clima; Recurso Humano; Recurso Mecanico; Falta de Insumos; Otros;
SIEMBRA 2021 PALMERAS;,Pase Cortamalezas 3x1 En Lotes Con Zanjas Camelias,0,Hectáreas,46.45,9.6,Clima; Recurso Humano; Recurso Mecanico; Falta de Insumos; Otros;
SIEMBRA 2021 PALMERAS;,Fertilización con tolva grande dosis ciclo completo,0,Hectáreas,47.45,30,Clima; Recurso Humano; Recurso Mecanico; Falta de Insumos; Otros;
SIEMBRA 2021 PALMERAS;,Cortamaleza 3x1,0,Hectáreas,48.53,15,Clima; Recurso Humano; Recurso Mecanico; Falta de Insumos; Otros;
SIEMBRA 2021 PALMERAS;,Fertilización Mecanizada De 0 a 300 Kg/Ha,0,Hectáreas,48.53,35.52631579,Clima; Recurso Humano; Recurso Mecanico; Falta de Insumos; Otros;
SIEMBRA 2021 PALMERAS;,Fertilización Mecanizada De 301 a 600 Kg/Ha,0,Hectáreas,46.45,26.68332014,Clima; Recurso Humano; Recurso Mecanico; Falta de Insumos; Otros;
SIEMBRA 2021 PALMERAS;,Fertilización Mecanizada De 601 a 1200 Kg/Ha,0,Hectáreas,47.45,19.275,Clima; Recurso Humano; Recurso Mecanico; Falta de Insumos; Otros;
SIEMBRA 2021 PALMERAS;,Cosecha Fruta Compensacion,0,Hora,48.53,0,Clima; Recurso Humano; Recurso Mecanico; Falta de Insumos; Otros;
SIEMBRA 2021 PALMERAS;,Permisos Remunerados ,0,Hora,47.45,0,Clima; Recurso Humano; Recurso Mecanico; Falta de Insumos; Otros;
SIEMBRA 2021 PALMERAS;,Compensatorios,0,Hora,48.53,0,Clima; Recurso Humano; Recurso Mecanico; Falta de Insumos; Otros;
SIEMBRA 2021 PALMERAS;,Operación Y Vigilancia De Riego,0,Hora,46.45,0,Clima; Recurso Humano; Recurso Mecanico; Falta de Insumos; Otros;
SIEMBRA 2021 PALMERAS;,Compensacion Cortamaleza Ensayo Siembras Mayores De 8 Año ,0,Hora,47.45,0,Clima; Recurso Humano; Recurso Mecanico; Falta de Insumos; Otros;
SIEMBRA 2021 PALMERAS;,Cortamaleza 3 Pases,0,Hora,47.45,0,Clima; Recurso Humano; Recurso Mecanico; Falta de Insumos; Otros;
SIEMBRA 2021 PALMERAS;,Cortamaleza Compensacion,0,Hora,46.45,0,Clima; Recurso Humano; Recurso Mecanico; Falta de Insumos; Otros;
SIEMBRA 2021 PALMERAS;,Compensacion Tractorista,0,Hora,46.45,0,Clima; Recurso Humano; Recurso Mecanico; Falta de Insumos; Otros;
SIEMBRA 2021 PALMERAS;,Compensacion Tractorista,0,Hora,47.45,0,Clima; Recurso Humano; Recurso Mecanico; Falta de Insumos; Otros;
SIEMBRA 2021 PALMERAS;,Compensacion Oficios Varios,0,Hora,48.53,0,Clima; Recurso Humano; Recurso Mecanico; Falta de Insumos; Otros;
SIEMBRA 2021 PALMERAS;,Plateo Compensacion,0,Hora,46.45,0,Clima; Recurso Humano; Recurso Mecanico; Falta de Insumos; Otros;
SIEMBRA 2021 PALMERAS;,Actividades De Bienestar- Desarrollo Y Recursos Humanos     ,0,Hora,47.45,0,Clima; Recurso Humano; Recurso Mecanico; Falta de Insumos; Otros;
SIEMBRA 2021 PALMERAS;,Compensacion Por Lluvia                                     ,0,Hora,48.53,0,Clima; Recurso Humano; Recurso Mecanico; Falta de Insumos; Otros;
SIEMBRA 2021 PALMERAS;,Capacitaciones- Cursos E Inducciones                        ,0,Hora,46.45,0,Clima; Recurso Humano; Recurso Mecanico; Falta de Insumos; Otros;
SIEMBRA 2021 PALMERAS;,Cosecha Compensacion                                  ,0,Hora,47.45,0,Clima; Recurso Humano; Recurso Mecanico; Falta de Insumos; Otros;
SIEMBRA 2021 PALMERAS;,Disposicion De Raquiz                                       ,0,Hora,48.53,0,Clima; Recurso Humano; Recurso Mecanico; Falta de Insumos; Otros;
SIEMBRA 2021 PALMERAS;,Labores De Sanidad                                          ,0,Hora,46.45,0,Clima; Recurso Humano; Recurso Mecanico; Falta de Insumos; Otros;
SIEMBRA 2021 PALMERAS;,Labores De Ganaderia                                        ,0,Hora,47.45,0,Clima; Recurso Humano; Recurso Mecanico; Falta de Insumos; Otros;
SIEMBRA 2021 PALMERAS;,Labores De Infraestructura                                  ,0,Hora,48.53,0,Clima; Recurso Humano; Recurso Mecanico; Falta de Insumos; Otros;
SIEMBRA 2021 PALMERAS;,Labores Agronomicas                                         ,0,Hora,46.45,0,Clima; Recurso Humano; Recurso Mecanico; Falta de Insumos; Otros;
SIEMBRA 2021 PALMERAS;,Arreglo Y Mantenimiento De Maquinaria E Implementos         ,0,Hora,47.45,0,Clima; Recurso Humano; Recurso Mecanico; Falta de Insumos; Otros;
SIEMBRA 2021 PALMERAS;,Cortamaleza Desbrozado                                      ,0,Hora,48.53,0,Clima; Recurso Humano; Recurso Mecanico; Falta de Insumos; Otros;
SIEMBRA 2021 PALMERAS;,Disposicion Raquiz Tractorista                              ,0,Hora,46.45,0,Clima; Recurso Humano; Recurso Mecanico; Falta de Insumos; Otros;
SIEMBRA 2021 PALMERAS;,Labores De Infraestructura Tractorista                      ,0,Hora,47.45,0,Clima; Recurso Humano; Recurso Mecanico; Falta de Insumos; Otros;
SIEMBRA 2021 PALMERAS;,Arreglo Y Mant De Maq E Implementos Tractorista             ,0,Hora,48.53,0,Clima; Recurso Humano; Recurso Mecanico; Falta de Insumos; Otros;
SIEMBRA 2021 PALMERAS;,Aplicación Enmiendas Lote Maiz                              ,0,Hora,48.53,0,Clima; Recurso Humano; Recurso Mecanico; Falta de Insumos; Otros;
SIEMBRA 2021 PALMERAS;,Cosecha Fruto Con Manipulador Telescopico                   ,0,Hora,46.45,0,Clima; Recurso Humano; Recurso Mecanico; Falta de Insumos; Otros;
SIEMBRA 2021 PALMERAS;,Compensacion Tractorista Con Manipulador                    ,0,Hora,47.45,0,Clima; Recurso Humano; Recurso Mecanico; Falta de Insumos; Otros;
SIEMBRA 2021 PALMERAS;,Compensacion Copaso Y Convivencia                           ,0,Hora,48.53,0,Clima; Recurso Humano; Recurso Mecanico; Falta de Insumos; Otros;
SIEMBRA 2021 PALMERAS;,YARA VITA OFICIOS VARIOS,0,Hora,46.45,0,Clima; Recurso Humano; Recurso Mecanico; Falta de Insumos; Otros;
SIEMBRA 2021 PALMERAS;,Compensacion Tractorista Enmiendas,0,Hora,48.53,0,Clima; Recurso Humano; Recurso Mecanico; Falta de Insumos; Otros;
SIEMBRA 2021 PALMERAS;,Cargue de Fertilizante Big Bag,0,Hora,48.53,0,Clima; Recurso Humano; Recurso Mecanico; Falta de Insumos; Otros;
SIEMBRA 2021 PALMERAS;,Cosecha Fruta Palma Super Alta Ganchero,0,Kilogramos,46.45,1700,Clima; Recurso Humano; Recurso Mecanico; Falta de Insumos; Otros;
SIEMBRA 2021 PALMERAS;,Cosecha Fruta Palma Super Alta Tractorista,0,Kilogramos,47.45,1700,Clima; Recurso Humano; Recurso Mecanico; Falta de Insumos; Otros;
SIEMBRA 2021 PALMERAS;,Cosecha Fruta Palma  Super Alta Recolector,0,Kilogramos,48.53,1700,Clima; Recurso Humano; Recurso Mecanico; Falta de Insumos; Otros;
SIEMBRA 2021 PALMERAS;,Cosecha Fruta Palma  Alta Ganchero,0,Kilogramos,46.45,2292.1,Clima; Recurso Humano; Recurso Mecanico; Falta de Insumos; Otros;
SIEMBRA 2021 PALMERAS;,Cosecha Fruta Palma Alta Tractorista,0,Kilogramos,47.45,2292.1,Clima; Recurso Humano; Recurso Mecanico; Falta de Insumos; Otros;
SIEMBRA 2021 PALMERAS;,Cosecha Fruta Palma  Alta Recolector,0,Kilogramos,48.53,2292.1,Clima; Recurso Humano; Recurso Mecanico; Falta de Insumos; Otros;
SIEMBRA 2021 PALMERAS;,Cosecha Fruta Palma  Mediana Ganchero,0,Kilogramos,46.45,2326,Clima; Recurso Humano; Recurso Mecanico; Falta de Insumos; Otros;
SIEMBRA 2021 PALMERAS;,Cosecha Fruta Palma  Mediana Tractorista,0,Kilogramos,47.45,2326,Clima; Recurso Humano; Recurso Mecanico; Falta de Insumos; Otros;
SIEMBRA 2021 PALMERAS;,Cosecha Fruta Palma  Mediana Recolector,0,Kilogramos,48.53,2326,Clima; Recurso Humano; Recurso Mecanico; Falta de Insumos; Otros;
SIEMBRA 2021 PALMERAS;,Cosecha Fruta Palma Fusion  Ganchero 3 Er Año,0,Kilogramos,46.45,1812.4,Clima; Recurso Humano; Recurso Mecanico; Falta de Insumos; Otros;
SIEMBRA 2021 PALMERAS;,Cosecha Fruta Palma Fusion Tractorista 3 Er  Año ,0,Kilogramos,47.45,1812.4,Clima; Recurso Humano; Recurso Mecanico; Falta de Insumos; Otros;
SIEMBRA 2021 PALMERAS;,Cosecha Fruta Palma Fusion Recolector 3 Er Do Año ,0,Kilogramos,48.53,1812.4,Clima; Recurso Humano; Recurso Mecanico; Falta de Insumos; Otros;
SIEMBRA 2021 PALMERAS;,Cosecha Palin Menor A 0 punto 5 Metros,0,Kilogramos,46.45,545,Clima; Recurso Humano; Recurso Mecanico; Falta de Insumos; Otros;
SIEMBRA 2021 PALMERAS;,Cosecha Palin Mayor A 0 punto 5 Metros,0,Kilogramos,47.45,1700,Clima; Recurso Humano; Recurso Mecanico; Falta de Insumos; Otros;
SIEMBRA 2021 PALMERAS;,Cosecha Fruta Palin Menor A 0 punto 5 Metros Con Shtel            ,0,Kilogramos,46.45,545,Clima; Recurso Humano; Recurso Mecanico; Falta de Insumos; Otros;
SIEMBRA 2021 PALMERAS;,Cosecha Fruta Palin Mayor A 0 punto 5 Metros Con Sthell           ,0,Kilogramos,47.45,1700,Clima; Recurso Humano; Recurso Mecanico; Falta de Insumos; Otros;
SIEMBRA 2021 PALMERAS;,Cosecha Palin De 545-799                                    ,0,Kilogramos,48.53,545,Clima; Recurso Humano; Recurso Mecanico; Falta de Insumos; Otros;
SIEMBRA 2021 PALMERAS;,Cosecha Palin De 800-1122                                   ,0,Kilogramos,46.45,800,Clima; Recurso Humano; Recurso Mecanico; Falta de Insumos; Otros;
SIEMBRA 2021 PALMERAS;,Cosecha Palin De 1123-1399                                  ,0,Kilogramos,47.45,1123,Clima; Recurso Humano; Recurso Mecanico; Falta de Insumos; Otros;
SIEMBRA 2021 PALMERAS;,Cosecha Palin De 1400-1699                                  ,0,Kilogramos,48.53,1400,Clima; Recurso Humano; Recurso Mecanico; Falta de Insumos; Otros;
SIEMBRA 2021 PALMERAS;,Cosecha Palin 1700 A 8 M                                    ,0,Kilogramos,46.45,1700,Clima; Recurso Humano; Recurso Mecanico; Falta de Insumos; Otros;
SIEMBRA 2021 PALMERAS;,Cosecha Fruta Palma Fusion  Ganchero 1 Er Año ,0,Kilogramos,47.45,2188.4,Clima; Recurso Humano; Recurso Mecanico; Falta de Insumos; Otros;
SIEMBRA 2021 PALMERAS;,Cosecha Fruta Palma Fusion Tractorista 1 Er  Año,0,Kilogramos,48.53,2178.5,Clima; Recurso Humano; Recurso Mecanico; Falta de Insumos; Otros;
SIEMBRA 2021 PALMERAS;,Cosecha Fruta Palma Fusion Recolector 1 Er Do Año ,0,Kilogramos,46.45,2207.7,Clima; Recurso Humano; Recurso Mecanico; Falta de Insumos; Otros;
SIEMBRA 2021 PALMERAS;,Cosecha Fruta Palma Fusion  Ganchero 2 Do Año ,0,Kilogramos,47.45,1940.6,Clima; Recurso Humano; Recurso Mecanico; Falta de Insumos; Otros;
SIEMBRA 2021 PALMERAS;,Cosecha Fruta Palma Fusion Tractorista 2 Do  Año ,0,Kilogramos,48.53,1940.6,Clima; Recurso Humano; Recurso Mecanico; Falta de Insumos; Otros;
SIEMBRA 2021 PALMERAS;,Cosecha Fruta Palma Fusion Recolector 2 Do Do Año,0,Kilogramos,46.45,1940.6,Clima; Recurso Humano; Recurso Mecanico; Falta de Insumos; Otros;
SIEMBRA 2021 PALMERAS;,Cosecha Manipulador Ganchero,0,Kilogramos,47.45,1700,Clima; Recurso Humano; Recurso Mecanico; Falta de Insumos; Otros;
SIEMBRA 2021 PALMERAS;,Cosecha Manipulador Conductor,0,Kilogramos,48.53,2292.1,Clima; Recurso Humano; Recurso Mecanico; Falta de Insumos; Otros;
SIEMBRA 2021 PALMERAS;,Cosecha Manipulador Recolector,0,Kilogramos,46.45,2292.1,Clima; Recurso Humano; Recurso Mecanico; Falta de Insumos; Otros;
SIEMBRA 2021 PALMERAS;,Cargue De Fruta,0,Kilogramos,47.45,0,Clima; Recurso Humano; Recurso Mecanico; Falta de Insumos; Otros;
SIEMBRA 2021 PALMERAS;,Cargue de Fruto,0,Kilogramos,46.45,0,Clima; Recurso Humano; Recurso Mecanico; Falta de Insumos; Otros;
SIEMBRA 2021 PALMERAS;,Cosecha Fruta Perú Palma  Mediana Ganchero ,0,Kilogramos,46.45,1952.33,Clima; Recurso Humano; Recurso Mecanico; Falta de Insumos; Otros;
SIEMBRA 2021 PALMERAS;,Cosecha Fruta Perú Palma Mediana Tractorista,0,Kilogramos,47.45,1952.33,Clima; Recurso Humano; Recurso Mecanico; Falta de Insumos; Otros;
SIEMBRA 2021 PALMERAS;,Cosecha Fruta Palma  Perú Mediana Recolector,0,Kilogramos,48.53,1952.33,Clima; Recurso Humano; Recurso Mecanico; Falta de Insumos; Otros;
SIEMBRA 2021 PALMERAS;,Cargue De Fertilizante,0,Toneladas,47.45,9.5,Clima; Recurso Humano; Recurso Mecanico; Falta de Insumos; Otros;
