﻿cid,fids,code,firstName,lastName,typeID,numberID,email,receiveEmail,onlineAccess,contractType,hireDate,contractTerminationDate,periodicity,salary,otherSalaryIncome,otherNonSalaryIncome,job,hours,vacationDays,transportationSubsidy,paymentMethods,bank,accountType,accountNumber,birthDate,homeAddress,cellphone,employeesProtections,roles
INFINITY CROPS S.A.S,La Esperanza;,001,CINDY MARCELA,PUERTA VELEZ,Cedula,1128274285,infinitycropsas@gmail.com,false,SI,Contrato indefinido ,,,Quincenal,1160000,0,0,Gerente,0,0,false,Transferencia,,Cuenta de ahorros,,,,,,;
INFINITY CROPS S.A.S,La Esperanza;,002,JORGE JUNIOR,PUERTA VELEZ,Cedula,8028431,,false,SI,Contrato indefinido ,,,Quincenal,1160000,0,0,JUNTA DIRECTIVA,0,0,false,Transferencia,,Cuenta de ahorros,,,,,,;
INFINITY CROPS S.A.S,La Esperanza;,003,JORGE ENRIQUE,PUERTA ALANDETE,Cedula,70068475,,false,SI,Contrato indefinido ,,,Quincenal,1160000,0,0,JUNTA DIRECTIVA,0,0,false,Transferencia,,Cuenta de ahorros,,,,,,;
INFINITY CROPS S.A.S,La Esperanza;,004,DUBAN ARLEY,AGUIRRE AGUIRRE,Cedula,1041204598,,false,NO,Contrato indefinido ,,,Quincenal,1160000,140606,92194,JEFE DE CAMPO,0,0,false,Transferencia,,Cuenta de ahorros,,,,,,;
INFINITY CROPS S.A.S,La Esperanza;,005,SEBASTIAN DE JESUS,AGUIRRE AGUIRRE,Cedula,1041205171,,false,NO,Contrato indefinido ,,,Quincenal,1160000,140606,92194,OFICIOS VARIOS,0,0,false,Transferencia,,Cuenta de ahorros,,,,,,;
INFINITY CROPS S.A.S,La Esperanza;,006,JOSE MARIA,ARANGO GONZALES,Cedula,70828588,,false,NO,Contrato indefinido ,,,Quincenal,1160000,140606,92194,OFICIOS VARIOS,0,0,false,Transferencia,,Cuenta de ahorros,,,,,,;
INFINITY CROPS S.A.S,La Esperanza;,007,ELMER,GIRALDO GARCIA,Cedula,1036250800,,false,NO,Contrato indefinido ,,,Quincenal,1160000,140606,92194,OFICIOS VARIOS,0,0,false,Transferencia,,Cuenta de ahorros,,,,,,;
INFINITY CROPS S.A.S,La Esperanza;,008,ROMAN DANILO,HERNANDEZ LOPEZ,Cedula,70829600,,false,NO,Contrato indefinido ,,,Quincenal,1160000,140606,92194,OFICIOS VARIOS,0,0,false,Transferencia,,Cuenta de ahorros,,,,,,;
INFINITY CROPS S.A.S,La Esperanza;,009,FABER ANDRES,IDARRAGA HERNANDEZ,Cedula,1041204695,,false,NO,Contrato indefinido ,,,Quincenal,1160000,140606,92194,OFICIOS VARIOS,0,0,false,Transferencia,,Cuenta de ahorros,,,,,,;
INFINITY CROPS S.A.S,La Esperanza;,010,ORLANDO MANUEL,HOYOS BARON,Cedula,70525640,,false,NO,Contrato indefinido ,,,Quincenal,1160000,140606,92194,OFICIOS VARIOS,0,0,false,Transferencia,,Cuenta de ahorros,,,,,,;
INFINITY CROPS S.A.S,La Esperanza;,011,LAURA CRISTINA,GALLO GALARCIO,Cedula,1193205616,,false,NO,Contrato indefinido ,,,Quincenal,1160000,140606,92194,OFICIOS VARIOS,0,0,false,Transferencia,,Cuenta de ahorros,,,,,,;
INFINITY CROPS S.A.S,La Esperanza;,012,CRISTIAN JOHAN,GIRALDO CASTRILLON,Cedula,1007311493,,false,NO,Contrato indefinido ,,,Quincenal,1160000,140606,92194,OFICIOS VARIOS,0,0,false,Transferencia,,Cuenta de ahorros,,,,,,;
INFINITY CROPS S.A.S,La Esperanza;,013,JUAN DAVID,GAVIRIA,Cedula,1035391839,,false,NO,Contrato indefinido ,,,Quincenal,1160000,140606,92194,OFICIOS VARIOS,0,0,false,Transferencia,,Cuenta de ahorros,,,,,,;
INFINITY CROPS S.A.S,La Esperanza;,014,LUIS FERNANDO,LORA HOYOS,Cedula,1192723341,,false,NO,Contrato indefinido ,,,Quincenal,1160000,140606,92194,OFICIOS VARIOS,0,0,false,Transferencia,,Cuenta de ahorros,,,,,,;
INFINITY CROPS S.A.S,La Esperanza;,015,DIEGO ALEXIS,HERNANDEZ LOPEZ,Cedula,1041204669,,false,NO,Contrato indefinido ,,,Quincenal,1160000,140606,92194,OFICIOS VARIOS,0,0,false,Transferencia,,Cuenta de ahorros,,,,,,;
INFINITY CROPS S.A.S,La Esperanza;,016,EDGAR ANTONIO,ZULUAGA CIRO,Cedula,3551954,,false,NO,Contrato indefinido ,,,Quincenal,1160000,140606,92194,OFICIOS VARIOS,0,0,false,Transferencia,,Cuenta de ahorros,,,,,,;
INFINITY CROPS S.A.S,La Esperanza;,017,DANIEL DE JESUS,PATIÑO DUQUE,Cedula,3551731,,false,NO,Contrato indefinido ,,,Quincenal,1160000,140606,92194,OFICIOS VARIOS,0,0,false,Transferencia,,Cuenta de ahorros,,,,,,;
INFINITY CROPS S.A.S,La Esperanza;,018,POMPILIO DE JESUS,AGUIRRE AGUIRRE,Cedula,1041203603,,false,NO,Contrato indefinido ,,,Quincenal,1160000,140606,92194,OFICIOS VARIOS,0,0,false,Transferencia,,Cuenta de ahorros,,,,,,;
INFINITY CROPS S.A.S,La Esperanza;,020,SEBASTIAN ALEXANDER,GOMEZ GIRALDO,Cedula,1001646627,,false,NO,Contrato indefinido ,,,Quincenal,1160000,140606,92194,OFICIOS VARIOS,0,0,false,Transferencia,,Cuenta de ahorros,,,,,,;
INFINITY CROPS S.A.S,La Esperanza;,021,CARLOS MARIO,AURIA GUZMAN,Cedula,1001646697,,false,NO,Contrato indefinido ,,,Quincenal,1160000,140606,92194,OFICIOS VARIOS,0,0,false,Transferencia,,Cuenta de ahorros,,,,,,;
INFINITY CROPS S.A.S,La Esperanza;,022,DAIRON,RODRIGUEZ GOEZ,Cedula,1038817043,,false,NO,Contrato indefinido ,,,Quincenal,1160000,140606,92194,OFICIOS VARIOS,0,0,false,Transferencia,,Cuenta de ahorros,,,,,,;
INFINITY CROPS S.A.S,La Esperanza;,023,MANUEL ENRIQUE,ALVAREZ ANAYA,Cedula,1003101213,,false,NO,Contrato indefinido ,,,Quincenal,1160000,140606,92194,OFICIOS VARIOS,0,0,false,Transferencia,,Cuenta de ahorros,,,,,,;
INFINITY CROPS S.A.S,La Esperanza;,024,EDINSON,CANO,Cedula,1007716090,,false,NO,Contrato indefinido ,,,Quincenal,1160000,140606,92194,OFICIOS VARIOS,0,0,false,Transferencia,,Cuenta de ahorros,,,,,,;
INFINITY CROPS S.A.S,La Esperanza;,025,JHONATAN ALFREDO,NARVAEZ GOMEZ,Cedula,1094906856,,false,NO,Contrato indefinido ,,,Quincenal,1160000,140606,92194,OFICIOS VARIOS,0,0,false,Transferencia,,Cuenta de ahorros,,,,,,;
INFINITY CROPS S.A.S,La Esperanza;,026,ORLANDO DE JESUS,SALAZAR OCAMPO,Cedula,70827322,,false,NO,Contrato indefinido ,,,Quincenal,1160000,140606,92194,OFICIOS VARIOS,0,0,false,Transferencia,,Cuenta de ahorros,,,,,,;
INFINITY CROPS S.A.S,La Esperanza;,027,LIBARDO ANTONIO,PATIÑO DUQUE,Cedula,8064872,,false,NO,Contrato indefinido ,,,Quincenal,1160000,140606,92194,OFICIOS VARIOS,0,0,false,Transferencia,,Cuenta de ahorros,,,,,,;
INFINITY CROPS S.A.S,La Esperanza;,028,JAVIER MAURICIO,MEJIA MOLINA,Cedula,98556389,mauromejia042@gmail.com,false,SI,Contrato indefinido ,,,Quincenal,1160000,140606,92194,ADMINISTRADOR GENERAL,0,0,false,Transferencia,,Cuenta de ahorros,,,,,,;
