wid,name,inputmeasure,quantity,type,tax,subtotal,rgDate,inf,invoiceNumber,invoiceDate,dueDate,lbid,lbcode
Bodega Principal Villanueva,3MMM 7502 RESPIRADOR SILICONA MEDIA CARA,qty,4.00,Ingresos,0.00,202101.00,2020-04-02,carga masiva de transacciones de ingresos,,,,,
Bodega Principal Villanueva,ABSORBENTE INDUSTRIAL,qty,1.00,Ingresos,0.00,327731.00,2020-04-02,carga masiva de transacciones de ingresos,,,,,
Bodega Principal Villanueva,ACEITE 2T ESPECIAL TC 1/4,qty,7.00,Ingresos,0.00,86800.00,2020-04-02,carga masiva de transacciones de ingresos,,,,,
Bodega Principal Villanueva,ACEITE MOVIL 4T  1/4,qty,1.00,Ingresos,0.00,16663.00,2020-04-02,carga masiva de transacciones de ingresos,,,,,
Bodega Principal Villanueva,ACOPLE RAPIDO DE 6,qty,1.00,Ingresos,0.00,320040.00,2020-04-02,carga masiva de transacciones de ingresos,,,,,
Bodega Principal Villanueva,ADAPTADOR HEMBRA PSI 1,qty,6.00,Ingresos,0.00,4639.02,2020-04-02,carga masiva de transacciones de ingresos,,,,,
Bodega Principal Villanueva,ADAPTADOR HEMBRA PVC 2,qty,3.00,Ingresos,0.00,8534.01,2020-04-02,carga masiva de transacciones de ingresos,,,,,
Bodega Principal Villanueva,ADAPTADOR HEMBRA PVC 3/4,qty,3.00,Ingresos,0.00,1598.01,2020-04-02,carga masiva de transacciones de ingresos,,,,,
Bodega Principal Villanueva,ADAPTADOR HEMBRA PVC 4,qty,6.00,Ingresos,0.00,159000.00,2020-04-02,carga masiva de transacciones de ingresos,,,,,
Bodega Principal Villanueva,ADAPTADOR MACHO PVC 4,qty,9.00,Ingresos,0.00,170984.97,2020-04-02,carga masiva de transacciones de ingresos,,,,,
Bodega Principal Villanueva,ADAPTADOR PVC HEMBRA 2 1/2,qty,2.00,Ingresos,0.00,16958.00,2020-04-02,carga masiva de transacciones de ingresos,,,,,
Bodega Principal Villanueva,ADAPTADOR PVC MACHO  2 1/2,qty,6.00,Ingresos,0.00,30846.00,2020-04-02,carga masiva de transacciones de ingresos,,,,,
Bodega Principal Villanueva,ADPTADOR MACHO DE 2,qty,2.00,Ingresos,0.00,4773.00,2020-04-02,carga masiva de transacciones de ingresos,,,,,
Bodega Principal Villanueva,AGILITY X 120 GRM,qty,5.00,Ingresos,0.00,37750.00,2020-04-02,carga masiva de transacciones de ingresos,,,,,
Bodega Principal Villanueva,ALBATROSS  FIPRONIL,lts,40.00,Ingresos,0.00,4348608.00,2020-04-02,carga masiva de transacciones de ingresos,,,,,
Bodega Principal Villanueva,ALICATE,qty,1.00,Ingresos,0.00,14489.00,2020-04-02,carga masiva de transacciones de ingresos,,,,,
Bodega Principal Villanueva,AMARRES,qty,200.00,Ingresos,0.00,12512.00,2020-04-02,carga masiva de transacciones de ingresos,,,,,
Bodega Principal Villanueva,ARANDELAS 5/8,qty,9.00,Ingresos,0.00,1140.03,2020-04-02,carga masiva de transacciones de ingresos,,,,,
Bodega Principal Villanueva,ARGOLLAS NARIGUERAS,qty,5.00,Ingresos,0.00,63333.00,2020-04-02,carga masiva de transacciones de ingresos,,,,,
Bodega Principal Villanueva,BACTHON,lts,35.00,Ingresos,0.00,2555000.00,2020-04-02,carga masiva de transacciones de ingresos,,,,,
Bodega Principal Villanueva,BALDES PLASTICOS,qty,2.00,Ingresos,0.00,17094.00,2020-04-02,carga masiva de transacciones de ingresos,,,,,
Bodega Principal Villanueva,BARBUQUEJO C/MENTON 9021-7,qty,12.00,Ingresos,0.00,69273.00,2020-04-02,carga masiva de transacciones de ingresos,,,,,
Bodega Principal Villanueva,BASCULANTE PARA CASCO,qty,2.00,Ingresos,0.00,15400.00,2020-04-02,carga masiva de transacciones de ingresos,,,,,
Bodega Principal Villanueva,BASIFERTIL ABONDACE (IMP),package,1.00,Ingresos,0.00,179286.00,2020-04-02,carga masiva de transacciones de ingresos,,,,,
Bodega Principal Villanueva,BATA AZUL EN DRIL,qty,2.00,Ingresos,0.00,64000.00,2020-04-02,carga masiva de transacciones de ingresos,,,,,
Bodega Principal Villanueva,BATA BLANCA,qty,2.00,Ingresos,0.00,56000.00,2020-04-02,carga masiva de transacciones de ingresos,,,,,
Bodega Principal Villanueva,BIODIESEL,US/galon,1784.11,Ingresos,0.00,14691039.70,2020-04-02,carga masiva de transacciones de ingresos,,,,,
Bodega Principal Villanueva,BIOTRAPPER,lts,70.00,Ingresos,0.00,3973449.90,2020-04-02,carga masiva de transacciones de ingresos,,,,,
Bodega Principal Villanueva,BOLSA BASURA CL 6 POLEN,qty,3.00,Ingresos,0.00,36000.00,2020-04-02,carga masiva de transacciones de ingresos,,,,,
Bodega Principal Villanueva,BOLSA DE CIERRE HERMETICO,qty,5.00,Ingresos,0.00,130000.00,2020-04-02,carga masiva de transacciones de ingresos,,,,,
Bodega Principal Villanueva,BOLSA GRAFI PRECOR A/DENSIDAD 25X35X1 5C,kg,320.00,Ingresos,0.00,8199299.20,2020-04-02,carga masiva de transacciones de ingresos,,,,,
Bodega Principal Villanueva,BOLSAS VIVERO,qty,16500.00,Ingresos,0.00,2023560.00,2020-04-02,carga masiva de transacciones de ingresos,,,,,
Bodega Principal Villanueva,BOMBA DE ESPALDA ROYAL CONDOR,qty,1.00,Ingresos,0.00,259691.00,2020-04-02,carga masiva de transacciones de ingresos,,,,,
Bodega Principal Villanueva,BOMBA JARDINERA DE GALON TRIUNFO,qty,2.00,Ingresos,0.00,62438.00,2020-04-02,carga masiva de transacciones de ingresos,,,,,
Bodega Principal Villanueva,BORAX,package,7.00,Ingresos,0.00,754936.00,2020-04-02,carga masiva de transacciones de ingresos,,,,,
Bodega Principal Villanueva,BOTA DE CAUCHO,qty,2.00,Ingresos,0.00,53950.00,2020-04-02,carga masiva de transacciones de ingresos,,,,,
Bodega Principal Villanueva,BOTA DE MATERIAL CON PUNTERA,qty,8.00,Ingresos,0.00,549365.04,2020-04-02,carga masiva de transacciones de ingresos,,,,,
Bodega Principal Villanueva,BOTAS DE CAUCHO CON PUNTERA,qty,1.00,Ingresos,0.00,38235.00,2020-04-02,carga masiva de transacciones de ingresos,,,,,
Bodega Principal Villanueva,BOTAS PLASTICAS ROYAL,qty,3.00,Ingresos,0.00,207675.00,2020-04-02,carga masiva de transacciones de ingresos,,,,,
Bodega Principal Villanueva,BREAKER MATIC,qty,5.00,Ingresos,0.00,550000.00,2020-04-02,carga masiva de transacciones de ingresos,,,,,
Bodega Principal Villanueva,CABO PARA TRAPERO,qty,3.00,Ingresos,0.00,3867.00,2020-04-02,carga masiva de transacciones de ingresos,,,,,
Bodega Principal Villanueva,CABTRAC,lts,40.00,Ingresos,0.00,1291200.00,2020-04-02,carga masiva de transacciones de ingresos,,,,,
Bodega Principal Villanueva,CALCILIQ,package,1.00,Ingresos,0.00,43216.00,2020-04-02,carga masiva de transacciones de ingresos,,,,,
Bodega Principal Villanueva,CAMISAS OXFORD,qty,1.00,Ingresos,0.00,35000.00,2020-04-02,carga masiva de transacciones de ingresos,,,,,
Bodega Principal Villanueva,CANALETA CON ADHESIVO DE 13X7,qty,2.00,Ingresos,0.00,12605.00,2020-04-02,carga masiva de transacciones de ingresos,,,,,
Bodega Principal Villanueva,CANDADO,qty,6.00,Ingresos,0.00,206428.02,2020-04-02,carga masiva de transacciones de ingresos,,,,,
Bodega Principal Villanueva,CAPA IMPERMEABLE,qty,14.00,Ingresos,0.00,261777.04,2020-04-02,carga masiva de transacciones de ingresos,,,,,
Bodega Principal Villanueva,CARRETILLA,qty,2.00,Ingresos,0.00,600944.00,2020-04-02,carga masiva de transacciones de ingresos,,,,,
Bodega Principal Villanueva,CARTUCHO RESPIRADOR MEDIA CARA,qty,9.00,Ingresos,0.00,279729.99,2020-04-02,carga masiva de transacciones de ingresos,,,,,
Bodega Principal Villanueva,CASCO SEGURIDAD,qty,23.00,Ingresos,0.00,286447.06,2020-04-02,carga masiva de transacciones de ingresos,,,,,
Bodega Principal Villanueva,CERA LIQUIDA MANSION,qty,2.00,Ingresos,0.00,62400.00,2020-04-02,carga masiva de transacciones de ingresos,,,,,
Bodega Principal Villanueva,CODO PVC 2.1/2,qty,3.00,Ingresos,0.00,20172.00,2020-04-02,carga masiva de transacciones de ingresos,,,,,
Bodega Principal Villanueva,CONJUNTO TIMKEN 25580,qty,2.00,Ingresos,0.00,153529.00,2020-04-02,carga masiva de transacciones de ingresos,,,,,
Bodega Principal Villanueva,CORREA 8PK 1395,qty,2.00,Ingresos,0.00,142857.00,2020-04-02,carga masiva de transacciones de ingresos,,,,,
Bodega Principal Villanueva,CUCHILLO INGLES MALAYO,qty,66.00,Ingresos,0.00,3294217.74,2020-04-02,carga masiva de transacciones de ingresos,,,,,
Bodega Principal Villanueva,DAP,package,167.00,Ingresos,0.00,14211700.00,2020-04-02,carga masiva de transacciones de ingresos,,,,,
Bodega Principal Villanueva,DELANTAL PLASTICO,qty,1.00,Ingresos,0.00,17800.00,2020-04-02,carga masiva de transacciones de ingresos,,,,,
Bodega Principal Villanueva,DETERGENTE EN POLVO 500 G.(PARA ASEO),qty,7.00,Ingresos,0.00,20990.97,2020-04-02,carga masiva de transacciones de ingresos,,,,,
Bodega Principal Villanueva,DIPEL  EN LITRO,lts,9.00,Ingresos,0.00,460350.00,2020-04-02,carga masiva de transacciones de ingresos,,,,,
Bodega Principal Villanueva,DIPEL X 500 GR,lb,69.00,Ingresos,0.00,4703523.00,2020-04-02,carga masiva de transacciones de ingresos,,,,,
Bodega Principal Villanueva,DISCO DE CORTE 7 X 1/8,qty,7.00,Ingresos,0.00,33019.98,2020-04-02,carga masiva de transacciones de ingresos,,,,,
Bodega Principal Villanueva,DISCO PULIDORA 7 X 1/4 X 7/8,qty,3.00,Ingresos,0.00,15555.00,2020-04-02,carga masiva de transacciones de ingresos,,,,,
Bodega Principal Villanueva,ELECTROBOMBA,qty,1.00,Ingresos,0.00,732185.00,2020-04-02,carga masiva de transacciones de ingresos,,,,,
Bodega Principal Villanueva,EMBUDO,qty,1.00,Ingresos,0.00,4325.00,2020-04-02,carga masiva de transacciones de ingresos,,,,,
Bodega Principal Villanueva,ENJALMAS,qty,5.00,Ingresos,0.00,609500.00,2020-04-02,carga masiva de transacciones de ingresos,,,,,
Bodega Principal Villanueva,ESCOBA CERDAS SUAVES,qty,1.00,Ingresos,0.00,5136.00,2020-04-02,carga masiva de transacciones de ingresos,,,,,
Bodega Principal Villanueva,ESPONJILLA SABRA,qty,3.00,Ingresos,0.00,4500.00,2020-04-02,carga masiva de transacciones de ingresos,,,,,
Bodega Principal Villanueva,EXTRACTOR,qty,2.00,Ingresos,0.00,510756.00,2020-04-02,carga masiva de transacciones de ingresos,,,,,
Bodega Principal Villanueva,FERTIACTYL GZ,cuc,87.00,Ingresos,0.00,7457399.88,2020-04-02,carga masiva de transacciones de ingresos,,,,,
Bodega Principal Villanueva,FILTRO AIRE PLANTA CUMMINS DA7802,qty,1.00,Ingresos,0.00,89916.00,2020-04-02,carga masiva de transacciones de ingresos,,,,,
Bodega Principal Villanueva,FILTRO COMBUSTIBLE BF1280,qty,1.00,Ingresos,0.00,27731.00,2020-04-02,carga masiva de transacciones de ingresos,,,,,
Bodega Principal Villanueva,FILTRO COMBUSTIBLE FS1251 FLEETGUARD,qty,1.00,Ingresos,0.00,35854.00,2020-04-02,carga masiva de transacciones de ingresos,,,,,
Bodega Principal Villanueva,FILTRO PARA PARTICULAS N95 - 5N11,qty,1.00,Ingresos,0.00,4135.00,2020-04-02,carga masiva de transacciones de ingresos,,,,,
Bodega Principal Villanueva,FILTRO TRATAMIENTO DE AGUA,qty,48.00,Ingresos,0.00,1051200.00,2020-04-02,carga masiva de transacciones de ingresos,,,,,
Bodega Principal Villanueva,FOSCROP,lts,10.00,Ingresos,0.00,506500.00,2020-04-02,carga masiva de transacciones de ingresos,,,,,
Bodega Principal Villanueva,FOSETIL ALUMINIO,kg,200.00,Ingresos,0.00,3980032.00,2020-04-02,carga masiva de transacciones de ingresos,,,,,
Bodega Principal Villanueva,FUNDA MACHETE 22,qty,3.00,Ingresos,0.00,53031.99,2020-04-02,carga masiva de transacciones de ingresos,,,,,
Bodega Principal Villanueva,FUNDA PARA CUCHILLO MALAYO DM 22,qty,8.00,Ingresos,0.00,240000.00,2020-04-02,carga masiva de transacciones de ingresos,,,,,
Bodega Principal Villanueva,FUNDA PARA HACHUELA 4.5 MM,qty,7.00,Ingresos,0.00,52500.00,2020-04-02,carga masiva de transacciones de ingresos,,,,,
Bodega Principal Villanueva,FUNDA PARA MACHETILLA DE 18,qty,11.00,Ingresos,0.00,183333.04,2020-04-02,carga masiva de transacciones de ingresos,,,,,
Bodega Principal Villanueva,FUNDA PARA TIJERA DE PODA,qty,10.00,Ingresos,0.00,112422.00,2020-04-02,carga masiva de transacciones de ingresos,,,,,
Bodega Principal Villanueva,FURTIVO,lts,160.00,Ingresos,0.00,13929600.00,2020-04-02,carga masiva de transacciones de ingresos,,,,,
Bodega Principal Villanueva,GAFAS LENTE OSCURO,qty,4.00,Ingresos,0.00,11204.00,2020-04-02,carga masiva de transacciones de ingresos,,,,,
Bodega Principal Villanueva,GARRAFA 5 GLN,qty,84.00,Ingresos,0.00,580198.08,2020-04-02,carga masiva de transacciones de ingresos,,,,,
Bodega Principal Villanueva,GASOLINA,US/galon,1736.70,Ingresos,0.00,14136008.59,2020-04-02,carga masiva de transacciones de ingresos,,,,,
Bodega Principal Villanueva,GRAPAS PARA CERCA X 800 G.,qty,5.00,Ingresos,0.00,28972.00,2020-04-02,carga masiva de transacciones de ingresos,,,,,
Bodega Principal Villanueva,GRASA MULTIUSO EP2,kg,32.00,Ingresos,0.00,699412.16,2020-04-02,carga masiva de transacciones de ingresos,,,,,
Bodega Principal Villanueva,GRATA,qty,1.00,Ingresos,0.00,9100.00,2020-04-02,carga masiva de transacciones de ingresos,,,,,
Bodega Principal Villanueva,GUANTE HILAZA,qty,29.00,Ingresos,0.00,110213.05,2020-04-02,carga masiva de transacciones de ingresos,,,,,
Bodega Principal Villanueva,GUANTES CORTOS EN VAQUETA,qty,171.00,Ingresos,0.00,881163.00,2020-04-02,carga masiva de transacciones de ingresos,,,,,
Bodega Principal Villanueva,GUANTES EN VAQUETA MANGA LARGA,qty,50.00,Ingresos,0.00,341685.00,2020-04-02,carga masiva de transacciones de ingresos,,,,,
Bodega Principal Villanueva,GUANTES LARGOS CARNAZA REFUERZO VAQUETA,qty,48.00,Ingresos,0.00,383193.12,2020-04-02,carga masiva de transacciones de ingresos,,,,,
Bodega Principal Villanueva,GUANTES NITRILO REF 9905 PFM,qty,18.00,Ingresos,0.00,247629.96,2020-04-02,carga masiva de transacciones de ingresos,,,,,
Bodega Principal Villanueva,GUANTES PLASTICOS NEGROS,qty,9.00,Ingresos,0.00,24831.00,2020-04-02,carga masiva de transacciones de ingresos,,,,,
Bodega Principal Villanueva,HACHA,qty,1.00,Ingresos,0.00,20970.00,2020-04-02,carga masiva de transacciones de ingresos,,,,,
Bodega Principal Villanueva,HACHUELA 5 PULGADAS,qty,22.00,Ingresos,0.00,917400.00,2020-04-02,carga masiva de transacciones de ingresos,,,,,
Bodega Principal Villanueva,HOJA DE RESORTE 55560-1,qty,2.00,Ingresos,0.00,420168.00,2020-04-02,carga masiva de transacciones de ingresos,,,,,
Bodega Principal Villanueva,HOJA SEGUETA # 24,qty,6.00,Ingresos,0.00,16306.02,2020-04-02,carga masiva de transacciones de ingresos,,,,,
Bodega Principal Villanueva,HYPOCLORITO,lts,80.00,Ingresos,0.00,340000.00,2020-04-02,carga masiva de transacciones de ingresos,,,,,
Bodega Principal Villanueva,IMIDACOPRID,lts,480.00,Ingresos,0.00,23063040.00,2020-04-02,carga masiva de transacciones de ingresos,,,,,
Bodega Principal Villanueva,INGEZINC-22%,package,45.00,Ingresos,0.00,8101800.00,2020-04-02,carga masiva de transacciones de ingresos,,,,,
Bodega Principal Villanueva,INICIO 12-24-12,package,67.00,Ingresos,0.00,5793894.01,2020-04-02,carga masiva de transacciones de ingresos,,,,,
Bodega Principal Villanueva,INTEGRADOR,package,4.00,Ingresos,0.00,337000.00,2020-04-02,carga masiva de transacciones de ingresos,,,,,
Bodega Principal Villanueva,INTERRUPTOR CONMUTABLES SENCILLOS,qty,3.00,Ingresos,0.00,13500.00,2020-04-02,carga masiva de transacciones de ingresos,,,,,
Bodega Principal Villanueva,INTERRUPTOR DOBLE,qty,1.00,Ingresos,0.00,4216.00,2020-04-02,carga masiva de transacciones de ingresos,,,,,
Bodega Principal Villanueva,KCL,package,557.00,Ingresos,0.00,46763603.40,2020-04-02,carga masiva de transacciones de ingresos,,,,,
Bodega Principal Villanueva,KIESERITA,package,1416.00,Ingresos,0.00,107328948.48,2020-04-02,carga masiva de transacciones de ingresos,,,,,
Bodega Principal Villanueva,KIT EMPAQUES FUMIGADORA ROYAL CONDOR,qty,1.00,Ingresos,0.00,5147.00,2020-04-02,carga masiva de transacciones de ingresos,,,,,
Bodega Principal Villanueva,KIT REPUESTO PARA PROTECTOR AUDITIVO TIPO COPA,qty,4.00,Ingresos,0.00,96000.00,2020-04-02,carga masiva de transacciones de ingresos,,,,,
Bodega Principal Villanueva,KOMPRESOR,lts,60.00,Ingresos,0.00,9598200.00,2020-04-02,carga masiva de transacciones de ingresos,,,,,
Bodega Principal Villanueva,KSC ACTYL ADUR,lts,2.00,Ingresos,0.00,57200.00,2020-04-02,carga masiva de transacciones de ingresos,,,,,
Bodega Principal Villanueva,KSC PHYT ACTYL I AMARILLO,package,35.00,Ingresos,0.00,18183302.90,2020-04-02,carga masiva de transacciones de ingresos,,,,,
Bodega Principal Villanueva,KSC PHYT ACTYL V LILA,package,12.00,Ingresos,0.00,6278750.04,2020-04-02,carga masiva de transacciones de ingresos,,,,,
Bodega Principal Villanueva,LAVALOZA,qty,2.00,Ingresos,0.00,19000.00,2020-04-02,carga masiva de transacciones de ingresos,,,,,
Bodega Principal Villanueva,LENTE DE SEGURIDA,qty,36.00,Ingresos,0.00,124876.08,2020-04-02,carga masiva de transacciones de ingresos,,,,,
Bodega Principal Villanueva,LIMA TRIANGULAR BELLOTA,qty,53.00,Ingresos,0.00,301505.87,2020-04-02,carga masiva de transacciones de ingresos,,,,,
Bodega Principal Villanueva,LIMPIA VIDRIOS,qty,2.00,Ingresos,0.00,9915.00,2020-04-02,carga masiva de transacciones de ingresos,,,,,
Bodega Principal Villanueva,LIMPIADOR PARA PISO,US/galon,24.00,Ingresos,0.00,1439669.04,2020-04-02,carga masiva de transacciones de ingresos,,,,,
Bodega Principal Villanueva,LIMPIDO,US/galon,3.00,Ingresos,0.00,26700.00,2020-04-02,carga masiva de transacciones de ingresos,,,,,
Bodega Principal Villanueva,LINDERO,lts,41.00,Ingresos,0.00,2018502.16,2020-04-02,carga masiva de transacciones de ingresos,,,,,
Bodega Principal Villanueva,LLANTAS 6.50x16 8 LONAS,qty,1.00,Ingresos,0.00,489999.00,2020-04-02,carga masiva de transacciones de ingresos,,,,,
Bodega Principal Villanueva,LONA ENCERRAMIENTO 100 MTS,mts,2.00,Ingresos,0.00,256723.00,2020-04-02,carga masiva de transacciones de ingresos,,,,,
Bodega Principal Villanueva,MACHETE DE 18,qty,5.00,Ingresos,0.00,78572.00,2020-04-02,carga masiva de transacciones de ingresos,,,,,
Bodega Principal Villanueva,MANGUERA JARDINERA,mts,40.00,Ingresos,0.00,30252.00,2020-04-02,carga masiva de transacciones de ingresos,,,,,
Bodega Principal Villanueva,MAPRID,lts,53.00,Ingresos,0.00,3286816.20,2020-04-02,carga masiva de transacciones de ingresos,,,,,
Bodega Principal Villanueva,MARCO SEGUETA,qty,4.00,Ingresos,0.00,192052.00,2020-04-02,carga masiva de transacciones de ingresos,,,,,
Bodega Principal Villanueva,MASAI,lts,170.00,Ingresos,0.00,7261505.80,2020-04-02,carga masiva de transacciones de ingresos,,,,,
Bodega Principal Villanueva,MASCARILLA CON FILTRO 6200 VAPOR,qty,23.00,Ingresos,0.00,77311.05,2020-04-02,carga masiva de transacciones de ingresos,,,,,
Bodega Principal Villanueva,MASCARILLA DESECHABLE,qty,39.00,Ingresos,0.00,20659.86,2020-04-02,carga masiva de transacciones de ingresos,,,,,
Bodega Principal Villanueva,MECHA TRAPERO,qty,2.00,Ingresos,0.00,315.00,2020-04-02,carga masiva de transacciones de ingresos,,,,,
Bodega Principal Villanueva,MELAZA,gr,450.00,Ingresos,0.00,371430.00,2020-04-02,carga masiva de transacciones de ingresos,,,,,
Bodega Principal Villanueva,MESAMATE,lts,160.00,Ingresos,0.00,4137928.00,2020-04-02,carga masiva de transacciones de ingresos,,,,,
Bodega Principal Villanueva,MEZCLA 11-0-30-12S,package,25.00,Ingresos,0.00,1645000.00,2020-04-02,carga masiva de transacciones de ingresos,,,,,
Bodega Principal Villanueva,MEZCLA -28-4-0+-15S,package,233.00,Ingresos,0.00,14858468.25,2020-04-02,carga masiva de transacciones de ingresos,,,,,
Bodega Principal Villanueva,MICORRIZA,qty,65.00,Ingresos,0.00,4779999.90,2020-04-02,carga masiva de transacciones de ingresos,,,,,
Bodega Principal Villanueva,NITRA KP,package,4.00,Ingresos,0.00,431669.00,2020-04-02,carga masiva de transacciones de ingresos,,,,,
Bodega Principal Villanueva,NITRABOR x 50 Kgr.,package,136.00,Ingresos,0.00,9400776.96,2020-04-02,carga masiva de transacciones de ingresos,,,,,
Bodega Principal Villanueva,NYLON DE POLIPROPILENO X 150 METROS,qty,17.00,Ingresos,0.00,40758.01,2020-04-02,carga masiva de transacciones de ingresos,,,,,
Bodega Principal Villanueva,PALA GARLANCHA,qty,14.00,Ingresos,0.00,148448.02,2020-04-02,carga masiva de transacciones de ingresos,,,,,
Bodega Principal Villanueva,PALIN MALAYO DE 3,qty,4.00,Ingresos,0.00,120000.00,2020-04-02,carga masiva de transacciones de ingresos,,,,,
Bodega Principal Villanueva,PANZER,lts,40.00,Ingresos,0.00,516000.00,2020-04-02,carga masiva de transacciones de ingresos,,,,,
Bodega Principal Villanueva,PAPEL ALUMINIO,qty,1.00,Ingresos,0.00,63000.00,2020-04-02,carga masiva de transacciones de ingresos,,,,,
Bodega Principal Villanueva,PECHERO EN POLIPROPILENO,qty,36.00,Ingresos,0.00,596508.84,2020-04-02,carga masiva de transacciones de ingresos,,,,,
Bodega Principal Villanueva,PEGAL PROTEC,qty,275.00,Ingresos,0.00,2603810.00,2020-04-02,carga masiva de transacciones de ingresos,,,,,
Bodega Principal Villanueva,PEGANTE PVC,qty,2.00,Ingresos,0.00,29376.00,2020-04-02,carga masiva de transacciones de ingresos,,,,,
Bodega Principal Villanueva,PINTURA AZUL MAR 92 ESMALTE,US/galon,2.00,Ingresos,0.00,79172.00,2020-04-02,carga masiva de transacciones de ingresos,,,,,
Bodega Principal Villanueva,PINTURA BLANCA,US/galon,5.00,Ingresos,0.00,204622.00,2020-04-02,carga masiva de transacciones de ingresos,,,,,
Bodega Principal Villanueva,PINTURA EN AEROSOL 16 ONZAS,qty,17.00,Ingresos,0.00,132628.05,2020-04-02,carga masiva de transacciones de ingresos,,,,,
Bodega Principal Villanueva,PINTURA ROJA BERMELLON ESMALTE,US/galon,4.00,Ingresos,0.00,260706.00,2020-04-02,carga masiva de transacciones de ingresos,,,,,
Bodega Principal Villanueva,PLASTICO AZUL TUBULAR 1 M ANCHO,kg,52.00,Ingresos,0.00,396842.16,2020-04-02,carga masiva de transacciones de ingresos,,,,,
Bodega Principal Villanueva,POLEN HIBRIDO,kg,89998.00,Ingresos,0.00,18449600799.76,2020-04-02,carga masiva de transacciones de ingresos,,,,,
Bodega Principal Villanueva,PORTA BOQUILLA,qty,1.00,Ingresos,0.00,5042.00,2020-04-02,carga masiva de transacciones de ingresos,,,,,
Bodega Principal Villanueva,PREVENPHOS,kg,8.00,Ingresos,0.00,230651.04,2020-04-02,carga masiva de transacciones de ingresos,,,,,
Bodega Principal Villanueva,PROTECTOR 110 X 1200-20,qty,6.00,Ingresos,0.00,120630.00,2020-04-02,carga masiva de transacciones de ingresos,,,,,
Bodega Principal Villanueva,PROTECTOR AUDITIVO TIPO COPA,qty,4.00,Ingresos,0.00,43697.00,2020-04-02,carga masiva de transacciones de ingresos,,,,,
Bodega Principal Villanueva,PUNTILLA CLAVO VARETA 4,package,1.00,Ingresos,0.00,4768.00,2020-04-02,carga masiva de transacciones de ingresos,,,,,
Bodega Principal Villanueva,PUNTILLAS 1 X 400 GR.,package,2.00,Ingresos,0.00,5264.00,2020-04-02,carga masiva de transacciones de ingresos,,,,,
Bodega Principal Villanueva,PUNTILLAS PARA BICICLETA,qty,108.00,Ingresos,0.00,858639.96,2020-04-02,carga masiva de transacciones de ingresos,,,,,
Bodega Principal Villanueva,RAFAGA (LORSBAN),kg,100.00,Ingresos,0.00,374406.00,2020-04-02,carga masiva de transacciones de ingresos,,,,,
Bodega Principal Villanueva,RAFOS,package,230.00,Ingresos,0.00,18786331.00,2020-04-02,carga masiva de transacciones de ingresos,,,,,
Bodega Principal Villanueva,REDUX,lts,180.00,Ingresos,0.00,3138300.00,2020-04-02,carga masiva de transacciones de ingresos,,,,,
Bodega Principal Villanueva,RETENEDOR PARA FILTRO  3M - 501,qty,7.00,Ingresos,0.00,32200.00,2020-04-02,carga masiva de transacciones de ingresos,,,,,
Bodega Principal Villanueva,RIDOMIL X 375 GRS,qty,17.00,Ingresos,0.00,381769.00,2020-04-02,carga masiva de transacciones de ingresos,,,,,
Bodega Principal Villanueva,RIFLE 200 SC (FIPRONIL),lts,204.00,Ingresos,0.00,20081250.00,2020-04-02,carga masiva de transacciones de ingresos,,,,,
Bodega Principal Villanueva,ROCETAS,qty,2.00,Ingresos,0.00,3286.00,2020-04-02,carga masiva de transacciones de ingresos,,,,,
Bodega Principal Villanueva,RODAMIDA B,kg,90.00,Ingresos,0.00,5672160.00,2020-04-02,carga masiva de transacciones de ingresos,,,,,
Bodega Principal Villanueva,RODAMIENTO 2788,qty,2.00,Ingresos,0.00,142857.00,2020-04-02,carga masiva de transacciones de ingresos,,,,,
Bodega Principal Villanueva,ROUND-UP COMUN,lts,740.00,Ingresos,0.00,8125414.60,2020-04-02,carga masiva de transacciones de ingresos,,,,,
Bodega Principal Villanueva,SEMICODO PVC 3,qty,5.00,Ingresos,0.00,18492.00,2020-04-02,carga masiva de transacciones de ingresos,,,,,
Bodega Principal Villanueva,SEVIN 80,lb,200.00,Ingresos,0.00,6560000.00,2020-04-02,carga masiva de transacciones de ingresos,,,,,
Bodega Principal Villanueva,SOKET,qty,3.00,Ingresos,0.00,3867.00,2020-04-02,carga masiva de transacciones de ingresos,,,,,
Bodega Principal Villanueva,SULFATO DE POTACIO,package,28.00,Ingresos,0.00,3241000.00,2020-04-02,carga masiva de transacciones de ingresos,,,,,
Bodega Principal Villanueva,SUPER FOSFATO TRIPLE,package,185.00,Ingresos,0.00,10637500.00,2020-04-02,carga masiva de transacciones de ingresos,,,,,
Bodega Principal Villanueva,TAFILETES PARA CASCOS DE SEGURIDAD,qty,11.00,Ingresos,0.00,72663.03,2020-04-02,carga masiva de transacciones de ingresos,,,,,
Bodega Principal Villanueva,TALCO CHINO,kg,960005.00,Ingresos,0.00,1622619651.10,2020-04-02,carga masiva de transacciones de ingresos,,,,,
Bodega Principal Villanueva,TAPON COPA PVC 2 1/2,qty,7.00,Ingresos,0.00,43057.00,2020-04-02,carga masiva de transacciones de ingresos,,,,,
Bodega Principal Villanueva,TAPON ROSCADO 2,qty,2.00,Ingresos,0.00,5678.00,2020-04-02,carga masiva de transacciones de ingresos,,,,,
Bodega Principal Villanueva,TAPON ROSCADO DE 2,qty,5.00,Ingresos,0.00,17069.00,2020-04-02,carga masiva de transacciones de ingresos,,,,,
Bodega Principal Villanueva,TEE PVC 3/4,qty,15.00,Ingresos,0.00,9222.00,2020-04-02,carga masiva de transacciones de ingresos,,,,,
Bodega Principal Villanueva,TIMOREX GOLD,lts,5.00,Ingresos,0.00,555000.00,2020-04-02,carga masiva de transacciones de ingresos,,,,,
Bodega Principal Villanueva,TOALLA COCINA REUTILIZABLE SCOTT,qty,16.00,Ingresos,0.00,124800.00,2020-04-02,carga masiva de transacciones de ingresos,,,,,
Bodega Principal Villanueva,TOALLAS LIMPION,qty,2.00,Ingresos,0.00,7800.00,2020-04-02,carga masiva de transacciones de ingresos,,,,,
Bodega Principal Villanueva,TOMA MONOFASICA,qty,1.00,Ingresos,0.00,30253.00,2020-04-02,carga masiva de transacciones de ingresos,,,,,
Bodega Principal Villanueva,TOMA TRIFASICA,qty,4.00,Ingresos,0.00,23424.00,2020-04-02,carga masiva de transacciones de ingresos,,,,,
Bodega Principal Villanueva,TOMACORRIENTE DOBLE,qty,1.00,Ingresos,0.00,6555.00,2020-04-02,carga masiva de transacciones de ingresos,,,,,
Bodega Principal Villanueva,TOPSUL,lts,100.00,Ingresos,0.00,745306.00,2020-04-02,carga masiva de transacciones de ingresos,,,,,
Bodega Principal Villanueva,TRAPERO METALICO,qty,2.00,Ingresos,0.00,41446.00,2020-04-02,carga masiva de transacciones de ingresos,,,,,
Bodega Principal Villanueva,TRIPLE 18,package,6.00,Ingresos,0.00,554509.98,2020-04-02,carga masiva de transacciones de ingresos,,,,,
Bodega Principal Villanueva,TUBO GALVANIZADO 1 X 6MTS,qty,3.00,Ingresos,0.00,125019.00,2020-04-02,carga masiva de transacciones de ingresos,,,,,
Bodega Principal Villanueva,TUERCAS 5/16,qty,2.00,Ingresos,0.00,237.00,2020-04-02,carga masiva de transacciones de ingresos,,,,,
Bodega Principal Villanueva,UNION D 3/4,qty,33.00,Ingresos,0.00,10294.02,2020-04-02,carga masiva de transacciones de ingresos,,,,,
Bodega Principal Villanueva,UNION PVC 3,qty,31.00,Ingresos,0.00,265196.94,2020-04-02,carga masiva de transacciones de ingresos,,,,,
Bodega Principal Villanueva,UREA,package,2.00,Ingresos,0.00,99960.00,2020-04-02,carga masiva de transacciones de ingresos,,,,,
Bodega Principal Villanueva,VALVULA DE BOLA 6 PVC,qty,1.00,Ingresos,0.00,15558.00,2020-04-02,carga masiva de transacciones de ingresos,,,,,
Bodega Principal Villanueva,VARA TELESCOPICA MALAYO 43MM X 6.5 MTS,qty,12.00,Ingresos,0.00,1732539.96,2020-04-02,carga masiva de transacciones de ingresos,,,,,
Bodega Principal Villanueva,VENTAVIOLA PLANTA CUMMIS,qty,1.00,Ingresos,0.00,380000.00,2020-04-02,carga masiva de transacciones de ingresos,,,,,
Bodega Principal Villanueva,YOKY,qty,1.00,Ingresos,0.00,525000.00,2020-04-02,carga masiva de transacciones de ingresos,,,,,
