﻿Tercio,Plagas,Severidad Mildeo,Severidad Alternaria,Severidad Manchas foliares,fecha
1-1-16-16-2,Acaro blanco; Lepidoptera;,10,20,30,2021-01-02
1-1-16-3-1,Botrytis;,30,20,10,2021-01-02
1-1-16-7-1,Mancha foliar;,10,10,10,2021-01-03
1-1-16-13-2,Mancha foliar;Botrytis;,0,5,8,2021-01-04
1-1-16-21-3,Chinche;,10,20,30,2021-01-05
1-1-16-19-1,Coleopteros;,30,20,10,2021-01-06
1-1-16-17-1,Molusco;,10,10,10,2021-01-07
1-1-15-23-1,Molusco;Coleopteros;,0,5,0,2021-01-08
1-1-14-45-1,Chinche;Coleopteros;,10,10,10,2021-01-09
1-1-13-52-3,Nada;,0,5,0,2021-01-10
1-1-13-59-1,Alternaria;,10,20,30,2021-01-11
1-1-9-62-2,Alternaria;Botrytis;,30,20,10,2021-01-12
1-1-9-62-3,Punto rojo;,10,10,10,2021-01-13
1-2-4-95-2,Punto rojo;Botrytis;Chinche;,0,5,8,2021-01-14
1-2-4-97-3,Botrytis;Alternaria;,10,20,30,2021-01-15
1-2-4-97-1,Chinche;,30,20,10,2021-01-16
3-3-10-110-1,Coleopteros;,10,10,10,2021-01-17
3-3-10-108-3,Nada;,0,5,0,2021-01-18
3-5-14-154-3,Punto rojo;Botrytis;Chinche;,10,10,10,2021-01-19
1-4-15-127-1,Botrytis;Alternaria;,0,5,0,2021-01-20
1-4-15-128-1,Acaro blanco; Lepidoptera;,10,20,30,2021-01-21
1-4-13-148-2,Botrytis;,30,20,10,2021-01-22
1-4-9-162-3,Mancha foliar;,10,10,10,2021-01-23
3-2-6-63-1,Mancha foliar;Botrytis;,0,5,8,2021-01-24
3-2-7-69-1,Chinche;,10,20,30,2021-01-25
3-1-6-35-1,Coleopteros;,30,20,10,2021-01-02
3-1-5-25-3,Molusco;,10,10,10,2021-01-02
3-1-5-26-3,Molusco;Coleopteros;,0,5,0,2021-01-03
3-1-6-34-3,Chinche;Coleopteros;,10,10,10,2021-01-04
3-1-5-7-1,Nada;,0,5,0,2021-01-05
3-1-5-23-2,Alternaria;,10,20,30,2021-01-06
2-3-1-90-3,Alternaria;Botrytis;,30,20,10,2021-01-07
2-3-1-95-1,Punto rojo;,10,10,10,2021-01-08
2-2-2-42-2,Punto rojo;Botrytis;Chinche;,0,5,8,2021-01-09
2-2-2-42-3,Botrytis;Alternaria;,10,20,30,2021-01-10
2-3-1-92-2,Chinche;,30,20,10,2021-01-11
2-3-1-92-1,Coleopteros;,10,10,10,2021-01-12
2-3-2-105-3,Nada;,0,5,0,2021-01-13
1-3-8-114-2,Punto rojo;Botrytis;Chinche;,10,10,10,2021-01-14
1-3-8-114-3,Botrytis;Alternaria;,0,5,0,2021-01-15
2-3-2-103-2,Acaro blanco; Lepidoptera;,10,20,30,2021-01-16
1-2-4-92-1,Botrytis;,30,20,10,2021-01-17
1-4-9-157-2,Mancha foliar;,10,10,10,2021-01-18
1-4-13-153-2,Mancha foliar;Botrytis;,0,5,8,2021-01-19
1-4-9-167-1,Chinche;,10,20,30,2021-01-20
1-3-8-116-2,Coleopteros;,30,20,10,2021-01-21
2-1-4-8-3,Molusco;,10,10,10,2021-01-22
2-1-3-17-2,Molusco;Coleopteros;,0,5,0,2021-01-23
2-1-3-13-3,Chinche;Coleopteros;,10,10,10,2021-01-24
2-1-2-35-3,Nada;,0,5,0,2021-01-25
2-1-3-22-3,Acaro blanco; Lepidoptera;,10,20,30,2021-02-02
2-1-4-11-3,Botrytis;,30,20,10,2021-02-02
3-2-7-71-2,Mancha foliar;,10,10,10,2021-02-03
1-1-9-74-3,Mancha foliar;Botrytis;,0,5,8,2021-02-04
2-3-1-76-3,Chinche;,10,20,30,2021-02-05
3-2-7-72-3,Coleopteros;,30,20,10,2021-02-06
3-4-11-142-3,Molusco;,10,10,10,2021-02-07
3-2-7-74-3,Molusco;Coleopteros;,0,5,0,2021-02-08
2-1-3-21-3,Chinche;Coleopteros;,10,10,10,2021-02-09
3-2-6-46-1,Nada;,0,5,0,2021-02-10
3-4-11-135-2,Alternaria;,10,20,30,2021-02-11
3-3-10-102-3,Alternaria;Botrytis;,30,20,10,2021-02-12
3-3-10-111-3,Punto rojo;,10,10,10,2021-02-13
3-3-10-111-1,Punto rojo;Botrytis;Chinche;,0,5,8,2021-02-14
3-4-11-133-2,Botrytis;Alternaria;,10,20,30,2021-02-15
3-2-6-49-2,Chinche;,30,20,10,2021-02-16
3-2-7-66-3,Coleopteros;,10,10,10,2021-02-17
3-2-7-82-3,Nada;,0,5,0,2021-02-18
3-2-6-52-1,Punto rojo;Botrytis;Chinche;,10,10,10,2021-02-19
3-6-12-174-2,Botrytis;Alternaria;,0,5,0,2021-02-20
3-6-12-179-3,Acaro blanco; Lepidoptera;,10,20,30,2021-02-21
3-6-12-178-3,Botrytis;,30,20,10,2021-02-22
3-4-11-148-2,Mancha foliar;,10,10,10,2021-02-23
2-2-2-45-2,Mancha foliar;Botrytis;,0,5,8,2021-02-24
2-1-3-18-3,Chinche;,10,20,30,2021-02-25
2-3-1-83-3,Coleopteros;,30,20,10,2021-02-02
2-1-4-1-3,Molusco;,10,10,10,2021-02-02
3-5-14-160-3,Molusco;Coleopteros;,0,5,0,2021-02-03
89-2,Chinche;Coleopteros;,10,10,10,2021-02-04
83-2,Nada;,0,5,0,2021-02-05
82-3,Alternaria;,10,20,30,2021-02-06
81-3,Alternaria;Botrytis;,30,20,10,2021-02-07
49-1,Punto rojo;,10,10,10,2021-02-08
51-1,Punto rojo;Botrytis;Chinche;,0,5,8,2021-02-09
55-1,Botrytis;Alternaria;,10,20,30,2021-02-10
63-3,Chinche;,30,20,10,2021-02-11
67-2,Coleopteros;,10,10,10,2021-02-12
71-3,Nada;,0,5,0,2021-02-13
1-1-16-6-3,Punto rojo;Botrytis;Chinche;,10,10,10,2021-02-14
1-1-16-18-1,Botrytis;Alternaria;,0,5,0,2021-02-15
1-1-16-18-3,Acaro blanco; Lepidoptera;,10,20,30,2021-02-16
1-1-15-32-1,Botrytis;,30,20,10,2021-02-17
1-1-15-32-2,Mancha foliar;,10,10,10,2021-02-18
1-1-15-27-3,Mancha foliar;Botrytis;,0,5,8,2021-02-19
1-1-15-25-1,Chinche;,10,20,30,2021-02-20
1-1-14-43-2,Coleopteros;,30,20,10,2021-02-21
1-1-14-43-1,Molusco;,10,10,10,2021-02-22
1-1-13-50-3,Molusco;Coleopteros;,0,5,0,2021-02-23
1-1-13-57-2,Chinche;Coleopteros;,10,10,10,2021-02-24
1-1-13-59-3,Nada;,0,5,0,2021-02-25
1-2-4-106-2,Acaro blanco; Lepidoptera;,10,20,30,2021-03-02
3-5-12-172-1,Botrytis;,30,20,10,2021-03-02
3-1-5-8-2,Mancha foliar;,10,10,10,2021-03-03
1-3-8-109-2,Mancha foliar;Botrytis;,0,5,8,2021-03-04
1-2-4-99-2,Chinche;,10,20,30,2021-03-05
3-5-12-173-2,Coleopteros;,30,20,10,2021-03-06
1-4-15-129-3,Molusco;,10,10,10,2021-03-07
1-4-15-130-1,Molusco;Coleopteros;,0,5,0,2021-03-08
1-4-13-147-3,Chinche;Coleopteros;,10,10,10,2021-03-09
1-4-15-126-3,Nada;,0,5,0,2021-03-10
1-4-13-142-1,Alternaria;,10,20,30,2021-03-11
1-4-13-151-3,Alternaria;Botrytis;,30,20,10,2021-03-12
3-5-14-163-2,Punto rojo;,10,10,10,2021-03-13
3-2-6-48-2,Punto rojo;Botrytis;Chinche;,0,5,8,2021-03-14
3-2-7-65-3,Botrytis;Alternaria;,10,20,30,2021-03-15
3-2-7-67-1,Chinche;,30,20,10,2021-03-16
3-1-5-29-1,Coleopteros;,10,10,10,2021-03-17
3-2-6-63-3,Nada;,0,5,0,2021-03-18
3-1-6-42-2,Punto rojo;Botrytis;Chinche;,10,10,10,2021-03-19
3-5-14-150-3,Botrytis;Alternaria;,0,5,0,2021-03-20
3-5-14-151-1,Acaro blanco; Lepidoptera;,10,20,30,2021-03-21
3-1-6-37-2,Botrytis;,30,20,10,2021-03-22
3-1-5-12-3,Mancha foliar;,10,10,10,2021-03-23
3-1-5-21-1,Mancha foliar;Botrytis;,0,5,8,2021-03-24
3-1-5-20-1,Chinche;,10,20,30,2021-03-25
2-3-1-79-2,Coleopteros;,30,20,10,2021-03-02
1-2-4-102-3,Molusco;,10,10,10,2021-03-02
2-3-1-75-1,Molusco;Coleopteros;,0,5,0,2021-03-03
2-3-2-104-1,Chinche;Coleopteros;,10,10,10,2021-03-04
1-4-13-150-1,Nada;,0,5,0,2021-03-05
1-4-9-163-3,Alternaria;,10,20,30,2021-03-06
1-2-4-100-3,Alternaria;Botrytis;,30,20,10,2021-03-07
2-1-3-30-1,Punto rojo;,10,10,10,2021-03-08
1-3-8-120-2,Punto rojo;Botrytis;Chinche;,0,5,8,2021-03-09
2-1-4-5-3,Botrytis;Alternaria;,10,20,30,2021-03-10
77-1,Chinche;,30,20,10,2021-03-11
2-1-3-13-2,Coleopteros;,10,10,10,2021-03-12
2-1-4-3-2,Nada;,0,5,0,2021-03-13
2-1-4-10-1,Punto rojo;Botrytis;Chinche;,10,10,10,2021-03-14
1-3-8-118-1,Botrytis;Alternaria;,0,5,0,2021-03-15
3-2-6-60-2,Acaro blanco; Lepidoptera;,10,20,30,2021-03-16
3-2-6-43-2,Botrytis;,30,20,10,2021-03-17
2-3-1-94-1,Mancha foliar;,10,10,10,2021-03-18
3-3-10-105-3,Mancha foliar;Botrytis;,0,5,8,2021-03-19
3-4-11-146-1,Chinche;,10,20,30,2021-03-20
3-2-6-50-3,Coleopteros;,30,20,10,2021-03-21
3-2-6-58-3,Molusco;,10,10,10,2021-03-22
3-2-6-58-2,Molusco;Coleopteros;,0,5,0,2021-03-23
3-2-6-59-2,Chinche;Coleopteros;,10,10,10,2021-03-24
3-2-6-59-3,Nada;,0,5,0,2021-03-25
3-4-11-132-1,Acaro blanco; Lepidoptera;,10,20,30,2021-04-02
3-2-6-49-3,Botrytis;,30,20,10,2021-04-02
3-2-7-90-1,Mancha foliar;,10,10,10,2021-04-03
3-5-14-152-1,Mancha foliar;Botrytis;,0,5,8,2021-04-04
3-5-14-158-1,Chinche;,10,20,30,2021-04-05
3-6-12-180-2,Coleopteros;,30,20,10,2021-04-06
3-6-12-185-3,Molusco;,10,10,10,2021-04-07
3-6-12-186-3,Molusco;Coleopteros;,0,5,0,2021-04-08
1-1-16-12-3,Chinche;Coleopteros;,10,10,10,2021-04-09
80-1,Nada;,0,5,0,2021-04-10
79-2,Alternaria;,10,20,30,2021-04-11
50-1,Alternaria;Botrytis;,30,20,10,2021-04-12
52-2,Punto rojo;,10,10,10,2021-04-13
55-3,Punto rojo;Botrytis;Chinche;,0,5,8,2021-04-14
56-3,Botrytis;Alternaria;,10,20,30,2021-04-15
58-3,Chinche;,30,20,10,2021-04-16
61-2,Coleopteros;,10,10,10,2021-04-17
67-3,Nada;,0,5,0,2021-04-18
1-1-16-6-1,Punto rojo;Botrytis;Chinche;,10,10,10,2021-04-19
1-1-16-10-3,Botrytis;Alternaria;,0,5,0,2021-04-20
1-1-16-11-2,Acaro blanco; Lepidoptera;,10,20,30,2021-04-21
1-1-16-14-1,Botrytis;,30,20,10,2021-04-22
1-1-16-21-2,Mancha foliar;,10,10,10,2021-04-23
1-1-15-28-3,Mancha foliar;Botrytis;,0,5,8,2021-04-24
1-1-15-25-3,Chinche;,10,20,30,2021-04-25
1-1-15-35-3,Coleopteros;,30,20,10,2021-04-02
1-1-15-37-2,Molusco;,10,10,10,2021-04-02
1-1-13-47-3,Molusco;Coleopteros;,0,5,0,2021-04-03
1-1-13-47-2,Chinche;Coleopteros;,10,10,10,2021-04-04
1-1-13-57-3,Nada;,0,5,0,2021-04-05
1-1-9-64-2,Alternaria;,10,20,30,2021-04-06
1-1-13-60-3,Alternaria;Botrytis;,30,20,10,2021-04-07
1-1-9-71-3,Punto rojo;,10,10,10,2021-04-08
1-2-4-98-2,Punto rojo;Botrytis;Chinche;,0,5,8,2021-04-09
3-3-10-110-2,Botrytis;Alternaria;,10,20,30,2021-04-10
3-5-14-153-3,Chinche;,30,20,10,2021-04-11
3-1-5-2-2,Coleopteros;,10,10,10,2021-04-12
1-3-8-115-2,Nada;,0,5,0,2021-04-13
1-3-8-109-3,Punto rojo;Botrytis;Chinche;,10,10,10,2021-04-14
1-2-4-99-3,Botrytis;Alternaria;,0,5,0,2021-04-15
3-5-14-151-3,Acaro blanco; Lepidoptera;,10,20,30,2021-04-16
1-4-15-129-2,Botrytis;,30,20,10,2021-04-17
1-4-13-145-1,Mancha foliar;,10,10,10,2021-04-18
1-4-14-138-1,Mancha foliar;Botrytis;,0,5,8,2021-04-19
1-4-13-142-2,Chinche;,10,20,30,2021-04-20
1-4-15-124-2,Coleopteros;,30,20,10,2021-04-21
1-4-13-151-2,Molusco;,10,10,10,2021-04-22
3-5-14-163-1,Molusco;Coleopteros;,0,5,0,2021-04-23
3-5-12-165-1,Chinche;Coleopteros;,10,10,10,2021-04-24
3-1-6-35-3,Nada;,0,5,0,2021-04-25
3-1-6-39-2,Acaro blanco; Lepidoptera;,10,20,30,2021-05-02
3-2-7-75-1,Botrytis;,30,20,10,2021-05-02
3-1-6-42-1,Mancha foliar;,10,10,10,2021-05-03
3-1-5-28-3,Mancha foliar;Botrytis;,0,5,8,2021-05-04
2-3-2-109-2,Chinche;,10,20,30,2021-05-05
3-1-6-33-3,Coleopteros;,30,20,10,2021-05-06
3-1-5-7-3,Molusco;,10,10,10,2021-05-07
3-1-5-18-3,Molusco;Coleopteros;,0,5,0,2021-05-08
2-3-1-91-2,Chinche;Coleopteros;,10,10,10,2021-05-09
2-3-1-91-3,Nada;,0,5,0,2021-05-10
3-4-11-127-3,Alternaria;,10,20,30,2021-05-11
2-2-2-47-3,Alternaria;Botrytis;,30,20,10,2021-05-12
2-3-2-99-3,Punto rojo;,10,10,10,2021-05-13
2-3-2-101-3,Punto rojo;Botrytis;Chinche;,0,5,8,2021-05-14
1-2-4-93-3,Botrytis;Alternaria;,10,20,30,2021-05-15
3-2-7-86-1,Chinche;,30,20,10,2021-05-16
2-3-1-96-1,Coleopteros;,10,10,10,2021-05-17
2-3-2-103-3,Nada;,0,5,0,2021-05-18
2-2-2-43-3,Punto rojo;Botrytis;Chinche;,10,10,10,2021-05-19
2-2-2-43-1,Botrytis;Alternaria;,0,5,0,2021-05-20
1-4-13-153-3,Acaro blanco; Lepidoptera;,10,20,30,2021-05-21
1-4-9-166-1,Botrytis;,30,20,10,2021-05-22
2-1-3-25-2,Mancha foliar;,10,10,10,2021-05-23
2-1-4-7-2,Mancha foliar;Botrytis;,0,5,8,2021-05-24
2-1-3-15-3,Chinche;,10,20,30,2021-05-25
2-1-3-27-2,Coleopteros;,30,20,10,2021-05-02
2-1-3-22-2,Molusco;,10,10,10,2021-05-02
2-1-2-33-3,Molusco;Coleopteros;,0,5,0,2021-05-03
2-1-2-37-3,Chinche;Coleopteros;,10,10,10,2021-05-04
2-1-2-38-1,Nada;,0,5,0,2021-05-05
1-2-4-103-3,Alternaria;,10,20,30,2021-05-06
1-1-16-4-3,Alternaria;Botrytis;,30,20,10,2021-05-07
1-1-9-76-3,Punto rojo;,10,10,10,2021-05-08
3-4-11-130-1,Punto rojo;Botrytis;Chinche;,0,5,8,2021-05-09
3-3-10-115-1,Botrytis;Alternaria;,10,20,30,2021-05-10
3-2-7-73-1,Chinche;,30,20,10,2021-05-11
2-2-2-48-3,Coleopteros;,10,10,10,2021-05-12
3-3-10-103-3,Nada;,0,5,0,2021-05-13
3-3-10-106-3,Punto rojo;Botrytis;Chinche;,10,10,10,2021-05-14
3-3-10-116-1,Botrytis;Alternaria;,0,5,0,2021-05-15
3-2-7-78-2,Acaro blanco; Lepidoptera;,10,20,30,2021-05-16
3-2-7-85-2,Botrytis;,30,20,10,2021-05-17
3-4-11-146-3,Mancha foliar;,10,10,10,2021-05-18
3-4-11-138-3,Mancha foliar;Botrytis;,0,5,8,2021-05-19
3-3-10-99-2,Chinche;,10,20,30,2021-05-20
3-2-6-59-1,Coleopteros;,30,20,10,2021-05-21
3-2-7-68-1,Molusco;,10,10,10,2021-05-22
3-2-7-93-3,Molusco;Coleopteros;,0,5,0,2021-05-23
3-5-14-156-1,Chinche;Coleopteros;,10,10,10,2021-05-24
3-6-12-188-2,Nada;,0,5,0,2021-05-25
1-1-16-16-2,Acaro blanco; Lepidoptera;,10,20,30,2021-06-02
1-1-16-3-1,Botrytis;,30,20,10,2021-06-02
1-1-16-7-1,Mancha foliar;,10,10,10,2021-06-03
1-1-16-13-2,Mancha foliar;Botrytis;,0,5,8,2021-06-04
1-1-16-21-3,Chinche;,10,20,30,2021-06-05
1-1-16-19-1,Coleopteros;,30,20,10,2021-06-06
1-1-16-17-1,Molusco;,10,10,10,2021-06-07
1-1-15-23-1,Molusco;Coleopteros;,0,5,0,2021-06-08
1-1-14-45-1,Chinche;Coleopteros;,10,10,10,2021-06-09
1-1-13-52-3,Nada;,0,5,0,2021-06-10
1-1-13-59-1,Alternaria;,10,20,30,2021-06-11
1-1-9-62-2,Alternaria;Botrytis;,30,20,10,2021-06-12
1-1-9-62-3,Punto rojo;,10,10,10,2021-06-13
1-2-4-95-2,Punto rojo;Botrytis;Chinche;,0,5,8,2021-06-14
1-2-4-97-3,Botrytis;Alternaria;,10,20,30,2021-06-15
1-2-4-97-1,Chinche;,30,20,10,2021-06-16
3-3-10-110-1,Coleopteros;,10,10,10,2021-06-17
3-3-10-108-3,Nada;,0,5,0,2021-06-18
3-5-14-154-3,Punto rojo;Botrytis;Chinche;,10,10,10,2021-06-19
1-4-15-127-1,Botrytis;Alternaria;,0,5,0,2021-06-20
1-4-15-128-1,Acaro blanco; Lepidoptera;,10,20,30,2021-06-21
1-4-13-148-2,Botrytis;,30,20,10,2021-06-22
1-4-9-162-3,Mancha foliar;,10,10,10,2021-06-23
3-2-6-63-1,Mancha foliar;Botrytis;,0,5,8,2021-06-24
3-2-7-69-1,Chinche;,10,20,30,2021-06-25
3-1-6-35-1,Coleopteros;,30,20,10,2021-06-02
3-1-5-25-3,Molusco;,10,10,10,2021-06-02
3-1-5-26-3,Molusco;Coleopteros;,0,5,0,2021-06-03
3-1-6-34-3,Chinche;Coleopteros;,10,10,10,2021-06-04
3-1-5-7-1,Nada;,0,5,0,2021-06-05
3-1-5-23-2,Alternaria;,10,20,30,2021-06-06
2-3-1-90-3,Alternaria;Botrytis;,30,20,10,2021-06-07
2-3-1-95-1,Punto rojo;,10,10,10,2021-06-08
2-2-2-42-2,Punto rojo;Botrytis;Chinche;,0,5,8,2021-06-09
2-2-2-42-3,Botrytis;Alternaria;,10,20,30,2021-06-10
2-3-1-92-2,Chinche;,30,20,10,2021-06-11
2-3-1-92-1,Coleopteros;,10,10,10,2021-06-12
2-3-2-105-3,Nada;,0,5,0,2021-06-13
1-3-8-114-2,Punto rojo;Botrytis;Chinche;,10,10,10,2021-06-14
1-3-8-114-3,Botrytis;Alternaria;,0,5,0,2021-06-15
2-3-2-103-2,Acaro blanco; Lepidoptera;,10,20,30,2021-06-16
1-2-4-92-1,Botrytis;,30,20,10,2021-06-17
1-4-9-157-2,Mancha foliar;,10,10,10,2021-06-18
1-4-13-153-2,Mancha foliar;Botrytis;,0,5,8,2021-06-19
1-4-9-167-1,Chinche;,10,20,30,2021-06-20
1-3-8-116-2,Coleopteros;,30,20,10,2021-06-21
2-1-4-8-3,Molusco;,10,10,10,2021-06-22
2-1-3-17-2,Molusco;Coleopteros;,0,5,0,2021-06-23
2-1-3-13-3,Chinche;Coleopteros;,10,10,10,2021-06-24
2-1-2-35-3,Nada;,0,5,0,2021-06-25
2-1-3-22-3,Acaro blanco; Lepidoptera;,10,20,30,2021-07-02
2-1-4-11-3,Botrytis;,30,20,10,2021-07-02
3-2-7-71-2,Mancha foliar;,10,10,10,2021-07-03
1-1-9-74-3,Mancha foliar;Botrytis;,0,5,8,2021-07-04
2-3-1-76-3,Chinche;,10,20,30,2021-07-05
3-2-7-72-3,Coleopteros;,30,20,10,2021-07-06
3-4-11-142-3,Molusco;,10,10,10,2021-07-07
3-2-7-74-3,Molusco;Coleopteros;,0,5,0,2021-07-08
2-1-3-21-3,Chinche;Coleopteros;,10,10,10,2021-07-09
3-2-6-46-1,Nada;,0,5,0,2021-07-10
3-4-11-135-2,Alternaria;,10,20,30,2021-07-11
3-3-10-102-3,Alternaria;Botrytis;,30,20,10,2021-07-12
3-3-10-111-3,Punto rojo;,10,10,10,2021-07-13
3-3-10-111-1,Punto rojo;Botrytis;Chinche;,0,5,8,2021-07-14
3-4-11-133-2,Botrytis;Alternaria;,10,20,30,2021-07-15
3-2-6-49-2,Chinche;,30,20,10,2021-07-16
3-2-7-66-3,Coleopteros;,10,10,10,2021-07-17
3-2-7-82-3,Nada;,0,5,0,2021-07-18
3-2-6-52-1,Punto rojo;Botrytis;Chinche;,10,10,10,2021-07-19
3-6-12-174-2,Botrytis;Alternaria;,0,5,0,2021-07-20
3-6-12-179-3,Acaro blanco; Lepidoptera;,10,20,30,2021-07-21
3-6-12-178-3,Botrytis;,30,20,10,2021-07-22
3-4-11-148-2,Mancha foliar;,10,10,10,2021-07-23
2-2-2-45-2,Mancha foliar;Botrytis;,0,5,8,2021-07-24
2-1-3-18-3,Chinche;,10,20,30,2021-07-25
2-3-1-83-3,Coleopteros;,30,20,10,2021-07-02
2-1-4-1-3,Molusco;,10,10,10,2021-07-02
3-5-14-160-3,Molusco;Coleopteros;,0,5,0,2021-07-03
89-2,Chinche;Coleopteros;,10,10,10,2021-07-04
83-2,Nada;,0,5,0,2021-07-05
82-3,Alternaria;,10,20,30,2021-07-06
81-3,Alternaria;Botrytis;,30,20,10,2021-07-07
49-1,Punto rojo;,10,10,10,2021-07-08
51-1,Punto rojo;Botrytis;Chinche;,0,5,8,2021-07-09
55-1,Botrytis;Alternaria;,10,20,30,2021-07-10
63-3,Chinche;,30,20,10,2021-07-11
67-2,Coleopteros;,10,10,10,2021-07-12
71-3,Nada;,0,5,0,2021-07-13
1-1-16-6-3,Punto rojo;Botrytis;Chinche;,10,10,10,2021-07-14
1-1-16-18-1,Botrytis;Alternaria;,0,5,0,2021-07-15
1-1-16-18-3,Acaro blanco; Lepidoptera;,10,20,30,2021-07-16
1-1-15-32-1,Botrytis;,30,20,10,2021-07-17
1-1-15-32-2,Mancha foliar;,10,10,10,2021-07-18
1-1-15-27-3,Mancha foliar;Botrytis;,0,5,8,2021-07-19
1-1-15-25-1,Chinche;,10,20,30,2021-07-20
1-1-14-43-2,Coleopteros;,30,20,10,2021-07-21
1-1-14-43-1,Molusco;,10,10,10,2021-07-22
1-1-13-50-3,Molusco;Coleopteros;,0,5,0,2021-07-23
1-1-13-57-2,Chinche;Coleopteros;,10,10,10,2021-07-24
1-1-13-59-3,Nada;,0,5,0,2021-07-25
1-2-4-106-2,Acaro blanco; Lepidoptera;,10,20,30,2021-08-02
3-5-12-172-1,Botrytis;,30,20,10,2021-08-02
3-1-5-8-2,Mancha foliar;,10,10,10,2021-08-03
1-3-8-109-2,Mancha foliar;Botrytis;,0,5,8,2021-08-04
1-2-4-99-2,Chinche;,10,20,30,2021-08-05
3-5-12-173-2,Coleopteros;,30,20,10,2021-08-06
1-4-15-129-3,Molusco;,10,10,10,2021-08-07
1-4-15-130-1,Molusco;Coleopteros;,0,5,0,2021-08-08
1-4-13-147-3,Chinche;Coleopteros;,10,10,10,2021-08-09
1-4-15-126-3,Nada;,0,5,0,2021-08-10
1-4-13-142-1,Alternaria;,10,20,30,2021-08-11
1-4-13-151-3,Alternaria;Botrytis;,30,20,10,2021-08-12
3-5-14-163-2,Punto rojo;,10,10,10,2021-08-13
3-2-6-48-2,Punto rojo;Botrytis;Chinche;,0,5,8,2021-08-14
3-2-7-65-3,Botrytis;Alternaria;,10,20,30,2021-08-15
3-2-7-67-1,Chinche;,30,20,10,2021-08-16
3-1-5-29-1,Coleopteros;,10,10,10,2021-08-17
3-2-6-63-3,Nada;,0,5,0,2021-08-18
3-1-6-42-2,Punto rojo;Botrytis;Chinche;,10,10,10,2021-08-19
3-5-14-150-3,Botrytis;Alternaria;,0,5,0,2021-08-20
3-5-14-151-1,Acaro blanco; Lepidoptera;,10,20,30,2021-08-21
3-1-6-37-2,Botrytis;,30,20,10,2021-08-22
3-1-5-12-3,Mancha foliar;,10,10,10,2021-08-23
3-1-5-21-1,Mancha foliar;Botrytis;,0,5,8,2021-08-24
3-1-5-20-1,Chinche;,10,20,30,2021-08-25
2-3-1-79-2,Coleopteros;,30,20,10,2021-08-02
1-2-4-102-3,Molusco;,10,10,10,2021-08-02
2-3-1-75-1,Molusco;Coleopteros;,0,5,0,2021-08-03
2-3-2-104-1,Chinche;Coleopteros;,10,10,10,2021-08-04
1-4-13-150-1,Nada;,0,5,0,2021-08-05
1-4-9-163-3,Alternaria;,10,20,30,2021-08-06
1-2-4-100-3,Alternaria;Botrytis;,30,20,10,2021-08-07
2-1-3-30-1,Punto rojo;,10,10,10,2021-08-08
1-3-8-120-2,Punto rojo;Botrytis;Chinche;,0,5,8,2021-08-09
2-1-4-5-3,Botrytis;Alternaria;,10,20,30,2021-08-10
77-1,Chinche;,30,20,10,2021-08-11
2-1-3-13-2,Coleopteros;,10,10,10,2021-08-12
2-1-4-3-2,Nada;,0,5,0,2021-08-13
2-1-4-10-1,Punto rojo;Botrytis;Chinche;,10,10,10,2021-08-14
1-3-8-118-1,Botrytis;Alternaria;,0,5,0,2021-08-15
3-2-6-60-2,Acaro blanco; Lepidoptera;,10,20,30,2021-08-16
3-2-6-43-2,Botrytis;,30,20,10,2021-08-17
2-3-1-94-1,Mancha foliar;,10,10,10,2021-08-18
3-3-10-105-3,Mancha foliar;Botrytis;,0,5,8,2021-08-19
3-4-11-146-1,Chinche;,10,20,30,2021-08-20
3-2-6-50-3,Coleopteros;,30,20,10,2021-08-21
3-2-6-58-3,Molusco;,10,10,10,2021-08-22
3-2-6-58-2,Molusco;Coleopteros;,0,5,0,2021-08-23
3-2-6-59-2,Chinche;Coleopteros;,10,10,10,2021-08-24
3-2-6-59-3,Nada;,0,5,0,2021-08-25
3-4-11-132-1,Acaro blanco; Lepidoptera;,10,20,30,2021-09-02
3-2-6-49-3,Botrytis;,30,20,10,2021-09-02
3-2-7-90-1,Mancha foliar;,10,10,10,2021-09-03
3-5-14-152-1,Mancha foliar;Botrytis;,0,5,8,2021-09-04
3-5-14-158-1,Chinche;,10,20,30,2021-09-05
3-6-12-180-2,Coleopteros;,30,20,10,2021-09-06
3-6-12-185-3,Molusco;,10,10,10,2021-09-07
3-6-12-186-3,Molusco;Coleopteros;,0,5,0,2021-09-08
1-1-16-12-3,Chinche;Coleopteros;,10,10,10,2021-09-09
80-1,Nada;,0,5,0,2021-09-10
79-2,Alternaria;,10,20,30,2021-09-11
50-1,Alternaria;Botrytis;,30,20,10,2021-09-12
52-2,Punto rojo;,10,10,10,2021-09-13
55-3,Punto rojo;Botrytis;Chinche;,0,5,8,2021-09-14
56-3,Botrytis;Alternaria;,10,20,30,2021-09-15
58-3,Chinche;,30,20,10,2021-09-16
61-2,Coleopteros;,10,10,10,2021-09-17
67-3,Nada;,0,5,0,2021-09-18
1-1-16-6-1,Punto rojo;Botrytis;Chinche;,10,10,10,2021-09-19
1-1-16-10-3,Botrytis;Alternaria;,0,5,0,2021-09-20
1-1-16-11-2,Acaro blanco; Lepidoptera;,10,20,30,2021-09-21
1-1-16-14-1,Botrytis;,30,20,10,2021-09-22
1-1-16-21-2,Mancha foliar;,10,10,10,2021-09-23
1-1-15-28-3,Mancha foliar;Botrytis;,0,5,8,2021-09-24
1-1-15-25-3,Chinche;,10,20,30,2021-09-25
1-1-15-35-3,Coleopteros;,30,20,10,2021-09-02
1-1-15-37-2,Molusco;,10,10,10,2021-09-02
1-1-13-47-3,Molusco;Coleopteros;,0,5,0,2021-09-03
1-1-13-47-2,Chinche;Coleopteros;,10,10,10,2021-09-04
1-1-13-57-3,Nada;,0,5,0,2021-09-05
1-1-9-64-2,Alternaria;,10,20,30,2021-09-06
1-1-13-60-3,Alternaria;Botrytis;,30,20,10,2021-09-07
1-1-9-71-3,Punto rojo;,10,10,10,2021-09-08
1-2-4-98-2,Punto rojo;Botrytis;Chinche;,0,5,8,2021-09-09
3-3-10-110-2,Botrytis;Alternaria;,10,20,30,2021-09-10
3-5-14-153-3,Chinche;,30,20,10,2021-09-11
3-1-5-2-2,Coleopteros;,10,10,10,2021-09-12
1-3-8-115-2,Nada;,0,5,0,2021-09-13
1-3-8-109-3,Punto rojo;Botrytis;Chinche;,10,10,10,2021-09-14
1-2-4-99-3,Botrytis;Alternaria;,0,5,0,2021-09-15
3-5-14-151-3,Acaro blanco; Lepidoptera;,10,20,30,2021-09-16
1-4-15-129-2,Botrytis;,30,20,10,2021-09-17
1-4-13-145-1,Mancha foliar;,10,10,10,2021-09-18
1-4-14-138-1,Mancha foliar;Botrytis;,0,5,8,2021-09-19
1-4-13-142-2,Chinche;,10,20,30,2021-09-20
1-4-15-124-2,Coleopteros;,30,20,10,2021-09-21
1-4-13-151-2,Molusco;,10,10,10,2021-09-22
3-5-14-163-1,Molusco;Coleopteros;,0,5,0,2021-09-23
3-5-12-165-1,Chinche;Coleopteros;,10,10,10,2021-09-24
3-1-6-35-3,Nada;,0,5,0,2021-09-25
3-1-6-39-2,Acaro blanco; Lepidoptera;,10,20,30,2021-10-02
3-2-7-75-1,Botrytis;,30,20,10,2021-10-02
3-1-6-42-1,Mancha foliar;,10,10,10,2021-10-03
3-1-5-28-3,Mancha foliar;Botrytis;,0,5,8,2021-10-04
2-3-2-109-2,Chinche;,10,20,30,2021-10-05
3-1-6-33-3,Coleopteros;,30,20,10,2021-10-06
3-1-5-7-3,Molusco;,10,10,10,2021-10-07
3-1-5-18-3,Molusco;Coleopteros;,0,5,0,2021-10-08
2-3-1-91-2,Chinche;Coleopteros;,10,10,10,2021-10-09
2-3-1-91-3,Nada;,0,5,0,2021-10-10
3-4-11-127-3,Alternaria;,10,20,30,2021-10-11
2-2-2-47-3,Alternaria;Botrytis;,30,20,10,2021-10-12
2-3-2-99-3,Punto rojo;,10,10,10,2021-10-13
2-3-2-101-3,Punto rojo;Botrytis;Chinche;,0,5,8,2021-10-14
1-2-4-93-3,Botrytis;Alternaria;,10,20,30,2021-10-15
3-2-7-86-1,Chinche;,30,20,10,2021-10-16
2-3-1-96-1,Coleopteros;,10,10,10,2021-10-17
2-3-2-103-3,Nada;,0,5,0,2021-10-18
2-2-2-43-3,Punto rojo;Botrytis;Chinche;,10,10,10,2021-10-19
2-2-2-43-1,Botrytis;Alternaria;,0,5,0,2021-10-20
1-4-13-153-3,Acaro blanco; Lepidoptera;,10,20,30,2021-10-21
1-4-9-166-1,Botrytis;,30,20,10,2021-10-22
2-1-3-25-2,Mancha foliar;,10,10,10,2021-10-23
2-1-4-7-2,Mancha foliar;Botrytis;,0,5,8,2021-10-24
2-1-3-15-3,Chinche;,10,20,30,2021-10-25
2-1-3-27-2,Coleopteros;,30,20,10,2021-10-02
2-1-3-22-2,Molusco;,10,10,10,2021-10-02
2-1-2-33-3,Molusco;Coleopteros;,0,5,0,2021-10-03
2-1-2-37-3,Chinche;Coleopteros;,10,10,10,2021-10-04
2-1-2-38-1,Nada;,0,5,0,2021-10-05
1-2-4-103-3,Alternaria;,10,20,30,2021-10-06
1-1-16-4-3,Alternaria;Botrytis;,30,20,10,2021-10-07
1-1-9-76-3,Punto rojo;,10,10,10,2021-10-08
3-4-11-130-1,Punto rojo;Botrytis;Chinche;,0,5,8,2021-10-09
3-3-10-115-1,Botrytis;Alternaria;,10,20,30,2021-10-10
3-2-7-73-1,Chinche;,30,20,10,2021-10-11
2-2-2-48-3,Coleopteros;,10,10,10,2021-10-12
3-3-10-103-3,Nada;,0,5,0,2021-10-13
3-3-10-106-3,Punto rojo;Botrytis;Chinche;,10,10,10,2021-10-14
3-3-10-116-1,Botrytis;Alternaria;,0,5,0,2021-10-15
3-2-7-78-2,Acaro blanco; Lepidoptera;,10,20,30,2021-10-16
3-2-7-85-2,Botrytis;,30,20,10,2021-10-17
3-4-11-146-3,Mancha foliar;,10,10,10,2021-10-18
3-4-11-138-3,Mancha foliar;Botrytis;,0,5,8,2021-10-19
3-3-10-99-2,Chinche;,10,20,30,2021-10-20
3-2-6-59-1,Coleopteros;,30,20,10,2021-10-21
3-2-7-68-1,Molusco;,10,10,10,2021-10-22
3-2-7-93-3,Molusco;Coleopteros;,0,5,0,2021-10-23
3-5-14-156-1,Chinche;Coleopteros;,10,10,10,2021-10-24
3-6-12-188-2,Nada;,0,5,0,2021-10-25
3-2-6-59-3,Nada;,0,5,0,2021-11-02
3-4-11-132-1,Acaro blanco; Lepidoptera;,10,20,30,2021-11-02
3-2-6-49-3,Botrytis;,30,20,10,2021-11-03
3-2-7-90-1,Mancha foliar;,10,10,10,2021-11-04
3-5-14-152-1,Mancha foliar;Botrytis;,0,5,8,2021-11-05
3-5-14-158-1,Chinche;,10,20,30,2021-11-06
3-6-12-180-2,Coleopteros;,30,20,10,2021-11-07
3-6-12-185-3,Molusco;,10,10,10,2021-11-08
3-6-12-186-3,Molusco;Coleopteros;,0,5,0,2021-11-09
1-1-16-12-3,Chinche;Coleopteros;,10,10,10,2021-11-10
80-1,Nada;,0,5,0,2021-11-11
79-2,Alternaria;,10,20,30,2021-11-12
50-1,Alternaria;Botrytis;,30,20,10,2021-11-13
52-2,Punto rojo;,10,10,10,2021-11-14
55-3,Punto rojo;Botrytis;Chinche;,0,5,8,2021-11-15
56-3,Botrytis;Alternaria;,10,20,30,2021-11-16
58-3,Chinche;,30,20,10,2021-11-17
61-2,Coleopteros;,10,10,10,2021-11-18
67-3,Nada;,0,5,0,2021-11-19
1-1-16-6-1,Punto rojo;Botrytis;Chinche;,10,10,10,2021-11-20
1-1-16-10-3,Botrytis;Alternaria;,0,5,0,2021-11-21
1-1-16-11-2,Acaro blanco; Lepidoptera;,10,20,30,2021-11-22
1-1-16-14-1,Botrytis;,30,20,10,2021-11-23
1-1-16-21-2,Mancha foliar;,10,10,10,2021-11-24
1-1-15-28-3,Mancha foliar;Botrytis;,0,5,8,2021-11-25
1-1-15-25-3,Chinche;,10,20,30,2021-11-02
1-1-15-35-3,Coleopteros;,30,20,10,2021-11-02
1-1-15-37-2,Molusco;,10,10,10,2021-11-03
1-1-13-47-3,Molusco;Coleopteros;,0,5,0,2021-11-04
1-1-13-47-2,Chinche;Coleopteros;,10,10,10,2021-11-05
1-1-13-57-3,Nada;,0,5,0,2021-11-06
1-1-9-64-2,Alternaria;,10,20,30,2021-11-07
1-1-13-60-3,Alternaria;Botrytis;,30,20,10,2021-11-08
1-1-9-71-3,Punto rojo;,10,10,10,2021-11-09
1-2-4-98-2,Punto rojo;Botrytis;Chinche;,0,5,8,2021-11-10
3-3-10-110-2,Botrytis;Alternaria;,10,20,30,2021-11-11
3-5-14-153-3,Chinche;,30,20,10,2021-11-12
3-1-5-2-2,Coleopteros;,10,10,10,2021-11-13
1-3-8-115-2,Nada;,0,5,0,2021-11-14
1-3-8-109-3,Punto rojo;Botrytis;Chinche;,10,10,10,2021-11-15
1-2-4-99-3,Botrytis;Alternaria;,0,5,0,2021-11-16
3-5-14-151-3,Acaro blanco; Lepidoptera;,10,20,30,2021-11-17
1-4-15-129-2,Botrytis;,30,20,10,2021-11-18
1-4-13-145-1,Mancha foliar;,10,10,10,2021-11-19
1-4-14-138-1,Mancha foliar;Botrytis;,0,5,8,2021-11-20
1-4-13-142-2,Chinche;,10,20,30,2021-11-21
1-4-15-124-2,Coleopteros;,30,20,10,2021-11-22
1-4-13-151-2,Molusco;,10,10,10,2021-11-23
3-5-14-163-1,Molusco;Coleopteros;,0,5,0,2021-11-24
3-5-12-165-1,Chinche;Coleopteros;,10,10,10,2021-11-25
3-1-6-35-3,Nada;,0,5,0,2021-12-02
3-1-6-39-2,Acaro blanco; Lepidoptera;,10,20,30,2021-12-02
3-2-7-75-1,Botrytis;,30,20,10,2021-12-03
3-1-6-42-1,Mancha foliar;,10,10,10,2021-12-04
3-1-5-28-3,Mancha foliar;Botrytis;,0,5,8,2021-12-05
2-3-2-109-2,Chinche;,10,20,30,2021-12-06
3-1-6-33-3,Coleopteros;,30,20,10,2021-12-07
3-1-5-7-3,Molusco;,10,10,10,2021-12-08
3-1-5-18-3,Molusco;Coleopteros;,0,5,0,2021-12-09
2-3-1-91-2,Chinche;Coleopteros;,10,10,10,2021-12-10
2-3-1-91-3,Nada;,0,5,0,2021-12-11
3-4-11-127-3,Alternaria;,10,20,30,2021-12-12
2-2-2-47-3,Alternaria;Botrytis;,30,20,10,2021-12-13
2-3-2-99-3,Punto rojo;,10,10,10,2021-12-14
2-3-2-101-3,Punto rojo;Botrytis;Chinche;,0,5,8,2021-12-15
1-2-4-93-3,Botrytis;Alternaria;,10,20,30,2021-12-16
3-2-7-86-1,Chinche;,30,20,10,2021-12-17
2-3-1-96-1,Coleopteros;,10,10,10,2021-12-18
2-3-2-103-3,Nada;,0,5,0,2021-12-19
2-2-2-43-3,Punto rojo;Botrytis;Chinche;,10,10,10,2021-12-20
2-2-2-43-1,Botrytis;Alternaria;,0,5,0,2021-12-21
1-4-13-153-3,Acaro blanco; Lepidoptera;,10,20,30,2021-12-22
1-4-9-166-1,Botrytis;,30,20,10,2021-12-23
2-1-3-25-2,Mancha foliar;,10,10,10,2021-12-24
2-1-4-7-2,Mancha foliar;Botrytis;,0,5,8,2021-12-25
2-1-3-15-3,Chinche;,10,20,30,2021-12-02
2-1-3-27-2,Coleopteros;,30,20,10,2021-12-02
2-1-3-22-2,Molusco;,10,10,10,2021-12-03
2-1-2-33-3,Molusco;Coleopteros;,0,5,0,2021-12-04
2-1-2-37-3,Chinche;Coleopteros;,10,10,10,2021-12-05
2-1-2-38-1,Nada;,0,5,0,2021-12-06
1-2-4-103-3,Alternaria;,10,20,30,2021-12-07
1-1-16-4-3,Alternaria;Botrytis;,30,20,10,2021-12-08
1-1-9-76-3,Punto rojo;,10,10,10,2021-12-09
3-4-11-130-1,Punto rojo;Botrytis;Chinche;,0,5,8,2021-12-10
3-3-10-115-1,Botrytis;Alternaria;,10,20,30,2021-12-11
3-2-7-73-1,Chinche;,30,20,10,2021-12-12
2-2-2-48-3,Coleopteros;,10,10,10,2021-12-13
3-3-10-103-3,Nada;,0,5,0,2021-12-14
3-3-10-106-3,Punto rojo;Botrytis;Chinche;,10,10,10,2021-12-15
3-3-10-116-1,Botrytis;Alternaria;,0,5,0,2021-12-16
3-2-7-78-2,Acaro blanco; Lepidoptera;,10,20,30,2021-12-17
3-2-7-85-2,Botrytis;,30,20,10,2021-12-18
3-4-11-146-3,Mancha foliar;,10,10,10,2021-12-19
3-4-11-138-3,Mancha foliar;Botrytis;,0,5,8,2021-12-20
3-3-10-99-2,Chinche;,10,20,30,2021-12-21
3-2-6-59-1,Coleopteros;,30,20,10,2021-12-22
3-2-7-68-1,Molusco;,10,10,10,2021-12-23
3-2-7-93-3,Molusco;Coleopteros;,0,5,0,2021-12-24
3-5-14-156-1,Chinche;Coleopteros;,10,10,10,2021-12-25
