﻿name,ccid,cuc,productivity_measure,productivity_price,productivity_expected,causes
325 ELIMINACION,BANANO Y PLATANO;,325,Jornales,88412,1,Accidente;Lluvia; Falta de insumos; Fin de la jornada Laboral;
325 EMBOLSE ,BANANO Y PLATANO;,325,Jornales,88412,1,Accidente;Lluvia; Falta de insumos; Fin de la jornada Laboral;
325 EMBOLSE  AL CTT,CONTRATISTAS;,9 325,Jornales,0,1,Accidente;Lluvia; Falta de insumos; Fin de la jornada Laboral;
325 RECOLECCION,BANANO Y PLATANO;,325,Jornales,88412,1,Accidente;Lluvia; Falta de insumos; Fin de la jornada Laboral;
325 RECOLECCION AL CTT,CONTRATISTAS;,9 325,Jornales,0,1,Accidente;Lluvia; Falta de insumos; Fin de la jornada Laboral;
AHOYADO,AHOYADO;,300,Jornales,88412,1,Accidente;Lluvia; Falta de insumos; Fin de la jornada Laboral;
AHOYADO AL CTT,CONTRATISTAS;,9 300,Jornales,0,1,Accidente;Lluvia; Falta de insumos; Fin de la jornada Laboral;
ANILLADO,ANILLADO;,323,Jornales,88412,1,Accidente;Lluvia; Falta de insumos; Fin de la jornada Laboral;
ANILLADO AL CTT,CONTRATISTAS;,9 323,Jornales,0,1,Accidente;Lluvia; Falta de insumos; Fin de la jornada Laboral;
APLIC MAT- ORGANICA,FERTILIZACION GRANULADA;,306,Jornales,88412,1,Accidente;Lluvia; Falta de insumos; Fin de la jornada Laboral;
APLIC MAT- ORGANICA AL CTT,CONTRATISTAS;,9 306,Jornales,0,1,Accidente;Lluvia; Falta de insumos; Fin de la jornada Laboral;
APLICACION DE ENMIENDA,APLICACION DE ENMIENDA;,307,Jornales,88412,1,Accidente;Lluvia; Falta de insumos; Fin de la jornada Laboral;
APLICACION DE ENMIENDA AL CTT,CONTRATISTAS;,9 307,Jornales,0,1,Accidente;Lluvia; Falta de insumos; Fin de la jornada Laboral;
APLICACION FOLIAR,APLICACION FOLIAR;,312,Jornales,88412,1,Accidente;Lluvia; Falta de insumos; Fin de la jornada Laboral;
APLICACION FOLIAR AL CTT,CONTRATISTAS;,9 312,Jornales,0,1,Accidente;Lluvia; Falta de insumos; Fin de la jornada Laboral;
APLICACION MULCH,APLICACION MULCH;,315,Jornales,88412,1,Accidente;Lluvia; Falta de insumos; Fin de la jornada Laboral;
APLICACION MULCH AL CTT,CONTRATISTAS;,9 315,Jornales,0,1,Accidente;Lluvia; Falta de insumos; Fin de la jornada Laboral;
AYUDANTE DE OFICIAL,MANTENIMIENTO INFRAESTRUCTURA FISICA;,316,Jornales,92287,1,Accidente;Lluvia; Falta de insumos; Fin de la jornada Laboral;
AYUDANTE DE OFICIAL AL CTT,CONTRATISTAS;,9 316,Jornales,0,1,Accidente;Lluvia; Falta de insumos; Fin de la jornada Laboral;
BANDAS,PLATEO QUIMICO;,309,Jornales,88412,1,Accidente;Lluvia; Falta de insumos; Fin de la jornada Laboral;
BANDAS AL CTT,CONTRATISTAS;,9 309,Jornales,0,1,Accidente;Lluvia; Falta de insumos; Fin de la jornada Laboral;
BENEFICIAR CAFE,CAFE;,324,Jornales,88412,1,Accidente;Lluvia; Falta de insumos; Fin de la jornada Laboral;
BENEFICIAR CAFE AL CTT,CONTRATISTAS;,9 324,Jornales,0,1,Accidente;Lluvia; Falta de insumos; Fin de la jornada Laboral;
BODEGUERO,BODEGUERO;,753,Jornales,109482,1,Accidente;Lluvia; Falta de insumos; Fin de la jornada Laboral;
CAPACITACIONES,AUSENTISMO;,326,Jornales,88412,1,Accidente;Lluvia; Falta de insumos; Fin de la jornada Laboral;
CHIPIAR MADERA,PODAS;,314,Jornales,600000,1,Accidente;Lluvia; Falta de insumos; Fin de la jornada Laboral;
CHIPIAR MADERA AL CTT,CONTRATISTAS;,9 314,Jornales,0,1,Accidente;Lluvia; Falta de insumos; Fin de la jornada Laboral;
CONDUCTOR BRASELIO,TRANSPORTE DE INSUMOS A FINCA;,600,Jornales,88412,1,Accidente;Lluvia; Falta de insumos; Fin de la jornada Laboral;
CONDUCTOR BRASELIO AL CTT,CONTRATISTAS;,9 600,Jornales,0,1,Accidente;Lluvia; Falta de insumos; Fin de la jornada Laboral;
CONDUCTOR MOTOCARGUERO,TRANSPORTE DE INSUMOS A FINCA;,600,Jornales,88412,1,Accidente;Lluvia; Falta de insumos; Fin de la jornada Laboral;
CONDUCTOR MOTOCARGUERO AL CTT,CONTRATISTAS;,9 600,Jornales,0,1,Accidente;Lluvia; Falta de insumos; Fin de la jornada Laboral;
CONT FITOSANITARIO,APLICACION FOLIAR;,312,Jornales,88412,1,Accidente;Lluvia; Falta de insumos; Fin de la jornada Laboral;
CONT FITOSANITARIO AL CTT,CONTRATISTAS;,9 312,Jornales,0,1,Accidente;Lluvia; Falta de insumos; Fin de la jornada Laboral;
CONTROL ACARO,CONTROL ACARO;,311,Jornales,88412,1,Accidente;Lluvia; Falta de insumos; Fin de la jornada Laboral;
CONTROL ACARO AL CTT,CONTRATISTAS;,9 311,Jornales,0,1,Accidente;Lluvia; Falta de insumos; Fin de la jornada Laboral;
CONTROL HELECHO,CONTROL HELECHO;,313,Jornales,88412,1,Accidente;Lluvia; Falta de insumos; Fin de la jornada Laboral;
CONTROL HELECHO AL CTT,CONTRATISTAS;,9 313,Jornales,0,1,Accidente;Lluvia; Falta de insumos; Fin de la jornada Laboral;
COSECHA Y POSCOSECHA,COSECHA Y POSCOSECHA;,322,Jornales,88412,1,Accidente;Lluvia; Falta de insumos; Fin de la jornada Laboral;
COSECHA Y POSCOSECHA AL CTT,CONTRATISTAS;,9 322,Jornales,0,1,Accidente;Lluvia; Falta de insumos; Fin de la jornada Laboral;
DESORILLE,DESORILLE;,320,Jornales,88412,1,Accidente;Lluvia; Falta de insumos; Fin de la jornada Laboral;
DESORILLE AL CTT,CONTRATISTAS;,9 320,Jornales,0,1,Accidente;Lluvia; Falta de insumos; Fin de la jornada Laboral;
DISEÑO APERTURAS Y ADECUACION DE VIAS U30 X HORA,DISEÑO APERTURAS Y ADECUACION DE VIAS;,650,Jornales,95000,1,Accidente;Lluvia; Falta de insumos; Fin de la jornada Laboral;
DISEÑO APERTURAS Y ADECUACION DE VIAS U30 X HORA AL CTT,CONTRATISTAS;,9 650,Jornales,0,1,Accidente;Lluvia; Falta de insumos; Fin de la jornada Laboral;
DISEÑO APERTURAS Y ADECUACION DE VIAS U50 X HORA,DISEÑO APERTURAS Y ADECUACION DE VIAS;,650,Jornales,113000,1,Accidente;Lluvia; Falta de insumos; Fin de la jornada Laboral;
DISEÑO APERTURAS Y ADECUACION DE VIAS U50 X HORA AL CTT,CONTRATISTAS;,9 650,Jornales,0,1,Accidente;Lluvia; Falta de insumos; Fin de la jornada Laboral;
DRENAJES,DRENAJES;,305,Jornales,88412,1,Accidente;Lluvia; Falta de insumos; Fin de la jornada Laboral;
DRENAJES AL CTT,CONTRATISTAS;,9 305,Jornales,0,1,Accidente;Lluvia; Falta de insumos; Fin de la jornada Laboral;
DRENCH,FERTILIZACION GRANULADA;,306,Jornales,88412,1,Accidente;Lluvia; Falta de insumos; Fin de la jornada Laboral;
DRENCH AL CTT,CONTRATISTAS;,9 306,Jornales,0,1,Accidente;Lluvia; Falta de insumos; Fin de la jornada Laboral;
ELIMINACION CAFE,CAFE;,324,Jornales,88412,1,Accidente;Lluvia; Falta de insumos; Fin de la jornada Laboral;
ELIMINACION CAFE AL CTT,CONTRATISTAS;,9 324,Jornales,0,1,Accidente;Lluvia; Falta de insumos; Fin de la jornada Laboral;
ENLACE ADMINISTRATIVO,ENLACE ADMINISTRATIVO;,327,Jornales,99098,1,Accidente;Lluvia; Falta de insumos; Fin de la jornada Laboral;
FERT FOLIAR,APLICACION FOLIAR;,312,Jornales,88412,1,Accidente;Lluvia; Falta de insumos; Fin de la jornada Laboral;
FERT FOLIAR AL CTT,CONTRATISTAS;,9 312,Jornales,0,1,Accidente;Lluvia; Falta de insumos; Fin de la jornada Laboral;
FERTILIZACION GRANULADA,FERTILIZACION GRANULADA;,306,Jornales,88412,1,Accidente;Lluvia; Falta de insumos; Fin de la jornada Laboral;
FERTILIZACION GRANULADA AL CTT,CONTRATISTAS;,9 306,Jornales,0,1,Accidente;Lluvia; Falta de insumos; Fin de la jornada Laboral;
GENERAL,PLATEO QUIMICO;,309,Jornales,88412,1,Accidente;Lluvia; Falta de insumos; Fin de la jornada Laboral;
GENERAL AL CTT,CONTRATISTAS;,9 309,Jornales,0,1,Accidente;Lluvia; Falta de insumos; Fin de la jornada Laboral;
INCAPACIDADES,AUSENTISMO;,326,Jornales,88412,1,Accidente;Lluvia; Falta de insumos; Fin de la jornada Laboral;
INFRAESTRUCTURA,MANTENIMIENTO INFRAESTRUCTURA FISICA;,316,Jornales,88412,1,Accidente;Lluvia; Falta de insumos; Fin de la jornada Laboral;
INFRAESTRUCTURA AL CTT,CONTRATISTAS;,9 316,Jornales,0,1,Accidente;Lluvia; Falta de insumos; Fin de la jornada Laboral;
INSTALACION DE FUMIDUCTO,INSTALACION DE FUMIDUCTO;,652,Jornales,94144,1,Accidente;Lluvia; Falta de insumos; Fin de la jornada Laboral;
INSTALACION DE FUMIDUCTO AL CTT,CONTRATISTAS;,9 652,Jornales,0,1,Accidente;Lluvia; Falta de insumos; Fin de la jornada Laboral;
MANTENIMIENTO DE CARRETERAS,MANTENIMIENTO DE CARRETERAS;,318,Jornales,88412,1,Accidente;Lluvia; Falta de insumos; Fin de la jornada Laboral;
MANTENIMIENTO DE CARRETERAS AL CTT,CONTRATISTAS;,9 318,Jornales,0,1,Accidente;Lluvia; Falta de insumos; Fin de la jornada Laboral;
MANTENIMIENTO DE COLMENAS,MANTENIMIENTO DE COLMENAS;,658,Jornales,88412,1,Accidente;Lluvia; Falta de insumos; Fin de la jornada Laboral;
MANTENIMIENTO DE ZANJAS,MANTENIMIENTO ZANJAS;,317,Jornales,88412,1,Accidente;Lluvia; Falta de insumos; Fin de la jornada Laboral;
MANTENIMIENTO DE ZANJAS AL CTT,CONTRATISTAS;,9 317,Jornales,0,1,Accidente;Lluvia; Falta de insumos; Fin de la jornada Laboral;
MANTENIMIENTO EQUIPOS,MANTENIMIENTO DE EQUIPOS;,301,Jornales,88412,1,Accidente;Lluvia; Falta de insumos; Fin de la jornada Laboral;
MANTENIMIENTO EQUIPOS AL CTT,CONTRATISTAS;,9 301,Jornales,0,1,Accidente;Lluvia; Falta de insumos; Fin de la jornada Laboral;
MONITOREO,MONITOREO;,308,Jornales,114244,1,Accidente;Lluvia; Falta de insumos; Fin de la jornada Laboral;
MOTOCARGUERO,TRANSPORTE DE INSUMOS A FINCA;,600,Jornales,200678,1,Accidente;Lluvia; Falta de insumos; Fin de la jornada Laboral;
MOTOCARGUERO AL CTT,CONTRATISTAS;,9 600,Jornales,0,1,Accidente;Lluvia; Falta de insumos; Fin de la jornada Laboral;
OFICIAL DE CONSTRUCCION,MANTENIMIENTO INFRAESTRUCTURA FISICA;,316,Jornales,117796,1,Accidente;Lluvia; Falta de insumos; Fin de la jornada Laboral;
OFICIAL DE CONSTRUCCION AL CTT,CONTRATISTAS;,9 316,Jornales,0,1,Accidente;Lluvia; Falta de insumos; Fin de la jornada Laboral;
OFICIOS VARIOS (CERCAS_ OBRAS_ ASEO Y OTRAS),MANTENIMIENTO INFRAESTRUCTURA FISICA;,316,Jornales,88412,1,Accidente;Lluvia; Falta de insumos; Fin de la jornada Laboral;
OFICIOS VARIOS (CERCAS_ OBRAS_ ASEO Y OTRAS) AL CTT,CONTRATISTAS;,9 316,Jornales,0,1,Accidente;Lluvia; Falta de insumos; Fin de la jornada Laboral;
PERMISOS REMUNERADOS,AUSENTISMO;,326,Jornales,88412,1,Accidente;Lluvia; Falta de insumos; Fin de la jornada Laboral;
PINTADA DE TALLOS,DESCINTADA TUTORADA PINTADA DE TALLOS Y PODA DE FORMACION;,303,Jornales,88412,1,Accidente;Lluvia; Falta de insumos; Fin de la jornada Laboral;
PINTADA DE TALLOS AL CTT,CONTRATISTAS;,9 303,Jornales,0,1,Accidente;Lluvia; Falta de insumos; Fin de la jornada Laboral;
PLATEO,PLATEO QUIMICO;,309,Jornales,88412,1,Accidente;Lluvia; Falta de insumos; Fin de la jornada Laboral;
PLATEO AL CTT,CONTRATISTAS;,9 309,Jornales,0,1,Accidente;Lluvia; Falta de insumos; Fin de la jornada Laboral;
PLATEO MANUAL,CONTROL MALEZAS;,310,Jornales,88412,1,Accidente;Lluvia; Falta de insumos; Fin de la jornada Laboral;
PLATEO MANUAL AL CTT,CONTRATISTAS;,9 310,Jornales,0,1,Accidente;Lluvia; Falta de insumos; Fin de la jornada Laboral;
PODA,PODAS;,314,Jornales,88412,1,Accidente;Lluvia; Falta de insumos; Fin de la jornada Laboral;
PODA AL CTT,CONTRATISTAS;,9 314,Jornales,0,1,Accidente;Lluvia; Falta de insumos; Fin de la jornada Laboral;
PREPARACION DE TERRENO,PREPARACION DE TERRENO;,321,Jornales,88412,1,Accidente;Lluvia; Falta de insumos; Fin de la jornada Laboral;
PREPARACION DE TERRENO AL CTT,CONTRATISTAS;,9 321,Jornales,0,1,Accidente;Lluvia; Falta de insumos; Fin de la jornada Laboral;
REALCE,PODAS;,314,Jornales,88412,1,Accidente;Lluvia; Falta de insumos; Fin de la jornada Laboral;
REALCE AL CTT,CONTRATISTAS;,9 314,Jornales,0,1,Accidente;Lluvia; Falta de insumos; Fin de la jornada Laboral;
REC CAFE AL DIA,CAFE;,324,Jornales,88412,1,Accidente;Lluvia; Falta de insumos; Fin de la jornada Laboral;
REC CAFE AL DIA AL CTT,CONTRATISTAS;,9 324,Jornales,0,1,Accidente;Lluvia; Falta de insumos; Fin de la jornada Laboral;
REC MADERA,APLICACION MULCH;,315,Jornales,88412,1,Accidente;Lluvia; Falta de insumos; Fin de la jornada Laboral;
REC MADERA AL CTT,CONTRATISTAS;,9 315,Jornales,0,1,Accidente;Lluvia; Falta de insumos; Fin de la jornada Laboral;
RESIEMBRAS,RESIEMBRAS;,304,Jornales,88412,1,Accidente;Lluvia; Falta de insumos; Fin de la jornada Laboral;
RESIEMBRAS AL CTT,CONTRATISTAS;,9 304,Jornales,0,1,Accidente;Lluvia; Falta de insumos; Fin de la jornada Laboral;
SIEMBRA,SIEMBRA;,302,Jornales,88412,1,Accidente;Lluvia; Falta de insumos; Fin de la jornada Laboral;
SIEMBRA AL CTT,CONTRATISTAS;,9 302,Árbol,0,1,Accidente;Lluvia; Falta de insumos; Fin de la jornada Laboral;
SUPERVISOR DE BODEGA,BODEGUERO;,753,Jornales,130551,1,Accidente;Lluvia; Falta de insumos; Fin de la jornada Laboral;
SUPERVISOR UNIDAD PRODUCTIVA,SUPERVISOR UNIDAD PRODUCTIVA;,752,Jornales,139511,1,Accidente;Lluvia; Falta de insumos; Fin de la jornada Laboral;
TIEMPO DE LLUVIA,AUSENTISMO;,326,Jornales,88412,1,Accidente;Lluvia; Falta de insumos; Fin de la jornada Laboral;
TRANSPORTE DE INSUMOS CAMIONETA,TRANSPORTE DE INSUMOS A FINCA;,600,Jornales,441492,1,Accidente;Lluvia; Falta de insumos; Fin de la jornada Laboral;
TRANSPORTE DE INSUMOS CAMIONETA AL CTT,CONTRATISTAS;,9 600,Jornales,0,1,Accidente;Lluvia; Falta de insumos; Fin de la jornada Laboral;
TRANSPORTE DE INSUMOS TRACTOR,TRANSPORTE DE INSUMOS A FINCA;,600,Jornales,600000,1,Accidente;Lluvia; Falta de insumos; Fin de la jornada Laboral;
TRANSPORTE DE INSUMOS TRACTOR AL CTT,CONTRATISTAS;,9 600,Jornales,0,1,Accidente;Lluvia; Falta de insumos; Fin de la jornada Laboral;
TRANSPORTE DE INSUMOS VOLQUETA,TRANSPORTE DE INSUMOS A FINCA;,600,Jornales,441492,1,Accidente;Lluvia; Falta de insumos; Fin de la jornada Laboral;
TRANSPORTE DE INSUMOS VOLQUETA AL CTT,CONTRATISTAS;,9 600,Jornales,0,1,Accidente;Lluvia; Falta de insumos; Fin de la jornada Laboral;
TRAZO,TRAZADO SITIOS DE SIEMBRA;,651,Jornales,88412,1,Accidente;Lluvia; Falta de insumos; Fin de la jornada Laboral;
TRAZO AL CTT,CONTRATISTAS;,9 651,Jornales,0,1,Accidente;Lluvia; Falta de insumos; Fin de la jornada Laboral;
TRAZO CARRETERAS,DISEÑO APERTURAS Y ADECUACION DE VIAS;,650,Jornales,88412,1,Accidente;Lluvia; Falta de insumos; Fin de la jornada Laboral;
TRAZO CARRETERAS AL CTT,CONTRATISTAS;,9 650,Jornales,0,1,Accidente;Lluvia; Falta de insumos; Fin de la jornada Laboral;
VACACIONES,AUSENTISMO;,326,Jornales,88412,1,Accidente;Lluvia; Falta de insumos; Fin de la jornada Laboral;
ZOQUEO,PODAS;,314,Jornales,88412,1,Accidente;Lluvia; Falta de insumos; Fin de la jornada Laboral;
ZOQUEO AL CTT,CONTRATISTAS;,9 314,Jornales,0,1,Accidente;Lluvia; Falta de insumos; Fin de la jornada Laboral;
