﻿Numero de visita,Nombre de finca,Departamento y Municipio,Municipio,Vereda,Nombre del Propietario,Celular del propietario,Persona de contacto,Celular persona de contacto,Correo electronico,Agronomo,Celular Agronomo,Correo Agronomo,Area sembrada,ASNM,Numero de arboles lote 1,Edad arboles lote 1,Numero de arboles lote 2,Edad arboles lote 2,Numero de arboles lote 3,Edad arboles lote 3,Numero de arboles lote 4,Edad arboles lote 4,Mes Cosecha,Mes traviesa,Exporta,Numero de Registro ICA,Numero de registro global GAP,Comprador 1,Comprador 2,Comprador 3,Mes proxima Cosecha o Traviesa,Materia seca,Kilogramos totales proyectados,Kilogramos de nacional proyectados,codigo productor,nombre cartografia
86,La desendencia,Huila,Palestina,Jerico,Adolfo Zuniga,3214251558,Adolfo Zuniga,3132924434,carrilloadriana205@gmail_com,,,,4,1890,300,4,450,0.7,0,0,0,0,Agosto,Agosto,No,,NO TIENE,Wilson Alba,Intermediarios,NA,,Pendiente,1000,100,A10:86IA,La desendencia A10:86IA
91,Reserva Los Robles,Huila,Palestina,Jerico,Lizandro Torres Muñoz,3214645238,Lizandro Torres Muñoz,3214645238,lizandrotorres1991@gmail_com,,,,4,1870,60,3,200,5,300,3.5,60,4.5,Agosto,Agosto,No,,NO TIENE,Wilson Alba,Intermediarios,NA,,Pendiente,2000,200,A10:91ES,Reserva Los Robles A10:91ES
46,Los Pinos,Huila,Palestina,Jerico,Adelmo Muñoz Alvarado,3142976231,Luis Alberto Gomez Chavez,3138767407,,,,,2.5,0,100,1,300,6,0,2,0,0,,AGOSTO,,,,,,,,,0,0,A10:46OS,Los Pinos A10:46OS
85,Buena vista,Huila,Palestina,Jerico,Carlos Alberto Caldon  Caicedo,3125315799,Carlos Alberto Caldon  Caicedo,3108921987,carloscaldon26@gmail_com,,,,1,1810,150,4,0,0,0,0,0,0,Diciembre,Julio,No,,NO TIENE ,Intermediarios,NA,NA,,Pendiente,2000,200,A10:85TA,Buena vista A10:85TA
47,El Limonsiño,Huila,Palestina,Jerico,Norberto Barrera Torres,3113635208,Norberto Barrera Torres,3118693629,,,,,3.3,0,200,8,250,6,0,0.3,0,0,,AGOSTO,,,,,,,,,0,0,A10:47ÑO,El Limonsiño A10:47ÑO
94,El limonsino,Huila,Palestina,Jerico,Nolberto Barrero Torres,3136355208,Nolberto Barrero Torres,3118693629,NA,,,,3,1770,200,8,250,6,200,0.3,0,0,Abril,Agosto,No,,NO TIENE,Intermediarios,NA,NA,,24,2000,100,A10:94NO,El limonsino A10:94NO
50,La Guasca,Huila,Pitalito,El cedro,Fidel Obando Gurrute,3176183912,Fidel Obando Gurrute,3132106612,NA,,,,1,1858,200,8,0,0,0,0,0,0,Junio,Junio,No,,NO TIENE,Intermediarios,NA,NA,,10,1000,1000,A10:50CA,La Guasca A10:50CA
88,El vergel,Huila,Palestina,Montañitas,Luis Alberto Gomez Cahvez,3138767407,Luis Alberto Gomez Cahvez,3138767407,luisgomezchavez07@gmail_com,,,,5,1860,986,3,0,0,0,0,0,0,Julio,Julio,No,,NO TIENE,Jardin Exotic,Hass colombia,Green west,,Pendiente,12000,1000,A10:88EL,El vergel A10:88EL
83,El Recuerdo,Huila,Palestina,Sinai,Wilson Castillo,3143308466,Wilson Castillo,3143308466,wilsoncastiortiz@hotmail_com,,,,5,1730,200,8,150,4,640,0.85,0,0,Julio,Julio,No,,NO TIENE,Wilson alba ,Intermediarios,NA,,Pendiente,3000,300,A10:83DO,El Recuerdo A10:83DO
82,Campo alegre,Huila,Palestina,Sinai,Mercedia Monje ,3132596965,Fabio Ramirez ,3132596965,NA,,,,1,1740,220,4.5,0,0,0,0,0,0,Julio,Julio,No,,NO TIENE,Wilson alba ,Intermediarios,NA,,Pendiente,2000,200,A10:82RE,Campo alegre A10:82RE
84,Jotica,Huila,Palestina,Sinai,Maria Alcira Varela,3124803893,Maria Alcira Varela,3124803893,yeimyyy1234@gmail_com,,,,1,1780,150,4,50,0.83,0,0,0,0,Mayo,Mayo,No,,NO TIENE,Jardin Exotic,Intermediarios,NA,,Pendiente,3000,300,A10:84CA,Jotica A10:84CA
87,Villa Monica,Huila,Palestina,Sinai,Luis Alberto Gomez Cahvez,3138767407,Luis Alberto Gomez Cahvez,3138767407,luisgomezchavez07@gmail_com,,,,4,1730,400,5,200,0.5,100,1.5,0,0,Julio,Julio,Si,,Pendiente,Jardin Exotic,Hass colombia,Green west,,Pendiente,24000,2000,A10:87CA,Villa Monica A10:87CA
89,El silencio,Huila,Palestina,El silencio,Luis Alberto Gomez Cahvez,3138767407,Luis Alberto Gomez Cahvez,3138767407,luisgomezchavez07@gmail_com,,,,13,1740,1000,1.5,346,3,330,8,1000,1,Julio,Julio,Si,,Pendiente,Jardin Exotic,Hass colombia,Green west,,Pendiente,10000,800,A10:89IO,El silencio A10:89IO
92,Las Nieves,Huila,Palestina,Siani,Norberto Barrero Torres,3133635208,Norberto Barrero Torres,3118693629,NA,,,,1,1710,100,0.6,80,3,0,0,0,0,Julio,Agosto,No,,NO TIENE,Intermediarios,NA,NA,,Pendiente,1000,100,A10:92ES,Las Nieves A10:92ES
48,Lote Numero Uno,Huila,Palestina,San isidro,Jainover Gomez,3138767407,Luis Alberto Gomez Chavez,3138767407,,,,,8,0,200,3,600,1.5,0,1.5,0,0,,JULIO,,,,,,,,,0,0,A10:48NO,Lote Numero Uno A10:48NO
40,Lomitas,Huila,Pitalito,Palmito,Rafael Ñañez Medina,3123888097,Rafael Ñañez Medina,3123888097,rafaelnanezmedina@gmail_com,,,,4,1935,350,6,440,5,150,3,0,0,Marzo,Julio,Si,,NO TIENE,FLP,Hass Diamond,Manar fruit,,Pendiente,8000,800,A10:40AS,Lomitas A10:40AS
43,La esperanza,Huila,Pitalito,Palmito,Diego Andres Portilla Muñoz,3142484092,Diego Andres Portilla Muñoz,3134936692,adriandaniloportilla@gmail_com,,,,2,1865,150,5,100,0.16,0,0,0,0,Marzo,Julio,No,,NO TIENE,Intermediarios,NA,NA,,22,1200,1000,A10:43ZA,La esperanza A10:43ZA
44,La curva,Huila,Pitalito,Palmito,Alejadro Toro Papamija,3134137766,Alejadro Toro Papamija,3143833459,NA,,,,1,1176,200,6.5,0,0,0,0,0,0,Abril,Noviembre,No,,NO TIENE,Intermediarios,NA,NA,,21,2000,200,A10:44VA,La curva A10:44VA
41,La lucha,Huila,Pitalito,Bajo palmito,Maria Olga Ordoñez,3144643880,Jose Dibar Artuduaga,3134843388,josecartuduaga48@gmail_com,,,,2,1936,120,5,180,0.2,0,0,0,0,Marzo,Julio,No,,NO TIENE,Intermediarios,NA,NA,,24,2000,100,A10:41HA,La lucha A10:41HA
42,El cerro,Huila,Pitalito,Palmito,Yaqueline Ñañez Muñoz,3132518409,Cesar Ñañez Alvear,3112489040,cesarnanezabviar@gmail_com,,,,2,2094,600,3,60,6,0,0,0,0,Marzo,Julio,No,,NO TIENE,Intermediarios,NA,NA,,24,1000,200,A10:42RO,El cerro A10:42RO
15,La esperanza,Huila,Pitalito,Kennedy,Emiro Samboni Toro,3107760500,Emiro Samboni Toro,3107760500,emiro_samboni_toro@outlook_com,,,,5,2120,180,9,800,1,0,0,0,0,Abril,Junio,No,,NO TIENE,Jardin Exotic,FLP,NA,,24,10000,8000,A10:15ZA,La esperanza A10:15ZA
58,Manzano,Huila,San Agustin,Bajo frutales,Ferney Eraso,3127584540,Victor Rodolfo Noguera,3147172748,,,,,1.3,0,260,4,0,0,0,0,0,0,,JULIO,,,,,,,,,0,0,A10:58NO,Manzano A10:58NO
81,El mirador ,Huila,San Agustin,Alto frutal,Armando Vargas Bolaños,3102182115,Armando Vargas Bolaños,3188716730,armandovargas70@gmail_com,,,,2,2090,400,6.5,0,0,0,0,0,0,Abril,Julio,Si,,NO TIENE,Arcangel Miguel,Intermediarios,NA,,24,6000,300,A10:81OR,El mirador  A10:81OR
106,Buena vista,Huila,San agustin,Alto frutal,Franco Buitron Sanchez,3115699403,Franco Buitron Sanchez,3124484388,NA,,,,1,2080,70,4.5,130,2,0,0,0,0,Julio,Julio,No,,NO TIENE,Intermediarios,NA,NA,,Pendiente,2000,100,A10:106TA,Buena vista A10:106TA
57,La Palma,Huila,San Agustin,Bajo frutal,Jose Erlindo Verdugo,3115984236,NA,NA,,,,,1,0,150,8,0,0,0,0,0,0,,DICIEMBRE,,,,,,,,,0,0,A10:57MA,La Palma A10:57MA
109,El pedregal,Huila,San agustin,Bajo frutal,Jose Erlindo Uni Verdugo,3115984236,Jesus Antonio Uni Verdugo,3115027042,NA,,,,1,1792,250,2,0,0,0,0,0,0,Diciembre,Julio,No,,NO TIENE,Intermediarios,NA,NA,,Pendiente,2000,200,A10:109AL,El pedregal A10:109AL
107,Los pinos,Huila,San agustin,Bajo frutal,Arnobi Hoyos Gomez,3124455579,Arnobi Hoyos Gomez,3203680944,arnobihoyos30@gmail_com,,,,1,1850,270,6,0,0,0,0,0,0,Julio,Julio,No,,NO TIENE,FLP,Intermediarios,NA,,Pendiente,2000,200,A10:107OS,Los pinos A10:107OS
7,La Martina,Huila,San Agustin,Alto tribuna,Carlos Alberto Torres,3204167052,Carlos Alberto Torres,3102215743,,,,,5,0,315,5,190,3,0,4,0,2,,JULIO,,,,,,,,,0,0,A10:7NA,La Martina A10:7NA
6,La Esperanza,Huila,San Agustin,Alto tribuna,Yamid Rosales,3222877239,NA,NA,,,,,2,0,245,6,200,11,0,0,0,0,,JULIO,,,,,,,,,0,0,A10:6ZA,La Esperanza A10:6ZA
53,San francisco,Huila,San Agustin,La tribuna,Silvio  Beltran Salamanca,3134349612,Silvio  Beltran Salamanca,3134349612,silviobeltransalamanca@gmail_com,,,,2,1750,150,2.5,150,1.5,100,11,0,0,Marzo,Junio,No,,Pendiente,Arcangel Miguel,Intermediarios,NA,,28,1200,1200,A10:53CO,San francisco A10:53CO
5,La Esmeralda,Huila,San Agustin,Alta tribuna,Eider Rosales,3102924012,Eider Rosales,3025950622,,,,,3,0,600,5,150,5,0,0,0,0,,JULIO,,,,,,,,,0,0,A10:5DA,La Esmeralda A10:5DA
66,La maria,Huila,San Agustin,La tribuna,Yomar Valencia Ortiz,3208389812,Yomar Valencia Ortiz,3208389812,yomarvalenciaortiz@gmail_com,,,,4,2150,400,3.5,400,1,0,0,0,0,Abril,Junio,No,,NO TIENE,Intermediarios,NA,NA,,22,1000,100,A10:66IA,La maria A10:66IA
10,Paraiso,Huila,San Agustin,Paraiso,Johana Delgado,3209834101,NA,NA,,,,,1.5,0,300,10,0,0,0,0,0,0,,JULIO,,,,,,,,,0,0,A10:10SO,Paraiso A10:10SO
22,Lote SEIS,Huila,San Agustin,La candela,Luz Eneriel Galindez Nabia,3163852418,Luz Eneriel Galindez Nabia,3163852418,NA,,,,2,1953,200,4.5,200,3.5,0,0,0,0,Marzo,Agosto,No,,NO TIENE,Intermediarios,NA,NA,,22,3000,500,A10:22IS,Lote SEIS A10:22IS
21,El paraiso,Huila,San Agustin,La candela,Raquel Gallardo,3142841209,Teobaldo Jimenez Perez,3124826518,teobaldojimenez@gmail_com,,,,4,1933,240,6,510,0.58,0,0,0,0,Marzo,Julio,No,,NO TIENE,Intermediarios,NA,NA,,21,3000,1000,A10:21SO,El paraiso A10:21SO
25,El Paraiso,Huila,San Agustin,La candela,Raquel Gallardo,3142841209,Teobaldo Jimenez,3124826518,,,,,4,0,640,6,510,1,0,0,0,0,,JULIO,,,,,,,,,0,0,A10:25SO,El Paraiso A10:25SO
49,Loma chata,Huila,San Agustin,Llanada de naranjos,Augusto Bolaños Muñoz,3118831072,Augusto Bolaños Muñoz,3118831072,arnoldo12144@gmail_com,,,,2,1729,200,5,130,0.34,0,0,0,0,Mayo,Mayo,No,,NO TIENE,Intermediarios,NA,NA,,18,4000,700,A10:49TA,Loma chata A10:49TA
24,La esperanza,Huila,San Agustin,La candela,Cristian Muñoz,3185286458,Argemiro Muñoz Gallardo,3144149890,NA,,,,2,1896,300,2.5,0,0,0,0,0,0,Abril,Julio,No,,NO TIENE,Intermediarios,NA,NA,,19,1200,600,A10:24ZA,La esperanza A10:24ZA
48,El mirador ,Huila,San Agustin,Llanada de naranjos,Eivar Rubian Muñoz Muñoz,3124205507,Eivar Rubian Muñoz Muñoz,3124205507,NA,,,,2,1703,475,6,0,0,0,0,0,0,Julio,Julio,Si,,Pendiente,Intermediarios,NA,NA,,12,8000,800,A10:48OR,El mirador  A10:48OR
23,El aguactal,Huila,San Agustin,La candela,Mauren Muñoz,3174627772,Jhon Muñoz,3165805486,NA,,,,8,2004,700,5.5,600,4,0,0,0,0,Mayo,Julio,Si,,NO TIENE,Hass colombia,Jardin exotic,Intermediario,,18,7000,1000,A10:23AL,El aguactal A10:23AL
24,San Alejo,Huila,San Agustin,La candela,Andrés Gomez Argote,3125424421,NA,NA,,,,,3,0,350,3,0,0,0,0,0,0,,JULIO,,,,,,,,,0,0,A10:24JO,San Alejo A10:24JO
123,La bendicion ,Huila,San agustin,Arauca uno,Cecilia Fernando Ibañe Ortiz,3108841671,Cecilia Fernando Ibañe Ortiz,3108841671,cecyibarra20@hotmail_com,,,,3,1750,400,4,200,1.5,0,0,0,0,Mayo,Junio,Si,,NO TIENE,Hass colombia,Manar Fruit,Intermediarios,,24,5000,400,A10:123ON,La bendicion  A10:123ON
20,El paraiso,Huila,San Agustin,Kennedy,German Gonzalo Sanchez Muñoz,3112308671,German Gonzalo Sanchez Muñoz,3112308671,gegosamu@hotmail_com,,,,6,1641,232,8,1000,0.17,0,0,0,0,Marzo,Julio,No,,NO TIENE,Intermediarios,NA,NA,,19,4000,2000,A10:20SO,El paraiso A10:20SO
139,Las brisas ,Huila,San Agustin,Arauca dos,Miller Samboni Muñoz,3142532289,Miller Samboni Muñoz,3142532289,NA,,,,2,1780,280,4,0,0,0,0,0,0,Agosto,Julio,No,,NO TIENE,Fabian Murcia,Intermediarios,NA,,Pendiente,5000,300,A10:139AS,Las brisas  A10:139AS
67,Predio el berlin,Huila,San Agustin,Quebradon,Riverly Muñoz Ortiz,3203443206,Riverly Muñoz Ortiz,3212654652,NA,,,,6,1940,960,0.5,260,4,0,0,0,0,Julio,Julio,No,,NO TIENE,Jardin Exotic,Intermediarios,NA,,Pendiente,5000,1000,A10:67IN,Predio el berlin A10:67IN
150,Villa Helena,Huila,San agustin,El quebradon,Hernando Murcia,3133903158,Hernando Murcia,3138857834,NA,,,,25,1940,4000,4.5,1500,0.7,0,0,0,0,Junio,Julio,Si,,Pendiente,Green Super Food,Hass Colombia,Pacific,,22,15000,1000,A10:150NA,Villa Helena A10:150NA
124,Campobello el roble unido,Huila,San agustin,Arauca,Martin Julian Urbana Murcia,3153754136,Milena Urbano Murcia,3134337944,NA,,,,7,1872,200,4,500,3.5,300,4,370,0.5,Mayo,Julio,No,,NO TIENE,FLP,Hass Diamond,Intermediarios,,22,10000,600,A10:124DO,Campobello roble unido A10:124DO
60,La florida,Huila,San Agustin,Saldaña,Joaquin Rodriguez ,3178884411,Melkin Grafe,3214909854,NA,,,,3,1830,300,4,270,3,0,0,0,0,Marzo,Junio,No,,NO TIENE,Jardin Exotic,Intermediarios,NA,,23,5000,1500,A10:60DA,La florida A10:60DA
138,La cabaña,Huila,San Agustin,Arauca dos,Tarquino Muñoz,3123322252,Clara Elisa Hurtana,3105855021,NA,,,,2,1870,90,4,200,0.4,0,0,0,0,Octubre,Julio,No,,NO TIENE,Intermediarios,NA,NA,,Pendiente,3000,380,A10:138ÑA,La cabaña A10:138ÑA
26,La palma,Huila,San Agustin,El Quebradon ,Edgar Humberto Muñoz Meneses,3115497514,Edgar Humberto Muñoz Meneses,3115497514,plantasymascotas@gmail_com,,,,6,1933,500,4,200,2.5,0,0,0,0,Marzo,Agosto,Si,,NO TIENE,Hass colombia,Jardin exotic,NA,,21,1500,200,A10:26MA,La palma A10:26MA
17,Villa Carmen,Huila,San Agustin,Saldaña,Clara Ines Muñoz,3112307893,Jorge Luis Muñoz,3166244091,,,,,3,0,230,14,190,3,0,0,0,0,,JULIO,,,,,,,,,0,0,A10:17EN,Villa Carmen A10:17EN
21,La Palma,Huila,SAN AGUSTIN,VILLA FATIMA,,,EMILIANA GAVIRIA,3217579318,,,,,3.5,0,600,2.5,400,1.5,0,0,0,0,,JULIO,,,,,,,,,0,0,A10:21MA,La Palma A10:21MA
28,El limbo,Huila,San Agustin,Villa fatima,Hugo Alberto Anacona,3142459668,Hugo Alberto Anacona,3148836542,NA,,,,1,1866,180,4.5,0,0,0,0,0,0,Mayo,Junio,No,,NO TIENE,Intermediarios,NA,NA,,17,1000,100,A10:28BO,El limbo A10:28BO
22,La Palma Dos,Huila,SAN AGUSTIN,VILLA FATIMA,,,DIEGO JOAQUI,3203150860,,,,,1.5,0,280,2.5,0,0,0,0,0,0,,JULIO,,,,,,,,,0,0,A10:22OS,La Palma Dos A10:22OS
31,Bella vista,Huila,San Agustin,Villa fatima,Paulina Diaz Benavides,3126085237,Apolinar Montenegro Criollo,3126085237,NA,,,,2,1869,150,3,150,2,200,1.5,0,0,Junio,Junio,No,,NO TIENE,Intermediarios,NA,NA,,12,2000,200,A10:31TA,Bella vista A10:31TA
16,Las Palmas,Huila,San agustin,Quebradilla,Yeni Jurado,3207600312,NA,NA,,,,,11,0,1900,4,0,0,0,0,0,0,,ENERO,,,,,,,,,0,0,A10:16AS,Las Palmas A10:16AS
151,Suamena,Huila,San agustin,Quebradilla,Jimmy Muñoz Lopez,3137911611,Mariano Muñoz ,3135985670,NA,,,,12,1800,620,4.8,630,4,530,4,620,4,Junio,Julio,Si,,Pendiente,Green Super Food,NA,NA,,22,40000,2000,A10:151NA,Suamena A10:151NA
23,Las Palmas,Huila,SAN AGUSTIN,VILLA FATIMA,,,DIMAR HOYOS,3102566557,,,,,5,0,250,2,500,3,0,2.5,0,0,,JUNIO,,,,,,,,,0,0,A10:23AS,Las Palmas A10:23AS
47,La pelota,Huila,San Agustin,Purutal,Aimer Quinaya Ortiz,3157050616,Aimer Quinaya Ortiz,3157050616,NA,,,,2,1829,250,3.5,0,0,0,0,0,0,Marzo,Julio,No,,NO TIENE,Intermediarios,NA,NA,,25,1000,100,A10:47TA,La pelota A10:47TA
35,Los tres chorros,Huila,San Agustin,Resinas,Luis Gerardo Trujillos Bolaños,3166039999,Luis Gerardo Trujillos Bolaños,3166039999,makrocol@hotmail_com,,,,1,1769,200,8,0,0,0,0,0,0,Abril,Agosto,No,,NO TIENE,Arcangel Miguel,Intermediarios,NA,,18,2500,500,A10:35OS,Los tres chorros A10:35OS
36,El moral,Huila,San Agustin,Quebradilla,Carlos Julio Mahecha,3212567599,Jaime Quinaya Velazco ,3164964953,NA,,,,2,1779,100,4,200,3,100,1,0,0,Abril,Julio,No,,NO TIENE,Intermediarios,NA,NA,,22,1500,200,A10:36AL,El moral A10:36AL
72,El jardin,Huila,Isnos,Primavera,Nohemi Galindez Samboni,3115931705,Nohemi Galindez Samboni,3204707263,NA,,,,1,1780,160,6,0,0,0,0,0,0,Marzo,Julio,Si,,NO TIENE,Arcangel Miguel,FLP,Intermediario,,23,2500,100,A10:72IN,El jardin A10:72IN
74,La florida,Huila,Isnos,Betania,Diego Alejandro Ortega Lopez ,3138749926,Diego Alejandro Ortega Lopez ,3138749926,NA,,,,3,1782,100,1,200,3,0,0,0,0,Marzo,Julio,Si,,NO TIENE,Arcangel Miguel,FLP,Intermediario,,23,1000,100,A10:74DA,La florida A10:74DA
70,Refugio,Huila,Isnos,Idolos,Aldemar Burbano Pardo,3144451980,Aldemar Burbano Pardo,3144451980,NA,,,,4,1780,750,4,0,0,0,0,0,0,Marzo,Julio,Si,,NO TIENE,Arcangel Miguel,FLP,Intermediario,,25,3000,1000,A10:70IO,Refugio A10:70IO
101,Posada la horqueta,Huila,Isnos,Idolos,Orlando Astudillo Vargas ,3133464328,Orlando Astudillo Vargas ,3232529230,greissy82@gmail_com,,,,1,1780,170,2,0,0,0,0,0,0,Diciembre,Julio,No,,NO TIENE,Intermediarios,NA,NA,,Pendiente,2000,100,A10:101TA,Posada la horqueta A10:101TA
145,El mondey,Huila,Isnos,Florida,Jorge Emiro Bolaños Muñoz,3138462000,Jorge Emiro Bolaños Muñoz,3182551045,NA,,,,4,1797,300,3.5,260,2,140,0.7,0,0,Junio,Agosto,No,,NO TIENE,Manar Fruit,Intermediarios,NA,,22,2500,1000,A10:145EY,El mondey A10:145EY
103,El helecha,Huila,San agustin,El palmar,Segundo Iban Botina,3204225681,Segundo Iban Botina,3113412355,NA,,,,2,1710,110,6,200,0.3,0,0,0,0,Noviembre,Julio,No,,NO TIENE,Intermediarios,NA,NA,,Pendiente,4000,300,A10:103HA,El helecha A10:103HA
95,Milciades,Huila,Palestina,Capillas,Carlos Ariel Torres Ortiz,3105633737,Carlos Ariel Torres Ortiz,3105633737,carlos-torreso@gmail_com,,,,17,1830,1200,11,1000,4,1900,3,270,0.2,Abril,Septiembre,Si,,Pendiente,Hass colombia,Jardin Exotic,Cartama,,27,6000,1200,A10:95ES,Milciades A10:95ES
102,Parcela nueve,Huila,San agustin,El palmar,Angel andres Caleño Repizo,3144776699,Angel andres Caleño Repizo,3212191218,NA,,,,1,1564,70,5,250,2,0,0,0,0,Diciembre,Julio,No,,NO TIENE,Intermediarios,NA,NA,,Pendiente,4000,300,A10:102VE,Parcela nueve A10:102VE
68,El Arbolito,Huila,Huila,Isnos,Wilson Alba,3126561000,NA,NA,,,,,29,0,6000,4,0,0,0,0,0,0,,AGOSTO,,,,,,,,,0,0,A10:68TO,El Arbolito A10:68TO
97,El eden,Huila,Isnos,Silvania,Joel Maria Muñoz Muñoz,3213085685,Orlando Muñoz Rodriguez,3133716737,orlandomunoz25@gmail_com,,,,1,1910,100,5,60,12,0,0,0,0,Abril,Julio,No,,NO TIENE,Colombia Paradais,FLP,Freshteruma,,27,2000,100,A10:97EN,El eden A10:97EN
55,Rubiela,Huila,Isnos,Silvania,Leonte Rodriguez Muñoz,3177559880,NA,NA,,,,,2,0,80,5,215,2,0,5,0,0,,JULIO,,,,,,,,,0,0,A10:55LA,Rubiela A10:55LA
71,Prosperidad,Huila,Isnos,Silvania,Jobany Muñoz Ortega,3202565664,Jobany Muñoz Ortega,3202565664,NA,,,,5,1889,280,7,300,5,100,0.2,0,0,Marzo,Julio,Si,,NO TIENE,Arcangel Miguel,FLP,Intermediario,,24,6000,500,A10:71AD,Prosperidad A10:71AD
73,Dos quebradas,Huila,Isnos,Plomadas,Luz amparo Ortiz,3103079815,Luz amparo Ortiz,3103079815,yofamo98@hotmail_com,,,,3,1852,200,4,600,3.5,0,0,0,0,Marzo,Julio,Si,,NO TIENE,Arcangel Miguel,FLP,Intermediario,,22,2000,200,A10:73AS,Dos quebradas A10:73AS
140,El recuerdo,Huila,Isnos,Silvania,Victor  Muñoz Rodriguez ,3138254948,Victor  Muñoz Rodriguez ,3138254948,victoraudelo1990@gmail_com,,,,1,1930,55,5,50,2.5,50,4,50,2,Mayo,Agosto,No,,NO TIENE,Intermediarios,NA,NA,,28,3000,800,A10:140DO,El recuerdo A10:140DO
51,El Eden,Huila,Isnos,Silvania,Joel maria Muñoz Muñoz,3213085685,Orlando Muñoz Rogriguez,3133716731,,,,,1,0,100,5,60,12,0,0,0,0,,JULIO,,,,,,,,,0,0,A10:51EN,El Eden A10:51EN
65,La Esperanza Uno,Huila,ISNOS,BAJO BRISAS,ALDREDO MOLINA CERON,3173412654,ALDREDO MOLINA CERON,3173412654,,,,,1.5,0,70,6.5,230,6,0,0,0,0,,JUNIO,,,NA,,,,,,0,0,A10:65NO,La Esperanza Uno A10:65NO
66,El Cedro,Huila,ISNOS,BAJO BRISAS,ARMANDO YAMIT CERON,3108788426,SOFONIA CERON,3164242767,,,,,2,0,240,4,150,4,0,0,0,0,,JUNIO,,,NA,,,,,,0,0,A10:66RO,El Cedro A10:66RO
53,Estrecho,Huila,Isnos,Silvania,Bernardo Muñoz Heraso,3125636274,NA,NA,,,,,1,0,80,5,100,1,0,0,0,0,,JULIO,,,,,,,,,0,0,A10:53HO,Estrecho A10:53HO
76,Los robles,Huila,Isnos,El progreso,Roberto Cordoba Bolaños,3124114432,Roberto Cordoba Bolaños,3124114432,NA,,,,1,1830,80,0.25,70,4,80,4.5,0,0,Abril,Julio,,,NO TIENE,Intermediarios,NA,NA,,24,400,50,A10:76ES,Los robles A10:76ES
41,Los Naranjos,Huila,Isnos,El prgreso,Marleny Cardona Cerom,3125824200,Javier Jimenez Cardona,3162454291,,,,,1,0,200,7,0,0,0,0,0,0,,JULIO,,,,,,,,,0,0,A10:41OS,Los Naranjos A10:41OS
42,La Esperanza,Huila,Isnos,Bajo brisas,Yobany Carvajal ,3118633107,Oscar Carvajal,3183188067,,,,,1.7,0,350,5,0,0,0,0,0,0,,JULIO,,,,,,,,,0,0,A10:42ZA,La Esperanza A10:42ZA
143,La esperanza,Huila,Isnos,Bajo Brisas,Alfredo Molina Ceron,3173294577,Alfredo Molina Ceron,3113412654,NA,,,,1,1690,100,4,150,1.2,0,0,0,0,Mayo,Junio,No,,NO TIENE,Arcangel Miguel,Intermediarios,NA,,24,1000,500,A10:143ZA,La esperanza A10:143ZA
104,La palma,Huila,San agustin,El palmar,Guillermo Galindez Chilito,3114614645,Guillermo Galindez Chilito,3114614645,NA,,,,2,1850,100,8,200,5,0,0,0,0,Diciembre,Julio,No,,NO TIENE,Intermediarios,NA,NA,,Pendiente,5000,500,A10:104MA,La palma A10:104MA
39,El Recuerdo,Huila,Isnos,Yarumal,Diber Samboni,3208963972,NA,NA,,,,,16,0,2800,4,0,0,0,0,0,0,,MARZO,,,,,,,,,0,0,A10:39DO,El Recuerdo A10:39DO
16,El recuerdo,Huila,Isnos,Yarumal,Dibar Samboni Toro,3208963972,Dibar Samboni Toro,3208963972,dibarsamboni@gmail_com,,,,16,1907,2800,4,0,0,0,0,0,0,Marzo,Marzo,No,,NO TIENE,Jardin Exotic,NA,NA,,20,15000,2000,A10:16DO,El recuerdo A10:16DO
50,San Antonio,Huila,Isnos,,Edivar Silva Muñoz,3214450154,NA,NA,,,,,1.2,0,100,4,100,6,0,0,0,0,,JULIO,,,,,,,,,0,0,A10:50IO,San Antonio A10:50IO
37,Guadual,Huila,Isnos,Progreso,Hernando Samboni Toro,3213913783,NA,NA,,,,,5,0,1000,11,0,0,0,0,0,0,,JULIO,,,,,,,,,0,0,A10:37al,Guadual A10:37al
17,El guadual,Huila,Isnos,Progreso,Hernando Samboni Toro,3213913783,Hernando Samboni Toro,3213913783,herandosamboni63@gmail_com,,,,5,1817,1000,11,0,0,0,0,0,0,Abril,Julio,Si,,NO TIENE,Jardin Exotic,NA,NA,,22,10000,1500,A10:17AL,El guadual A10:17AL
149,Guaca de la cascada,Huila,Isnos,Las delicias,Yonier Bolaños Claros,3184525869,Yonier Bolaños Claros,3184525869,NA,,,,2,1870,200,7,250,5,0,0,0,0,Diciembre,Agosto,No,,NO TIENE,FLP,Arcangel Miguel,Intermediarios,,Pendiente,9000,500,A10:149DA,Guaca de la cascada A10:149DA
54,La Florida,Huila,Isnos,Hornitos,Hernan Males Muñoz,3107563381,NA,NA,,,,,1.2,0,100,6,120,1,0,0,0,0,,JULIO,,,,,,,,,0,0,A10:54DA,La Florida A10:54DA
33,La Cabaña,Huila,Isnos,Hornitos,Edier Hoyos,3505011313,NA,NA,,,,,1,0,120,5,0,0,0,0,0,0,,AGOSTO,,,,,,,,,0,0,A10:33ÑA,La Cabaña A10:33ÑA
69,La esperanza,Huila,Isnos,Silvania,Leoni Rodriguez Muñoz,3125108984,Regulo Rodriguez Muñoz,3233108726,NA,,,,3,2040,100,5,350,5.5,0,0,0,0,Abril,Julio,Si,,NO TIENE,Arcangel Miguel,FLP,Intermediario,,22,2500,200,A10:69ZA,La esperanza A10:69ZA
52,La Esperanza,Huila,Isnos,Silvania,Leoni Rodriguez Muñoz,3125108984,Regulo Rodirguez Muñoz,3233108726,,,,,3,0,650,5,0,0,0,0,0,0,,JULIO,,,,,,,,,0,0,A10:52ZA,La Esperanza A10:52ZA
34,El Carmen,Huila,Insnos,Hornitos,Carlos Arturo Silva,3118327796,NA,NA,,,,,2.5,0,200,4,0,0,0,0,0,0,,JULIO,,,,,,,,,0,0,A10:34EN,El Carmen A10:34EN
147,La cumbre,Huila,Isnos,Jerusalen,Jorge Eduardo Samboni Ordoñez,3157668148,Jorge Eduardo Samboni Ordoñez,3219879312,jorgeeduardosamboni@gmail_com,,,,1,1980,50,3,100,1,0,0,0,0,Diciembre,Julio,No,,NO TIENE,Intermediarios,NA,NA,,Pendiente,1000,100,A10:147RE,La cumbre A10:147RE
148,Bella vista,Huila,Isnos,Jerusalen,Ilde Bayer Imbachi ,3166649053,Ilde Bayer Imbachi ,3166649053,NA,,,,1,1950,260,5,0,0,0,0,0,0,Agosto,Agosto,No,,NO TIENE,Arcangel Miguel,Intermediarios,NA,,Pendiente,6000,500,A10:148TA,Bella vista A10:148TA
144,El porvenir,Huila,Isnos,Sinai,Alina Samboni Samboni,3177335378,Alirio Garses Loasi,3177335378,vanesamboni482@gmail_com,,,,1,1840,200,4.5,0,0,0,0,0,0,Diciembre,Julio,No,,NO TIENE,Intermediarios,NA,NA,,Pendiente,3000,300,A10:144IR,El porvenir A10:144IR
136,Las palmas,Huila,Isnos,Bajo Planes,Jose Farith Carvajal Ceron,3202654097,Jose Farith Carvajal Ceron,3134519573,NA,,,,3,1711,380,3.5,120,1,0,0,0,0,Mayo,Julio,No,,NO TIENE,Intermediarios,NA,NA,,26,4500,400,A10:136AS,Las palmas A10:136AS
18,Las pitas,Huila,Isnos,Yarumal,Hernando Samboni Toro,3213913784,Hernando Samboni Toro,3213913783,herandosamboni63@gmail_com,,,,10,2101,1200,4,800,1.5,0,0,0,0,Marzo,Julio,No,,NO TIENE,Jardin Exotic,NA,NA,,21,80000,1500,A10:18AS,Las pitas A10:18AS
40,Buena Vista,Huila,ISNOS,SINAI,,,EMILIANO SAMBONI,3186194284,,,,,2,0,450,6,150,1,0,0,0,0,,JULIO,,,,,,,,,0,0,A10:40TA,Buena Vista A10:40TA
146,Los angeles,Huila,Isnos,Jerusalen,Henrry Marin Ordoñez Bolaños,3163549787,Henrry Marin Ordoñez Bolaños,3167358543,NA,,,,1,1990,220,3.8,0,0,0,0,0,0,Julio,Julio,No,,NO TIENE,Intermediarios,NA,NA,,Pendiente,4000,300,A10:146ES,Los angeles A10:146ES
64,El cedro,Huila,Isnos,Alto planes,Orlando Ceron Hoyos,3123232918,Wilmer Guaca Chilito,3125406744,wilmerg1712@gmail_com,,,,2,1890,500,4,0,0,0,0,0,0,Abril,Julio,No,,NO TIENE,Intermediarios,NA,NA,,21,3000,300,A10:64RO,El cedro A10:64RO
44,Montañita,Huila,ISNOS,ALTO PLANES,,,JULIO CESAR ANCHEZ,3112130773,,,,,1,0,200,4,0,0,0,0,0,0,,JULIO,,,,,,,,,0,0,A10:44TA,Montañita A10:44TA
67,Parcela 2,Huila,Isnos,La rivera,Jose Arley Chavez,NA,Natalia Chavez,3193780286,,,,,5,0,200,4,450,5,0,5,0,3,,ENERO,,,,,,,,,0,0,A10:67 2,Parcela 2 A10:67 2
45,El Galpon,Huila,ISNOS,ALTO PLANES,,,JULIO CESAR SANCHEZ,3112130773,,,,,2.5,0,410,4,0,0,0,0,0,0,,JULIO,,,,,,,,,0,0,A10:45ON,El Galpon A10:45ON
65,Miraflores,Huila,Isnos,Alto planes,Jeiner Fernando Martinez Cuelan ,3173867034,Jeiner Fernando Martinez Cuelan ,3204948331,NA,,,,4,1900,500,5,250,0.5,0,0,0,0,Julio,Julio,No,,NO TIENE,Intermediarios,NA,NA,,Pendiente,20000,5000,A10:65ES,Miraflores A10:65ES
33,Villa fortuna,Huila,Isnos,Alto planes,Yeferson Sanchez Diaz,3118470911,Yeferson Sanchez Diaz,3118470911,sanchezjefferson868@gmail_com,,,,3,1837,660,3,140,7,0,0,0,0,Marzo,Julio,No,,NO TIENE,Cartama,Jardin exotic,Intermediario,,21,3000,500,A10:33NA,Villa fortuna A10:33NA
133,Palermo,Huila,Isnos,Rivera,Jose gerardo Ñañez ,3118358316,Elver Ñañez Chilito,3118358316,NA,,,,2,1867,200,4,200,3,0,0,0,0,Julio,Julio,No,,NO TIENE,Intermediarios,NA,NA,,Pendiente,4000,300,A10:133MO,Palermo A10:133MO
127,La negra cuatro,Huila,Isnos,Alto planes,Santiago Bravo Samboni,3125932394,Santiago Bravo Samboni,3125932394,oscar320386@gmail_com,,,,1,1885,150,4,0,0,0,0,0,0,Julio,Julio,No,,NO TIENE,Intermediarios,NA,NA,,Pendiente,1500,100,A10:127RO,La negra cuatro A10:127RO
128,La negra lote uno,Huila,Isnos,Alto planes,Nabor Antonio Bravo,3192250698,William Yesid Chicangana,3185430907,NA,,,,1,1900,270,5.5,0,0,0,0,0,0,Mayo,Julio,No,,NO TIENE,Intermediarios,NA,NA,,24,1800,100,A10:128NO,La negra lote uno A10:128NO
132,La argelia,Huila,Isnos,Buenos Aires,Oscar Ivan Enrriquez Ordoñez,3134085840,Oscar Ivan Enrriquez Ordoñez,3134085840,NA,,,,2,1880,300,8,100,2,100,1,0,0,Julio,Julio,No,,NO TIENE,G international ,Intermediarios,NA,,Pendiente,1000,100,A10:132IA,La argelia A10:132IA
12,El Trebol,Huila,Isnos,Buenos aires,Faber Samboni Chilito,3214193084,NA,NA,,,,,2,0,300,6,0,0,0,0,0,0,,NOVIEMBRE,,,,,,,,,0,0,A10:12OL,El Trebol A10:12OL
79,Los planes: lote DOS,Huila,Isnos,Buenos Aires,Luis Alberto Obando Diaz,3143589326,Luis Alberto Obando Diaz,3105510106,NA,,,,5,1920,400,5.5,160,4.5,160,5,500,5,Abril,Julio,Si,,NO TIENE,Alma huila,Freshteruma,Intermediario,,24,3000,200,A10:79OS,Los planes: lote DOS A10:79OS
13,El Trebol Uno,Huila,Isnos,Buenos aires,Emilse Samboni,3153889508,Roberto Bolaños ,3222122095,,,,,10,0,250,10,0,0,0,0,0,0,,NOVIEMBRE,,,,,,,,,0,0,A10:13NO,El Trebol Uno A10:13NO
18,Lote Tres,Huila,ISNOS,BUENOS AIRES,,,YEISON ENRIQUEZ,3212525298,,,,,3.5,0,200,5,100,2,0,1,0,0.2,,JUNIO,,,,,,,,,0,0,A10:18ES,Lote Tres A10:18ES
131,La esmeralda uno,Huila,Isnos,Buenos Aires,Carlos Andres Quinayas Jimenez,3223177248,Carlos Andres Quinayas Jimenez,3223177248,quinayasjimenes@gmail_com,,,,1,1949,250,2.5,0,0,0,0,0,0,Julio,Julio,No,,NO TIENE,Intermediarios,NA,NA,,Pendiente,1000,100,A10:131NO,La esmeralda uno A10:131NO
130,La esmeralda dos,Huila,Isnos,Buenos Aires,Jorge Garcia,3178148368,Jorge Garcia,3223177248,NA,,,,1,1950,250,2.5,0,0,0,0,0,0,Diciembre,Julio,No,,NO TIENE,Intermediarios,NA,NA,,Pendiente,2000,250,A10:130OS,La esmeralda dos A10:130OS
56,Parcela siete,Huila,Isnos,Buenos Aires,Oscar Vargas Fernandez,3202566146,Oscar Vargas Fernandez,3184010504,NA,,,,4,1971,180,7,260,4,180,2,0,0,Marzo,Julio,No,,NO TIENE,Intermediarios,NA,NA,,22,8000,500,A10:56TE,Parcela siete A10:56TE
129,San francisco ,Huila,Isnos,Buenos Aires,Elver Ñañez Chilito,3118358316,Elver Ñañez Chilito,3118358316,NA,,,,2,1930,200,3.5,200,4.5,0,0,0,0,Julio,Julio,No,,NO TIENE,Intermediarios,NA,NA,,Pendiente,6000,500,A10:129CO,San francisco  A10:129CO
125,Parcela dicinueve,Huila,Isnos,Buenos Aires,Jesus Elias Vargas,3212264329,German Dario Vargas,3177826681,germanvargasguenis@gmail_com,,,,1,1980,164,2.5,0,0,0,0,0,0,Julio,Agosto,No,,NO TIENE ,Intermediarios,NA,NA,,Pendiente,1000,80,A10:125VE,Parcela dicinueve A10:125VE
80,Parcela VEINTICUATRO,Huila,Isnos,Buenos Aires,Libardo Galindez Samboni,3175520363,Libardo Galindez Samboni,3166798512,NA,,,,1,1960,160,8,0,0,0,0,0,0,Abril,Julio,Si,,NO TIENE,Cartama,Intermediarios,NA,,24,3000,200,A10:80RO,Parcela VEINTICUATRO A10:80RO
137,La luz ,Huila,Isnos,Buenos Aires,Luz Angelica Anacona Ceron,3125382844,Luz Angelica Anacona Ceron,3125382844,NA,,,,1,1979,50,3,115,0.5,0,0,0,0,Diciembre,Julio,No,,NO TIENE,Intermediarios,NA,NA,,Pendiente,1000,100,A10:137UZ,La luz  A10:137UZ
54,Parcela veintitres,Huila,Isnos,Buenos Aires,Javier Antonio Anacona Ceron,3177802351,Javier Antonio Anacona Ceron,3177802351,javierantonioanaconaceron@gmail_com,,,,6,1996,860,4.5,200,4.5,160,3,0,0,Marzo,Agosto,Si,,NO TIENE,Managro,Intermediarios,NA,,23,10000,800,A10:54ES,Parcela veintitres A10:54ES
134,El venado,Huila,Isnos,Buenos Aires,Jose FAver Rojas Cuelan ,3229456090,Jose FAver Rojas Cuelan ,3229456090,josefaverrojas@gmail_com,,,,1,2010,250,4,0,0,0,0,0,0,Julio,Julio,No,,NO TIENE,Intermediarios,NA,NA,,Pendiente,1200,100,A10:134DO,El venado A10:134DO
55,El venado,Huila,Isnos,Buenos Aires,Jose Navarro Vargas,3177802351,Javier Antonio Anacona Ceron,3177802351,javierantonioanaconaceron@gmail_com,,,,2,2003,500,3,0,0,0,0,0,0,Marzo,Agosto,No,,NO TIENE,Managro,Colfrist,Intermediario,,23,1000,100,A10:55DO,El venado A10:55DO
135,Parcela veintidos ,Huila,Isnos,Buenos Aires,Edwin Norbey Cuelan Giron ,3214223033,Edwin Norbey Cuelan Giron ,3214223033,NA,,,,2,2000,150,4,200,0.5,0,0,0,0,Julio,Julio,No,,NO TIENE,Intermediarios,NA,NA,,Pendiente,1000,100,A10:135OS,Parcela veintidos  A10:135OS
58,Lote treina y tres,Huila,Isnos,Buenos Aires,Luis Angel Vargas Collazos,3203300499,Luis Angel Vargas Collazos,3203300499,angelvargas2912@gmail_com,,,,1,2029,140,3,80,2.5,0,0,0,0,Marzo,Agosto,No,,NO TIENE,Intermediarios,NA,NA,,23,1000,200,A10:58ES,Lote treina y tres A10:58ES
126,Socorro,Huila,Isnos,Buenos Aires,Adriana Patiño,3166999615,Santiago Bravo Samboni,3125932394,oscar320386@gmail_com,,,,3,1932,500,5,0,0,0,0,0,0,Agosto,Julio,No,,NO TIENE,Intermediarios,NA,NA,,Pendiente,8000,100,A10:126RO,Socorro A10:126RO
45,El exito,Huila,Isnos,Buenos Aires,Faiber Samboni,3214193084,Faiber Samboni,3214193084,NA,,,,5,0,1000,5,0,0,0,0,0,0,Marzo,Noviembre,No,,NO TIENE,GC International,Intermediarios,NA,,24,12000,2000,A10:45TO,El exito A10:45TO
112,La rivera,Huila,Tarqui,Las delicias,Fernando Bolaños Fajardo,3228298968,Fernando Bolaños Fajardo,3228298968,NA,,,,1,1960,120,3.5,0,0,0,0,0,0,Diciembre,Julio,No,,NO TIENE,Intermediarios,NA,NA,,Pendiente,1000,100,A10:112RA,La rivera A10:112RA
113,La maria,Huila,Tarqui,Las delicias,Jorge Alfredo Ubaque ,3114958738,Jorge Alfredo Ubaque ,3115562126,jorgeubadi@gmail_com,,,,1,1920,300,4,0,0,0,0,0,0,Junio,Junio,No,,NO TIENE,FLP,Intermediarios,NA,,Pendiente,4000,400,A10:113IA,La maria A10:113IA
114,La palma,Huila,Tarqui,Las delicias,Jorge Quevedo Chaux,3212377367,Jorge Quevedo Chaux,3212377367,NA,,,,2,1940,80,9,70,5,300,1,0,0,Junio,Junio,No,,NO TIENE,FLP,Intermediarios,NA,,Pendiente,3000,300,A10:114MA,La palma A10:114MA
115,El retiro,Huila,Tarqui,Las delicias,Jose Arbey Ochoa Ochoa,3138265756,Daniel Garzon Bermeo,3143576568,NA,,,,2,1950,60,70,60,7,300,8,0,0,Junio,Junio,No,,NO TIENE,FLP,Intermediarios,Hass Diamond,,Pendiente,4000,300,A10:115RO,El retiro A10:115RO
120,Bellaomaira,Huila,Tarqui,Las delicias,Alirio Ochoa Medina,3123958386,Alirio Ochoa Medina,3208028185,NA,,,,1,1850,120,4,0,0,0,0,0,0,Diciembre,Julio,No,,NO TIENE,Intermediarios,NA,NA,,Pendiente,2000,120,A10:120RA,Bellaomaira A10:120RA
116,La victoria,Huila,Tarqui,Las delicias,Victor Quevedo Chaux,3208538496,Victor Quevedo Chaux,3133160669,NA,,,,2,1950,70,12,50,7,50,4,130,5,Agosto,Junio,No,,NO TIENE,Intermediarios,NA,NA,,Pendiente,3000,300,A10:116IA,La victoria A10:116IA
119,El corazon,Huila,Tarqui,Las delicias,Jesus Elias Lopez ,3105894465,Jesus Elias Lopez ,3105894465,NA,,,,1,1910,114,6,0,0,0,0,0,0,Julio,Julio,No,,NO TIENE,Intermediarios,NA,NA,,Pendiente,1000,100,A10:119ON,El corazon A10:119ON
111,Bellavista,Huila,Tarqui,La rivera ,Gloria Lerda Escobar Berme,3202012225,Arnulfo Claros Rojas,3118354294,NA,,,,2,1970,100,7,180,4.5,120,1.5,0,0,Julio,Julio,No,,NO TIENE,Hass colombia,Hass Diamond,Intermediarios,,Pendiente,3000,220,A10:111TA,Bellavista A10:111TA
117,La esperanza,Huila,Tarqui,Las delicias,Hermes Ochoa Ochoa,3192971545,Hermes Ochoa Ochoa,3104762346,NA,,,,1,2000,150,4,50,2,0,0,0,0,Julio,Julio,No,,NO TIENE,Intermediarios,NA,NA,,Pendiente,3000,300,A10:117ZA,La esperanza A10:117ZA
121,Las delicias,Huila,Tarqui,Las delicias,Manuel Ochoa Triviño,3112897693,Manuel Ochoa Triviño,3112897693,NA,,,,1,1800,150,4,0,0,0,0,0,0,Julio,Julio,No,,NO TIENE,Intermediarios,NA,NA,,Pendiente,2000,100,A10:121AS,Las delicias A10:121AS
110,Miraflores,Huila,Tarqui,La peninsula,Hernan Dario Hoyos Barrera,3176093523,Hernan Dario Hoyos Barrera,3506980632,herdayos@outlook_es,,,,1,1810,150,3,100,0.4,0,0,0,0,Julio,Junio,No,,NO TIENE,Intermediarios,NA,NA,,Pendiente,2000,180,A10:110ES,Miraflores A10:110ES
118,Pensilvania,Huila,Tarqui,Las delicias,Dagoberto Galindez Chilito,3183601569,Dagoberto Galindez Chilito,3123206624,rosariobolanos19@gmail_com,,,,1,2020,100,7,0,0,0,0,0,0,Diciembre,Julio,No,,NO TIENE,Intermediarios,NA,NA,,Pendiente,2000,100,A10:118IA,Pensilvania A10:118IA
122,Santa fe,Huila,Tarqui,El tablon de belgica,Manuel antonio Torres,3132615190,Manuel antonio Torres,3112532500,manuelanto2@hotmail_com,,,,8,1980,600,11,1050,2.5,0,0,0,0,Julio,Julio,Si,,NO TIENE,Jardin Exotic,Pacific,Hass colombia,,Pendiente,6000,600,A10:122FE,Santa fe A10:122FE
3,La Paz,Huila,La argentina,La esperanza,Federico Trujillo,3134635944,Raul Trujillo,3134635944,,,,,4,0,450,4,1100,1,0,0,0,0,,JULIO,,,,,,,,,0,0,A10:3AZ,La Paz A10:3AZ
1,El Taur,Huila,La argentina,La esperanza,Faber Rojas Escarpeta,3156909210,Franqui Anaya,3123361395,,,,,6,0,800,3,0,0,0,0,0,0,,AGOSTO,,,,,,,,,0,0,A10:1UR,El Taur A10:1UR
153,Villa hermosa,Huila,Garzon,Villa Rica,Oliverio Vera Pulido,3229136330,Oliverio Vera Pulido,3229136330,oliveriovp75@hotmail_com,,,,4,1670,250,8,400,4,0,0,0,0,Junio,Diciembre,Si,,Pendiente,Cartama,Hass colombia,FLP,,23,6000,100,A10:153SA,Villa hermosa A10:153SA
14,mira florez,Huila,La Argentina ,Marcella,lizandro valencia urbano,3133577724,lizandro valencia urbano,3133577724,NA,,,,2,2082,400,4,0,0,0,0,0,0,Febrero,Febrero,Si,,NO TIENE,Colombia paradais,Manar Fruit,NA,,25,6000,500,A10:14EZ,mira florez A10:14EZ
8,Villa Flores,Huila,La Argentina ,Santa Helena,jose alexander bolaños,3148827077,jose alexander bolaños,3148827077,bolañosalexander329@gmail_com,,,,1,2060,300,4,0,0,0,0,0,0,Febrero,Julio,No,,NO TIENE,Marcelo Perafan,NA,NA,,25,2000,200,A10:8ES,Villa Flores A10:8ES
7,El Eden,Huila,La Argentina ,Santa Helena,Rodrigo Villanueva Trujillo,3154264096,rodrigo villanueva trujillo,3154264096,villanuevat_rodrigo@gmail_com,,,,23,2072,180,4,2000,3.5,600,1,0,0,Agosto,Julio,Si,,406306157488,cartama,marcelo,NA,,27,15000,3000,A10:7EN,El Eden A10:7EN
56,El Eden,Huila,La argentina,Santa Elena,Rodrigo Villanueva Trujillo,3154264096,NA,NA,,,,,23,0,180,4,2000,3,0,1,0,0,,JULIO,,,,,,,,,0,0,A10:56EN,El Eden A10:56EN
3,Vista Hermosa,Huila,La Argentina ,Bella Vista,Leidy Bravo Rodriguez,3173808499,Eider Arteaga,3224156592,eiderarteaga07@gmail_com,,,,13,1942,500,0.66,300,2,1600,4,0,0,Julio,Agosto,Si,,NO TIENE,Cartama,Marcelo Perafan,NA,,16,40000,2000,A10:3SA,Vista Hermosa A10:3SA
2,Lote,Huila,La Argentina ,El pensil,Segundo Pastor Aroca Torres,3158812113,Segundo Pastor Aroca Torres,3134153533,NA,,,,2,1918,200,4,200,3,0,0,0,0,Junio,Septiembre,No,,NO TIENE,Marcelo Perafan,NA,NA,,16,4000,1000,A10:2TE,Lote A10:2TE
13,Rio loro,Huila,la Argentina ,Marcella,cabildo nuevo amanecer,,victor mario cantero calambash,3177134936,trochezceron802@gmail_com,,,,16,1975,800,8,2400,4,0,0,0,0,Junio,Marzo,Si,,NO TIENE,Colombia paradais,radmon,NA,,22,30000,3000,A10:13RO,Rio loro A10:13RO
10,villa  oro verde,Huila,la Argentina ,Carmen,hernry correa,3204628640,henry corres,3204628640,henrycorrea@gmail_com,,,,5,1919,780,1.33,230,3,0,0,0,0,Abril,Abril,Si,,NO TIENE,FLP,Jardin Exotic,NA,,18,6200,1000,A10:10DE,villa  oro verde A10:10DE
9,Santa Rosa,Huila,la Argentina ,Alto Carmen,pedro nel chavez,3133906068,pedro nel chavez,3133906068,pedronelchavezt1962@gmail_com,,,,10,2231,1500,6,500,3,500,6,0,0,Julio,Diciembre,No,,NO TIENE,Jardin Exotic,FLP,NA,,15,10000,1000,A10:9SA,Santa Rosa A10:9SA
11,Lote UNO,Huila,La Argentina ,Progreso,weimar galindo,3134194963,weimar galindo,3134194963,galindezweimar3@gmail_com,,,,11,2155,1000,7,300,0.5,600,0.33,0,0,Marzo,Junio,Si,,NO TIENE,Jardin Exotic,cartama,NA,,24,18000,3000,A10:11NO,Lote UNO A10:11NO
6,buena vista,Huila,La Argentina ,La union,fany casso,3123361395,franqui anaya,3134118361,anayafranky1@gmail_com,,,,5,1929,600,9,400,7,0,0,0,0,Julio,Julio,Si,,4063061574077,Cartama,jardin exotic,marcelina perafan ,,28,80000,6000,A10:6TA,buena vista A10:6TA
2,Porvenir,Huila,La argentina,El paraiso,Antonio Hernandez Chavez,3136452698,NA,NA,,,,,4,0,854,1,489,3.5,0,2.5,0,0,,JUNIO,,,,,,,,,0,0,A10:2IR,Porvenir A10:2IR
152,Berlin,Huila,Gigante,Santa lucia,Diego Mazabel,3228541085,Juan Carlos Martinez,3166919587,dimasa_08@hotmail_com,,,,4,1750,400,0.5,400,3.4,0,0,0,0,Agosto,Julio,No,,NO TIENE,Jardin Exotic,Intermediarios,NA,,Pendiente,2000,200,A10:152IN,Berlin A10:152IN
