﻿Lote,Siembra,Material,Peso Promedio,Mes,Año
1-La U C,2014,ASD DELI X GHANA,10,6,2023
1-Sorgo,2014,CIRAD 7001,30,6,2023
1-San Pablo,2014,ASD DELI X GHANA,20,6,2023
1-2M,2014,CIRAD 7002,10,6,2023
1-Rio,2014,ASD DELI X GHANA,30,6,2023
1-4M,2014,CIRAD 7003,20,6,2023
1-1A,2014,ASD DELI X GHANA,10,6,2023
1-2P,2014,CIRAD 7004,30,6,2023
1-La U,2014,ASD DELI X GHANA,20,6,2023
1-Maiz,2014,CIRAD 7005,10,6,2023
1-5M,2014,ASD DELI X GHANA,30,6,2023
1-3M,2014,CIRAD 7006,20,6,2023
1-1M,2014,ASD DELI X GHANA,10,6,2023
1-4P,2014,CIRAD 7007,30,6,2023
1-3P,2014,ASD DELI X GHANA,20,6,2023
1-1P,2014,CIRAD 7008,10,6,2023
1-La U C,2014,ASD DELI X GHANA,10,7,2023
1-Sorgo,2014,CIRAD 7001,30,7,2023
1-San Pablo,2014,ASD DELI X GHANA,20,7,2023
1-2M,2014,CIRAD 7002,10,7,2023
1-Rio,2014,ASD DELI X GHANA,30,7,2023
1-4M,2014,CIRAD 7003,20,7,2023
1-1A,2014,ASD DELI X GHANA,10,7,2023
1-2P,2014,CIRAD 7004,30,7,2023
1-La U,2014,ASD DELI X GHANA,20,7,2023
1-Maiz,2014,CIRAD 7005,10,7,2023
1-5M,2014,ASD DELI X GHANA,30,7,2023
1-3M,2014,CIRAD 7006,20,7,2023
1-1M,2014,ASD DELI X GHANA,10,7,2023
1-4P,2014,CIRAD 7007,30,7,2023
1-3P,2014,ASD DELI X GHANA,20,7,2023
1-1P,2014,CIRAD 7008,10,7,2023
1-La U C,2014,ASD DELI X GHANA,10,8,2023
1-Sorgo,2014,CIRAD 7001,30,8,2023
1-San Pablo,2014,ASD DELI X GHANA,20,8,2023
1-2M,2014,CIRAD 7002,10,8,2023
1-Rio,2014,ASD DELI X GHANA,30,8,2023
1-4M,2014,CIRAD 7003,20,8,2023
1-1A,2014,ASD DELI X GHANA,10,8,2023
1-2P,2014,CIRAD 7004,30,8,2023
1-La U,2014,ASD DELI X GHANA,20,8,2023
1-Maiz,2014,CIRAD 7005,10,8,2023
1-5M,2014,ASD DELI X GHANA,30,8,2023
1-3M,2014,CIRAD 7006,20,8,2023
1-1M,2014,ASD DELI X GHANA,10,8,2023
1-4P,2014,CIRAD 7007,30,8,2023
1-3P,2014,ASD DELI X GHANA,20,8,2023
1-1P,2014,CIRAD 7008,10,8,2023
1-La U C,2014,ASD DELI X GHANA,10,9,2023
1-Sorgo,2014,CIRAD 7001,30,9,2023
1-San Pablo,2014,ASD DELI X GHANA,20,9,2023
1-2M,2014,CIRAD 7002,10,9,2023
1-Rio,2014,ASD DELI X GHANA,30,9,2023
1-4M,2014,CIRAD 7003,20,9,2023
1-1A,2014,ASD DELI X GHANA,10,9,2023
1-2P,2014,CIRAD 7004,30,9,2023
1-La U,2014,ASD DELI X GHANA,20,9,2023
1-Maiz,2014,CIRAD 7005,10,9,2023
1-5M,2014,ASD DELI X GHANA,30,9,2023
1-3M,2014,CIRAD 7006,20,9,2023
1-1M,2014,ASD DELI X GHANA,10,9,2023
1-4P,2014,CIRAD 7007,30,9,2023
1-3P,2014,ASD DELI X GHANA,20,9,2023
1-1P,2014,CIRAD 7008,10,9,2023
