﻿FECHA,MILIMETROS,OBSERVACIONES
2020-11-01,14,
2020-11-02,10,
2020-11-03,9,
2020-11-04,18,
2020-11-06,4,
2020-11-07,6,
2020-11-08,20,
2020-11-09,25,
2020-11-10,0,
2020-11-11,0,
2020-11-12,9,
2020-11-13,5,
2020-11-15,7,
2020-11-18,14,
2020-11-19,9,
2020-11-20,18,
2020-11-24,5,
2020-11-25,10,
2020-11-26,14,
2020-11-27,8,
2020-11-28,5,
2020-11-29,1,
2020-11-30,10,
2020-12-02,2,
2020-12-11,2,
2020-12-13,3,
2020-12-16,5,
2020-12-17,25,
2020-12-18,14,
2020-12-19,5,
2020-12-24,45,
2020-12-25,14,
2020-12-26,15,
2020-12-27,20,
2020-12-28,12,
2020-12-29,10,
2020-12-31,15,
2021-01-02,60,
2021-01-04,18,
2021-01-05,12,
2021-01-06,7,
2021-01-07,5,
2021-01-08,3,
2021-01-10,1,
2021-01-11,1,
2021-01-12,4,
2021-01-15,6,
2021-01-19,1,
2021-01-21,10,
2021-01-22,10,
2021-01-25,3,
2021-02-05,7,
2021-02-07,8,
2021-02-08,5,
2021-02-12,3,
2021-02-18,10,
2021-02-19,18,
2021-02-20,10,
2021-02-21,8,
2021-02-22,18,
2021-02-23,5,
2021-02-25,1,
2021-02-27,1,
2021-02-28,3,
2021-03-01,2,
2021-03-03,5,
2021-03-04,2,
2021-03-05,8,
2021-03-07,48,
2021-03-08,4,
2021-03-09,8,
2021-03-11,20,
2021-03-15,8,
2021-03-16,20,
2021-03-17,23,
2021-03-18,14,
2021-03-19,10,
2021-03-22,43,
2021-03-23,18,
2021-03-24,11,
2021-03-25,7,
2021-03-29,1,
2021-04-02,48,
2021-04-04,15,
2021-04-05,45,
2021-04-06,12,
2021-04-10,2,
2021-04-15,5,
2021-04-16,30,
2021-04-17,5,
2021-04-23,20,
2021-04-25,10,
2021-04-26,7,
2021-04-28,80,
2021-04-29,10,
2021-04-30,10,
2021-05-01,12,
2021-05-02,5,
2021-05-03,34,
2021-05-04,22,
2021-05-08,15,
2021-05-10,5,
2021-05-11,5,
2021-05-12,8,
2021-05-15,5,
2021-05-16,10,
2021-05-17,20,
2021-05-18,50,
2021-05-22,5,
2021-05-24,10,
2021-05-25,15,
2021-05-27,5,
2021-05-29,10,
2021-05-30,15,
2021-05-31,50,
2021-06-01,10,
2021-06-04,10,
2021-06-05,5,
2021-06-06,5,
2021-06-07,45,
2021-06-08,15,
2021-06-09,8,
2021-06-13,21,
2021-06-14,15,
2021-06-15,18,
2021-06-16,14,
2021-06-17,21,
2021-06-18,24,
2021-06-19,22,
2021-06-20,10,
2021-06-22,21,
2021-06-23,20,
2021-06-24,10,
2021-06-25,8,
2021-06-26,10,
2021-06-27,29,
2021-07-01,30,
2021-07-03,5,
2021-07-06,2,
2021-07-09,12,
2021-07-10,5,
2021-07-15,5,
2021-07-16,25,
2021-07-17,18,
2021-07-24,8,
2021-07-25,25,
2021-07-26,10,
2021-07-27,8,
2021-08-05,7,
2021-08-07,50,
2021-08-08,6,
2021-08-09,25,
2021-08-10,8,
2021-08-11,15,
2021-08-12,7,
2021-08-13,10,
2021-08-14,6,
2021-08-16,50,
2021-08-17,44,
2021-08-18,25,
2021-08-19,60,
2021-08-20,20,
2021-08-22,16,
2021-08-24,22,
2021-08-25,13,
2021-08-26,3,
2021-08-30,44,
2021-08-31,5,
2021-09-04,18,
2021-09-05,30,
2021-09-06,18,
2021-09-07,9,
2021-09-08,5,
2021-09-09,18,
2021-09-10,12,
2021-09-15,16,
2021-09-17,15,
2021-09-18,21,
2021-09-20,10,
2021-09-22,29,
2021-09-24,5,
2021-09-25,7,
2021-09-29,58,
2021-10-04,18,
2021-10-06,21,
2021-10-08,7,
2021-10-10,3,
2021-10-12,19,
2021-10-15,14,
2021-10-17,14,
2021-10-18,10,
2021-10-19,40,
2021-10-21,15,
2021-10-22,10,
2021-10-25,15,
2021-10-26,60,
2021-10-28,40,
2021-10-30,45,
2021-10-31,23,
2021-11-02,10,
2021-11-03,5,
2021-11-07,23,
2021-11-08,38,
2021-11-09,7,
2021-11-14,10,
2021-11-15,38,
2021-11-16,5,
2021-11-19,8,
2021-11-22,7,
2021-11-23,23,
2021-11-24,60,
2021-11-25,21,
2021-11-27,40,
2021-11-28,37,
2021-11-29,18,
2021-11-30,8,
2021-12-02,5,
2021-12-05,8,
2021-12-06,5,
2021-12-12,48,
2021-12-17,10,
2021-12-18,8,
2021-12-20,5,
2021-12-23,10,
2021-12-26,45,
2021-12-28,23,
2021-12-30,10,
2021-12-31,25,
2022-01-01,25,
2022-01-04,3,
2022-01-06,24,
2022-01-08,3,
2022-01-10,11,
2022-01-18,5,
2022-01-27,4,
2022-02-05,8,
2022-02-07,3,
2022-02-08,10,
2022-02-09,2,
2022-02-13,3,
2022-02-18,60,
2022-02-26,8,
2022-02-27,2,
2022-02-28,55,
2022-03-01,42,
2022-03-02,21,
2022-03-03,10,
2022-03-04,5,
2022-03-05,10,
2022-03-06,14,
2022-03-07,24,
2022-03-16,15,
2022-03-17,28,
2022-03-19,42,
2022-03-21,30,
2022-03-24,12,
2022-03-25,25,
2022-03-26,18,
2022-03-27,35,
2022-03-28,40,
2022-03-29,30,
2022-03-30,30,
2022-03-31,10,
2022-04-01,24,
2022-04-02,15,
2022-04-04,23,
2022-04-05,20,
2022-04-07,58,
2022-04-08,4,
2022-04-13,10,
2022-04-14,8,
2022-04-15,20,
2022-04-16,15,
2022-04-17,18,
2022-04-18,14,
2022-04-19,18,
2022-04-20,10,
2022-04-23,5,
2022-04-24,10,
2022-04-26,14,
2022-04-27,55,
2022-04-29,10,
2022-04-30,27,
2022-05-01,10,
2022-05-03,30,
2022-05-05,18,
2022-05-07,14,
2022-05-09,5,
2022-05-10,75,
2022-05-11,7,
2022-05-15,10,
2022-05-16,48,
2022-05-17,10,
2022-05-18,70,
2022-05-19,10,
2022-05-28,10,
2022-05-29,10,
2022-05-30,25,
2022-06-01,10,
2022-06-02,25,
2022-06-03,19,
2022-06-04,18,
2022-06-05,25,
2022-06-06,60,
2022-06-07,10,
2022-06-08,10,
2022-06-09,15,
2022-06-10,27,
2022-06-11,10,
2022-06-12,15,
2022-06-13,8,
2022-06-14,28,
2022-06-15,38,
2022-06-16,15,
2022-06-17,10,
2022-06-18,10,
2022-06-19,8,
2022-06-20,10,
2022-06-21,8,
2022-06-22,7,
2022-06-26,80,
2022-06-27,35,
2022-06-28,10,
2022-06-29,5,
2022-06-30,3,
2022-07-01,4,
2022-07-11,10,
2022-07-12,5,
2022-07-13,7,
2022-07-14,4,
2022-07-15,6,
2022-07-16,20,
2022-07-18,5,
2022-07-19,7,
2022-07-22,20,
2022-07-23,3,
2022-07-24,51,
2022-07-25,27,
2022-07-26,5,
2022-07-28,28,
2022-07-29,10,
2022-07-30,5,
2022-08-01,20,
2022-08-02,10,
2022-08-03,5,
2022-08-04,14,
2022-08-05,83,
