﻿Lote Bloque Kmz;Campaña;Nucleo;Asociacion;Productor;CC NIT;Lote No;Hectareas Verificadas;Yuca
22_DavidMHerazoR_3R_6,00Ha;2022 - 2023;Edwin Uparela;22 23 Asoagriam;David Manuel Herazo Rivera;8.860.630;3;6;Regular
22_MoisesJMartinezA_4R_3,50Ha;2022 - 2023;Edwin Uparela;22 23 Independientes EU;Moises Jose Martinez Alba;92.532.366;4;3,5;Regular
22_MoisesJMartinezA_5R_2,00Ha;2022 - 2023;Edwin Uparela;22 23 Independientes EU;Moises Jose Martinez Alba;92.532.366;5;2;Regular
22_MoisesJMartinezA_6R_6,50Ha;2022 - 2023;Edwin Uparela;22 23 Independientes EU;Moises Jose Martinez Alba;92.532.366;6;6,5;Regular
22_ManuelJMedranoV_2R_7,60Ha;2022 - 2023;Edwin Uparela;22 23 Independientes EU;Manuel Jose Medrano Villalba;73.127.007;2;7,6;Regular
22_HoracioMMartinezL_1R_2,50Ha;2022 - 2023;Edwin Uparela;22 23 Independientes EU;Horacio Manuel Martinez Lozano;92.532.974;1;2,5;Regular
