﻿wid,name,type,quantity,inputmeasure,inf,lbid,lbcode
BODEGA GENERAL ALFA,*AMISTAR® TOP,Egresos,0.01,Litros,NIVELACIÓN DE INVENTARIO No. 001,,
BODEGA GENERAL RIVERA,*AMISTAR® TOP,Egresos,1.39,Litros,NIVELACIÓN DE INVENTARIO No. 201,,
BODEGA GENERAL RIVERA,*BRYOSEI,Egresos,0.5,Litros,NIVELACIÓN DE INVENTARIO No. 201,,
BODEGA GENERAL ALFA,*CAL HIDRATADA,Egresos,7.15,Kilogramos,NIVELACIÓN DE INVENTARIO No. 001,,
BODEGA GENERAL RIVERA,*CANTUS,Egresos,0.38,Kilogramos,NIVELACIÓN DE INVENTARIO No. 201,,
BODEGA GENERAL BUENA VISTA,*CARBENDAZIM JEGO 500SC,Egresos,2,Litros,NIVELACIÓN DE INVENTARIO No. 051,,
BODEGA GENERAL RIVERA,*CROPZIM 500 SC,Egresos,0.29,Litros,NIVELACIÓN DE INVENTARIO No. 201,,
BODEGA GENERAL BUENA VISTA,*DKP 500,Egresos,0.9,Litros,NIVELACIÓN DE INVENTARIO No. 051,,
BODEGA GENERAL RIVERA,*ENGEO 247 SC,Egresos,11.4,Litros,NIVELACIÓN DE INVENTARIO No. 201,,
BODEGA GENERAL BUENA VISTA,*FLORONE,Egresos,0.43,Litros,NIVELACIÓN DE INVENTARIO No. 051,,
BODEGA GENERAL ALFA,*FOSETYL AGROGEN 800WP,Egresos,4.8,Kilogramos,NIVELACIÓN DE INVENTARIO No. 001,,
BODEGA GENERAL RIVERA,*GLORY 75WG,Egresos,0.03,Kilogramos,NIVELACIÓN DE INVENTARIO No. 201,,
BODEGA GENERAL RIVERA,*HORMONAGRO,Egresos,0.04,Litros,NIVELACIÓN DE INVENTARIO No. 201,,
BODEGA GENERAL ALFA,*LUNA TRANQUILITY SC500,Egresos,0.25,Litros,NIVELACIÓN DE INVENTARIO No. 001,,
BODEGA GENERAL BUENA VISTA,*NEOFAT CE,Egresos,0.03,Litros,NIVELACIÓN DE INVENTARIO No. 051,,
BODEGA GENERAL ALFA,*NUTAR® 250 WG,Egresos,0.04,Kilogramos,NIVELACIÓN DE INVENTARIO No. 001,,
BODEGA GENERAL ALFA,*OXICLORURO DE COBRE 58.8 % WP PROFICOL,Egresos,0.02,Kilogramos,NIVELACIÓN DE INVENTARIO No. 001,,
BODEGA GENERAL ALFA,*PANZER 480 SL,Egresos,22.1,Litros,NIVELACIÓN DE INVENTARIO No. 001,,
BODEGA GENERAL BUENA VISTA,*PANZER 480 SL,Egresos,10.48,Litros,NIVELACIÓN DE INVENTARIO No. 051,,
BODEGA GENERAL ALFA,*ROUND UP ACTIVO SL 446,Egresos,0.01,Litros,NIVELACIÓN DE INVENTARIO No. 001,,
BODEGA GENERAL ALFA,*SAL MARINA,Egresos,1.29,Kilogramos,NIVELACIÓN DE INVENTARIO No. 001,,
BODEGA GENERAL RIVERA,*SILICONADO SYS,Egresos,0.96,Litros,NIVELACIÓN DE INVENTARIO No. 201,,
BODEGA GENERAL RIVERA,*SPOREKILL,Egresos,0.1,Litros,NIVELACIÓN DE INVENTARIO No. 201,,
BODEGA GENERAL BUENA VISTA,*SPOREKILL,Egresos,0.03,Litros,NIVELACIÓN DE INVENTARIO No. 051,,
BODEGA GENERAL RIVERA,*ZAFIRO 425 ME,Egresos,0.06,Litros,NIVELACIÓN DE INVENTARIO No. 201,,
BODEGA GENERAL RIVERA,ABRAZADERA CREMALLERA RC804X,Egresos,1,Por cantidad,NIVELACIÓN DE INVENTARIO No. 201,,
BODEGA GENERAL RIVERA,ABRAZADERA TUBO BOMBA RC818X,Egresos,1,Por cantidad,NIVELACIÓN DE INVENTARIO No. 201,,
BODEGA GENERAL ALFA,ACEITE 20W50 MOBIL 4T X 1/4,Egresos,1,Litros,NIVELACIÓN DE INVENTARIO No. 001,,
BODEGA GENERAL ALFA,ADAPTADOR LIMPIEZA SANITARIO 1 3/4",Egresos,1,Por cantidad,NIVELACIÓN DE INVENTARIO No. 001,,
BODEGA GENERAL RIVERA,ADAPTADOR PVC HEMBRA 1",Egresos,1,Por cantidad,NIVELACIÓN DE INVENTARIO No. 201,,
BODEGA GENERAL RIVERA,ADAPTADOR PVC MACHO 1/2",Egresos,23,Por cantidad,NIVELACIÓN DE INVENTARIO No. 201,,
BODEGA GENERAL ALFA,ADAPTADOR PVC MACHO 3/4,Egresos,1,Por cantidad,NIVELACIÓN DE INVENTARIO No. 001,,
BODEGA GENERAL RIVERA,ALAMBRE DE PUAS 16.5 X 100 MTS,Egresos,1,Por cantidad,NIVELACIÓN DE INVENTARIO No. 201,,
BODEGA GENERAL RIVERA,ALAMBRE NEGRO,Egresos,2,Kilogramos,NIVELACIÓN DE INVENTARIO No. 201,,
BODEGA GENERAL RIVERA,ALICATES,Egresos,1,Por cantidad,NIVELACIÓN DE INVENTARIO No. 201,,
BODEGA GENERAL RIVERA,AMARRAS PARA TEJA,Egresos,225,Por cantidad,NIVELACIÓN DE INVENTARIO No. 201,,
BODEGA GENERAL RIVERA,ANTICORROSIVO BLANCO GALON,Egresos,1,Por cantidad,NIVELACIÓN DE INVENTARIO No. 201,,
BODEGA GENERAL RIVERA,ARNES PARA CAMILLA,Egresos,3,Por cantidad,NIVELACIÓN DE INVENTARIO No. 201,,
BODEGA GENERAL ALFA,AZADON,Egresos,1,Por cantidad,NIVELACIÓN DE INVENTARIO No. 001,,
BODEGA GENERAL RIVERA,BAJANTE PVC REDONDO X 3MTS,Egresos,1,Por cantidad,NIVELACIÓN DE INVENTARIO No. 201,,
BODEGA GENERAL RIVERA,BALDE DOSIFICADOR 10 LITROS,Egresos,2,Por cantidad,NIVELACIÓN DE INVENTARIO No. 201,,
BODEGA GENERAL ALFA,BIOTRAMPA BANDA IMPREGNADA ROLLO X 200MTS,Egresos,1,Por cantidad,NIVELACIÓN DE INVENTARIO No. 001,,
BODEGA GENERAL ALFA,BOLSA BASURA  AZUL 16 X 20 X PAQUETE,Egresos,2,Por cantidad,NIVELACIÓN DE INVENTARIO No. 001,,
BODEGA GENERAL RIVERA,BOLSO PARA PODA,Egresos,3,Por cantidad,NIVELACIÓN DE INVENTARIO No. 201,,
BODEGA GENERAL ALFA,BOQUILLA ABANICO ESTANDAR TP8004VP,Egresos,2,Por cantidad,NIVELACIÓN DE INVENTARIO No. 001,,
BODEGA GENERAL ALFA,BOQUILLA CONO LLENO CH 0.5,Egresos,1,Por cantidad,NIVELACIÓN DE INVENTARIO No. 001,,
BODEGA GENERAL RIVERA,BOQUILLA MARCADORA AMARILLA ADIA 11002 M040,Egresos,3,Por cantidad,NIVELACIÓN DE INVENTARIO No. 201,,
BODEGA GENERAL BUENA VISTA,BREXIL MIX,Egresos,0.8,Kilogramos,NIVELACIÓN DE INVENTARIO No. 051,,
BODEGA GENERAL ALFA,CALTEK (HIDROXIDO DE CALCIO),Egresos,540,Kilogramos,NIVELACIÓN DE INVENTARIO No. 001,,
BODEGA GENERAL RIVERA,CANAL PVC X 3 MTS,Egresos,1,Por cantidad,NIVELACIÓN DE INVENTARIO No. 201,,
BODEGA GENERAL RIVERA,CANDADO,Egresos,3,Por cantidad,NIVELACIÓN DE INVENTARIO No. 201,,
BODEGA GENERAL ALFA,CARBOXY BORO,Egresos,0.06,Litros,NIVELACIÓN DE INVENTARIO No. 001,,
BODEGA GENERAL RIVERA,CARBOXY BORO,Egresos,2.39,Litros,NIVELACIÓN DE INVENTARIO No. 201,,
BODEGA GENERAL BUENA VISTA,CARBOXY BORO,Egresos,0.23,Litros,NIVELACIÓN DE INVENTARIO No. 051,,
BODEGA GENERAL RIVERA,CARETA MEDIA CARA 3M 6200,Egresos,1,Por cantidad,NIVELACIÓN DE INVENTARIO No. 201,,
BODEGA GENERAL RIVERA,CARETA PROTECTORA EN ACRILICO,Egresos,2,Por cantidad,NIVELACIÓN DE INVENTARIO No. 201,,
BODEGA GENERAL ALFA,CARRETA DE CARGA (DIABLO),Egresos,1,Por cantidad,NIVELACIÓN DE INVENTARIO No. 001,,
BODEGA GENERAL BUENA VISTA,CEBOFRUT,Egresos,0.07,Litros,NIVELACIÓN DE INVENTARIO No. 051,,
BODEGA GENERAL RIVERA,CEMENTO SAN MARCOS,Egresos,1,Bultos,NIVELACIÓN DE INVENTARIO No. 201,,
BODEGA GENERAL RIVERA,CHAPA PUERTA SOBREPONER,Egresos,1,Por cantidad,NIVELACIÓN DE INVENTARIO No. 201,,
BODEGA GENERAL ALFA,CHAZO + TORNILLO 1",Egresos,3,Por cantidad,NIVELACIÓN DE INVENTARIO No. 001,,
BODEGA GENERAL RIVERA,CHOQUE 240 SC,Egresos,4.3,Litros,NIVELACIÓN DE INVENTARIO No. 201,,
BODEGA GENERAL RIVERA,CINTA TEFLON,Egresos,2,Por cantidad,NIVELACIÓN DE INVENTARIO No. 201,,
BODEGA GENERAL ALFA,CINTABANDITH 1/2,Egresos,30,Por cantidad,NIVELACIÓN DE INVENTARIO No. 001,,
BODEGA GENERAL BUENA VISTA,CITOGROWER,Egresos,0.05,Litros,NIVELACIÓN DE INVENTARIO No. 051,,
BODEGA GENERAL RIVERA,CODO PVC PRESION 1/2",Egresos,6,Por cantidad,NIVELACIÓN DE INVENTARIO No. 201,,
BODEGA GENERAL RIVERA,CODO SANITARIO 2",Egresos,1,Por cantidad,NIVELACIÓN DE INVENTARIO No. 201,,
BODEGA GENERAL RIVERA,COLLARIN 3/4"" X 1/2",Egresos,9,Por cantidad,NIVELACIÓN DE INVENTARIO No. 201,,
BODEGA GENERAL RIVERA,COSMO OIL EO,Egresos,2.99,Litros,NIVELACIÓN DE INVENTARIO No. 201,,
BODEGA GENERAL BUENA VISTA,COSMO OIL EO,Egresos,5.28,Litros,NIVELACIÓN DE INVENTARIO No. 051,,
BODEGA GENERAL ALFA,CUBIERTAS DE 18",Egresos,3,Por cantidad,NIVELACIÓN DE INVENTARIO No. 001,,
BODEGA GENERAL ALFA,CUCHILLAS GUADAÑA,Egresos,1,Por cantidad,NIVELACIÓN DE INVENTARIO No. 001,,
BODEGA GENERAL ALFA,CUCHILLO CORTO MANGO DE MADERA,Egresos,1,Por cantidad,NIVELACIÓN DE INVENTARIO No. 001,,
BODEGA GENERAL RIVERA,CUCHILLO FRUTERO,Egresos,3,Por cantidad,NIVELACIÓN DE INVENTARIO No. 201,,
BODEGA GENERAL ALFA,DESAIRADOR 1/2,Egresos,1,Por cantidad,NIVELACIÓN DE INVENTARIO No. 001,,
BODEGA GENERAL RIVERA,DESTORNILLADORES DE PALA,Egresos,1,Por cantidad,NIVELACIÓN DE INVENTARIO No. 201,,
BODEGA GENERAL ALFA,DETERGENTE EN POLVO,Egresos,3.45,Kilogramos,NIVELACIÓN DE INVENTARIO No. 001,,
BODEGA GENERAL RIVERA,DETERGENTE EN POLVO,Egresos,11,Kilogramos,NIVELACIÓN DE INVENTARIO No. 201,,
BODEGA GENERAL ALFA,DIAFRAGMA VENTILACION TAPA RECIPIENTE RC206X,Egresos,3,Por cantidad,NIVELACIÓN DE INVENTARIO No. 001,,
BODEGA GENERAL ALFA,DIATOMIX (TIERRAS DIATOMEAS),Egresos,11,Kilogramos,NIVELACIÓN DE INVENTARIO No. 001,,
BODEGA GENERAL ALFA,DISAN 12-24-12-4 (S),Egresos,6.36,Kilogramos,NIVELACIÓN DE INVENTARIO No. 001,,
BODEGA GENERAL ALFA,DISCO BOQUILLA H-5,Egresos,1,Por cantidad,NIVELACIÓN DE INVENTARIO No. 001,,
BODEGA GENERAL RIVERA,DISCO DE CORTE METAL 4 1/2 DEWALT,Egresos,6,Por cantidad,NIVELACIÓN DE INVENTARIO No. 201,,
BODEGA GENERAL ALFA,DUREZZA BLANCO X GALÓN,Egresos,1,Por cantidad,NIVELACIÓN DE INVENTARIO No. 001,,
BODEGA GENERAL RIVERA,EMPAQUE LANZA RC301X,Egresos,1,Por cantidad,NIVELACIÓN DE INVENTARIO No. 201,,
BODEGA GENERAL RIVERA,ESFERAS RC103BX,Egresos,1,Por cantidad,NIVELACIÓN DE INVENTARIO No. 201,,
BODEGA GENERAL ALFA,FEROMONA STENOMA 10GRS,Egresos,1,Por cantidad,NIVELACIÓN DE INVENTARIO No. 001,,
BODEGA GENERAL RIVERA,FERTILEADER *AXIS,Egresos,5.47,Litros,NIVELACIÓN DE INVENTARIO No. 201,,
BODEGA GENERAL RIVERA,Filtro malla 100,Egresos,2,Por cantidad,NIVELACIÓN DE INVENTARIO No. 201,,
BODEGA GENERAL ALFA,FLEXOMETRO,Egresos,2,Por cantidad,NIVELACIÓN DE INVENTARIO No. 001,,
BODEGA GENERAL RIVERA,FLEXOMETRO,Egresos,1,Por cantidad,NIVELACIÓN DE INVENTARIO No. 201,,
BODEGA GENERAL ALFA,GASA ESTERIL 7.5 X 7.5,Egresos,2,Por cantidad,NIVELACIÓN DE INVENTARIO No. 001,,
BODEGA GENERAL RIVERA,GLOBAFOL NF,Egresos,0.29,Litros,NIVELACIÓN DE INVENTARIO No. 201,,
BODEGA GENERAL ALFA,GRAMERA DIGITAL,Egresos,1,Por cantidad,NIVELACIÓN DE INVENTARIO No. 001,,
BODEGA GENERAL RIVERA,GRAMERA DIGITAL,Egresos,6,Por cantidad,NIVELACIÓN DE INVENTARIO No. 201,,
BODEGA GENERAL BUENA VISTA,GUANTES DE NITRILO,Egresos,1,Por cantidad,NIVELACIÓN DE INVENTARIO No. 051,,
BODEGA GENERAL RIVERA,GUANTES DE VAQUETA CORTO X PAR,Egresos,3,Por cantidad,NIVELACIÓN DE INVENTARIO No. 201,,
BODEGA GENERAL RIVERA,HOJA DE SEGUETA,Egresos,1,Por cantidad,NIVELACIÓN DE INVENTARIO No. 201,,
BODEGA GENERAL RIVERA,HOMBRE SOLO,Egresos,1,Por cantidad,NIVELACIÓN DE INVENTARIO No. 201,,
BODEGA GENERAL ALFA,INSERTO PVC 1",Egresos,2,Por cantidad,NIVELACIÓN DE INVENTARIO No. 001,,
BODEGA GENERAL RIVERA,JABON NEUTRO,Egresos,11,Litros,NIVELACIÓN DE INVENTARIO No. 201,,
BODEGA GENERAL ALFA,JERINGA CATETER 50ML,Egresos,92,Por cantidad,NIVELACIÓN DE INVENTARIO No. 001,,
BODEGA GENERAL ALFA,KCL GRANULADO,Egresos,44.59,Kilogramos,NIVELACIÓN DE INVENTARIO No. 001,,
BODEGA GENERAL RIVERA,KELASYS ZN,Egresos,0.84,Kilogramos,NIVELACIÓN DE INVENTARIO No. 201,,
BODEGA GENERAL RIVERA,KEYLATE MO,Egresos,0.87,Litros,NIVELACIÓN DE INVENTARIO No. 201,,
BODEGA GENERAL ALFA,KIESULMAG,Egresos,55.2,Kilogramos,NIVELACIÓN DE INVENTARIO No. 001,,
BODEGA GENERAL ALFA,KIT ACCESORIOS CORONA BAÑO,Egresos,1,Por cantidad,NIVELACIÓN DE INVENTARIO No. 001,,
BODEGA GENERAL RIVERA,KIT EMBOLO RCK8X,Egresos,1,Por cantidad,NIVELACIÓN DE INVENTARIO No. 201,,
BODEGA GENERAL ALFA,KIT VARILLA CHASIS PLASTICO TUBULAR RC605ZX,Egresos,1,Por cantidad,NIVELACIÓN DE INVENTARIO No. 001,,
BODEGA GENERAL RIVERA,LADRILLO COMUN,Egresos,100,Por cantidad,NIVELACIÓN DE INVENTARIO No. 201,,
BODEGA GENERAL ALFA,LADRILLO FAROL LISO,Egresos,259,Por cantidad,NIVELACIÓN DE INVENTARIO No. 001,,
BODEGA GENERAL ALFA,LAMINA TRAMPA JACKSON,Egresos,5,Por cantidad,NIVELACIÓN DE INVENTARIO No. 001,,
BODEGA GENERAL RIVERA,LAMINA TRAMPA JACKSON,Egresos,10,Por cantidad,NIVELACIÓN DE INVENTARIO No. 201,,
BODEGA GENERAL RIVERA,LANZA METALICA RC346EX,Egresos,2,Por cantidad,NIVELACIÓN DE INVENTARIO No. 201,,
BODEGA GENERAL ALFA,LANZA MOTORIZADA MANGO COLOR NARANJA 90CM,Egresos,1,Por cantidad,NIVELACIÓN DE INVENTARIO No. 001,,
BODEGA GENERAL RIVERA,LIMA NICHOLSON 6",Egresos,4,Por cantidad,NIVELACIÓN DE INVENTARIO No. 201,,
BODEGA GENERAL RIVERA,LIMPIA PISOS X GALÓN,Egresos,1,Por cantidad,NIVELACIÓN DE INVENTARIO No. 201,,
BODEGA GENERAL RIVERA,LIMPIDO X GALÓN,Egresos,2,Por cantidad,NIVELACIÓN DE INVENTARIO No. 201,,
BODEGA GENERAL RIVERA,LLAVE DE EXPANSION 12",Egresos,1,Por cantidad,NIVELACIÓN DE INVENTARIO No. 201,,
BODEGA GENERAL RIVERA,LLAVE NO. 10,Egresos,1,Por cantidad,NIVELACIÓN DE INVENTARIO No. 201,,
BODEGA GENERAL RIVERA,LLAVE PRESTON,Egresos,1,Por cantidad,NIVELACIÓN DE INVENTARIO No. 201,,
BODEGA GENERAL ALFA,MAINSTAY CALCIO,Egresos,0.05,Litros,NIVELACIÓN DE INVENTARIO No. 001,,
BODEGA GENERAL ALFA,MANGUERA POLIETILENO DE 1/2"" X 100MTS",Egresos,1,Por cantidad,NIVELACIÓN DE INVENTARIO No. 001,,
BODEGA GENERAL RIVERA,MANGUERA POLIETILENO DE 1/2"" X 100MTS",Egresos,1,Por cantidad,NIVELACIÓN DE INVENTARIO No. 201,,
BODEGA GENERAL ALFA,MARCADOR SHARPIE,Egresos,2,Por cantidad,NIVELACIÓN DE INVENTARIO No. 001,,
BODEGA GENERAL BUENA VISTA,MASTERCOP 260 SC,Egresos,0.07,Litros,NIVELACIÓN DE INVENTARIO No. 051,,
BODEGA GENERAL RIVERA,MEZCLA DIABONOS+CRENTO 4-21-24+4(MgO)+EM,Egresos,17588.39,Kilogramos,NIVELACIÓN DE INVENTARIO No. 201,,
BODEGA GENERAL ALFA,MFF 4-0-30+10CaO+3S+0.5B+2.6Zn,Egresos,0.59,Kilogramos,NIVELACIÓN DE INVENTARIO No. 001,,
BODEGA GENERAL ALFA,MIEL,Egresos,15.5,Kilogramos,NIVELACIÓN DE INVENTARIO No. 001,,
BODEGA GENERAL ALFA,NIVEL,Egresos,1,Por cantidad,NIVELACIÓN DE INVENTARIO No. 001,,
BODEGA GENERAL RIVERA,NIVEL,Egresos,1,Por cantidad,NIVELACIÓN DE INVENTARIO No. 201,,
BODEGA GENERAL RIVERA,NU-FILM P,Egresos,0.19,Litros,NIVELACIÓN DE INVENTARIO No. 201,,
BODEGA GENERAL ALFA,PALIN,Egresos,3,Por cantidad,NIVELACIÓN DE INVENTARIO No. 001,,
BODEGA GENERAL RIVERA,PALIN,Egresos,4,Por cantidad,NIVELACIÓN DE INVENTARIO No. 201,,
BODEGA GENERAL ALFA,PAR  DE CARTUCHOS REPUESTOS CARETA MEDIA CARA 3M 6003,Egresos,1,Por cantidad,NIVELACIÓN DE INVENTARIO No. 001,,
BODEGA GENERAL RIVERA,PEGAL PH AE,Egresos,0.06,Litros,NIVELACIÓN DE INVENTARIO No. 201,,
BODEGA GENERAL BUENA VISTA,PEGAL PH AE,Egresos,0.57,Litros,NIVELACIÓN DE INVENTARIO No. 051,,
BODEGA GENERAL RIVERA,PERLIN 4 X 2 C14,Egresos,5,Por cantidad,NIVELACIÓN DE INVENTARIO No. 201,,
BODEGA GENERAL ALFA,PIE DE AMIGO REFORZADO BLANCO 6X8,Egresos,1,Por cantidad,NIVELACIÓN DE INVENTARIO No. 001,,
BODEGA GENERAL ALFA,PINTURA BLANCA EN VINILO TIPO 2 CUÑETE 20L,Egresos,1,Por cantidad,NIVELACIÓN DE INVENTARIO No. 001,,
BODEGA GENERAL RIVERA,PINTURA BLANCA EN VINILO TIPO 2 CUÑETE 20L,Egresos,1,Por cantidad,NIVELACIÓN DE INVENTARIO No. 201,,
BODEGA GENERAL RIVERA,PORTABOQUILLAS UNIVERSAL RC830EX,Egresos,1,Por cantidad,NIVELACIÓN DE INVENTARIO No. 201,,
BODEGA GENERAL RIVERA,PROAXIS 60 CS FMS,Egresos,0.72,Litros,NIVELACIÓN DE INVENTARIO No. 201,,
BODEGA GENERAL BUENA VISTA,PROAXIS 60 CS FMS,Egresos,0.13,Litros,NIVELACIÓN DE INVENTARIO No. 051,,
BODEGA GENERAL ALFA,PROBETA 200 CC,Egresos,2,Por cantidad,NIVELACIÓN DE INVENTARIO No. 001,,
BODEGA GENERAL ALFA,PROBETA 500 CC,Egresos,1,Por cantidad,NIVELACIÓN DE INVENTARIO No. 001,,
BODEGA GENERAL RIVERA,PROTECTORES AUDITIVOS TIPO DIADEMA,Egresos,2,Por cantidad,NIVELACIÓN DE INVENTARIO No. 201,,
BODEGA GENERAL RIVERA,PUNTILLA CC 2"" X LIBRA",Egresos,1,Por cantidad,NIVELACIÓN DE INVENTARIO No. 201,,
BODEGA GENERAL RIVERA,RECOGEDOR,Egresos,4,Por cantidad,NIVELACIÓN DE INVENTARIO No. 201,,
BODEGA GENERAL ALFA,REDUCCION PVC 1 X 3/4,Egresos,1,Por cantidad,NIVELACIÓN DE INVENTARIO No. 001,,
BODEGA GENERAL ALFA,REFLECTOR LED 100W,Egresos,1,Por cantidad,NIVELACIÓN DE INVENTARIO No. 001,,
BODEGA GENERAL ALFA,REFRIGERANTE X GALÓN,Egresos,1,Por cantidad,NIVELACIÓN DE INVENTARIO No. 001,,
BODEGA GENERAL BUENA VISTA,RENEX 720 SC,Egresos,0.1,Litros,NIVELACIÓN DE INVENTARIO No. 051,,
BODEGA GENERAL RIVERA,SAFERTAC,Egresos,0.21,Litros,NIVELACIÓN DE INVENTARIO No. 201,,
BODEGA GENERAL ALFA,SELECTO,Egresos,0.01,Litros,NIVELACIÓN DE INVENTARIO No. 001,,
BODEGA GENERAL BUENA VISTA,SERENADE SC 1.34,Egresos,1.02,Litros,NIVELACIÓN DE INVENTARIO No. 051,,
BODEGA GENERAL ALFA,SERRUCHO BELLOTA PLEGABLE,Egresos,1,Por cantidad,NIVELACIÓN DE INVENTARIO No. 001,,
BODEGA GENERAL RIVERA,SERRUCHO BELLOTA PLEGABLE,Egresos,1,Por cantidad,NIVELACIÓN DE INVENTARIO No. 201,,
BODEGA GENERAL RIVERA,SERRUCHO GAVILAN PLEGABLE,Egresos,2,Por cantidad,NIVELACIÓN DE INVENTARIO No. 201,,
BODEGA GENERAL RIVERA,SERRUCHO TRUPER PLEGABLE,Egresos,1,Por cantidad,NIVELACIÓN DE INVENTARIO No. 201,,
BODEGA GENERAL RIVERA,SOLDADURA 1/4 PVC,Egresos,1,Por cantidad,NIVELACIÓN DE INVENTARIO No. 201,,
BODEGA GENERAL RIVERA,STIMULATE,Egresos,1.08,Litros,NIVELACIÓN DE INVENTARIO No. 201,,
BODEGA GENERAL ALFA,TABLAS SUJETADORAS,Egresos,4,Por cantidad,NIVELACIÓN DE INVENTARIO No. 001,,
BODEGA GENERAL ALFA,TALADRO,Egresos,1,Por cantidad,NIVELACIÓN DE INVENTARIO No. 001,,
BODEGA GENERAL ALFA,TANQUE DE 2.000,Egresos,1,Por cantidad,NIVELACIÓN DE INVENTARIO No. 001,,
BODEGA GENERAL RIVERA,TAPA RECIPIENTE FUMIGADORA 20L RX202EX,Egresos,1,Por cantidad,NIVELACIÓN DE INVENTARIO No. 201,,
BODEGA GENERAL RIVERA,TAPON PVC ROSCADO 1/2",Egresos,3,Por cantidad,NIVELACIÓN DE INVENTARIO No. 201,,
BODEGA GENERAL ALFA,TARJETA PARA CONTROL MUESTREO MCPHAIL,Egresos,6,Por cantidad,NIVELACIÓN DE INVENTARIO No. 001,,
BODEGA GENERAL BUENA VISTA,TEE RAPIDA 1/2",Egresos,1,Por cantidad,NIVELACIÓN DE INVENTARIO No. 051,,
BODEGA GENERAL ALFA,THINER GALON,Egresos,1,Por cantidad,NIVELACIÓN DE INVENTARIO No. 001,,
BODEGA GENERAL ALFA,TIJERA COSECHA PUNTA ROMA,Egresos,13,Por cantidad,NIVELACIÓN DE INVENTARIO No. 001,,
BODEGA GENERAL RIVERA,TIJERAS DE PODA PROFESIONAL TRAMONTINA,Egresos,2,Por cantidad,NIVELACIÓN DE INVENTARIO No. 201,,
BODEGA GENERAL RIVERA,TIJERAS PODADORAS,Egresos,1,Por cantidad,NIVELACIÓN DE INVENTARIO No. 201,,
BODEGA GENERAL RIVERA,TRAMPA JACKSON SOLIDA,Egresos,10,Por cantidad,NIVELACIÓN DE INVENTARIO No. 201,,
BODEGA GENERAL RIVERA,TRAMPA MCPHAIL ACRILICA,Egresos,10,Por cantidad,NIVELACIÓN DE INVENTARIO No. 201,,
BODEGA GENERAL ALFA,TRAPEADOR,Egresos,5,Por cantidad,NIVELACIÓN DE INVENTARIO No. 001,,
BODEGA GENERAL RIVERA,TRAPEADOR,Egresos,6,Por cantidad,NIVELACIÓN DE INVENTARIO No. 201,,
BODEGA GENERAL ALFA,TRIMEDLURE PLUG 2GRS,Egresos,6,Por cantidad,NIVELACIÓN DE INVENTARIO No. 001,,
BODEGA GENERAL ALFA,TRIPA POLLO,Egresos,1.9,Kilogramos,NIVELACIÓN DE INVENTARIO No. 001,,
BODEGA GENERAL RIVERA,TRIPA POLLO,Egresos,10,Kilogramos,NIVELACIÓN DE INVENTARIO No. 201,,
BODEGA GENERAL RIVERA,TRIPLE HOJA,Egresos,0.41,Litros,NIVELACIÓN DE INVENTARIO No. 201,,
BODEGA GENERAL ALFA,TUBO ALCANTARILLADO CORRUGADO 12",Egresos,3,Por cantidad,NIVELACIÓN DE INVENTARIO No. 001,,
BODEGA GENERAL RIVERA,TUBO ALCANTARILLADO CORRUGADO 12",Egresos,10,Por cantidad,NIVELACIÓN DE INVENTARIO No. 201,,
BODEGA GENERAL ALFA,TUBO ALCANTARILLADO CORRUGADO 24",Egresos,1,Por cantidad,NIVELACIÓN DE INVENTARIO No. 001,,
BODEGA GENERAL RIVERA,TUBO ALCANTARILLADO CORRUGADO 24",Egresos,1,Por cantidad,NIVELACIÓN DE INVENTARIO No. 201,,
BODEGA GENERAL RIVERA,TUBO ALCANTARILLADO CORRUGADO 8",Egresos,3,Por cantidad,NIVELACIÓN DE INVENTARIO No. 201,,
BODEGA GENERAL RIVERA,TUBO PVC 1/2,Egresos,8,Por cantidad,NIVELACIÓN DE INVENTARIO No. 201,,
BODEGA GENERAL ALFA,TUBO PVC 1/2"" RDE 9",Egresos,14,Por cantidad,NIVELACIÓN DE INVENTARIO No. 001,,
BODEGA GENERAL RIVERA,TUBO RECTANGULAR 2X1 C18,Egresos,8,Por cantidad,NIVELACIÓN DE INVENTARIO No. 201,,
BODEGA GENERAL RIVERA,TUBO RECTANGULAR 3 * 1 1/2"" CAL18",Egresos,6,Por cantidad,NIVELACIÓN DE INVENTARIO No. 201,,
BODEGA GENERAL RIVERA,TUBO SANITARIO 2",Egresos,4,Por cantidad,NIVELACIÓN DE INVENTARIO No. 201,,
BODEGA GENERAL RIVERA,UNION CANAL CON BAJANTE PVC,Egresos,1,Por cantidad,NIVELACIÓN DE INVENTARIO No. 201,,
BODEGA GENERAL BUENA VISTA,UNION RAPIDA 1/2",Egresos,5,Por cantidad,NIVELACIÓN DE INVENTARIO No. 051,,
BODEGA GENERAL RIVERA,UNION RAPIDA 2",Egresos,3,Por cantidad,NIVELACIÓN DE INVENTARIO No. 201,,
BODEGA GENERAL RIVERA,UNION SANITARIA 2",Egresos,1,Por cantidad,NIVELACIÓN DE INVENTARIO No. 201,,
BODEGA GENERAL ALFA,VERTIMEC 1.8 EC,Egresos,0.02,Litros,,,
BODEGA GENERAL RIVERA,VERTIMEC 1.8 EC,Egresos,4.1,Litros,NIVELACIÓN DE INVENTARIO No. 201,,
BODEGA GENERAL BUENA VISTA,VERTIMEC 1.8 EC,Egresos,1,Litros,NIVELACIÓN DE INVENTARIO No. 051,,
BODEGA GENERAL ALFA,WAIPE,Egresos,1,Por cantidad,NIVELACIÓN DE INVENTARIO No. 001,,
BODEGA GENERAL RIVERA,WAIPE,Egresos,1,Por cantidad,NIVELACIÓN DE INVENTARIO No. 201,,
BODEGA GENERAL RIVERA,YEE ROSCADO 1/4"" PARA ACOPLE MANGUERA DE 8.5MM FS-408",Egresos,1,Por cantidad,NIVELACIÓN DE INVENTARIO No. 201,,
BODEGA GENERAL BUENA VISTA,YODOSAFER SL,Egresos,0.1,Litros,NIVELACIÓN DE INVENTARIO No. 051,,
BODEGA GENERAL RIVERA,ZINC CORRUGADO 3.05 ACESCO,Egresos,30,Por cantidad,NIVELACIÓN DE INVENTARIO No. 201,,
