cid,fids,code,firstName,lastName,typeID,numberID,email,receiveEmail,onlineAccess,contractType,hireDate,contractTerminationDate,periodicity,salary,otherSalaryIncome,otherNonSalaryIncome,job,hours,vacationDays,transportationSubsidy,paymentMethods,bank,accountType,accountNumber,birthDate,homeAddress,cellphone,employeesProtections
Agricola El Poleo,necocli cacao antioquia;necocli madera antioquia,PN2,YISEL CECILIA,MERCADO NARVAEZ,Cedula,1039081693,,,,Contrato indefinido,,,Quincenal,450000,,,AUXILIAR ADMINISTRATIVA,,,,BANCO,BANCOLOMBIA,Cuenta de ahorros,,,,,
Agricola El Poleo,necocli cacao antioquia;necocli madera antioquia,PN7,SERGIO LUIS,DIAZ HOYOS,Cedula,1001590096,,,,Contrato indefinido,,,Quincenal,660000,,,ADMINISTRADOR,,,,BANCO,BANCOLOMBIA,Cuenta de ahorros,,,,,
Agricola El Poleo,necocli cacao antioquia;necocli madera antioquia,PN15,JORGE LUIS,MARTINEZ JIMENEZ,Cedula,1039095904,,,,Contrato indefinido,,,Quincenal,660000,,,SUPERVISOR DE CAMPO,,,,BANCO,BANCOLOMBIA,Cuenta de ahorros,,,,,
Agricola El Poleo,necocli cacao antioquia;necocli madera antioquia,PN24,SILVIA LUZ,HOYOS VERONA,Cedula,1039088024,,,,Contrato indefinido,,,Quincenal,450000,,,AUXILIAR SST,,,,BANCO,BANCOLOMBIA,Cuenta de ahorros,,,,,
Agricola El Poleo,necocli cacao antioquia;necocli madera antioquia,PN5,JOSE ALEXANDER,BENITEZ GARCIA,Cedula,8436663,,,,Contrato fijo,,,Quincenal,439000,,,OPERARIO AGRICOLA,,,,BANCO,BANCOLOMBIA,Cuenta de ahorros,,,,,
Agricola El Poleo,necocli cacao antioquia;necocli madera antioquia,PN7,LUIS,DIAZ OLIVAREZ,Cedula,8188241,,,,Contrato fijo,,,Quincenal,439000,,,OPERARIO AGRICOLA,,,,BANCO,BANCOLOMBIA,Cuenta de ahorros,,,,,
Agricola El Poleo,necocli cacao antioquia;necocli madera antioquia,PN23,JHON JAIRO,MARTINEZ FURNIELES,Cedula,10999942,,,,Contrato fijo,,,Quincenal,439000,,,OPERARIO AGRICOLA,,,,BANCO,BANCOLOMBIA,Cuenta de ahorros,,,,,
Agricola El Poleo,necocli cacao antioquia;necocli madera antioquia,PN62,FERMIN,PEREZ HERNANDEZ,Cedula,8166681,,,,Contrato fijo,,,Quincenal,439000,,,OPERARIO AGRICOLA,,,,BANCO,BANCOLOMBIA,Cuenta de ahorros,,,,,
Agricola El Poleo,necocli cacao antioquia;necocli madera antioquia,PN69,YOVANNIS DE JESUS,PEREZ HERNANDEZ,Cedula,8166429,,,,Contrato fijo,,,Quincenal,439000,,,OPERARIO AGRICOLA,,,,BANCO,BANCOLOMBIA,Cuenta de ahorros,,,,,
Agricola El Poleo,necocli cacao antioquia;necocli madera antioquia,PN72,OVER MANUEL,GARCES MORELO,Cedula,8167921,,,,Contrato fijo,,,Quincenal,439000,,,OPERARIO AGRICOLA,,,,BANCO,BANCOLOMBIA,Cuenta de ahorros,,,,,
Agricola El Poleo,necocli cacao antioquia;necocli madera antioquia,PN73,OMAR,TORRES RIVAS,Cedula,8166561,,,,Contrato fijo,,,Quincenal,439000,,,OPERARIO AGRICOLA,,,,BANCO,BANCOLOMBIA,Cuenta de ahorros,,,,,
Agricola El Poleo,necocli cacao antioquia;necocli madera antioquia,PN86,FRANSISCO MIGUEL,MENDOZA JULIO,Cedula,8165976,,,,Contrato fijo,,,Quincenal,439000,,,OPERARIO AGRICOLA,,,,BANCO,BANCOLOMBIA,Cuenta de ahorros,,,,,
Agricola El Poleo,necocli cacao antioquia;necocli madera antioquia,PN90,LUIS ALBEIRO,MADRID LOPEZ,Cedula,11032308,,,,Contrato fijo,,,Quincenal,439000,,,OPERARIO AGRICOLA,,,,BANCO,BANCOLOMBIA,Cuenta de ahorros,,,,,
Agricola El Poleo,necocli cacao antioquia;necocli madera antioquia,PN91,JULIO CESAR,HOYOS PADILLA,Cedula,8165922,,,,Contrato fijo,,,Quincenal,439000,,,OPERARIO AGRICOLA,,,,BANCO,BANCOLOMBIA,Cuenta de ahorros,,,,,
Agricola El Poleo,necocli cacao antioquia;necocli madera antioquia,PN114,JAVIER DARIO,PEÑA MADERA,Cedula,1131939105,,,,Contrato fijo,,,Quincenal,439000,,,OPERARIO AGRICOLA,,,,BANCO,BANCOLOMBIA,Cuenta de ahorros,,,,,
Agricola El Poleo,necocli cacao antioquia;necocli madera antioquia,PN119,BERNARDO,GOMEZ WILCHES,Cedula,98612315,,,,Contrato fijo,,,Quincenal,439000,,,OPERARIO AGRICOLA,,,,BANCO,BANCOLOMBIA,Cuenta de ahorros,,,,,
Agricola El Poleo,necocli cacao antioquia;necocli madera antioquia,PN134,JHON MARIO,DIAZ HOYOS,Cedula,1039101097,,,,Contrato fijo,,,Quincenal,439000,,,OPERARIO AGRICOLA,,,,BANCO,BANCOLOMBIA,Cuenta de ahorros,,,,,
Agricola El Poleo,necocli cacao antioquia;necocli madera antioquia,PN145,LUIS CARLOS,VARILLA ROQUEME,Cedula,8168726,,,,Contrato fijo,,,Quincenal,439000,,,OPERARIO AGRICOLA,,,,BANCO,BANCOLOMBIA,Cuenta de ahorros,,,,,
Agricola El Poleo,necocli cacao antioquia;necocli madera antioquia,PN244,LUIS FERNANDO,PAEZ AICARDI,Cedula,1001597702,,,,Contrato fijo,,,Quincenal,439000,,,OPERARIO AGRICOLA,,,,BANCO,BANCOLOMBIA,Cuenta de ahorros,,,,,
Agricola El Poleo,necocli cacao antioquia;necocli madera antioquia,PN247,OSCAR DARIO,COGOLLO TORRES,Cedula,1039083493,,,,Contrato fijo,,,Quincenal,439000,,,OPERARIO AGRICOLA,,,,BANCO,BANCOLOMBIA,Cuenta de ahorros,,,,,
Agricola El Poleo,necocli cacao antioquia;necocli madera antioquia,PN253,LUIS ALBERTO,LOBO DIAZ,Cedula,1039090181,,,,Contrato fijo,,,Quincenal,439000,,,OPERARIO AGRICOLA,,,,BANCO,BANCOLOMBIA,Cuenta de ahorros,,,,,
Agricola El Poleo,necocli cacao antioquia;necocli madera antioquia,PN276,JADER ALBERTO,MADERA RODRIGUEZ,Cedula,8169062,,,,Contrato fijo,,,Quincenal,439000,,,OPERARIO AGRICOLA,,,,BANCO,BANCOLOMBIA,Cuenta de ahorros,,,,,
Agricola El Poleo,necocli cacao antioquia;necocli madera antioquia,PN297,MIGUEL ENRIQUE,GOMEZ ARGUMEDO,Cedula,1039080455,,,,Contrato fijo,,,Quincenal,439000,,,OPERARIO AGRICOLA,,,,BANCO,BANCOLOMBIA,Cuenta de ahorros,,,,,
Agricola El Poleo,necocli cacao antioquia;necocli madera antioquia,PN35,WINTER MANUEL,ROSARIO GONZALEZ,Cedula,71351607,,,,Contrato fijo,,,Quincenal,439000,,,OPERARIO AGRICOLA,,,,BANCO,BANCOLOMBIA,Cuenta de ahorros,,,,,
Agricola El Poleo,necocli cacao antioquia;necocli madera antioquia,PN193,YAN CARLOS,PRADA GOMEZ,Cedula,1001589802,,,,Contrato fijo,,,Quincenal,439000,,,OPERARIO AGRICOLA,,,,BANCO,BANCOLOMBIA,Cuenta de ahorros,,,,,
Agricola El Poleo,necocli cacao antioquia;necocli madera antioquia,PN19,JUAN JOSE,MARTINEZ BOLAÑO,Cedula,1068585472,,,,Contrato fijo,,,Quincenal,439000,,,OPERARIO AGRICOLA,,,,BANCO,BANCOLOMBIA,Cuenta de ahorros,,,,,
Agricola El Poleo,necocli cacao antioquia;necocli madera antioquia,PN6,DIONICIO ALBERTO,CORRALES ESPITIA,Cedula,10997659,,,,Contrato fijo,,,Quincenal,439000,,,OPERARIO AGRICOLA,,,,BANCO,BANCOLOMBIA,Cuenta de ahorros,,,,,
Agricola El Poleo,necocli cacao antioquia;necocli madera antioquia,PN39,PEDRO PABLO,PACHECO MENDOZA,Cedula,78753875,,,,Contrato fijo,,,Quincenal,439000,,,OPERARIO AGRICOLA,,,,BANCO,BANCOLOMBIA,Cuenta de ahorros,,,,,
Agricola El Poleo,necocli cacao antioquia;necocli madera antioquia,PN278,MIGUEL,REGINO TRIANA,Cedula,8169049,,,,Contrato fijo,,,Quincenal,439000,,,OPERARIO AGRICOLA,,,,BANCO,BANCOLOMBIA,Cuenta de ahorros,,,,,
Agricola El Poleo,necocli cacao antioquia;necocli madera antioquia,PN21,NELSON ENRIQUE,MARTINEZ ESPITIA,Cedula,1039091043,,,,Contrato fijo,,,Quincenal,439000,,,OPERARIO AGRICOLA,,,,BANCO,BANCOLOMBIA,Cuenta de ahorros,,,,,
Agricola El Poleo,necocli cacao antioquia;necocli madera antioquia,PN43,GABRIEL DARIO,GONZALEZ GONZALEZ,Cedula,70524729,,,,Contrato fijo,,,Quincenal,439000,,,OPERARIO AGRICOLA,,,,BANCO,BANCOLOMBIA,Cuenta de ahorros,,,,,
Agricola El Poleo,necocli cacao antioquia;necocli madera antioquia,PN46,JOSE ANDRES,GENEY PALENCIA,Cedula,1039094743,,,,Contrato fijo,,,Quincenal,439000,,,OPERARIO AGRICOLA,,,,BANCO,BANCOLOMBIA,Cuenta de ahorros,,,,,
Agricola El Poleo,necocli cacao antioquia;necocli madera antioquia,PN9,JOSE FRANCISCO,GUERRA PACHECO,Cedula,98613478,,,,Contrato fijo,,,Quincenal,439000,,,OPERARIO AGRICOLA,,,,BANCO,BANCOLOMBIA,Cuenta de ahorros,,,,,
Agricola El Poleo,necocli cacao antioquia;necocli madera antioquia,PN94,JARLON ESTIL,PAEZ GAVIRIA,Cedula,1068583766,,,,Contrato fijo,,,Quincenal,439000,,,OPERARIO AGRICOLA,,,,BANCO,BANCOLOMBIA,Cuenta de ahorros,,,,,
Agricola El Poleo,necocli cacao antioquia;necocli madera antioquia,PN15,PEDRO PABLO,MADRID LOPEZ,Cedula,1001590934,,,,Contrato fijo,,,Quincenal,439000,,,OPERARIO AGRICOLA,,,,BANCO,BANCOLOMBIA,Cuenta de ahorros,,,,,
Agricola El Poleo,necocli cacao antioquia;necocli madera antioquia,PN312,JUAN FRANCISCO,DIAZ MOGOLLON,Cedula,1039084317,,,,Contrato fijo,,,Quincenal,439000,,,OPERARIO AGRICOLA,,,,BANCO,BANCOLOMBIA,Cuenta de ahorros,,,,,
Agricola El Poleo,necocli cacao antioquia;necocli madera antioquia,PN315,EMIRONEL,NEGRETE CALLE,Cedula,8189121,,,,Contrato fijo,,,Quincenal,439000,,,OPERARIO AGRICOLA,,,,BANCO,BANCOLOMBIA,Cuenta de ahorros,,,,,
Agricola El Poleo,necocli cacao antioquia;necocli madera antioquia,PN61,OSDIVER,FLOREZ MENDOZA,Cedula,1001596326,,,,Contrato fijo,,,Quincenal,439000,,,OPERARIO AGRICOLA,,,,BANCO,BANCOLOMBIA,Cuenta de ahorros,,,,,
Agricola El Poleo,necocli cacao antioquia;necocli madera antioquia,PN329,LUIS CARLOS,YANEZ VALETA,Cedula,1003139828,,,,Contrato fijo,,,Quincenal,439000,,,OPERARIO AGRICOLA,,,,BANCO,BANCOLOMBIA,Cuenta de ahorros,,,,,
Agricola El Poleo,necocli cacao antioquia;necocli madera antioquia,PN356,WILMAR DUVAN,GARCES GUTIERREZ,Cedula,1027962655,,,,Contrato fijo,,,Quincenal,439000,,,OPERARIO AGRICOLA,,,,BANCO,BANCOLOMBIA,Cuenta de ahorros,,,,,
Agricola El Poleo,necocli cacao antioquia;necocli madera antioquia,PN59,MANUEL ANTONIO,PETRO JIMENEZ,Cedula,11166563,,,,Contrato fijo,,,Quincenal,439000,,,OPERARIO AGRICOLA,,,,BANCO,BANCOLOMBIA,Cuenta de ahorros,,,,,
Agricola El Poleo,necocli cacao antioquia;necocli madera antioquia,PN40,ELEANDRO,REGINO PATERNINA,Cedula,98600039,,,,Contrato fijo,,,Quincenal,439000,,,OPERARIO AGRICOLA,,,,BANCO,BANCOLOMBIA,Cuenta de ahorros,,,,,
Agricola El Poleo,necocli cacao antioquia;necocli madera antioquia,PN41,BREINER JAVIER,PEREZ HERNANDEZ,Cedula,1039080431,,,,Contrato fijo,,,Quincenal,439000,,,OPERARIO AGRICOLA,,,,BANCO,BANCOLOMBIA,Cuenta de ahorros,,,,,
Agricola El Poleo,necocli cacao antioquia;necocli madera antioquia,PN258,MALBEIRO ENRIQUE,REGINO HOYOS,Cedula,8167415,,,,Contrato fijo,,,Quincenal,439000,,,OPERARIO AGRICOLA,,,,BANCO,BANCOLOMBIA,Cuenta de ahorros,,,,,
Agricola El Poleo,necocli cacao antioquia;necocli madera antioquia,PN181,CARLOS MARIO,PEINADO BERNA,Cedula,8439808,,,,Contrato fijo,,,Quincenal,439000,,,OPERARIO AGRICOLA,,,,BANCO,BANCOLOMBIA,Cuenta de ahorros,,,,,
Agricola El Poleo,necocli cacao antioquia;necocli madera antioquia,PN273,JORGE ELIECER,CASTILLO MONTIEL,Cedula,1039083301,,,,Contrato fijo,,,Quincenal,439000,,,OPERARIO AGRICOLA,,,,BANCO,BANCOLOMBIA,Cuenta de ahorros,,,,,
Agricola El Poleo,necocli cacao antioquia;necocli madera antioquia,PN280,WILSON MANUEL,LLORENTE TORRES,Cedula,8167734,,,,Contrato fijo,,,Quincenal,439000,,,OPERARIO AGRICOLA,,,,BANCO,BANCOLOMBIA,Cuenta de ahorros,,,,,
Agricola El Poleo,necocli cacao antioquia;necocli madera antioquia,PN30,WILDER ENRIQUE,PEREZ HERNANDEZ,Cedula,1068585805,,,,Contrato fijo,,,Quincenal,439000,,,OPERARIO AGRICOLA,,,,BANCO,BANCOLOMBIA,Cuenta de ahorros,,,,,
Agricola El Poleo,necocli cacao antioquia;necocli madera antioquia,PN12,CANDIDO JOSUE,HOYOS MADERA,Cedula,1039089401,,,,Contrato fijo,,,Quincenal,439000,,,OPERARIO AGRICOLA,,,,BANCO,BANCOLOMBIA,Cuenta de ahorros,,,,,
Agricola El Poleo,necocli cacao antioquia;necocli madera antioquia,PN325,SAMUEL CIS,GOMEZ CHARIS,Cedula,1192742776,,,,Contrato fijo,,,Quincenal,439000,,,OPERARIO AGRICOLA,,,,BANCO,BANCOLOMBIA,Cuenta de ahorros,,,,,
Agricola El Poleo,necocli cacao antioquia;necocli madera antioquia,PN102,ANDRES MANUEL,ARGUMEDO MARTINEZ,Cedula,1001592316,,,,Contrato fijo,,,Quincenal,439000,,,OPERARIO AGRICOLA,,,,BANCO,BANCOLOMBIA,Cuenta de ahorros,,,,,
Agricola El Poleo,necocli cacao antioquia;necocli madera antioquia,PN298,DANIEL,GOMEZ ARGUMEDO,Cedula,1001592771,,,,Contrato fijo,,,Quincenal,439000,,,OPERARIO AGRICOLA,,,,BANCO,BANCOLOMBIA,Cuenta de ahorros,,,,,
Agricola El Poleo,necocli cacao antioquia;necocli madera antioquia,PN20,JAIDER LUIS,MARTINEZ ESPITIA,Cedula,11031882,,,,Contrato fijo,,,Quincenal,439000,,,OPERARIO AGRICOLA,,,,BANCO,BANCOLOMBIA,Cuenta de ahorros,,,,,
Agricola El Poleo,necocli cacao antioquia;necocli madera antioquia,PN93,JOSE DOMINGO,GALEANO TERAN,Cedula,1010126508,,,,Contrato fijo,,,Quincenal,439000,,,OPERARIO AGRICOLA,,,,BANCO,BANCOLOMBIA,Cuenta de ahorros,,,,,
Agricola El Poleo,necocli cacao antioquia;necocli madera antioquia,PN83,EDER MANUEL,PICO MERCADO,Cedula,8188993,,,,Contrato fijo,,,Quincenal,439000,,,OPERARIO AGRICOLA,,,,BANCO,BANCOLOMBIA,Cuenta de ahorros,,,,,
Agricola El Poleo,necocli cacao antioquia;necocli madera antioquia,PN304,JOSE MIGUEL,CHICA LOPEZ,Cedula,70529944,,,,Contrato fijo,,,Quincenal,439000,,,OPERARIO AGRICOLA,,,,BANCO,BANCOLOMBIA,Cuenta de ahorros,,,,,
Agricola El Poleo,necocli cacao antioquia;necocli madera antioquia,PN147,GILBERTO,RUIZ POLO ADOLFO,Cedula,1039083004,,,,Contrato fijo,,,Quincenal,439000,,,OPERARIO AGRICOLA,,,,BANCO,BANCOLOMBIA,Cuenta de ahorros,,,,,
Agricola El Poleo,necocli cacao antioquia;necocli madera antioquia,PN101,MARIO MANUEL,PEREZ HERNANDEZ,Cedula,71982058,,,,Contrato fijo,,,Quincenal,439000,,,OPERARIO AGRICOLA,,,,BANCO,BANCOLOMBIA,Cuenta de ahorros,,,,,
Agricola El Poleo,necocli cacao antioquia;necocli madera antioquia,PN364,EDUWIN,CASARRUBIA RAMOS,Cedula,1039088275,,,,Contrato fijo,,,Quincenal,439000,,,OPERARIO AGRICOLA,,,,BANCO,BANCOLOMBIA,Cuenta de ahorros,,,,,
Agricola El Poleo,necocli cacao antioquia;necocli madera antioquia,PN310,CLEMENTE,DIAZ SUAREZ,Cedula,1039089077,,,,Contrato fijo,,,Quincenal,439000,,,OPERARIO AGRICOLA,,,,BANCO,BANCOLOMBIA,Cuenta de ahorros,,,,,
Agricola El Poleo,necocli cacao antioquia;necocli madera antioquia,pN373,CELESTINO,REGINO PEREZ,Cedula,1193516940,,,,Contrato fijo,,,Quincenal,439000,,,OPERARIO AGRICOLA,,,,BANCO,BANCOLOMBIA,Cuenta de ahorros,,,,,
Agricola El Poleo,necocli cacao antioquia;necocli madera antioquia,PN274,OSNEIDER,HERRERA FRANCO,Cedula,1039100340,,,,Contrato fijo,,,Quincenal,439000,,,OPERARIO AGRICOLA,,,,BANCO,BANCOLOMBIA,Cuenta de ahorros,,,,,
Agricola El Poleo,necocli cacao antioquia;necocli madera antioquia,PN11,MANUEL,HERRERA PITALUA,Cedula,8168808,,,,Contrato fijo,,,Quincenal,439000,,,OPERARIO AGRICOLA,,,,BANCO,BANCOLOMBIA,Cuenta de ahorros,,,,,
Agricola El Poleo,necocli cacao antioquia;necocli madera antioquia,PN37,HERNAN,URANGO HERRERA,Cedula,71983906,,,,Contrato fijo,,,Quincenal,439000,,,OPERARIO AGRICOLA,,,,BANCO,BANCOLOMBIA,Cuenta de ahorros,,,,,
Agricola El Poleo,necocli cacao antioquia;necocli madera antioquia,PN146,SAMUEL,RAMOS WILCHES,Cedula,1001595537,,,,Contrato fijo,,,Quincenal,439000,,,OPERARIO AGRICOLA,,,,BANCO,BANCOLOMBIA,Cuenta de ahorros,,,,,
Agricola El Poleo,necocli cacao antioquia;necocli madera antioquia,PN88,MIGUEL,PEREZ HERNANDEZ,Cedula,71978254,,,,Contrato fijo,,,Quincenal,439000,,,OPERARIO AGRICOLA,,,,BANCO,BANCOLOMBIA,Cuenta de ahorros,,,,,
Agricola El Poleo,necocli cacao antioquia;necocli madera antioquia,PN331,TEOFILO,PEREZ LOPEZ,Cedula,98613422,,,,Contrato fijo,,,Quincenal,439000,,,OPERARIO AGRICOLA,,,,BANCO,BANCOLOMBIA,Cuenta de ahorros,,,,,
Agricola El Poleo,necocli cacao antioquia;necocli madera antioquia,PN403,EDILBERTO ANTONIO,ANDRADES MEDELLIN,Cedula,70527471,,,,Contrato fijo,,,Quincenal,439000,,,OPERARIO AGRICOLA,,,,BANCO,BANCOLOMBIA,Cuenta de ahorros,,,,,
Agricola El Poleo,necocli cacao antioquia;necocli madera antioquia,PN410,ALDAIR,NARVAEZ MARTINEZ,Cedula,1039089651,,,,Contrato fijo,,,Quincenal,439000,,,OPERARIO AGRICOLA,,,,BANCO,BANCOLOMBIA,Cuenta de ahorros,,,,,
Agricola El Poleo,necocli cacao antioquia;necocli madera antioquia,PN427,KERVIS,DIAZ TORREGLOSA,Cedula,1041262986,,,,Contrato fijo,,,Quincenal,439000,,,OPERARIO AGRICOLA,,,,BANCO,BANCOLOMBIA,Cuenta de ahorros,,,,,
Agricola El Poleo,necocli cacao antioquia;necocli madera antioquia,PN269,EDELDA LUZ,LOPEZ FUENTES,Cedula,32204095,,,,Contrato fijo,,,Quincenal,439000,,,OPERARIO AGRICOLA,,,,BANCO,BANCOLOMBIA,Cuenta de ahorros,,,,,
Agricola El Poleo,necocli cacao antioquia;necocli madera antioquia,PN71,UBALDO ENRIQUE,HOYOS PADILLA,Cedula,8188894,,,,Contrato fijo,,,Quincenal,439000,,,OPERARIO AGRICOLA,,,,BANCO,BANCOLOMBIA,Cuenta de ahorros,,,,,
Agricola El Poleo,necocli cacao antioquia;necocli madera antioquia,PN400,PATRICIA,CASTILLO MONTIEL,Cedula,1039093263,,,,Contrato fijo,,,Quincenal,439000,,,OPERARIO AGRICOLA,,,,BANCO,BANCOLOMBIA,Cuenta de ahorros,,,,,
Agricola El Poleo,necocli cacao antioquia;necocli madera antioquia,PN262,JEISON,AVILA CORREA,Cedula,1140880961,,,,Contrato fijo,,,Quincenal,439000,,,OPERARIO AGRICOLA,,,,BANCO,BANCOLOMBIA,Cuenta de ahorros,,,,,
Agricola El Poleo,necocli cacao antioquia;necocli madera antioquia,PN135,OSNAYDER,HOYOS PETRO,Cedula,1039089756,,,,Contrato fijo,,,Quincenal,439000,,,OPERARIO AGRICOLA,,,,BANCO,BANCOLOMBIA,Cuenta de ahorros,,,,,
Agricola El Poleo,necocli cacao antioquia;necocli madera antioquia,PN406,ANA MARCELA,DORIA VARGAS,Cedula,1064312416,,,,Contrato fijo,,,Quincenal,439000,,,OPERARIO AGRICOLA,,,,BANCO,BANCOLOMBIA,Cuenta de ahorros,,,,,
Agricola El Poleo,necocli cacao antioquia;necocli madera antioquia,PN363,JUAN GUILLERMO,MARTINEZ GOMEZ,Cedula,8168073,,,,Contrato fijo,,,Quincenal,439000,,,OPERARIO AGRICOLA,,,,BANCO,BANCOLOMBIA,Cuenta de ahorros,,,,,
Agricola El Poleo,necocli cacao antioquia;necocli madera antioquia,PN306,OVED DAVI,PICO COGOLLO,Cedula,1001593121,,,,Contrato fijo,,,Quincenal,439000,,,OPERARIO AGRICOLA,,,,BANCO,BANCOLOMBIA,Cuenta de ahorros,,,,,
Agricola El Poleo,necocli cacao antioquia;necocli madera antioquia,PN428,PEDRO,PEREZ CORDERO,Cedula,1001596581,,,,Contrato fijo,,,Quincenal,439000,,,OPERARIO AGRICOLA,,,,BANCO,BANCOLOMBIA,Cuenta de ahorros,,,,,
Agricola El Poleo,necocli cacao antioquia;necocli madera antioquia,PN301,LUIS FELIPE,REGINO PATERNINA,Cedula,8167057,,,,Contrato fijo,,,Quincenal,439000,,,OPERARIO AGRICOLA,,,,BANCO,BANCOLOMBIA,Cuenta de ahorros,,,,,
Agricola El Poleo,necocli cacao antioquia;necocli madera antioquia,PN106,EVER LUIS,ROMERO CASTILLO,Cedula,1039094563,,,,Contrato fijo,,,Quincenal,439000,,,OPERARIO AGRICOLA,,,,BANCO,BANCOLOMBIA,Cuenta de ahorros,,,,,
Agricola El Poleo,necocli cacao antioquia;necocli madera antioquia,PN384,LUZ EDITH,DE LA CRUZ CASTILLO,Cedula,1039082412,,,,Contrato fijo,,,Quincenal,439000,,,OPERARIO AGRICOLA,,,,BANCO,BANCOLOMBIA,Cuenta de ahorros,,,,,
Agricola El Poleo,necocli cacao antioquia;necocli madera antioquia,pN437,JAIME,LOBO DIAZ,Cedula,1039090179,,,,Contrato fijo,,,Quincenal,439000,,,OPERARIO AGRICOLA,,,,BANCO,BANCOLOMBIA,Cuenta de ahorros,,,,,
Agricola El Poleo,necocli cacao antioquia;necocli madera antioquia,pN438,LINEY,MARTINEZ SUAREZ,Cedula,1148944836,,,,Contrato fijo,,,Quincenal,439000,,,OPERARIO AGRICOLA,,,,BANCO,BANCOLOMBIA,Cuenta de ahorros,,,,,
Agricola El Poleo,necocli cacao antioquia;necocli madera antioquia,pN439,ADA LUZ,TALAIGUA CASTILLO,Cedula,1001589847,,,,Contrato fijo,,,Quincenal,439000,,,OPERARIO AGRICOLA,,,,BANCO,BANCOLOMBIA,Cuenta de ahorros,,,,,
Agricola El Poleo,necocli cacao antioquia;necocli madera antioquia,pN440,EMI LUZ,TALAIGUA CASTILLO,Cedula,32202307,,,,Contrato fijo,,,Quincenal,439000,,,OPERARIO AGRICOLA,,,,BANCO,BANCOLOMBIA,Cuenta de ahorros,,,,,
Agricola El Poleo,necocli cacao antioquia;necocli madera antioquia,pN441,ARMANDO FRANCISCO,NARVAEZ JIMENEZ,Cedula,1001590052,,,,Contrato fijo,,,Quincenal,439000,,,OPERARIO AGRICOLA,,,,BANCO,BANCOLOMBIA,Cuenta de ahorros,,,,,
Agricola El Poleo,necocli cacao antioquia;necocli madera antioquia,pN442,LUIS FERNANDO,GONZALEZ FUENTES,Cedula,8165874,,,,Contrato fijo,,,Quincenal,439000,,,OPERARIO AGRICOLA,,,,BANCO,BANCOLOMBIA,Cuenta de ahorros,,,,,
Agricola El Poleo,necocli cacao antioquia;necocli madera antioquia,pN443,ALEXANDER,GONZALEZ GOMEZ,Cedula,11032788,,,,Contrato fijo,,,Quincenal,439000,,,OPERARIO AGRICOLA,,,,BANCO,BANCOLOMBIA,Cuenta de ahorros,,,,,
Agricola El Poleo,necocli cacao antioquia;necocli madera antioquia,pN444,ADOLFO ANTONIO,ZAPATA CARDENAS,Cedula,1033371600,,,,Contrato fijo,,,Quincenal,439000,,,OPERARIO AGRICOLA,,,,BANCO,BANCOLOMBIA,Cuenta de ahorros,,,,,
Agricola El Poleo,necocli cacao antioquia;necocli madera antioquia,pN445,YEISON ENRIQUE,FLOREZ MONTERO,Cedula,1063168747,,,,Contrato fijo,,,Quincenal,439000,,,OPERARIO AGRICOLA,,,,BANCO,BANCOLOMBIA,Cuenta de ahorros,,,,,
Agricola El Poleo,necocli cacao antioquia;necocli madera antioquia,PN281,ALVARO LUIS,PEINADO PACHECO,Cedula,8328802,,,,Contrato fijo,,,Quincenal,439000,,,OPERARIO AGRICOLA,,,,BANCO,BANCOLOMBIA,Cuenta de ahorros,,,,,
Agricola El Poleo,necocli cacao antioquia;necocli madera antioquia,PN446,JUAN SEBASTIAN,ARCILA JIMENEZ,Cedula,1007843647,,,,Contrato fijo,,,Quincenal,439000,,,OPERARIO AGRICOLA,,,,BANCO,BANCOLOMBIA,Cuenta de ahorros,,,,,
Agricola El Poleo,necocli cacao antioquia;necocli madera antioquia,PN161,ADER DARIO,HERNANDEZ LOPEZ,Cedula,8167218,,,,Contrato fijo,,,Quincenal,439000,,,OPERARIO AGRICOLA,,,,BANCO,BANCOLOMBIA,Cuenta de ahorros,,,,,
Agricola El Poleo,necocli cacao antioquia;necocli madera antioquia,PN144,VERONICA,PACHECO HOYOS,Cedula,1039094393,,,,Contrato fijo,,,Quincenal,439000,,,OPERARIO AGRICOLA,,,,BANCO,BANCOLOMBIA,Cuenta de ahorros,,,,,
Agricola El Poleo,necocli cacao antioquia;necocli madera antioquia,PN123,IVAN DARIO,MEDINA GONZALEZ,Cedula,1039100111,,,,Contrato fijo,,,Quincenal,439000,,,OPERARIO AGRICOLA,,,,BANCO,BANCOLOMBIA,Cuenta de ahorros,,,,,
Agricola El Poleo,necocli cacao antioquia;necocli madera antioquia,PN104,RUDECINDO ANTONIO,MARTINEZ ESPITIA,Cedula,1133795644,,,,Contrato fijo,,,Quincenal,439000,,,OPERARIO AGRICOLA,,,,BANCO,BANCOLOMBIA,Cuenta de ahorros,,,,,
Agricola El Poleo,necocli cacao antioquia;necocli madera antioquia,PN447,CARLOS MARIO,ORTIZ LICONA,Cedula,1039082604,,,,Contrato fijo,,,Quincenal,439000,,,OPERARIO AGRICOLA,,,,BANCO,BANCOLOMBIA,Cuenta de ahorros,,,,,
Agricola El Poleo,necocli cacao antioquia;necocli madera antioquia,PN64,JUAN MANUEL,RUIZ DURANGO,Cedula,1039078074,,,,Contrato fijo,,,Quincenal,439000,,,OPERARIO AGRICOLA,,,,BANCO,BANCOLOMBIA,Cuenta de ahorros,,,,,
Agricola El Poleo,necocli cacao antioquia;necocli madera antioquia,PN374,EDUAR,GONZALEZ GONZALEZ,Cedula,1001593147,,,,Contrato fijo,,,Quincenal,439000,,,OPERARIO AGRICOLA,,,,BANCO,BANCOLOMBIA,Cuenta de ahorros,,,,,
Agricola El Poleo,necocli cacao antioquia;necocli madera antioquia,PN249,LEINER,CORREA VASQUEZ,Cedula,1001591888,,,,Contrato fijo,,,Quincenal,439000,,,OPERARIO AGRICOLA,,,,BANCO,BANCOLOMBIA,Cuenta de ahorros,,,,,
Agricola El Poleo,necocli cacao antioquia;necocli madera antioquia,PN344,CARLOS ENRIQUE,TUBERQUIA RAMOS,Cedula,1040375177,,,,Contrato fijo,,,Quincenal,439000,,,OPERARIO AGRICOLA,,,,BANCO,BANCOLOMBIA,Cuenta de ahorros,,,,,
Agricola El Poleo,necocli cacao antioquia;necocli madera antioquia,PN195,JHON ORSULA,HERNANDEZ JIMENEZ,Cedula,10999476,,,,Contrato fijo,,,Quincenal,439000,,,OPERARIO AGRICOLA,,,,BANCO,BANCOLOMBIA,Cuenta de ahorros,,,,,
Agricola El Poleo,necocli cacao antioquia;necocli madera antioquia,PN448,MARCIANO ELISEO,TORDECILLA HOYOS,Cedula,78698335,,,,Contrato fijo,,,Quincenal,439000,,,OPERARIO AGRICOLA,,,,BANCO,BANCOLOMBIA,Cuenta de ahorros,,,,,
Agricola El Poleo,necocli cacao antioquia;necocli madera antioquia,PN449,JOSE MIGUEL,CUADRADO MEDRANO,Cedula,1001593490,,,,Contrato fijo,,,Quincenal,439000,,,OPERARIO AGRICOLA,,,,BANCO,BANCOLOMBIA,Cuenta de ahorros,,,,,
Agricola El Poleo,necocli cacao antioquia;necocli madera antioquia,PN282,OLBIS ANTONIO,HERNANDEZ GARCES,Cedula,1039083092,,,,Contrato fijo,,,Quincenal,439000,,,OPERARIO AGRICOLA,,,,BANCO,BANCOLOMBIA,Cuenta de ahorros,,,,,
Agricola El Poleo,necocli cacao antioquia;necocli madera antioquia,PN326,GUILLERMO ANTONIO,HERNANDEZ LOPEZ,Cedula,8168929,,,,Contrato fijo,,,Quincenal,439000,,,OPERARIO AGRICOLA,,,,BANCO,BANCOLOMBIA,Cuenta de ahorros,,,,,
Agricola El Poleo,necocli cacao antioquia;necocli madera antioquia,PN284,ELVIS DUVAN,OLEA NUÑEZ,Cedula,1003503245,,,,Contrato fijo,,,Quincenal,439000,,,OPERARIO AGRICOLA,,,,BANCO,BANCOLOMBIA,Cuenta de ahorros,,,,,
Agricola El Poleo,necocli cacao antioquia;necocli madera antioquia,PN57,JAVIER DAVID,HOYOS PADILLA,Cedula,1039086881,,,,Contrato fijo,,,Quincenal,439000,,,OPERARIO AGRICOLA,,,,BANCO,BANCOLOMBIA,Cuenta de ahorros,,,,,
Agricola El Poleo,necocli cacao antioquia;necocli madera antioquia,PN14,JOSE HIGINIO,HOYOS PADILLA,Cedula,8165827,,,,Contrato fijo,,,Quincenal,439000,,,OPERARIO AGRICOLA,,,,BANCO,BANCOLOMBIA,Cuenta de ahorros,,,,,
Agricola El Poleo,necocli cacao antioquia;necocli madera antioquia,PN450,CARLOS ENRIQUE,PEÑA MADERA,Cedula,1039082554,,,,Contrato fijo,,,Quincenal,439000,,,OPERARIO AGRICOLA,,,,BANCO,BANCOLOMBIA,Cuenta de ahorros,,,,,
Agricola El Poleo,necocli cacao antioquia;necocli madera antioquia,PN452,JOSE LEAL,POLO MARTINEZ,Cedula,8438672,,,,Contrato fijo,,,Quincenal,439000,,,OPERARIO AGRICOLA,,,,BANCO,BANCOLOMBIA,Cuenta de ahorros,,,,,
Agricola El Poleo,necocli cacao antioquia;necocli madera antioquia,PN454,YAN CARLOS,HERRERA ROBLES,Cedula,1127659124,,,,Contrato fijo,,,Quincenal,439000,,,OPERARIO AGRICOLA,,,,BANCO,BANCOLOMBIA,Cuenta de ahorros,,,,,
Agricola El Poleo,necocli cacao antioquia;necocli madera antioquia,PN455,FABER ENRIQUE,ROMERO VILORIA,Cedula,1066508198,,,,Contrato fijo,,,Quincenal,439000,,,OPERARIO AGRICOLA,,,,BANCO,BANCOLOMBIA,Cuenta de ahorros,,,,,
Agricola El Poleo,necocli cacao antioquia;necocli madera antioquia,PN456,ANDY JAIR,ESPITIA MACEA,Cedula,1067849143,,,,Contrato fijo,,,Quincenal,439000,,,OPERARIO AGRICOLA,,,,BANCO,BANCOLOMBIA,Cuenta de ahorros,,,,,
Agricola El Poleo,necocli cacao antioquia;necocli madera antioquia,PN457,JESUS DAVID,PACHECO REYES,Cedula,8168838,,,,Contrato fijo,,,Quincenal,439000,,,OPERARIO AGRICOLA,,,,BANCO,BANCOLOMBIA,Cuenta de ahorros,,,,,
Agricola El Poleo,necocli cacao antioquia;necocli madera antioquia,PN459,ANGEL,REGINO PATERNINA,Cedula,8168258,,,,Contrato fijo,,,Quincenal,439000,,,OPERARIO AGRICOLA,,,,BANCO,BANCOLOMBIA,Cuenta de ahorros,,,,,
Agricola El Poleo,necocli cacao antioquia;necocli madera antioquia,PN461,HEBERTO JOSE,MARTINEZ DIAZ,Cedula,70530294,,,,Contrato fijo,,,Quincenal,439000,,,OPERARIO AGRICOLA,,,,BANCO,BANCOLOMBIA,Cuenta de ahorros,,,,,
Agricola El Poleo,necocli cacao antioquia;necocli madera antioquia,PN462,HECTOR,LOZANO CACERES,Cedula,70530267,,,,Contrato fijo,,,Quincenal,439000,,,OPERARIO AGRICOLA,,,,BANCO,BANCOLOMBIA,Cuenta de ahorros,,,,,
Agricola El Poleo,necocli cacao antioquia;necocli madera antioquia,PN24,MIGUEL ANTONIO,MARTINEZ ROMERO,Cedula,1068577193,,,,Contrato fijo,,,Quincenal,439000,,,OPERARIO AGRICOLA,,,,BANCO,BANCOLOMBIA,Cuenta de ahorros,,,,,
Agricola El Poleo,necocli cacao antioquia;necocli madera antioquia,PN109,CESAR AUGUSTO,CALDERIN ROQUEME,Cedula,1131939093,,,,Contrato fijo,,,Quincenal,439000,,,OPERARIO AGRICOLA,,,,BANCO,BANCOLOMBIA,Cuenta de ahorros,,,,,
Agricola El Poleo,necocli cacao antioquia;necocli madera antioquia,PN78,JOSE DANIEL,GOMEZ GONZALEZ,Cedula,1063164666,,,,Contrato fijo,,,Quincenal,439000,,,OPERARIO AGRICOLA,,,,BANCO,BANCOLOMBIA,Cuenta de ahorros,,,,,
Agricola El Poleo,necocli cacao antioquia;necocli madera antioquia,PN279,EDILBERTO DE JESUS,GUERRA LLORENTE,Cedula,1045495551,,,,Contrato fijo,,,Quincenal,439000,,,OPERARIO AGRICOLA,,,,BANCO,BANCOLOMBIA,Cuenta de ahorros,,,,,
Agricola El Poleo,necocli cacao antioquia;necocli madera antioquia,PN458,AGUIR ANTONIO,VARGAS RAMOS,Cedula,1033367339,,,,Contrato fijo,,,Quincenal,439000,,,OPERARIO AGRICOLA,,,,BANCO,BANCOLOMBIA,Cuenta de ahorros,,,,,
Agricola El Poleo,necocli cacao antioquia;necocli madera antioquia,PN365,EDGAR,RODRIGUEZ VARILLA,Cedula,1003401502,,,,Contrato fijo,,,Quincenal,439000,,,OPERARIO AGRICOLA,,,,BANCO,BANCOLOMBIA,Cuenta de ahorros,,,,,
Agricola El Poleo,necocli cacao antioquia;necocli madera antioquia,PN283,RAFAEL ANTONIO,ACOSTA FUENTES,Cedula,1039078065,,,,Contrato fijo,,,Quincenal,439000,,,OPERARIO AGRICOLA,,,,BANCO,BANCOLOMBIA,Cuenta de ahorros,,,,,
Agricola El Poleo,necocli cacao antioquia;necocli madera antioquia,PN362,ENRIQUE,CORREA VASQUEZ MEDARDO,Cedula,1001599729,,,,Contrato fijo,,,Quincenal,439000,,,OPERARIO AGRICOLA,,,,BANCO,BANCOLOMBIA,Cuenta de ahorros,,,,,
Agricola El Poleo,necocli cacao antioquia;necocli madera antioquia,PN157,JULIO DOMINGO,MARTINEZ RAMOS,Cedula,1039082263,,,,Contrato fijo,,,Quincenal,439000,,,OPERARIO AGRICOLA,,,,BANCO,BANCOLOMBIA,Cuenta de ahorros,,,,,
Agricola El Poleo,necocli cacao antioquia;necocli madera antioquia,PN27,BERLYS,PEINADO GOMEZ,Cedula,1039081550,,,,Contrato fijo,,,Quincenal,439000,,,OPERARIO AGRICOLA,,,,BANCO,BANCOLOMBIA,Cuenta de ahorros,,,,,
Agricola El Poleo,necocli cacao antioquia;necocli madera antioquia,PN463,SAMUEL,VARGAS BAEZ,Cedula,91047733,,,,Contrato fijo,,,Quincenal,439000,,,OPERARIO AGRICOLA,,,,BANCO,BANCOLOMBIA,Cuenta de ahorros,,,,,
Agricola El Poleo,necocli cacao antioquia;necocli madera antioquia,PN464,OSCAR ALBEIRO,LUNA VARGAS,Cedula,1102722087,,,,Contrato fijo,,,Quincenal,439000,,,OPERARIO AGRICOLA,,,,BANCO,BANCOLOMBIA,Cuenta de ahorros,,,,,
Agricola El Poleo,necocli cacao antioquia;necocli madera antioquia,PN85,JUAN CARLOS,MARQUEZ NARVAEZ,Cedula,1001595148,,,,Contrato fijo,,,Quincenal,439000,,,OPERARIO AGRICOLA,,,,BANCO,BANCOLOMBIA,Cuenta de ahorros,,,,,
Agricola El Poleo,necocli cacao antioquia;necocli madera antioquia,PN65,PEDRO LUIS,ANAYA MIRANDA,Cedula,1001597360,,,,Contrato fijo,,,Quincenal,439000,,,OPERARIO AGRICOLA,,,,BANCO,BANCOLOMBIA,Cuenta de ahorros,,,,,
Agricola El Poleo,necocli cacao antioquia;necocli madera antioquia,PN390,LESQUI,PEINADO GOMEZ,Cedula,1039078320,,,,Contrato fijo,,,Quincenal,439000,,,OPERARIO AGRICOLA,,,,BANCO,BANCOLOMBIA,Cuenta de ahorros,,,,,
Agricola El Poleo,necocli cacao antioquia;necocli madera antioquia,PN197,EVER LUIS,ACOSTA FUENTES,Cedula,1039095506,,,,Contrato fijo,,,Quincenal,439000,,,OPERARIO AGRICOLA,,,,BANCO,BANCOLOMBIA,Cuenta de ahorros,,,,,
Agricola El Poleo,necocli cacao antioquia;necocli madera antioquia,PN257,JHOINER ANDRES,CORREA TIRADO,Cedula,1039098209,,,,Contrato fijo,,,Quincenal,439000,,,OPERARIO AGRICOLA,,,,BANCO,BANCOLOMBIA,Cuenta de ahorros,,,,,
Agricola El Poleo,necocli cacao antioquia;necocli madera antioquia,PN465,JEAN CARLOS,NEGRETTE GUERRA,Cedula,1045527270,,,,Contrato fijo,,,Quincenal,439000,,,OPERARIO AGRICOLA,,,,BANCO,BANCOLOMBIA,Cuenta de ahorros,,,,,
Agricola El Poleo,necocli cacao antioquia;necocli madera antioquia,PN466,CESAR ADOLFO,BELTRAN VELASQUEZ,Cedula,1068809662,,,,Contrato fijo,,,Quincenal,439000,,,OPERARIO AGRICOLA,,,,BANCO,BANCOLOMBIA,Cuenta de ahorros,,,,,
Agricola El Poleo,necocli cacao antioquia;necocli madera antioquia,PN467,CESAR LUIS,PEÑAFIEL PEÑA,Cedula,1193580931,,,,Contrato fijo,,,Quincenal,439000,,,OPERARIO AGRICOLA,,,,BANCO,BANCOLOMBIA,Cuenta de ahorros,,,,,
Agricola El Poleo,necocli cacao antioquia;necocli madera antioquia,PN468,DIANA PATRICIA,MADRID GARCIA,Cedula,39158100,,,,Contrato fijo,,,Quincenal,439000,,,OPERARIO AGRICOLA,,,,BANCO,BANCOLOMBIA,Cuenta de ahorros,,,,,
Agricola El Poleo,necocli cacao antioquia;necocli madera antioquia,PN469,ELIAS JOSE,RUIZ NISPERUZA,Cedula,8168401,,,,Contrato fijo,,,Quincenal,439000,,,OPERARIO AGRICOLA,,,,BANCO,BANCOLOMBIA,Cuenta de ahorros,,,,,
Agricola El Poleo,necocli cacao antioquia;necocli madera antioquia,PN470,JOSE ELIAS,PADRON SALGADO,Cedula,98596334,,,,Contrato fijo,,,Quincenal,439000,,,OPERARIO AGRICOLA,,,,BANCO,BANCOLOMBIA,Cuenta de ahorros,,,,,
Agricola El Poleo,necocli cacao antioquia;necocli madera antioquia,PN471,ELVIS,CUADRADO CORREA,Cedula,1001595617,,,,Contrato fijo,,,Quincenal,439000,,,OPERARIO AGRICOLA,,,,BANCO,BANCOLOMBIA,Cuenta de ahorros,,,,,
Agricola El Poleo,necocli cacao antioquia;necocli madera antioquia,PN472,EDARDO,ESTRADA NISPERUZA,Cedula,1007562740,,,,Contrato fijo,,,Quincenal,439000,,,OPERARIO AGRICOLA,,,,BANCO,BANCOLOMBIA,Cuenta de ahorros,,,,,
Agricola El Poleo,necocli cacao antioquia;necocli madera antioquia,PN473,CRISTIAN CAMILO,CHARRASQUIEL HERNANDEZ,Cedula,1028018276,,,,Contrato fijo,,,Quincenal,439000,,,OPERARIO AGRICOLA,,,,BANCO,BANCOLOMBIA,Cuenta de ahorros,,,,,
Agricola El Poleo,necocli cacao antioquia;necocli madera antioquia,PN474,PEDRO MANUEL,GOMEZ ANAYA,Cedula,1039089412,,,,Contrato fijo,,,Quincenal,439000,,,OPERARIO AGRICOLA,,,,BANCO,BANCOLOMBIA,Cuenta de ahorros,,,,,
Agricola El Poleo,necocli cacao antioquia;necocli madera antioquia,PN475,CARLOS ANDRES,MERCADO GUEVARA,Cedula,1039095151,,,,Contrato fijo,,,Quincenal,439000,,,OPERARIO AGRICOLA,,,,BANCO,BANCOLOMBIA,Cuenta de ahorros,,,,,
Agricola El Poleo,necocli cacao antioquia;necocli madera antioquia,PN359,MARUN ENRIQUE,GONZALEZ ARRIETA,Cedula,1039082735,,,,Contrato fijo,,,Quincenal,439000,,,OPERARIO AGRICOLA,,,,BANCO,BANCOLOMBIA,Cuenta de ahorros,,,,,
Agricola El Poleo,necocli cacao antioquia;necocli madera antioquia,PN287,JUAN DAVID,CADAVID SANCHEZ,Cedula,1039086737,,,,Contrato fijo,,,Quincenal,439000,,,OPERARIO AGRICOLA,,,,BANCO,BANCOLOMBIA,Cuenta de ahorros,,,,,
Agricola El Poleo,necocli cacao antioquia;necocli madera antioquia,PN477,ARLOBYS,MONTES PEÑA,Cedula,1001590714,,,,Contrato fijo,,,Quincenal,439000,,,OPERARIO AGRICOLA,,,,BANCO,BANCOLOMBIA,Cuenta de ahorros,,,,,
Agricola El Poleo,necocli cacao antioquia;necocli madera antioquia,PN478,CRISTIAN CAMILO,MEDINA MELENDEZ,Cedula,1039088684,,,,Contrato fijo,,,Quincenal,439000,,,OPERARIO AGRICOLA,,,,BANCO,BANCOLOMBIA,Cuenta de ahorros,,,,,
Agricola El Poleo,necocli cacao antioquia;necocli madera antioquia,PN479,ANDELFO,CACERES ZARATE,Cedula,91045787,,,,Contrato fijo,,,Quincenal,439000,,,OPERARIO AGRICOLA,,,,BANCO,BANCOLOMBIA,Cuenta de ahorros,,,,,
Agricola El Poleo,necocli cacao antioquia;necocli madera antioquia,PN480,ALVARO,VERA CASTRO,Cedula,1024540656,,,,Contrato fijo,,,Quincenal,439000,,,OPERARIO AGRICOLA,,,,BANCO,BANCOLOMBIA,Cuenta de ahorros,,,,,
Agricola El Poleo,necocli cacao antioquia;necocli madera antioquia,PN210,JOSE DANIEL,PETRO MADERA,Cedula,1070807699,,,,Contrato fijo,,,Quincenal,439000,,,OPERARIO AGRICOLA,,,,BANCO,BANCOLOMBIA,Cuenta de ahorros,,,,,
Agricola El Poleo,necocli cacao antioquia;necocli madera antioquia,PN481,WILMER DE JASUS,MOGROVEJO FLOREZ,Cedula,1001588780,,,,Contrato fijo,,,Quincenal,439000,,,OPERARIO AGRICOLA,,,,BANCO,BANCOLOMBIA,Cuenta de ahorros,,,,,
Agricola El Poleo,necocli cacao antioquia;necocli madera antioquia,PN482,LUIS FERNANDO,VARGAS AGAMEZ,Cedula,1007465444,,,,Contrato fijo,,,Quincenal,439000,,,OPERARIO AGRICOLA,,,,BANCO,BANCOLOMBIA,Cuenta de ahorros,,,,,
Agricola El Poleo,necocli cacao antioquia;necocli madera antioquia,PN483,ALEXANDER,GARCIA SOLANO,Cedula,1192742777,,,,Contrato fijo,,,Quincenal,439000,,,OPERARIO AGRICOLA,,,,BANCO,BANCOLOMBIA,Cuenta de ahorros,,,,,
Agricola El Poleo,necocli cacao antioquia;necocli madera antioquia,PN484,HAROLAN DAVID,RUIZ OROZCO,Cedula,1193569945,,,,Contrato fijo,,,Quincenal,439000,,,OPERARIO AGRICOLA,,,,BANCO,BANCOLOMBIA,Cuenta de ahorros,,,,,
Agricola El Poleo,necocli cacao antioquia;necocli madera antioquia,PN485,JULIO CESAR,MARTINEZ VERTEL,Cedula,1039084568,,,,Contrato fijo,,,Quincenal,439000,,,OPERARIO AGRICOLA,,,,BANCO,BANCOLOMBIA,Cuenta de ahorros,,,,,
