﻿puc,name,description,certifications,type,category,inputmeasure,sku,activeIngredients,pc,pr,water
142801,Agropunto - AMINEX 720 SL - AGROSER SA-1 litro,Herbicida hormonal post emergente selectivo para el control de malezas de hojas anchas en los cultivos de maíz caña de azúcar y potreros Su efecto generalmente comienza a evidenciarse a los 3-4 días después de la aplicación,II - Moderadamente Peligroso (Etiqueta amarilla),Consumibles,Herbicida,lts,,Ácido 2-4 – Dicloro Fenoxi Acético En forma de sal dimetilamina;,15,0,true
142801,Provecampo - CERRERO 200 SL - ADAMA-20 litros,Herbicida no selectivo de contacto absorbido desde el follaje con translocación moderada en el xilema Actúa sobre las partes verdes de las plantas no daña la corteza madura y se inactiva inmediatamente al contacto con el suelo,II - Moderadamente Peligroso (Etiqueta amarilla),Consumibles,Herbicida,lts,LH011420,Paraquat;,0,12,true
142801,Agropunto - CIPERMETRINA 20 EC - UPL-1 litro,Insecticida piretroide de amplio espectro de acción sobre insectos lepidópteros coleópteros y hemípteros siendo un producto efectivo para el control de insectos defoliadores minadores y trips en una amplia gama de cultivos,II - Moderadamente Peligroso (Etiqueta amarilla),Consumibles,Insecticida,lts,,Cipermetrina;,7,24,true
142801,Agropunto - DITHANE FMB – DOW AGROSCIENCES-1 litro,Fungicida de contacto de amplio espectro con bajo riesgo de resistencia en formulación floable y con un contenido de aceites vegetales y minerales que le brindan mayor adherencia y distribución en la planta,III - Ligeramente Peligroso (IV - Ligeramente tóxico - Etiqueta verde),Consumibles,Funguisida,lts,,Mancozeb;,0,24,true
142801,Agropunto - DIURON 80 SC - AGROCENTRO-1 litro,herbicida sistémico selectivo para el control de malezas de hoja ancha y gramíneas Aplicado en pre-emergencia actúa al ser absorbido profundamente por las raíces de las áreas de las plantas por el xilema e inhibiendo la acción de la fotosíntesis El producto es de amplio espectro y residualidad prolongada por el control selectivo de malezas,III - Ligeramente Peligroso (IV - Ligeramente tóxico - Etiqueta verde),Consumibles,Herbicida,lts,31e5a2903483,Diuron;,0,24,true
142801,Agropunto - DIURON 80 SC - AGROCENTRO-20 litros,herbicida sistémico selectivo para el control de malezas de hoja ancha y gramíneas Aplicado en pre-emergencia actúa al ser absorbido profundamente por las raíces de las áreas de las plantas por el xilema e inhibiendo la acción de la fotosíntesis El producto es de amplio espectro y residualidad prolongada por el control selectivo de malezas,III - Ligeramente Peligroso (IV - Ligeramente tóxico - Etiqueta verde),Consumibles,Herbicida,lts,31e5a2903483,Diuron;,0,24,true
142801,Provecampo - DIVINO 250 EC - ADAMA-1 litro,Fungisida sistémico a base de difeconazole para uso preventivo y curativo Es rápidamente absorbido por la planta con translocación acropétala Detiene el crecimiento de las hifas y la formación de conidias,III - Ligeramente Peligroso (Etiqueta azul),Consumibles,Funguisida,lts,LF003331 ,Difenoconazol;,1,12,true
142801,Agropunto - DUNKA PARAQUAT 20SL-1 litro,Es un herbicida no selectivo de contacto post-emergente tiene acción particularmente sobre gramíneas anuales y maleza de hoja ancha Cuando las condiciones climáticas son cálidas y soleadas la actividad herbicida se observa en pocas horas Aplicar cuando las malezas no tengan más de 15 centímetros de altura o bien tengan de 3 a 4 hojas formadas,II - Moderadamente Peligroso (Etiqueta amarilla),Consumibles,Herbicida,lts,,Paraquat;,0,12,true
142801,Agropunto - DUNKA PARAQUAT 20SL-20 litros,Es un herbicida no selectivo de contacto post-emergente tiene acción particularmente sobre gramíneas anuales y maleza de hoja ancha Cuando las condiciones climáticas son cálidas y soleadas la actividad herbicida se observa en pocas horas Aplicar cuando las malezas no tengan más de 15 centímetros de altura o bien tengan de 3 a 4 hojas formadas,II - Moderadamente Peligroso (Etiqueta amarilla),Consumibles,Herbicida,lts,,Paraquat;,0,12,true
142801,Agropunto - ESKABEL 250 EC-1 litro,Fungisida sistémico a base de difeconazole para uso preventivo y curativo Es rápidamente absorbido por la planta con translocación acropétala Detiene el crecimiento de las hifas y la formación de conidias,II - Moderadamente Peligroso (Etiqueta amarilla),Consumibles,Funguisida,lts,,Difenoconazol;,7,12,true
142801,Agropunto - Fertilizante 11-5-33-3 (s) + 01 (zinc)-1 bulto,,,Consumibles,Fertilizante,kg,,Nitrógeno (N);Fósforo (P); Potasio (K); Azufre (S);Zinc (Zn);,0,0,false
142801,Agropunto - Fertilizante 33-8-65-25 (s) + 065 (zinc)-1 bulto,,,Consumibles,Fertilizante,kg,,Nitrógeno (N);Fósforo (P); Potasio (K); Azufre (S);Zinc (Zn);,0,0,false
142801,Agropunto - GLIFOSATO 480 SL - DEL MONTE-1 litro,Herbicida no selectivo de aplicación post-emergente y de acción sistémica recomendado para el control de la mayoría de las malezas anuales y perennes,III - Ligeramente Peligroso (Etiqueta azul),Consumibles,Herbicida,lts,,Glifosato-Isopropilamonio;,0,24,true
142801,Agropunto - GLIFOSATO 480 SL - DEL MONTE-20 litros,Herbicida no selectivo de aplicación post-emergente y de acción sistémica recomendado para el control de la mayoría de las malezas anuales y perennes,III - Ligeramente Peligroso (Etiqueta azul),Consumibles,Herbicida,lts,,Glifosato-Isopropilamonio;,0,24,true
142801,Agropunto - GLUFOSINATO DE AMONIO 200 SL – DVA-1 litro,herbicida no selectivo con acción postemergente sobre malezas de hoja ancha y gramíneas; no tiene actividad en el suelo Este herbicida causa clorosis en tres a cinco días que luego se transforma en necrosis de los tejidos de las plantas tratadas en una a dos semanas El Glufosinato tiene un transporte limitado dentro de la planta y su acción es básicamente de contacto Su mecanismo de acción es la inhibición de la enzima glutamina sintetiza en el metabolismo del nitrógeno Al bloquear esta enzima se acumula amoniaco en las plantas lo que destruye las membranas celulares,III - Ligeramente Peligroso (Etiqueta azul),Consumibles,Herbicida,lts,,Glufosinato de amonio;,0,4,true
142801,Agropunto - HORMONAGRO ANA - Colinagro-1 litro,Bioestimulante preventivo y correctivo de la caída prematura de botones flores y frutos no maduros Incrementa la producción hasta en un 25% al fortalecer el pedúnculo de las flores y frutos evitando pérdidas por vientos y lluvias,II - Moderadamente Peligroso (Etiqueta amarilla) (III - Medianamente tóxico),Consumibles,Regulador fisiológico,lts,,Ácido alfa-naftalenacético;,0,0,true
142801,Agropunto - IMIDACLOPRID 350 SC-DVA-1 litro,Insecticida sistémico de prolongado efecto residual que actúa por contacto e ingestión contra insectos chupadores Se absorbe por hojas y raíces translocándose por toda la planta Es un insecticida Neonicotinoide que actúa como agonista de los receptores de Acetilcolina causando interferencia con la transmisión de los impulsos nerviosos,II - Moderadamente Peligroso (Etiqueta amarilla),Consumibles,Insecticida,lts,,Imidacloprid;,15,4,true
142801,Agropunto - INIHION 50 EC - AGROSER SA-1 litro,Insecticida del grupo químico de los Organfosforados de amplio espectro con acción de ingestión y contacto Posee buen poder de penetración en los tejidos vegetales y es muy tolerado por las plantas,III - Ligeramente Peligroso (Etiqueta azul),Consumibles,Insecticida,lts,,Malathion;,7,4,true
142801,Agropunto - LEAL 960 EC - AGROSER SA-1 litro,Herbicida de aplicación pre siembra incorporada o en pre emergencia se absorbe principalmente a través del coleoptilo y/o hipocotilo de las plantas en la germinación Consecuentemente las plantas son eliminadas antes durante o después de la emergencia La absorción radicular es de menor importancia y mucho más lenta,II - Moderadamente Peligroso (Etiqueta amarilla),Consumibles,Herbicida,lts,,Metolachlor;,0,12,true
142801,Agropunto - OXICLORURO DE COBRE 588 % WP PD-FT-11 (0101) - AGRICENSE LTDA-1 litro,Fungicida preventivo eficaz para combatir un gran número de enfermedades criptógamas en diversos cultivos tales como: Frutales Papa Tomate Café Tabaco y Plátano,III - Ligeramente Peligroso (Etiqueta azul),Consumibles,Funguisida,kg,,Oxicloruro de cobre;,0,24,true
142801,Agropunto - PARAQUAT ALEMÁN 20 SL-1 litro,Es un herbicida no selectivo de contacto Los principales usos del Paraquat son: para todos los cultivos en presiembra en la etapa de adecuación del terreno En cultivos anuales sembrados en surcos se usa en post emergencias de una manera dirigida entre surcos (el producto no debe tocar el cultivo En cultivos perennes entre surcos siguiendo el programa de aplicaciones de acuerdo a los ciclos de lluvias y desarrollo de malezas,II - Moderadamente Peligroso (Etiqueta amarilla),Consumibles,Herbicida,lts,e9fa364135f6,Paraquat;,0,24,true
142801,Agropunto - PARAQUAT ALEMÁN 20 SL-20 litros,Es un herbicida no selectivo de contacto Los principales usos del Paraquat son: para todos los cultivos en presiembra en la etapa de adecuación del terreno En cultivos anuales sembrados en surcos se usa en post emergencias de una manera dirigida entre surcos (el producto no debe tocar el cultivo En cultivos perennes entre surcos siguiendo el programa de aplicaciones de acuerdo a los ciclos de lluvias y desarrollo de malezas,II - Moderadamente Peligroso (Etiqueta amarilla),Consumibles,Herbicida,lts,e9fa364135f6,Paraquat;,0,24,true
142801,Agropunto - RIMON DUO 100 SC - ADAMA-1 litro,Insecticida perteneciente a los grupos Benzofenil Ureas y Piretroides; el novaluroón actúa inhibiendo la síntesis de la quitina componente básico del exoesqueleto de los insectos y la bifentrina actúa sobre el sistema nervioso central; posee una prolongada acción residual Su uso está recomendado especialmente para el control de larvas fitófagas y de adultos de insectos masticadores en diferentes cultivos,II - Moderadamente Peligroso (Etiqueta amarilla),Consumibles,Insecticida,lts,,Novaluron; Bifentrina;,7,12,true
142801,Provecampo - RIMON DUO 100 SC - ADAMA-1 litro,Insecticida perteneciente a los grupos Benzofenil Ureas y Piretroides; el novaluroón actúa inhibiendo la síntesis de la quitina componente básico del exoesqueleto de los insectos y la bifentrina actúa sobre el sistema nervioso central; posee una prolongada acción residual Su uso está recomendado especialmente para el control de larvas fitófagas y de adultos de insectos masticadores en diferentes cultivos,II - Moderadamente Peligroso (Etiqueta amarilla),Consumibles,Insecticida,lts,LI225321,Novaluron; Bifentrina;,7,12,true
