﻿Lote Bloque Kmz;Campaña;Nucleo;Asociacion;Productor;CC NIT;Lote No;Hectareas Verificadas;Yuca
22_Agroflorez_2R_7,63Ha;2022 - 2023;Fernando Orrego;22 23 Independientes FO;Agroflorez;901585712-4;2;7,63;Regular
22_HermesNavarroH_1R_1,34Ha;2022 - 2023;Fernando Orrego;22 23 Independientes FO;Hermes Navarro De Hoyos;92.031.202;1;1,34;Regular
22_HermesNavarroH_2R_6,00Ha;2022 - 2023;Fernando Orrego;22 23 Independientes FO;Hermes Navarro De Hoyos;92.031.202;2;6;Regular
